2048
2044
2044
2044
2046
2046
2046
2046
2047
2047
2047
2045
2045
2045
2055
2055
2055
2043
2043
2043
2047
2047
2047
2047
2045
2045
2045
2041
2041
2041
2048
2048
2048
2044
2044
2044
2048
2048
2048
2048
2046
2046
2046
2046
2046
2046
2047
2047
2047
2045
2045
2045
2047
2047
2047
2047
2047
2047
2047
2047
2047
2047
2050
2050
2050
2041
2041
2041
2048
2048
2048
2048
2047
2047
2047
2043
2043
2043
2044
2044
2044
2045
2045
2049
2049
2045
2045
2045
2051
2051
2051
2051
2045
2045
2045
2042
2042
2042
2049
2049
2049
2038
2038
2038
2047
2047
2047
2047
2045
2045
2045
2046
2046
2046
2044
2044
2044
2047
2047
2047
2051
2051
2051
2051
2047
2047
2047
2043
2043
2043
2049
2049
2049
2043
2043
2043
2047
2047
2047
2047
2047
2047
2047
2042
2042
2042
2050
2050
2050
2045
2045
2045
2048
2048
2048
2048
2047
2047
2047
2045
2045
2045
2050
2050
2050
2048
2048
2048
2050
2050
2050
2050
2048
2048
2048
2037
2037
2037
2051
2051
2051
2043
2043
2043
2045
2045
2045
2045
2049
2049
2049
2044
2044
2044
2048
2048
2048
2044
2044
2044
2049
2049
2049
2049
2047
2047
2047
2043
2043
2043
2048
2048
2048
2045
2045
2045
2047
2047
2047
2047
2047
2047
2047
2051
2051
2051
2051
2051
2051
2044
2044
2044
2052
2052
2052
2052
2047
2047
2047
2043
2043
2043
2048
2048
2048
2047
2047
2047
2049
2049
2049
2049
2044
2044
2044
2045
2045
2045
2047
2047
2047
2045
2045
2045
2047
2047
2047
2047
2052
2052
2052
2052
2052
2052
2053
2053
2053
2040
2040
2040
2053
2053
2053
2053
2044
2044
2044
2044
2044
2044
2047
2047
2047
2045
2045
2045
2046
2046
2046
2046
2047
2047
2047
2044
2044
2044
2049
2049
2049
2044
2044
2044
2049
2049
2049
2049
2047
2047
2047
2041
2041
2041
2046
2046
2046
2044
2044
2044
2047
2047
2047
2047
2049
2049
2049
2044
2044
2044
2048
2048
2048
2044
2044
2044
2050
2050
2050
2050
2048
2048
2048
2046
2046
2046
2049
2049
2049
2045
2045
2045
2047
2047
2047
2047
2049
2049
2049
2044
2044
2044
2052
2052
2052
2045
2045
2045
2048
2048
2048
2048
2048
2048
2048
2043
2043
2043
2049
2049
2049
2044
2044
2044
2051
2051
2051
2051
2053
2053
2053
2042
2042
2042
2049
2049
2049
2044
2044
2044
2048
2048
2048
2048
2051
2051
2051
2042
2042
2042
2051
2051
2051
2044
2044
2044
2048
2048
2048
2048
2048
2048
2048
2043
2043
2043
2047
2047
2047
2046
2046
2046
2049
2049
2049
2049
2047
2047
2047
2046
2046
2046
2044
2044
2044
2045
2045
2045
2050
2050
2050
2050
2048
2048
2048
2042
2042
2042
2048
2048
2048
2047
2047
2047
2049
2049
2049
2049
2047
2047
2047
2044
2044
2044
2047
2047
2047
2042
2042
2042
2052
2052
2052
2052
2047
2047
2047
2044
2044
2044
2055
2055
2055
2042
2042
2042
2043
2043
2043
2043
2044
2044
2044
2045
2045
2045
2046
2046
2046
2044
2044
2044
2050
2050
2050
2050
2047
2047
2047
2040
2040
2040
2045
2045
2045
2048
2048
2048
2047
2047
2047
2047
2047
2047
2047
2043
2043
2043
2046
2046
2046
2042
2042
2042
2051
2051
2051
2051
2047
2047
2047
2045
2045
2045
2048
2048
2048
2044
2044
2044
2047
2047
2047
2047
2048
2048
2048
2043
2043
2043
2049
2049
2049
2041
2041
2041
2047
2047
2047
2047
2042
2042
2042
2045
2045
2045
2048
2048
2048
2041
2041
2041
2049
2049
2049
2049
2049
2049
2049
2043
2043
2043
2047
2047
2047
2044
2044
2044
2049
2049
2049
2049
2047
2047
2047
2044
2044
2044
2049
2049
2049
2037
2037
2037
2049
2049
2049
2049
2041
2041
2041
2043
2043
2043
2044
2044
2044
2043
2043
2043
2048
2048
2048
2048
2047
2047
2047
2045
2045
2045
2049
2049
2049
2047
2047
2047
2049
2049
2049
2049
2050
2050
2050
2038
2038
2038
2046
2046
2046
2045
2045
2045
2049
2049
2049
2049
2047
2047
2047
2045
2045
2045
2049
2049
2049
2043
2043
2043
2049
2049
2049
2049
2048
2048
2048
2044
2044
2044
2045
2045
2045
2045
2045
2045
2048
2048
2048
2048
2047
2047
2047
2040
2040
2040
2045
2045
2045
2042
2042
2042
2052
2052
2052
2052
2048
2048
2048
2044
2044
2044
2048
2048
2048
2044
2044
2044
2046
2046
2046
2046
2048
2048
2048
2043
2043
2043
2051
2051
2051
2046
2046
2046
2047
2047
2047
2047
2042
2042
2042
2044
2044
2044
2051
2051
2051
2049
2049
2049
2050
2050
2050
2050
2048
2048
2048
2045
2045
2045
2048
2048
2048
2045
2045
2045
2046
2046
2046
2046
2049
2049
2049
2045
2045
2045
2049
2049
2049
2042
2042
2042
2048
2048
2048
2048
2049
2049
2049
2046
2046
2046
2045
2045
2045
2045
2045
2045
2048
2048
2048
2048
2045
2045
2045
2045
2045
2045
2049
2049
2049
2045
2045
2045
2050
2050
2050
2050
2050
2050
2050
2046
2046
2046
2047
2047
2047
2048
2048
2048
2048
2048
2048
2048
2046
2046
2046
2043
2043
2043
2049
2049
2049
2045
2045
2045
2047
2047
2047
2047
2047
2047
2047
2044
2044
2044
2048
2048
2048
2044
2044
2044
2049
2049
2049
2049
2047
2047
2047
2043
2043
2043
2040
2040
2040
2051
2051
2051
2049
2049
2049
2049
2047
2047
2047
2044
2044
2044
2048
2048
2048
2043
2043
2043
2046
2046
2046
2046
2049
2049
2049
2045
2045
2045
2047
2047
2047
2045
2045
2045
2050
2050
2050
2050
2054
2054
2054
2045
2045
2045
2052
2052
2052
2045
2045
2045
2047
2047
2047
2047
2050
2050
2050
2043
2043
2043
2048
2048
2048
2044
2044
2044
2051
2051
2051
2051
2048
2048
2048
2043
2043
2043
2047
2047
2047
2042
2042
2042
2051
2051
2051
2051
2043
2043
2043
2042
2042
2042
2048
2048
2048
2047
2047
2047
