2235
2239
2239
2239
2237
2237
2237
2240
2240
2240
2238
2238
2238
2238
2238
2238
2238
2239
2239
2239
2240
2240
2240
2239
2239
2239
2238
2238
2238
2238
2235
2235
2235
2241
2241
2241
2240
2240
2240
2238
2238
2238
2237
2237
2237
2237
2237
2237
2237
2241
2241
2241
2241
2241
2241
2240
2240
2240
2243
2243
2243
2243
2238
2238
2238
2237
2237
2237
2238
2238
2238
2241
2241
2241
2238
2238
2238
2238
2238
2238
2238
2237
2237
2237
2240
2240
2240
2236
2236
2236
2243
2243
2243
2243
2241
2241
2241
2242
2242
2242
2236
2236
2236
2238
2238
2238
2237
2237
2237
2237
2238
2238
2238
2238
2238
2238
2238
2238
2238
2242
2242
2242
2244
2244
2244
2244
2234
2234
2234
2239
2239
2239
2240
2240
2240
2239
2239
2239
2239
2239
2239
2239
2238
2238
2238
2239
2239
2239
2237
2237
2237
2241
2241
2241
2239
2239
2239
2239
2239
2239
2239
2239
2239
2239
2237
2237
2237
2238
2238
2238
2239
2239
2239
2239
2239
2239
2239
2237
2237
2237
2236
2236
2236
2240
2240
2240
2239
2239
2239
2239
2238
2238
2238
2238
2238
2238
2239
2239
2239
2239
2239
2239
2235
2235
2235
2235
2241
2241
2241
2240
2240
2240
2240
2240
2240
2241
2241
2241
2238
2238
2238
2238
2241
2241
2241
2238
2238
2238
2241
2241
2241
2241
2241
2241
2233
2233
2233
2233
2237
2237
2237
2239
2239
2239
2238
2238
2238
2238
2238
2238
2238
2238
2238
2238
2237
2237
2237
2239
2239
2239
2236
2236
2236
2241
2241
2241
2237
2237
2237
2237
2235
2235
2235
2239
2239
2239
2238
2238
2238
2241
2241
2241
2240
2240
2240
2240
2235
2235
2235
2240
2240
2240
2240
2240
2240
2240
2240
2240
2239
2239
2239
2239
2235
2235
2235
2239
2239
2239
2239
2239
2239
2241
2241
2241
2238
2238
2238
2238
2240
2240
2240
2240
2240
2240
2234
2234
2234
2240
2240
2240
2242
2242
2242
2242
2242
2242
2242
2238
2238
2238
2237
2237
2237
2239
2239
2239
2238
2238
2238
2238
2233
2233
2233
2241
2241
2241
2243
2243
2243
2236
2236
2236
2235
2235
2235
2235
2241
2241
2241
2242
2242
2242
2237
2237
2237
2239
2239
2239
2237
2237
2237
2237
2239
2239
2239
2241
2241
2241
2239
2239
2239
2244
2244
2244
2236
2236
2236
2236
2236
2236
2236
2236
2236
2236
2240
2240
2240
2241
2241
2241
2246
2246
2246
2246
2239
2239
2239
2239
2239
2239
2238
2238
2238
2241
2241
2241
2236
2236
2236
2236
2240
2240
2240
2240
2240
2240
2241
2241
2241
2242
2242
2242
2237
2237
2237
2237
2238
2238
2238
2244
2244
2244
2235
2235
2235
2241
2241
2241
2243
2243
2243
2243
2239
2239
2239
2239
2239
2239
2233
2233
2233
2247
2247
2247
2235
2235
2235
2235
2241
2241
2241
2236
2236
2236
2240
2240
2240
2241
2241
2241
2237
2237
2237
2237
2239
2239
2239
2241
2241
2241
2237
2237
2237
2238
2238
2238
2239
2239
2239
2239
2242
2242
2242
2236
2236
2236
2243
2243
2243
2242
2242
2242
2238
2238
2238
2238
2237
2237
2237
2240
2240
2240
2231
2231
2231
2239
2239
2239
2236
2236
2236
2236
2237
2237
2237
2241
2241
2241
2232
2232
2232
2243
2243
2243
2241
2241
2241
2241
2244
2244
2244
2240
2240
2240
2235
2235
2235
2240
2240
2240
2235
2235
2235
2235
2243
2243
2243
2241
2241
2241
2236
2236
2236
2248
2248
2248
2242
2242
2242
2242
2234
2234
2234
2241
2241
2241
2238
2238
2238
2241
2241
2241
2239
2239
2239
2239
2235
2235
2235
2238
2238
2238
2235
2235
2235
2241
2241
2241
2237
2237
2237
2237
2242
2242
2242
2239
2239
2239
2232
2232
2232
2240
2240
2240
2234
2234
2234
2234
2234
2234
2234
2240
2240
2240
2235
2235
2235
2241
2241
2241
2234
2234
2234
2234
2236
2236
2236
2241
2241
2241
2240
2240
2240
2239
2239
2239
2240
2240
2240
2240
2235
2235
2235
2240
2240
2240
2242
2242
2242
2240
2240
2240
2246
2246
2246
2246
2236
2236
2236
2239
2239
2239
2235
2235
2235
2245
2245
2245
2233
2233
2233
2233
2240
2240
2240
2238
2238
2238
2239
2239
2239
2240
2240
2240
2242
2242
2242
2242
2224
2224
2224
2239
2239
2239
2239
2239
2239
2244
2244
2244
2234
2234
2234
2234
2236
2236
2236
2240
2240
2240
2238
2238
2238
2241
2241
2241
2238
2238
2238
2238
2237
2237
2237
2240
2240
2240
2238
2238
2238
2237
2237
2237
2240
2240
2240
2240
2236
2236
2236
2239
2239
2239
2235
2235
2235
2244
2244
2244
2240
2240
2240
2240
2240
2240
2240
2238
2238
2238
2236
2236
2236
2241
2241
2241
2236
2236
2236
2236
2235
2235
2235
2239
2239
2239
2240
2240
2240
2239
2239
2239
2241
2241
2241
2241
2237
2237
2237
2240
2240
2240
2239
2239
2239
2240
2240
2240
2241
2241
2241
2241
2239
2239
2239
2240
2240
2240
2246
2246
2246
2247
2247
2247
2237
2237
2237
2237
2240
2240
2240
2240
2240
2240
2238
2238
2238
2241
2241
2241
2234
2234
2234
2234
2239
2239
2239
2241
2241
2241
2238
2238
2238
2243
2243
2243
2239
2239
2239
2239
2235
2235
2235
2242
2242
2242
2238
2238
2238
2240
2240
2240
2240
2240
2240
2240
2246
2246
2246
2239
2239
2239
2236
2236
2236
2240
2240
2240
2232
2232
2232
2232
2236
2236
2236
2241
2241
2241
2239
2239
2239
2239
2239
2239
2236
2236
2236
2236
2244
2244
2244
2239
2239
2239
2237
2237
2237
2240
2240
2240
2239
2239
2239
2239
2241
2241
2241
2240
2240
2240
2235
2235
2235
2241
2241
2241
2236
2236
2236
2236
2243
2243
2243
2240
2240
2240
2236
2236
2236
2242
2242
2242
2239
2239
2239
2239
2238
2238
2238
2240
2240
2240
2239
2239
2239
2241
2241
2241
2238
2238
2238
2238
2241
2241
2241
2240
2240
2240
2236
2236
2236
2238
2238
2238
2239
2239
2239
2239
2237
2237
2237
2240
2240
2240
2240
2240
2240
2242
2242
2242
2239
2239
2239
2239
2238
2238
2238
2239
2239
2239
2237
2237
2237
2240
2240
2240
2239
2239
2239
2239
2236
2236
2236
2237
2237
2237
2240
2240
2240
2239
2239
2239
2240
2240
2240
2240
2241
2241
2241
2240
2240
2240
2240
2240
2240
2235
2235
2235
2244
2244
2244
2244
2234
2234
2234
2242
2242
2242
2234
2234
2234
2239
2239
2239
2232
2232
2232
2232
2239
2239
2239
2240
2240
2240
2239
2239
2239
2244
2244
2244
2246
2246
2246
2246
2238
2238
2238
2237
2237
2237
2235
2235
2235
2241
2241
2241
2241
2241
2241
2241
2240
2240
2240
2240
2240
2240
2238
2238
2238
2240
2240
2240
2241
2241
2241
2241
2245
2245
2245
2240
2240
2240
2234
2234
2234
2242
2242
2242
2243
2243
2243
2243
2237
2237
2237
2241
2241
2241
2237
2237
2237
2240
2240
2240
2240
2240
2240
2240
2248
2248
2248
2239
2239
2239
2239
2239
2239
2240
2240
2240
2241
2241
2241
2241
2235
2235
2235
2242
2242
2242
2237
2237
2237
2242
2242
2242
2236
2236
2236
2236
2234
2234
2234
2241
2241
2241
2243
2243
2243
2242
2242
2242
2235
2235
2235
2235
2232
2232
2232
2235
2235
2235
2233
2233
2233
2242
2242
2242
2244
2244
2244
2244
2234
2234
2234
2240
2240
2240
2241
2241
2241
2240
2240
2240
2243
2243
2243
2243
2244
2244
2244
2240
2240
2240
2240
2240
2240
2241
2241
2241
2239
2239
2239
2239
2236
2236
2236
2242
2242
2242
2239
2239
2239
2241
2241
2241
2243
2243
2243
2243
2235
2235
2235
2238
2238
2238
2233
2233
2233
2243
2243
2243
2235
2235
2235
2235
2241
2241
2241
2237
2237
2237
2243
2243
2243
2241
2241
2241
2235
2235
2235
2235
2237
2237
2237
2241
2241
2241
2245
2245
2245
2239
2239
2239
2237
2237
2237
2237
2236
2236
2236
2239
2239
2239
2237
2237
2237
2241
2241
2241
2231
2231
2231
2231
2234
2234
2234
2239
2239
2239
2238
2238
2238
2240
2240
2240
2237
2237
2237
2237
2237
2237
2237
2241
2241
2241
2235
2235
2235
2244
2244
2244
2237
2237
2237
2237
2244
2244
2244
2239
2239
2239
2239
2239
2239
2242
2242
2242
2237
2237
2237
2237
2240
2240
2240
2240
2240
2240
2240
2240
2240
2241
2241
2241
2238
2238
2238
2238
2236
2236
2236
2241
2241
2241
2239
2239
2239
2240
2240
2240
2239
2239
2239
2239
2239
2239
2239
2242
2242
2242
2237
2237
2237
2239
2239
2239
2240
2240
2240
2240
2238
2238
2238
2242
2242
2242
2236
2236
2236
2239
2239
2239
2235
2235
2235
2235
2239
2239
2239
2241
2241
2241
2239
2239
2239
2238
2238
2238
2237
2237
2237
2237
2238
2238
2238
2240
2240
2240
2240
2240
2240
2240
2240
2240
2238
2238
2238
2238
2238
2238
2238
2239
2239
2239
2238
2238
2238
2238
2238
2238
2241
2241
2241
2241
2237
2237
2237
2240
2240
2240
2238
2238
2238
2239
2239
2239
2240
2240
2240
2240
2235
2235
2235
2246
2246
2246
2237
2237
2237
2243
2243
2243
2238
2238
2238
2238
2238
2238
2238
2244
2244
2244
2241
2241
2241
2236
2236
2236
2235
2235
2235
2235
2236
2236
2236
2243
2243
2243
2239
2239
2239
2238
2238
2238
2238
2238
2238
2238
2239
2239
2239
2241
2241
2241
2240
2240
2240
2234
2234
2234
2239
2239
2239
2239
2239
2239
2239
2242
2242
2242
2236
2236
2236
2240
2240
2240
2241
2241
2241
2241
2239
2239
2239
2240
2240
2240
2236
2236
2236
2236
2236
2236
2237
2237
2237
2237
2237
2237
2237
2237
2237
2237
2242
2242
2242
2242
2242
2242
2237
2237
2237
2237
2235
2235
2235
2241
2241
2241
2239
2239
2239
2246
2246
2246
2237
2237
2237
2237
2239
2239
2239
2238
2238
2238
2241
2241
2241
2247
2247
2247
2239
2239
2239
2239
2238
2238
2238
2232
2232
2232
2244
2244
2244
2238
2238
2238
2239
2239
2239
2239
2234
2234
2234
2240
2240
2240
2240
2240
2240
2242
2242
2242
2243
2243
2243
2243
2240
2240
2240
2238
2238
2238
2239
2239
2239
2236
2236
2236
2242
2242
2242
2242
2238
2238
2238
2241
2241
2241
2240
2240
2240
2239
2239
2239
2235
2235
2235
2235
2238
2238
2238
2243
2243
2243
2239
2239
2239
2239
2239
2239
2236
2236
2236
2236
2240
2240
2240
2228
2228
2228
2240
2240
2240
2242
2242
2242
2239
2239
2239
2239
2238
2238
2238
2238
2238
2238
2237
2237
2237
2244
2244
2244
2240
2240
2240
2240
2239
2239
2239
2236
2236
2236
2236
2236
2236
2240
2240
2240
2239
2239
2239
2239
2243
2243
2243
2241
2241
2241
2237
2237
2237
2239
2239
2239
2236
2236
2236
2236
2239
2239
2239
2239
2239
2239
2240
2240
2240
2241
2241
2241
2238
2238
2238
2238
2240
2240
2240
2237
2237
2237
2238
2238
2238
2241
2241
2241
2239
2239
2239
2239
2239
2239
2239
2240
2240
2240
2238
2238
2238
2239
2239
2239
2236
2236
2236
2236
2242
2242
2242
2241
2241
2241
2237
2237
2237
2241
2241
2241
2237
2237
2237
2237
2237
2237
2237
2241
2241
2241
2241
2241
2241
2239
2239
2239
2235
2235
2235
2235
2239
2239
2239
2237
2237
2237
2242
2242
2242
2238
2238
2238
2237
2237
2237
2237
2235
2235
2235
2239
2239
2239
2237
2237
2237
2240
2240
2240
2236
2236
2236
2236
2237
2237
2237
2239
2239
2239
2244
2244
2244
2239
2239
2239
2237
2237
2237
2237
2228
2228
2228
2243
2243
2243
2240
2240
2240
2239
2239
2239
2243
2243
2243
2243
2243
2243
2243
2239
2239
2239
2239
2239
2239
2243
2243
2243
2238
2238
2238
2238
2246
2246
2246
2237
2237
2237
2246
2246
2246
2240
2240
2240
2240
2240
2240
2240
2237
2237
2237
2239
2239
2239
2239
2239
2239
2242
2242
2242
2239
2239
2239
2239
2238
2238
2238
2240
2240
2240
2236
2236
2236
2241
2241
2241
2238
2238
2238
2238
2238
2238
2238
2238
2238
2238
2237
2237
2237
2241
2241
2241
2238
2238
2238
2238
2237
2237
2237
2237
2237
2237
2236
2236
2236
2244
2244
2244
2237
2237
2237
2237
2242
2242
2242
2238
2238
2238
2240
2240
2240
2242
2242
2242
2238
2238
2238
2238
2239
2239
2239
2239
2239
2239
2236
2236
2236
2237
2237
2237
2238
2238
2238
2238
2238
2238
2238
2239
2239
2239
2239
2239
2239
2240
2240
2240
2237
2237
2237
2237
2237
2237
2237
2242
2242
2242
2240
2240
2240
2242
2242
2242
2235
2235
2235
2235
2239
2239
2239
2241
2241
2241
2238
2238
2238
2236
2236
2236
2239
2239
2239
2239
2243
2243
2243
2237
2237
2237
2239
2239
2239
2234
2234
2234
2239
2239
2239
2239
2237
2237
2237
2239
2239
2239
2238
2238
2238
2241
2241
2241
2236
2236
2236
2236
2237
2237
2237
2240
2240
2240
2240
2240
2240
2241
2241
2241
2238
2238
2238
2238
2240
2240
2240
2239
2239
2239
2240
2240
2240
2237
2237
2237
2238
2238
2238
2238
2237
2237
2237
2235
2235
2235
2240
2240
2240
2236
2236
2236
2239
2239
2239
2239
2237
2237
2237
2239
2239
2239
2237
2237
2237
2244
2244
2244
2240
2240
2240
2240
2239
2239
2239
2239
2239
2239
2237
2237
2237
2240
2240
2240
2240
2240
2240
2240
2239
2239
2239
2238
2238
2238
2237
2237
2237
2240
2240
2240
2240
2240
2240
2240
2239
2239
2239
2240
2240
2240
2240
2240
2240
2238
2238
2238
2238
2238
2238
2238
2237
2237
2237
2242
2242
2242
2235
2235
2235
2239
2239
2239
2238
2238
2238
2238
2239
2239
2239
2238
2238
2238
2239
2239
2239
2242
2242
2242
2238
2238
2238
2238
2237
2237
2237
2238
2238
2238
2240
2240
2240
2241
2241
2241
2239
2239
2239
2239
2239
2239
2239
2240
2240
2240
2235
2235
2235
2239
2239
2239
2235
2235
2235
2235
2240
2240
2240
2243
2243
2243
2236
2236
2236
2243
2243
2243
2239
2239
2239
2239
2243
2243
2243
2237
2237
2237
2242
2242
2242
2243
2243
2243
2236
2236
2236
2236
2239
2239
2239
2242
2242
2242
2241
2241
2241
2240
2240
2240
2241
2241
2241
2241
2238
2238
2238
2238
2238
2238
2235
2235
2235
2239
2239
2239
2240
2240
2240
2240
2241
2241
2241
2240
2240
2240
2240
2240
2240
2236
2236
2236
2233
2233
2233
2233
2233
2233
2233
2238
2238
2238
2240
2240
2240
2241
2241
2241
2236
2236
2236
2236
2238
2238
2238
2239
2239
2239
2242
2242
2242
2240
2240
2240
2240
2240
2240
2240
2235
2235
2235
2237
2237
2237
2237
2237
2237
2241
2241
2241
2238
2238
2238
2238
2246
2246
2246
2238
2238
2238
2239
2239
2239
2239
2239
2239
2235
2235
2235
2235
2238
2238
2238
2236
2236
2236
2238
2238
2238
2236
2236
2236
2239
2239
2239
2239
2232
2232
2232
2243
2243
2243
2238
2238
2238
2239
2239
2239
2240
2240
2240
2240
2240
2240
2240
2240
2240
2240
2239
2239
2239
2239
2239
2239
2237
2237
2237
2237
2235
2235
2235
2239
2239
2239
2240
2240
2240
2240
2240
2240
2236
2236
2236
2236
2247
2247
2247
2240
2240
2240
2239
2239
2239
2239
2239
2239
2237
2237
2237
2237
2237
2237
2237
2236
2236
2236
2245
2245
2245
2239
2239
2239
2238
2238
2238
2238
2236
2236
2236
2240
2240
2240
2240
2240
2240
2239
2239
2239
2240
2240
2240
2240
2238
2238
2238
2238
2238
2238
2240
2240
2240
2239
2239
2239
2239
2239
2239
2239
2240
2240
2240
2240
2240
2240
2238
2238
2238
2239
2239
2239
2239
2239
2239
2239
2239
2239
2239
2239
2239
2239
2239
2239
2239
2240
2240
2240
2238
2238
2238
2238
2237
2237
2237
2236
2236
2236
2241
2241
2241
2241
2241
2241
2238
2238
2238
2238
2237
2237
2237
2241
2241
2241
2238
2238
2238
2240
2240
2240
2239
2239
2239
2239
2239
2239
2239
2240
2240
2240
2238
2238
2238
2241
2241
2241
2239
2239
2239
2239
2240
2240
2240
2242
2242
2242
2239
2239
2239
2241
2241
2241
2239
2239
2239
2239
2238
2238
2238
2239
2239
2239
2243
2243
2243
2237
2237
2237
2237
2237
2237
2237
2239
2239
2239
2238
2238
2238
2238
2238
2238
2240
2240
2240
2237
2237
2237
2237
2238
2238
2238
2241
2241
2241
2239
2239
2239
2236
2236
2236
2238
2238
2238
2238
2238
2238
2238
2239
2239
2239
2239
2239
2239
2242
2242
2242
2237
2237
2237
2237
2239
2239
2239
2240
2240
2240
2240
2240
2240
2243
2243
2243
2240
2240
2240
2240
2237
2237
2237
2242
2242
2242
2236
2236
2236
2239
2239
2239
2239
2239
2239
2239
2238
2238
2238
2240
2240
2240
2238
2238
2238
2232
2232
2232
2240
2240
2240
2240
2240
2240
2240
2238
2238
2238
2237
2237
2237
2236
2236
2236
2238
2238
2238
2238
2240
2240
2240
2240
2240
2240
2238
2238
2238
2241
2241
2241
2240
2240
2240
2240
2240
2240
2240
2238
2238
2238
2239
2239
2239
2239
2239
2239
2239
2239
2239
2239
2236
2236
2236
2244
2244
2244
2238
2238
2238
2245
2245
2245
2240
2240
2240
2240
2240
2240
2240
2240
2240
2240
2237
2237
2237
2242
2242
2242
2241
2241
2241
2241
2238
2238
2238
2242
2242
2242
2240
2240
2240
2241
2241
2241
2241
2241
2241
2241
2241
2241
2241
2237
2237
2237
2239
2239
2239
2240
2240
2240
2236
2236
2236
2236
2236
2236
2236
2238
2238
2238
2238
2238
2238
2235
2235
2235
2240
2240
2240
2240
2241
2241
2241
2241
2241
2241
2239
2239
2239
2237
2237
2237
2237
2237
2237
2237
2237
2237
2237
2240
2240
2240
2240
2240
2240
2243
2243
2243
2239
2239
2239
2239
2234
2234
2234
2238
2238
2238
2240
2240
2240
2242
2242
2242
2236
2236
2236
2236
2239
2239
2239
2239
2239
2239
2239
2239
2239
2236
2236
2236
2238
2238
2238
2238
2240
2240
2240
2240
2240
2240
2241
2241
2241
2246
2246
2246
2239
2239
2239
2239
2239
2239
2239
2241
2241
2241
2237
2237
2237
2240
2240
2240
2241
2241
2241
2241
2241
2241
2241
2237
2237
2237
2236
2236
2236
2239
2239
2239
2239
2239
2239
2239
2239
2239
2239
2238
2238
2238
2239
2239
2239
2239
2239
2239
2237
2237
2237
2237
2240
2240
2240
2241
2241
2241
2241
2241
2241
2237
2237
2237
2238
2238
2238
2238
2238
2238
2238
2242
2242
2242
2237
2237
2237
2240
2240
2240
2242
2242
2242
2242
2241
2241
2241
2242
2242
2242
2237
2237
2237
2243
2243
2243
2239
2239
2239
2239
2233
2233
2233
2241
2241
2241
2237
2237
2237
2239
2239
2239
2239
2239
2239
2239
2238
2238
2238
2239
2239
2239
2236
2236
2236
2236
2236
2236
2244
2244
2244
2244
2237
2237
2237
2242
2242
2242
2236
2236
2236
2242
2242
2242
2239
2239
2239
2239
2240
2240
2240
2245
2245
2245
2239
2239
2239
2240
2240
2240
2236
2236
2236
2236
2238
2238
2238
2242
2242
2242
2238
2238
2238
2241
2241
2241
2239
2239
2239
2239
2239
2239
2239
2240
2240
2240
2237
2237
2237
2239
2239
2239
2239
2239
2239
2239
2238
2238
2238
2242
2242
2242
2235
2235
2235
2242
2242
2242
2238
2238
2238
2238
2237
2237
2237
2243
2243
2243
2237
2237
2237
2237
2237
2237
2239
2239
2239
2239
2238
2238
2238
2239
2239
2239
2240
2240
2240
2240
2240
2240
2241
2241
2241
2241
2234
2234
2234
2235
2235
2235
2239
2239
2239
2238
2238
2238
2238
2238
2238
2238
2238
2238
2238
2243
2243
2243
2239
2239
2239
2248
2248
2248
2237
2237
2237
2237
2238
2238
2238
2239
2239
2239
2240
2240
2240
2237
2237
2237
2238
2238
2238
2238
2239
2239
2239
2241
2241
2241
2239
2239
2239
2250
2250
2250
2238
2238
2238
2238
2239
2239
2239
2235
2235
2235
2235
2235
2235
2238
2238
2238
2239
2239
2239
2239
2238
2238
2238
2240
2240
2240
2235
2235
2235
2237
2237
2237
2238
2238
2238
2238
2239
2239
2239
2247
2247
2247
2238
2238
2238
2236
2236
2236
2240
2240
2240
2240
2240
2240
2240
2239
2239
2239
2238
2238
2238
2236
2236
2236
2239
2239
2239
2239
2240
2240
2240
2237
2237
2237
2242
2242
2242
2244
2244
2244
2240
2240
2240
2240
2236
2236
2236
2238
2238
2238
2239
2239
2239
2235
2235
2235
2239
2239
2239
2239
2237
2237
2237
2238
2238
2238
2238
2238
2238
2238
2238
2238
2243
2243
2243
2243
2237
2237
2237
2243
2243
2243
2241
2241
2241
2241
2241
2241
2237
2237
2237
2237
2238
2238
2238
2244
2244
2244
2238
2238
2238
2245
2245
2245
2239
2239
2239
2239
2239
2239
2239
2238
2238
2238
2238
2238
2238
2238
2238
2238
2239
2239
2239
2239
2237
2237
2237
2241
2241
2241
2239
2239
2239
2241
2241
2241
2237
2237
2237
2237
2237
2237
2237
2237
2237
2237
2242
2242
2242
2236
2236
2236
2237
2237
2237
2237
2229
2229
2229
2240
2240
2240
2241
2241
2241
2242
2242
2242
2243
2243
2243
2243
2238
2238
2238
2239
2239
2239
2237
2237
2237
2240
2240
2240
2238
2238
2238
2238
2240
2240
2240
2244
2244
2244
2240
2240
2240
2242
2242
2242
2241
2241
2241
2241
2241
2241
2241
2240
2240
2240
2241
2241
2241
2246
2246
2246
2238
2238
2238
2238
2245
2245
2245
2236
2236
2236
2241
2241
2241
2236
2236
2236
2238
2238
2238
2238
2239
2239
2239
2238
2238
2238
2241
2241
2241
2239
2239
2239
2238
2238
2238
2238
2240
2240
2240
2241
2241
2241
2238
2238
2238
2236
2236
2236
2238
2238
2238
2238
2238
2238
2238
2240
2240
2240
2241
2241
2241
2240
2240
2240
2240
2240
2240
2240
2238
2238
2238
2244
2244
2244
2238
2238
2238
2232
2232
2232
2239
2239
2239
2239
2238
2238
2238
2240
2240
2240
2239
2239
2239
2242
2242
2242
2236
2236
2236
2236
2239
2239
2239
2238
2238
2238
2241
2241
2241
2238
2238
2238
2239
2239
2239
2239
2239
2239
2239
2240
2240
2240
2240
2240
2240
2238
2238
2238
2234
2234
2234
2234
2240
2240
2240
2240
2240
2240
2239
2239
2239
2247
2247
2247
2238
2238
2238
2238
2236
2236
2236
2239
2239
2239
2239
2239
2239
2245
2245
2245
2237
2237
2237
2237
2237
2237
2237
2240
2240
2240
2240
2240
2240
2239
2239
2239
2239
2239
2239
2239
2236
2236
2236
2239
2239
2239
2239
2239
2239
2239
2239
2239
2239
2239
2239
2239
2241
2241
2241
2238
2238
2238
2238
2238
2238
2245
2245
2245
2237
2237
2237
2237
2236
2236
2236
2238
2238
2238
2240
2240
2240
2248
2248
2248
2238
2238
2238
2238
2236
2236
2236
2243
2243
2243
2238
2238
2238
2240
2240
2240
2240
2240
2240
2240
2241
2241
2241
2241
2241
2241
2238
2238
2238
2237
2237
2237
2239
2239
2239
2239
2239
2239
2239
2239
2239
2239
2238
2238
2238
2243
2243
2243
2239
2239
2239
2239
2239
2239
2239
2239
2239
2239
2237
2237
2237
2235
2235
2235
2242
2242
2242
2242
2240
2240
2240
2244
2244
2244
2239
2239
2239
2241
2241
2241
2236
2236
2236
2236
2237
2237
2237
2237
2237
2237
2240
2240
2240
2251
2251
2251
2238
2238
2238
2238
2239
2239
2239
2238
2238
2238
2240
2240
2240
2241
2241
2241
2238
2238
2238
2238
2237
2237
2237
2241
2241
2241
2237
2237
2237
2244
2244
2244
2241
2241
2241
2241
2240
2240
2240
2241
2241
2241
2237
2237
2237
2249
2249
2249
2238
2238
2238
2238
2239
2239
2239
2240
2240
2240
2238
2238
2238
2246
2246
2246
2240
2240
2240
2240
2241
2241
2241
2243
2243
2243
2240
2240
2240
2237
2237
2237
2239
2239
2239
2239
2236
2236
2236
2240
2240
2240
2238
2238
2238
2244
2244
2244
2241
2241
2241
2241
2238
2238
2238
2243
2243
2243
2236
2236
2236
2239
2239
2239
2239
2239
2239
2239
2238
2238
2238
2236
2236
2236
2240
2240
2240
2238
2238
2238
2237
2237
2237
2237
2239
2239
2239
2236
2236
2236
2239
2239
2239
2239
2239
2239
2241
2241
2241
2241
2239
2239
2239
2242
2242
2242
2237
2237
2237
2241
2241
2241
2235
2235
2235
2235
2239
2239
2239
2241
2241
2241
2239
2239
2239
2241
2241
2241
2239
2239
2239
2239
2239
2239
2239
2239
2239
2239
2239
2239
2239
2241
2241
2241
2236
2236
2236
2236
2240
2240
2240
2238
2238
2238
2237
2237
2237
2239
2239
2239
2237
2237
2237
2237
2238
2238
2238
2240
2240
2240
2239
2239
2239
2239
2239
2239
2239
2239
2239
2239
2241
2241
2241
2235
2235
2235
2240
2240
2240
2239
2239
2239
2237
2237
2237
2237
2237
2237
2237
2238
2238
2238
2238
2238
2238
2242
2242
2242
2238
2238
2238
2238
2240
2240
2240
2237
2237
2237
2240
2240
2240
2237
2237
2237
2236
2236
2236
2236
2239
2239
2239
2235
2235
2235
2239
2239
2239
2238
2238
2238
2236
2236
2236
2236
2239
2239
2239
2241
2241
2241
2238
2238
2238
2251
2251
2251
2236
2236
2236
2236
2240
2240
2240
2237
2237
2237
2239
2239
2239
2238
2238
2238
2235
2235
2235
2235
2240
2240
2240
2246
2246
2246
2238
2238
2238
2243
2243
2243
2239
2239
2239
2239
2238
2238
2238
2235
2235
2235
2235
2235
2235
2239
2239
2239
2236
2236
2236
2236
2238
2238
2238
2244
2244
2244
2241
2241
2241
2242
2242
2242
2237
2237
2237
2237
2238
2238
2238
2246
2246
2246
2239
2239
2239
2239
2239
2239
2237
2237
2237
2237
2237
2237
2237
2241
2241
2241
2240
2240
2240
2245
2245
2245
2240
2240
2240
2240
2240
2240
2240
2245
2245
2245
2236
2236
2236
2240
2240
2240
2239
2239
2239
2239
2238
2238
2238
2238
2238
2238
2239
2239
2239
2242
2242
2242
2238
2238
2238
2238
2240
2240
2240
2238
2238
2238
2236
2236
2236
2240
2240
2240
2237
2237
2237
2237
2239
2239
2239
2241
2241
2241
2239
2239
2239
2241
2241
2241
2237
2237
2237
2237
2237
2237
2237
2245
2245
2245
2241
2241
2241
2242
2242
2242
2239
2239
2239
2239
2243
2243
2243
2238
2238
2238
2239
2239
2239
2240
2240
2240
2237
2237
2237
2237
2237
2237
2237
2243
2243
2243
2239
2239
2239
2238
2238
2238
2238
2238
2238
2238
2239
2239
2239
2232
2232
2232
2241
2241
2241
2241
2241
2241
2240
2240
2240
2240
2238
2238
2238
2243
2243
2243
2238
2238
2238
2241
2241
2241
2239
2239
2239
2239
2238
2238
2238
2246
2246
2246
2239
2239
2239
2241
2241
2241
2240
2240
2240
2240
2240
2240
2240
2245
2245
2245
2237
2237
2237
2242
2242
2242
2236
2236
2236
2236
2240
2240
2240
2237
2237
2237
2239
2239
2239
2240
2240
2240
2239
2239
2239
2239
2239
2239
2239
2244
2244
2244
2239
2239
2239
2243
2243
2243
2238
2238
2238
2238
2237
2237
2237
2239
2239
2239
2238
2238
2238
2251
2251
2251
2241
2241
2241
2241
2239
2239
2239
2240
2240
2240
2238
2238
2238
2238
2238
2238
2235
2235
2235
2235
2238
2238
2238
2238
2238
2238
2239
2239
2239
2245
2245
2245
2240
2240
2240
2240
2238
2238
2238
2239
2239
2239
2238
2238
2238
2248
2248
2248
2239
2239
2239
2239
2238
2238
2238
2241
2241
2241
2241
2241
2241
2237
2237
2237
2239
2239
2239
2239
2240
2240
2240
2238
2238
2238
2240
2240
2240
2234
2234
2234
2239
2239
2239
2239
2240
2240
2240
2250
2250
2250
2239
2239
2239
2239
2239
2239
2240
2240
2240
2240
2235
2235
2235
2247
2247
2247
2238
2238
2238
2233
2233
2233
2239
2239
2239
2239
2241
2241
2241
2237
2237
2237
2238
2238
2238
2242
2242
2242
2239
2239
2239
2239
2237
2237
2237
2244
2244
2244
2239
2239
2239
2239
2239
2239
2240
2240
2240
2240
2237
2237
2237
2236
2236
2236
2238
2238
2238
2241
2241
2241
2234
2234
2234
2234
2237
2237
2237
2233
2233
2233
2238
2238
2238
2232
2232
2232
2239
2239
2239
2239
2238
2238
2238
2240
2240
2240
2237
2237
2237
2237
2237
2237
2237
2237
2237
2237
2239
2239
2239
2244
2244
2244
2242
2242
2242
2246
2246
2246
2238
2238
2238
2238
2238
2238
2238
2241
2241
2241
2236
2236
2236
2239
2239
2239
2236
2236
2236
2236
2238
2238
2238
2239
2239
2239
2241
2241
2241
2242
2242
2242
2231
2231
2231
2231
2236
2236
2236
2239
2239
2239
2241
2241
2241
2240
2240
2240
2237
2237
2237
2237
2239
2239
2239
2238
2238
2238
2237
2237
2237
2238
2238
2238
2240
2240
2240
2240
2241
2241
2241
2242
2242
2242
2237
2237
2237
2239
2239
2239
2238
2238
2238
2238
2240
2240
2240
2242
2242
2242
2241
2241
2241
2237
2237
2237
2239
2239
2239
2239
2237
2237
2237
2242
2242
2242
2238
2238
2238
2240
2240
2240
2238
2238
2238
2238
2238
2238
2238
2241
2241
2241
2241
2241
2241
2241
2241
2241
2239
2239
2239
2239
2241
2241
2241
2240
2240
2240
2238
2238
2238
2236
2236
2236
2239
2239
2239
2239
2237
2237
2237
2238
2238
2238
2241
2241
2241
2240
2240
2240
2237
2237
2237
2237
2237
2237
2237
2241
2241
2241
2239
2239
2239
2239
2239
2239
2242
2242
2242
2242
2238
2238
2238
2241
2241
2241
2236
2236
2236
2237
2237
2237
2238
2238
2238
2238
2240
2240
2240
2242
2242
2242
2238
2238
2238
2240
2240
2240
2239
2239
2239
2239
2240
2240
2240
2239
2239
2239
2237
2237
2237
2240
2240
2240
2241
2241
2241
2241
2240
2240
2240
2239
2239
2239
2238
2238
2238
2233
2233
2233
2241
2241
2241
2241
2240
2240
2240
2240
2240
2240
2239
2239
2239
2240
2240
2240
2240
2240
2240
2240
2239
2239
2239
2242
2242
2242
2240
2240
2240
2235
2235
2235
2237
2237
2237
2237
2238
2238
2238
2239
2239
2239
2238
2238
2238
2241
2241
2241
2239
2239
2239
2239
2237
2237
2237
2241
2241
2241
2235
2235
2235
2243
2243
2243
2240
2240
2240
2240
2240
2240
2240
2239
2239
2239
2238
2238
2238
2233
2233
2233
2240
2240
2240
2240
2240
2240
2240
2240
2240
2240
2238
2238
2238
2236
2236
2236
2238
2238
2238
2238
2239
2239
2239
2240
2240
2240
2239
2239
2239
2239
2239
2239
2235
2235
2235
2235
2239
2239
2239
2239
2239
2239
2239
2239
2239
2237
2237
2237
2240
2240
2240
2240
2234
2234
2234
2240
2240
2240
2237
2237
2237
2240
2240
2240
2241
2241
2241
2241
2239
2239
2239
2240
2240
2240
2237
2237
2237
2241
2241
2241
2239
2239
2239
2239
2235
2235
2235
2240
2240
2240
2242
2242
2242
2240
2240
2240
2237
2237
2237
2237
2239
2239
2239
2240
2240
2240
2244
2244
2244
2237
2237
2237
2238
2238
2238
2238
2235
2235
2235
2242
2242
2242
2238
2238
2238
2241
2241
2241
2240
2240
2240
2240
2239
2239
2239
2241
2241
2241
2238
2238
2238
2242
2242
2242
2238
2238
2238
2238
2241
2241
2241
2241
2241
2241
2238
2238
2238
2244
2244
2244
2236
2236
2236
2236
2240
2240
2240
2241
2241
2241
2239
2239
2239
2246
2246
2246
2237
2237
2237
2237
2243
2243
2243
2236
2236
2236
2239
2239
2239
2241
2241
2241
2240
2240
2240
2240
2235
2235
2235
2237
2237
2237
2240
2240
2240
2240
2240
2240
2238
2238
2238
2238
2242
2242
2242
2241
2241
2241
2239
2239
2239
2240
2240
2240
2237
2237
2237
2237
2237
2237
2237
2241
2241
2241
2237
2237
2237
2240
2240
2240
2235
2235
2235
2235
2235
2235
2235
2240
2240
2240
2235
2235
2235
2240
2240
2240
2243
2243
2243
2243
2238
2238
2238
2240
2240
2240
2239
2239
2239
2238
2238
2238
2233
2233
2233
2233
2237
2237
2237
2241
2241
2241
2243
2243
2243
2238
2238
2238
2241
2241
2241
2241
2237
2237
2237
2241
2241
2241
2239
2239
2239
2239
2239
2239
2238
2238
2238
2238
2240
2240
2240
2241
2241
2241
2239
2239
2239
2242
2242
2242
2238
2238
2238
2238
2237
2237
2237
2236
2236
2236
2241
2241
2241
2237
2237
2237
2237
2237
2237
2237
2238
2238
2238
2235
2235
2235
2236
2236
2236
2243
2243
2243
2237
2237
2237
2237
2240
2240
2240
2245
2245
2245
2239
2239
2239
2244
2244
2244
2239
2239
2239
2239
2240
2240
2240
2239
2239
2239
2239
2239
2239
2243
2243
2243
2239
2239
2239
2239
2242
2242
2242
2239
2239
2239
2239
2239
2239
2239
2239
2239
2244
2244
2244
2244
2237
2237
2237
2239
2239
2239
2241
2241
2241
2238
2238
2238
2236
2236
2236
2236
2235
2235
2235
2240
2240
2240
2242
2242
2242
2242
2242
2242
2240
2240
2240
2240
2235
2235
2235
2240
2240
2240
2242
2242
2242
2238
2238
2238
2241
2241
2241
2241
2241
2241
2241
2240
2240
2240
2241
2241
2241
2240
2240
2240
2241
2241
2241
2241
2239
2239
2239
2238
2238
2238
2227
2227
2227
2240
2240
2240
2241
2241
2241
2241
2236
2236
2236
2241
2241
2241
2239
2239
2239
2243
2243
2243
2239
2239
2239
2239
2238
2238
2238
2241
2241
2241
2237
2237
2237
2242
2242
2242
2241
2241
2241
2241
2239
2239
2239
2241
2241
2241
2239
2239
2239
2238
2238
2238
2240
2240
2240
2240
2233
2233
2233
2233
2233
2233
2240
2240
2240
2239
2239
2239
2239
2239
2239
2239
2238
2238
2238
2236
2236
2236
2240
2240
2240
2245
2245
2245
2240
2240
2240
2240
2235
2235
2235
2237
2237
2237
2238
2238
2238
2239
2239
2239
2238
2238
2238
2238
2239
2239
2239
2239
2239
2239
2244
2244
2244
2237
2237
2237
2238
2238
2238
2238
2241
2241
2241
2239
2239
2239
2240
2240
2240
2239
2239
2239
2238
2238
2238
2238
2238
2238
2238
2239
2239
2239
2237
2237
2237
2240
2240
2240
2239
2239
2239
2239
2238
2238
2238
2238
2238
2238
2237
2237
2237
2240
2240
2240
2235
2235
2235
2235
2237
2237
2237
2240
2240
2240
2238
2238
2238
2241
2241
2241
2237
2237
2237
2237
2235
2235
2235
2240
2240
2240
2241
2241
2241
2242
2242
2242
2244
2244
2244
2244
2241
2241
2241
2239
2239
2239
2235
2235
2235
2245
2245
2245
2241
2241
2241
2241
2242
2242
2242
2240
2240
2240
2234
2234
2234
2235
2235
2235
2239
2239
2239
2239
2236
2236
2236
2240
2240
2240
2237
2237
2237
2239
2239
2239
2238
2238
2238
2238
2239
2239
2239
2239
2239
2239
2241
2241
2241
2242
2242
2242
2240
2240
2240
2240
2241
2241
2241
2240
2240
2240
2236
2236
2236
2236
2236
2236
2236
2236
2236
2236
2239
2239
2239
2241
2241
2241
2238
2238
2238
2241
2241
2241
2238
2238
2238
2238
2242
2242
2242
2239
2239
2239
2240
2240
2240
2242
2242
2242
2238
2238
2238
2238
2236
2236
2236
2239
2239
2239
2235
2235
2235
2240
2240
2240
2237
2237
2237
2237
2239
2239
2239
2238
2238
2238
2239
2239
2239
2242
2242
2242
2241
2241
2241
2241
2240
2240
2240
2237
2237
2237
2239
2239
2239
2238
2238
2238
2237
2237
2237
2237
2236
2236
2236
2240
2240
2240
2244
2244
2244
2241
2241
2241
2236
2236
2236
2236
2238
2238
2238
2241
2241
2241
2235
2235
2235
2239
2239
2239
2242
2242
2242
2242
2238
2238
2238
2239
2239
2239
2238
2238
2238
2243
2243
2243
2238
2238
2238
2238
2237
2237
2237
2239
2239
2239
2238
2238
2238
2239
2239
2239
2242
2242
2242
2242
2237
2237
2237
2242
2242
2242
2238
2238
2238
2241
2241
2241
2238
2238
2238
2238
2240
2240
2240
2242
2242
2242
2241
2241
2241
2242
2242
2242
2240
2240
2240
2240
2235
2235
2235
2236
2236
2236
2238
2238
2238
2238
2238
2238
2241
2241
2241
2241
2238
2238
2238
2244
2244
2244
2240
2240
2240
2242
2242
2242
2240
2240
2240
2240
2237
2237
2237
2247
2247
2247
2240
2240
2240
2235
2235
2235
2240
2240
2240
2240
2238
2238
2238
2241
2241
2241
2237
2237
2237
2236
2236
2236
2243
2243
2243
2243
2238
2238
2238
2241
2241
2241
2241
2241
2241
2240
2240
2240
2243
2243
2243
2243
2249
2249
2249
2238
2238
2238
2238
2238
2238
2238
2238
2238
2229
2229
2229
2229
2244
2244
2244
2240
2240
2240
2240
2240
2240
2238
2238
2238
2240
2240
2240
2240
2244
2244
2244
2239
2239
2239
2237
2237
2237
2235
2235
2235
2235
2235
2235
2235
2234
2234
2234
2242
2242
2242
2239
2239
2239
2241
2241
2241
2237
2237
2237
2237
2239
2239
2239
2237
2237
2237
2234
2234
2234
2239
2239
2239
2239
2239
2239
2239
2237
2237
2237
2241
2241
2241
2238
2238
2238
2242
2242
2242
2242
2242
2242
2242
2239
2239
2239
2239
2239
2239
2241
2241
2241
2237
2237
2237
2238
2238
2238
2238
2238
2238
2238
2241
2241
2241
2238
2238
2238
2239
2239
2239
2237
2237
2237
2237
2237
2237
2237
2239
2239
2239
2238
2238
2238
2240
2240
2240
2238
2238
2238
2238
2240
2240
2240
2239
2239
2239
2236
2236
2236
2241
2241
2241
2237
2237
2237
2237
2238
2238
2238
2240
2240
2240
2237
2237
2237
2240
2240
2240
2238
2238
2238
2238
2238
2238
2238
2239
2239
2239
2235
2235
2235
2241
2241
2241
2248
2248
2248
2248
2236
2236
2236
2240
2240
2240
2242
2242
2242
2241
2241
2241
2242
2242
2242
2242
2241
2241
2241
2238
2238
2238
2238
2238
2238
2241
2241
2241
2241
2241
2241
2241
2237
2237
2237
2238
2238
2238
2238
2238
2238
2238
2238
2238
2237
2237
2237
2237
2238
2238
2238
2239
2239
2239
2239
2239
2239
2239
2239
2239
2237
2237
2237
2237
2237
2237
2237
2244
2244
2244
2238
2238
2238
2238
2238
2238
2237
2237
2237
2237
2239
2239
2239
2242
2242
2242
2238
2238
2238
2245
2245
2245
2238
2238
2238
2238
2237
2237
2237
2240
2240
2240
2240
2240
2240
2238
2238
2238
2237
2237
2237
2237
2235
2235
2235
2237
2237
2237
2240
2240
2240
2238
2238
2238
2245
2245
2245
2245
2237
2237
2237
2240
2240
2240
2237
2237
2237
2246
2246
2246
2237
2237
2237
2237
2239
2239
2239
2241
2241
2241
2238
2238
2238
2241
2241
2241
2238
2238
2238
2238
2236
2236
2236
2240
2240
2240
2236
2236
2236
2240
2240
2240
2238
2238
2238
2238
2238
2238
2238
2242
2242
2242
2238
2238
2238
2247
2247
2247
2242
2242
2242
2242
2238
2238
2238
2240
2240
2240
2240
2240
2240
2239
2239
2239
2238
2238
2238
2238
2239
2239
2239
2239
2239
2239
2237
2237
2237
2238
2238
2238
2235
2235
2235
2235
2239
2239
2239
2236
2236
2236
2240
2240
2240
2241
2241
2241
2237
2237
2237
2237
2238
2238
2238
2240
2240
2240
2240
2240
2240
2238
2238
2238
2239
2239
2239
2239
2234
2234
2234
2245
2245
2245
2239
2239
2239
2239
2239
2239
2241
2241
2241
2241
2241
2241
2241
2238
2238
2238
2241
2241
2241
2238
2238
2238
2241
2241
2241
2241
2242
2242
2242
2239
2239
2239
2238
2238
2238
2241
2241
2241
2239
2239
2239
2239
2237
2237
2237
2241
2241
2241
2243
2243
2243
2240
2240
2240
2240
2240
2240
2240
2239
2239
2239
2240
2240
2240
2238
2238
2238
2240
2240
2240
2235
2235
2235
2235
2240
2240
2240
2236
2236
2236
2238
2238
2238
2241
2241
2241
2239
2239
2239
2239
2240
2240
2240
2239
2239
2239
2241
2241
2241
2238
2238
2238
2236
2236
2236
2236
2238
2238
2238
2243
2243
2243
2238
2238
2238
2249
2249
2249
2238
2238
2238
2238
2237
2237
2237
2242
2242
2242
2237
2237
2237
2240
2240
2240
2239
2239
2239
2239
2238
2238
2238
2237
2237
2237
2239
2239
2239
2240
2240
2240
2236
2236
2236
2236
2238
2238
2238
2241
2241
2241
2238
2238
2238
2241
2241
2241
2241
2241
2241
2241
2227
2227
2227
2241
2241
2241
2235
2235
2235
2239
2239
2239
2237
2237
2237
2237
2237
2237
2237
2236
2236
2236
2240
2240
2240
2241
2241
2241
2238
2238
2238
2238
2238
2238
2238
2240
2240
2240
2241
2241
2241
2240
2240
2240
2239
2239
2239
2239
2241
2241
2241
2237
2237
2237
2242
2242
2242
2241
2241
2241
2238
2238
2238
2238
2242
2242
2242
2242
2242
2242
2240
2240
2240
2240
2240
2240
2238
2238
2238
2238
2238
2238
2238
2241
2241
2241
2238
2238
2238
2238
2238
2238
2238
2238
2238
2238
2239
2239
2239
2233
2233
2233
2240
2240
2240
2237
2237
2237
2238
2238
2238
2238
2238
2238
2238
2236
2236
2236
2238
2238
2238
2240
2240
2240
2238
2238
2238
2238
2236
2236
2236
2239
2239
2239
2239
2239
2239
2246
2246
2246
2239
2239
2239
2239
2236
2236
2236
2240
2240
2240
2241
2241
2241
2242
2242
2242
2235
2235
2235
2235
2234
2234
2234
2239
2239
2239
2238
2238
2238
2241
2241
2241
2245
2245
2245
2245
2237
2237
2237
2241
2241
2241
2238
2238
2238
2242
2242
2242
2245
2245
2245
2245
2239
2239
2239
2238
2238
2238
2235
2235
2235
2238
2238
2238
2239
2239
2239
2239
2239
2239
2239
2242
2242
2242
2238
2238
2238
2237
2237
2237
2239
2239
2239
2239
2235
2235
2235
2235
2235
2235
2236
2236
2236
2239
2239
2239
2240
2240
2240
2240
2238
2238
2238
2241
2241
2241
2236
2236
2236
2242
2242
2242
2238
2238
2238
2238
2237
2237
2237
2241
2241
2241
2238
2238
2238
2237
2237
2237
2239
2239
2239
2239
2238
2238
2238
2240
2240
2240
2235
2235
2235
2239
2239
2239
2239
2239
2239
2239
2236
2236
2236
2239
2239
2239
2240
2240
2240
2240
2240
2240
2235
2235
2235
2235
2233
2233
2233
2241
2241
2241
2238
2238
2238
2241
2241
2241
2233
2233
2233
2233
2237
2237
2237
2242
2242
2242
2237
2237
2237
2240
2240
2240
2241
2241
2241
2241
2237
2237
2237
2237
2237
2237
2242
2242
2242
2240
2240
2240
2239
2239
2239
2239
2237
2237
2237
2239
2239
2239
2237
2237
2237
2239
2239
2239
2238
2238
2238
2238
2238
2238
2238
2242
2242
2242
2237
2237
2237
2240
2240
2240
2238
2238
2238
2238
2238
2238
2238
2249
2249
2249
2237
2237
2237
2238
2238
2238
2239
2239
2239
2239
2239
2239
2239
2237
2237
2237
2241
2241
2241
2239
2239
2239
2241
2241
2241
2241
2237
2237
2237
2237
2237
2237
2238
2238
2238
2241
2241
2241
2238
2238
2238
2238
2241
2241
2241
2241
2241
2241
2238
2238
2238
2239
2239
2239
2235
2235
2235
2235
2238
2238
2238
2241
2241
2241
2236
2236
2236
2239
2239
2239
2239
2239
2239
2239
2234
2234
2234
2240
2240
2240
2239
2239
2239
2241
2241
2241
2245
2245
2245
2245
2238
2238
2238
2239
2239
2239
2237
2237
2237
2240
2240
2240
2238
2238
2238
2238
2239
2239
2239
2241
2241
2241
2238
2238
2238
2247
2247
2247
2237
2237
2237
2237
2236
2236
2236
2241
2241
2241
2237
2237
2237
2240
2240
2240
2236
2236
2236
2236
2240
2240
2240
2244
2244
2244
2237
2237
2237
2240
2240
2240
2240
2240
2240
2240
2238
2238
2238
2244
2244
2244
2236
2236
2236
2237
2237
2237
2243
2243
2243
2243
2239
2239
2239
2240
2240
2240
2241
2241
2241
2240
2240
2240
2238
2238
2238
2238
2241
2241
2241
2241
2241
2241
2237
2237
2237
2238
2238
2238
2238
2238
2238
2238
2230
2230
2230
2242
2242
2242
2240
2240
2240
2236
2236
2236
2234
2234
2234
2234
2235
2235
2235
2240
2240
2240
2237
2237
2237
2237
2237
2237
2242
2242
2242
2242
2242
2242
2242
2238
2238
2238
2237
2237
2237
2240
2240
2240
2237
2237
2237
2237
2238
2238
2238
2240
2240
2240
2236
2236
2236
2238
2238
2238
2238
2238
2238
2238
2241
2241
2241
2241
2241
2241
2240
2240
2240
2240
2240
2240
2237
2237
2237
2237
2239
2239
2239
2232
2232
2232
2235
2235
2235
2246
2246
2246
2236
2236
2236
2236
2236
2236
2236
2238
2238
2238
2237
2237
2237
2234
2234
2234
2239
2239
2239
2239
2236
2236
2236
2241
2241
2241
2239
2239
2239
2241
2241
2241
2239
2239
2239
2239
2240
2240
2240
2238
2238
2238
2241
2241
2241
2245
2245
2245
2234
2234
2234
2234
2237
2237
2237
2244
2244
2244
2235
2235
2235
2240
2240
2240
2237
2237
2237
2237
2233
2233
2233
2240
2240
2240
2235
2235
2235
2237
2237
2237
2234
2234
2234
2234
2241
2241
2241
2240
2240
2240
2242
2242
2242
2240
2240
2240
2230
2230
2230
2230
2238
2238
2238
2240
2240
2240
2234
2234
2234
2240
2240
2240
2236
2236
2236
2236
2235
2235
2235
2238
2238
2238
2238
2238
2238
2241
2241
2241
2238
2238
2238
2238
2239
2239
2239
2234
2234
2234
2236
2236
2236
2240
2240
2240
2237
2237
2237
2237
2238
2238
2238
2247
2247
2247
2238
2238
2238
2239
2239
2239
2235
2235
2235
2235
2237
2237
2237
2235
2235
2235
2238
2238
2238
2244
2244
2244
2239
2239
2239
2239
2239
2239
2239
2240
2240
2240
2239
2239
2239
2242
2242
2242
2240
2240
2240
2240
2236
2236
2236
2241
2241
2241
2239
2239
2239
2242
2242
2242
2235
2235
2235
2235
2239
2239
2239
2240
2240
2240
2237
2237
2237
2243
2243
2243
2236
2236
2236
2236
2239
2239
2239
2243
2243
2243
2241
2241
2241
2240
2240
2240
2234
2234
2234
2234
2238
2238
2238
2241
2241
2241
2236
2236
2236
2240
2240
2240
2235
2235
2235
2235
2237
2237
2237
2242
2242
2242
2237
2237
2237
2237
2237
2237
2238
2238
2238
2238
2237
2237
2237
2236
2236
2236
2238
2238
2238
2236
2236
2236
2239
2239
2239
2239
2239
2239
2239
2240
2240
2240
2240
2240
2240
2241
2241
2241
2237
2237
2237
2237
2237
2237
2237
2238
2238
2238
2239
2239
2239
2241
2241
2241
2239
2239
2239
2239
2237
2237
2237
2240
2240
2240
2239
2239
2239
2239
2239
2239
2241
2241
2241
2241
2243
2243
2243
2239
2239
2239
2239
2239
2239
2240
2240
2240
2242
2242
2242
2242
2237
2237
2237
2241
2241
2241
2240
2240
2240
2239
2239
2239
2239
2239
2239
2239
2237
2237
2237
2240
2240
2240
2238
2238
2238
2240
2240
2240
2237
2237
2237
2237
2237
2237
2237
2241
2241
2241
2245
2245
2245
2240
2240
2240
2240
2240
2240
2240
2237
2237
2237
2240
2240
2240
2235
2235
2235
2237
2237
2237
2238
2238
2238
2238
2241
2241
2241
2241
2241
2241
2239
2239
2239
2242
2242
2242
2239
2239
2239
2239
2239
2239
2239
2239
2239
2239
2236
2236
2236
2240
2240
2240
2237
2237
2237
2237
2236
2236
2236
2239
2239
2239
2239
2239
2239
2243
2243
2243
2239
2239
2239
2239
2237
2237
2237
2239
2239
2239
2239
2239
2239
2239
2239
2239
2237
2237
2237
2237
2237
2237
2237
2234
2234
2234
2238
2238
2238
2243
2243
2243
2238
2238
2238
2238
2239
2239
2239
2236
2236
2236
2238
2238
2238
2230
2230
2230
2237
2237
2237
2237
2237
2237
2237
2240
2240
2240
2238
2238
2238
2243
2243
2243
2238
2238
2238
2238
2237
2237
2237
2240
2240
2240
2240
2240
2240
2239
2239
2239
2236
2236
2236
2236
2239
2239
2239
2240
2240
2240
2245
2245
2245
2239
2239
2239
2239
2239
2239
2239
2238
2238
2238
2240
2240
2240
2238
2238
2238
2241
2241
2241
2238
2238
2238
2238
2238
2238
2238
2238
2238
2238
2235
2235
2235
2240
2240
2240
2238
2238
2238
2238
2240
2240
2240
2238
2238
2238
2238
2238
2238
2240
2240
2240
2244
2244
2244
2244
2237
2237
2237
2236
2236
2236
2239
2239
2239
2237
2237
2237
2237
2237
2237
2237
2240
2240
2240
2234
2234
2234
2240
2240
2240
2245
2245
2245
2239
2239
2239
2239
2241
2241
2241
2245
2245
2245
2239
2239
2239
2241
2241
2241
2238
2238
2238
2238
2241
2241
2241
2239
2239
2239
2240
2240
2240
2237
2237
2237
2238
2238
2238
2238
2241
2241
2241
2239
2239
2239
2237
2237
2237
2240
2240
2240
2236
2236
2236
2236
2242
2242
2242
2240
2240
2240
2239
2239
2239
2239
2239
2239
2235
2235
2235
2235
2237
2237
2237
2240
2240
2240
2239
2239
2239
2237
2237
2237
2239
2239
2239
2239
2239
2239
2239
2237
2237
2237
2239
2239
2239
2241
2241
2241
2239
2239
2239
2239
2237
2237
2237
2241
2241
2241
2237
2237
2237
2240
2240
2240
2238
2238
2238
2238
2240
2240
2240
2240
2240
2240
2239
2239
2239
2238
2238
2238
2238
2238
2238
2238
2238
2238
2238
2238
2238
2238
2240
2240
2240
2234
2234
2234
2241
2241
2241
2241
2240
2240
2240
2238
2238
2238
2238
2238
2238
2237
2237
2237
2236
2236
2236
2236
2238
2238
2238
2241
2241
2241
2239
2239
2239
2238
2238
2238
2240
2240
2240
2240
2238
2238
2238
2239
2239
2239
2237
2237
2237
2242
2242
2242
2234
2234
2234
2234
2238
2238
2238
2239
2239
2239
2238
2238
2238
2239
2239
2239
2234
2234
2234
2234
2237
2237
2237
2240
2240
2240
2236
2236
2236
2240
2240
2240
2241
2241
2241
2241
2241
2241
2241
2239
2239
2239
2237
2237
2237
2239
2239
2239
2243
2243
2243
2243
2237
2237
2237
2236
2236
2236
2244
2244
2244
2238
2238
2238
2240
2240
2240
2240
2242
2242
2242
2238
2238
2238
2237
2237
2237
2240
2240
2240
2237
2237
2237
2237
2238
2238
2238
2242
2242
2242
2240
2240
2240
2236
2236
2236
2241
2241
2241
2241
2238
2238
2238
2242
2242
2242
2237
2237
2237
2236
2236
2236
2238
2238
2238
2238
2238
2238
2238
2235
2235
2235
2239
2239
2239
2241
2241
2241
2238
2238
2238
2238
2239
2239
2239
2240
2240
2240
2241
2241
2241
2239
2239
2239
2239
2239
2239
2239
2236
2236
2236
2237
2237
2237
2237
2237
2237
2242
2242
2242
2237
2237
2237
2237
2236
2236
2236
2240
2240
2240
2242
2242
2242
2242
2242
2242
2237
2237
2237
2237
2248
2248
2248
2241
2241
2241
2242
2242
2242
2239
2239
2239
2240
2240
2240
2240
2235
2235
2235
2238
2238
2238
2234
2234
2234
2239
2239
2239
2241
2241
2241
2241
2236
2236
2236
2239
2239
2239
2236
2236
2236
2237
2237
2237
2234
2234
2234
2234
2238
2238
2238
2239
2239
2239
2237
2237
2237
2239
2239
2239
2238
2238
2238
2238
2239
2239
2239
2238
2238
2238
2238
2238
2238
2239
2239
2239
2243
2243
2243
2243
2239
2239
2239
2248
2248
2248
2239
2239
2239
2238
2238
2238
2239
2239
2239
2239
2238
2238
2238
2243
2243
2243
2234
2234
2234
2241
2241
2241
2239
2239
2239
2239
2237
2237
2237
2240
2240
2240
2238
2238
2238
2241
2241
2241
2241
2241
2241
2241
2239
2239
2239
2236
2236
2236
2238
2238
2238
2240
2240
2240
2236
2236
2236
2236
2230
2230
2230
2239
2239
2239
2241
2241
2241
2242
2242
2242
2238
2238
2238
2238
2237
2237
2237
2246
2246
2246
2240
2240
2240
2239
2239
2239
2239
2239
2239
2239
2236
2236
2236
2240
2240
2240
2237
2237
2237
2239
2239
2239
2241
2241
2241
2241
2238
2238
2238
2239
2239
2239
2237
2237
2237
2239
2239
2239
2244
2244
2244
2244
2239
2239
2239
2238
2238
2238
2239
2239
2239
2239
2239
2239
2237
2237
2237
2237
2236
2236
2236
2238
2238
2238
2237
2237
2237
2235
2235
2235
2239
2239
2239
2239
2241
2241
2241
2239
2239
2239
2238
2238
2238
2238
2238
2238
2238
2238
2238
2238
2238
2238
2238
2242
2242
2242
2239
2239
2239
2241
2241
2241
2237
2237
2237
2237
2235
2235
2235
2241
2241
2241
2238
2238
2238
2240
2240
2240
2237
2237
2237
2237
2238
2238
2238
2242
2242
2242
2239
2239
2239
2242
2242
2242
2242
2242
2242
2242
2236
2236
2236
2237
2237
2237
2237
2237
2237
2240
2240
2240
2239
2239
2239
2239
2242
2242
2242
2240
2240
2240
2237
2237
2237
2240
2240
2240
2241
2241
2241
2241
2237
2237
2237
2240
2240
2240
2237
2237
2237
2242
2242
2242
2239
2239
2239
2239
2237
2237
2237
2237
2237
2237
2238
2238
2238
2240
2240
2240
2239
2239
2239
2239
2239
2239
2239
2236
2236
2236
2237
2237
2237
2240
2240
2240
2237
2237
2237
2237
2239
2239
2239
2239
2239
2239
2236
2236
2236
2240
2240
2240
2238
2238
2238
2238
2236
2236
2236
2241
2241
2241
2238
2238
2238
2239
2239
2239
2239
2239
2239
2239
2241
2241
2241
2240
2240
2240
2240
2240
2240
2241
2241
2241
2237
2237
2237
2237
2239
2239
2239
2241
2241
2241
2237
2237
2237
2242
2242
2242
2233
2233
2233
2233
2234
2234
2234
2240
2240
2240
2239
2239
2239
2240
2240
2240
2240
2240
2240
2240
2237
2237
2237
2238
2238
2238
2239
2239
2239
2242
2242
2242
2240
2240
2240
2240
2236
2236
2236
2240
2240
2240
2242
2242
2242
2240
2240
2240
2238
2238
2238
2238
2239
2239
2239
2237
2237
2237
2238
2238
2238
2238
2238
2238
2239
2239
2239
2239
2241
2241
2241
2235
2235
2235
2239
2239
2239
2239
2239
2239
2238
2238
2238
2238
2239
2239
2239
2238
2238
2238
2235
2235
2235
2236
2236
2236
2238
2238
2238
2238
2241
2241
2241
2243
2243
2243
2239
2239
2239
2242
2242
2242
2239
2239
2239
2239
2239
2239
2239
2240
2240
2240
2237
2237
2237
2240
2240
2240
2238
2238
2238
2238
2237
2237
2237
2240
2240
2240
2238
2238
2238
2239
2239
2239
2236
2236
2236
2236
2241
2241
2241
2239
2239
2239
2235
2235
2235
2241
2241
2241
2239
2239
2239
2239
2242
2242
2242
2239
2239
2239
2235
2235
2235
2238
2238
2238
2238
2238
2238
2238
2243
2243
2243
2240
2240
2240
2242
2242
2242
2242
2242
2242
2240
2240
2240
2240
2236
2236
2236
2243
2243
2243
2236
2236
2236
2242
2242
2242
2239
2239
2239
2239
2243
2243
2243
2238
2238
2238
2239
2239
2239
2244
2244
2244
2239
2239
2239
2239
2237
2237
2237
2236
2236
2236
2237
2237
2237
2242
2242
2242
2239
2239
2239
2239
2249
2249
2249
2240
2240
2240
2229
2229
2229
2244
2244
2244
2233
2233
2233
2233
2245
2245
2245
2239
2239
2239
2239
2239
2239
2241
2241
2241
2236
2236
2236
2236
2237
2237
2237
2240
2240
2240
2239
2239
2239
2242
2242
2242
2239
2239
2239
2239
2237
2237
2237
2242
2242
2242
2236
2236
2236
2241
2241
2241
2236
2236
2236
2236
2237
2237
2237
2240
2240
2240
2236
2236
2236
2240
2240
2240
2235
2235
2235
2235
2238
2238
2238
2241
2241
2241
2239
2239
2239
2242
2242
2242
2240
2240
2240
2240
2236
2236
2236
2241
2241
2241
2238
2238
2238
2244
2244
2244
2239
2239
2239
2239
2238
2238
2238
2239
2239
2239
2238
2238
2238
2238
2238
2238
2238
2238
2238
2238
2244
2244
2244
2240
2240
2240
2239
2239
2239
2242
2242
2242
2239
2239
2239
2239
2237
2237
2237
2240
2240
2240
2237
2237
2237
2241
2241
2241
2237
2237
2237
2237
2238
2238
2238
2240
2240
2240
2238
2238
2238
2241
2241
2241
2238
2238
2238
2238
2235
2235
2235
2239
2239
2239
2240
2240
2240
2242
2242
2242
2236
2236
2236
2236
2237
2237
2237
2241
2241
2241
2237
2237
2237
2240
2240
2240
2236
2236
2236
2236
2239
2239
2239
2242
2242
2242
2238
2238
2238
2240
2240
2240
2239
2239
2239
2239
2240
2240
2240
2246
2246
2246
2243
2243
2243
2237
2237
2237
2239
2239
2239
2239
2242
2242
2242
2238
2238
2238
2239
2239
2239
2233
2233
2233
2239
2239
2239
2239
2238
2238
2238
2237
2237
2237
2240
2240
2240
2236
2236
2236
2239
2239
2239
2239
2240
2240
2240
2240
2240
2240
2238
2238
2238
2239
2239
2239
2236
2236
2236
2236
2240
2240
2240
2241
2241
2241
2238
2238
2238
2240
2240
2240
2242
2242
2242
2242
2236
2236
2236
2240
2240
2240
2239
2239
2239
2237
2237
2237
2235
2235
2235
2235
2242
2242
2242
2240
2240
2240
2243
2243
2243
2241
2241
2241
2238
2238
2238
2238
2236
2236
2236
2240
2240
2240
2236
2236
2236
2242
2242
2242
2236
2236
2236
2236
2235
2235
2235
2242
2242
2242
2238
2238
2238
2242
2242
2242
2235
2235
2235
2235
2240
2240
2240
2239
2239
2239
2241
2241
2241
2241
2241
2241
2236
2236
2236
2236
2238
2238
2238
2242
2242
2242
2238
2238
2238
2247
2247
2247
2236
2236
2236
2236
2240
2240
2240
2245
2245
2245
2237
2237
2237
2241
2241
2241
2239
2239
2239
2239
2239
2239
2239
2242
2242
2242
2238
2238
2238
2241
2241
2241
2240
2240
2240
2240
2245
2245
2245
2240
2240
2240
2231
2231
2231
2240
2240
2240
2234
2234
2234
2234
2243
2243
2243
2240
2240
2240
2233
2233
2233
2244
2244
2244
2236
2236
2236
2236
2234
2234
2234
2240
2240
2240
2238
2238
2238
2242
2242
2242
2238
2238
2238
2238
2237
2237
2237
2240
2240
2240
2239
2239
2239
2239
2239
2239
2235
2235
2235
2235
2239
2239
2239
2239
2239
2239
2239
2239
2239
2243
2243
2243
2241
2241
2241
2241
2237
2237
2237
2243
2243
2243
2237
2237
2237
2237
2237
2237
2237
2237
2237
2237
2237
2237
2237
2241
2241
2241
2240
2240
2240
2242
2242
2242
2239
2239
2239
2239
2238
2238
2238
2238
2238
2238
2239
2239
2239
2240
2240
2240
2238
2238
2238
2238
2237
2237
2237
2242
2242
2242
2238
2238
2238
2247
2247
2247
2242
2242
2242
2242
2240
2240
2240
2242
2242
2242
2237
2237
2237
2239
2239
2239
2236
2236
2236
2236
2242
2242
2242
2240
2240
2240
2237
2237
2237
2241
2241
2241
2237
2237
2237
2237
2237
2237
2237
2239
2239
2239
2234
2234
2234
2241
2241
2241
2238
2238
2238
2238
2240
2240
2240
2241
2241
2241
2239
2239
2239
2239
2239
2239
2239
2239
2239
2239
2241
2241
2241
2241
2241
2241
2239
2239
2239
2242
2242
2242
2240
2240
2240
2240
2236
2236
2236
2242
2242
2242
2237
2237
2237
2239
2239
2239
2244
2244
2244
2244
2239
2239
2239
2240
2240
2240
2243
2243
2243
2236
2236
2236
2239
2239
2239
2239
2240
2240
2240
2238
2238
2238
2239
2239
2239
2241
2241
2241
2239
2239
2239
2239
2240
2240
2240
2242
2242
2242
2240
2240
2240
2241
2241
2241
2237
2237
2237
2237
2237
2237
2237
2239
2239
2239
2237
2237
2237
2245
2245
2245
2236
2236
2236
2236
2236
2236
2236
2241
2241
2241
2239
2239
2239
2238
2238
2238
2233
2233
2233
2233
2240
2240
2240
2238
2238
2238
2235
2235
2235
2241
2241
2241
2242
2242
2242
2242
2241
2241
2241
2239
2239
2239
2238
2238
2238
2241
2241
2241
2237
2237
2237
2237
2236
2236
2236
2242
2242
2242
2240
2240
2240
2241
2241
2241
2237
2237
2237
2237
2239
2239
2239
2239
2239
2239
2238
2238
2238
2241
2241
2241
2242
2242
2242
2242
2241
2241
2241
2242
2242
2242
2239
2239
2239
2244
2244
2244
2238
2238
2238
2238
2238
2238
2238
2238
2238
2238
2239
2239
2239
2237
2237
2237
2239
2239
2239
2239
2240
2240
2240
2240
2240
2240
2240
2240
2240
2238
2238
2238
2236
2236
2236
2236
2239
2239
2239
2237
2237
2237
2238
2238
2238
2241
2241
2241
2236
2236
2236
2236
2241
2241
2241
2241
2241
2241
2239
2239
2239
2236
2236
2236
2234
2234
2234
2234
2239
2239
2239
2239
2239
2239
2236
2236
2236
2241
2241
2241
2238
2238
2238
2238
2240
2240
2240
2240
2240
2240
2234
2234
2234
2238
2238
2238
2237
2237
2237
2237
2238
2238
