2129
2129
2129
2124
2124
2124
2126
2126
2126
2134
2134
2134
2127
2127
2127
2127
2128
2128
2128
2129
2129
2129
2129
2129
2129
2129
2129
2129
2131
2131
2131
2131
2127
2127
2127
2127
2127
2127
2126
2126
2126
2130
2130
2130
2132
2132
2132
2132
2126
2126
2126
2130
2130
2130
2126
2126
2126
2129
2129
2129
2129
2129
2129
2129
2129
2129
2129
2129
2129
2129
2129
2129
2129
2131
2131
2131
2126
2126
2126
2126
2127
2127
2127
2121
2121
2121
2125
2125
2125
2133
2133
2133
2131
2131
2131
2131
2126
2126
2126
2129
2129
2129
2129
2129
2129
2135
2135
2135
2129
2129
2129
2129
2129
2129
2129
2130
2130
2130
2126
2126
2126
2133
2133
2133
2130
2130
2130
2130
2126
2126
2126
2129
2129
2129
2129
2129
2129
2127
2127
2127
2131
2131
2131
2131
2125
2125
2125
2128
2128
2128
2129
2129
2129
2129
2129
2129
2129
2129
2129
2129
2126
2126
2126
2129
2129
2129
2130
2130
2130
2135
2135
2135
2129
2129
2129
2129
2125
2125
2125
2129
2129
2129
2128
2128
2128
2132
2132
2132
2131
2131
2131
2131
2123
2123
2123
2128
2128
2128
2126
2126
2126
2136
2136
2136
2129
2129
2129
2129
2127
2127
2127
2130
2130
2130
2128
2128
2128
2132
2132
2132
2129
2129
2129
2129
2130
2130
2130
2133
2133
2133
2127
2127
2127
2131
2131
2131
2129
2129
2129
2129
2129
2129
2129
2126
2126
2126
2129
2129
2129
2132
2132
2132
2130
2130
2130
2130
2125
2125
2125
2132
2132
2132
2128
2128
2128
2129
2129
2129
2128
2128
2128
2128
2129
2129
2129
2131
2131
2131
2130
2130
2130
2128
2128
2128
2134
2134
2134
2134
2129
2129
2129
2133
2133
2133
2128
2128
2128
2128
2128
2128
2126
2126
2126
2126
2127
2127
2127
2132
2132
2132
2128
2128
2128
2132
2132
2132
2129
2129
2129
2129
2129
2129
2129
2129
2129
2129
2131
2131
2131
2129
2129
2129
2130
2130
2130
2130
2129
2129
2129
2130
2130
2130
2124
2124
2124
2131
2131
2131
2127
2127
2127
2127
2128
2128
2128
2127
2127
2127
2128
2128
2128
2132
2132
2132
2129
2129
2129
2129
2128
2128
2128
2130
2130
2130
2126
2126
2126
2133
2133
2133
2131
2131
2131
2131
2127
2127
2127
2127
2127
2127
2126
2126
2126
2132
2132
2132
2131
2131
2131
2131
2129
2129
2129
2129
2129
2129
2129
2129
2129
2129
2129
2129
2131
2131
2131
2131
2131
2131
2131
2125
2125
2125
2128
2128
2128
2131
2131
2131
2128
2128
2128
2128
2128
2128
2128
2132
2132
2132
2131
2131
2131
2130
2130
2130
2130
2130
2130
2130
2128
2128
2128
2129
2129
2129
2127
2127
2127
2131
2131
2131
2127
2127
2127
2127
2129
2129
2129
2128
2128
2128
2128
2128
2128
2132
2132
2132
2131
2131
2131
2131
2124
2124
2124
2131
2131
2131
2128
2128
2128
2128
2128
2128
2131
2131
2131
2131
2128
2128
2128
2125
2125
2125
2127
2127
2127
2128
2128
2128
2130
2130
2130
2130
2128
2128
2128
2129
2129
2129
2131
2131
2131
2130
2130
2130
2131
2131
2131
2131
2125
2125
2125
2128
2128
2128
2128
2128
2128
2130
2130
2130
2127
2127
2127
2127
2129
2129
2129
2127
2127
2127
2129
2129
2129
2132
2132
2132
2131
2131
2131
2131
2131
2131
2131
2125
2125
2125
2129
2129
2129
2132
2132
2132
2129
2129
2129
2129
2127
2127
2127
2128
2128
2128
2126
2126
2126
2129
2129
2129
2126
2126
2126
2126
2127
2127
2127
2126
2126
2126
2128
2128
2128
2130
2130
2130
2130
2130
2130
2130
2128
2128
2128
2127
2127
2127
2130
2130
2130
2131
2131
2131
2129
2129
2129
2129
2125
2125
2125
2129
2129
2129
2128
2128
2128
2132
2132
2132
2127
2127
2127
2127
2128
2128
2128
2129
2129
2129
2127
2127
2127
2131
2131
2131
2132
2132
2132
2132
2129
2129
2129
2128
2128
2128
2129
2129
2129
2129
2129
2129
2129
2129
2129
2129
2128
2128
2128
2129
2129
2129
2126
2126
2126
2130
2130
2130
2132
2132
2132
2132
2128
2128
2128
2128
2128
2128
2124
2124
2124
2132
2132
2132
2129
2129
2129
2129
2128
2128
2128
2129
2129
2129
2130
2130
2130
2127
2127
2127
2130
2130
2130
2130
2128
2128
2128
2129
2129
2129
2128
2128
2128
2133
2133
2133
2129
2129
2129
2129
2127
2127
2127
2129
2129
2129
2129
2129
2129
2129
2129
2129
2127
2127
2127
2127
2129
2129
2129
2130
2130
2130
2128
2128
2128
2134
2134
2134
2129
2129
2129
2129
2128
2128
2128
2129
2129
2129
2128
2128
2128
2125
2125
2125
2132
2132
2132
2132
2126
2126
2126
2128
2128
2128
2128
2128
2128
2132
2132
2132
2132
2132
2132
2132
2127
2127
2127
2131
2131
2131
2128
2128
2128
2131
2131
2131
2127
2127
2127
2127
2130
2130
2130
2126
2126
2126
2125
2125
2125
2132
2132
2132
2132
2132
2132
2132
2128
2128
2128
2132
2132
2132
2126
2126
2126
2131
2131
2131
2131
2131
2131
2131
2128
2128
2128
2127
2127
2127
2128
2128
2128
2131
2131
2131
2131
2131
2131
2131
2125
2125
2125
2131
2131
2131
2127
2127
2127
2133
2133
2133
2130
2130
2130
2130
2128
2128
2128
2128
2128
2128
2129
2129
2129
2127
2127
2127
2131
2131
2131
2131
2130
2130
2130
2129
2129
2129
2129
2129
2129
2129
2129
2129
2133
2133
2133
2133
2124
2124
2124
2123
2123
2123
2126
2126
2126
2133
2133
2133
2129
2129
2129
2129
2127
2127
2127
2131
2131
2131
2129
2129
2129
2132
2132
2132
2129
2129
2129
2129
2128
2128
2128
2129
2129
2129
2127
2127
2127
2132
2132
2132
2129
2129
2129
2129
2126
2126
2126
2128
2128
2128
2131
2131
2131
2129
2129
2129
2131
2131
2131
2131
2127
2127
2127
2129
2129
2129
2129
2129
2129
2127
2127
2127
2128
2128
2128
2128
2127
2127
2127
2131
2131
2131
2127
2127
2127
2126
2126
2126
2130
2130
2130
2130
2129
2129
2129
2128
2128
2128
2131
2131
2131
2135
2135
2135
2132
2132
2132
2132
2129
2129
2129
2130
2130
2130
2125
2125
2125
2133
2133
2133
2129
2129
2129
2129
2132
2132
2132
2129
2129
2129
2129
2129
2129
2130
2130
2130
2130
2130
2130
2130
2127
2127
2127
2134
2134
2134
2128
2128
2128
2132
2132
2132
2130
2130
2130
2130
2127
2127
2127
2127
2127
2127
2127
2127
2127
2130
2130
2130
2125
2125
2125
2125
2129
2129
2129
2127
2127
2127
2126
2126
2126
2132
2132
2132
2129
2129
2129
2129
2129
2129
2129
2130
2130
2130
2128
2128
2128
2130
2130
2130
2136
2136
2136
2136
2127
2127
2127
2133
2133
2133
2126
2126
2126
2131
2131
2131
2132
2132
2132
2132
2130
2130
2130
2126
2126
2126
2129
2129
2129
2132
2132
2132
2130
2130
2130
2130
2128
2128
2128
2131
2131
2131
2128
2128
2128
2132
2132
2132
2132
2132
2132
2132
2127
2127
2127
2128
2128
2128
2130
2130
2130
2135
2135
2135
2130
2130
2130
2130
2126
2126
2126
2130
2130
2130
2126
2126
2126
2131
2131
2131
2132
2132
2132
2132
2127
2127
2127
2126
2126
2126
2125
2125
2125
2130
2130
2130
2128
2128
2128
2128
2131
2131
2131
2128
2128
2128
2128
2128
2128
2136
2136
2136
2128
2128
2128
2128
2131
2131
2131
2131
2131
2131
2129
2129
2129
2131
2131
2131
2130
2130
2130
2130
2127
2127
2127
2129
2129
2129
2128
2128
2128
2130
2130
2130
2130
2130
2130
2130
2132
2132
2132
2130
2130
2130
2128
2128
2128
2131
2131
2131
2127
2127
2127
2127
2129
2129
2129
2128
2128
2128
2131
2131
2131
2124
2124
2124
2131
2131
2131
2131
2127
2127
2127
2131
2131
2131
2129
2129
2129
2132
2132
2132
2128
2128
2128
2128
2127
2127
2127
2129
2129
2129
2130
2130
2130
2132
2132
2132
2133
2133
2133
2133
2128
2128
2128
2129
2129
2129
2126
2126
2126
2130
2130
2130
2134
2134
2134
2134
2131
2131
2131
2123
2123
2123
2127
2127
2127
2129
2129
2129
2129
2129
2129
2129
2129
2129
2129
2129
2129
2129
2129
2129
2129
2133
2133
2133
2124
2124
2124
2124
2127
2127
2127
2128
2128
2128
2129
2129
2129
2135
2135
2135
2129
2129
2129
2129
2127
2127
2127
2134
2134
2134
2128
2128
2128
2132
2132
2132
2130
2130
2130
2130
2127
2127
2127
2132
2132
2132
2126
2126
2126
2131
2131
2131
2130
2130
2130
2130
2131
2131
2131
2128
2128
2128
2130
2130
2130
2133
2133
2133
2127
2127
2127
2127
2128
2128
2128
2127
2127
2127
2121
2121
2121
2129
2129
2129
2131
2131
2131
2131
2129
2129
2129
2128
2128
2128
2128
2128
2128
2131
2131
2131
2127
2127
2127
2127
2129
2129
2129
2127
2127
2127
2134
2134
2134
2135
2135
2135
2129
2129
2129
2129
2127
2127
2127
2130
2130
2130
2127
2127
2127
2131
2131
2131
2130
2130
2130
2130
2127
2127
2127
2129
2129
2129
2128
2128
2128
2133
2133
2133
2130
2130
2130
2130
2127
2127
2127
2127
2127
2127
2127
2127
2127
2130
2130
2130
2127
2127
2127
2127
2125
2125
2125
2128
2128
2128
2129
2129
2129
2132
2132
2132
2128
2128
2128
2128
2128
2128
2128
2132
2132
2132
2127
2127
2127
2129
2129
2129
2131
2131
2131
2131
2127
2127
2127
2133
2133
2133
2129
2129
2129
2131
2131
2131
2130
2130
2130
2130
2127
2127
2127
2130
2130
2130
2126
2126
2126
2123
2123
2123
2132
2132
2132
2132
2129
2129
2129
2126
2126
2126
2128
2128
2128
2132
2132
2132
2131
2131
2131
2131
2126
2126
2126
2129
2129
2129
2131
2131
2131
2132
2132
2132
2129
2129
2129
2129
2127
2127
2127
2127
2127
2127
2128
2128
2128
2130
2130
2130
2133
2133
2133
2133
2129
2129
2129
2126
2126
2126
2128
2128
2128
2128
2128
2128
2130
2130
2130
2130
2130
2130
2130
2129
2129
2129
2128
2128
2128
2136
2136
2136
2128
2128
2128
2128
2128
2128
2128
2129
2129
2129
2129
2129
2129
2132
2132
2132
2129
2129
2129
2129
2129
2129
2129
2129
2129
2129
2126
2126
2126
2135
2135
2135
2126
2126
2126
2126
2127
2127
2127
2130
2130
2130
2128
2128
2128
2131
2131
2131
2133
2133
2133
2133
2128
2128
2128
2128
2128
2128
2127
2127
2127
2134
2134
2134
2128
2128
2128
2128
2124
2124
2124
2130
2130
2130
2118
2118
2118
2131
2131
2131
2131
2131
2131
2131
2126
2126
2126
2130
2130
2130
2128
2128
2128
2132
2132
2132
2132
2132
2132
2132
2127
2127
2127
2127
2127
2127
2131
2131
2131
2131
2131
2131
2132
2132
2132
2132
2128
2128
2128
2130
2130
2130
2130
2130
2130
2135
2135
2135
2129
2129
2129
2129
2128
2128
2128
2128
2128
2128
2130
2130
2130
2132
2132
2132
2128
2128
2128
2128
2127
2127
2127
2132
2132
2132
2130
2130
2130
2134
2134
2134
2131
2131
2131
2131
2123
2123
2123
2130
2130
2130
2125
2125
2125
2133
2133
2133
2132
2132
2132
2132
2130
2130
2130
2129
2129
2129
2127
2127
2127
2131
2131
2131
2131
2131
2131
2131
2126
2126
2126
2131
2131
2131
2126
2126
2126
2130
2130
2130
2126
2126
2126
2126
2129
2129
2129
2132
2132
2132
2128
2128
2128
2129
2129
2129
2128
2128
2128
2128
2127
2127
2127
2120
2120
2120
2128
2128
2128
2129
2129
2129
2126
2126
2126
2126
2128
2128
2128
2131
2131
2131
2134
2134
2134
2127
2127
2127
2128
2128
2128
2128
2129
2129
2129
2131
2131
2131
2129
2129
2129
2130
2130
2130
2127
2127
2127
2127
2127
2127
2127
2131
2131
2131
2129
2129
2129
2128
2128
2128
2129
2129
2129
2129
2123
2123
2123
2131
2131
2131
2126
2126
2126
2125
2125
2125
2127
2127
2127
2127
2125
2125
2125
2130
2130
2130
2128
2128
2128
2127
2127
2127
2127
2127
2127
2127
2125
2125
2125
2128
2128
2128
2131
2131
2131
2132
2132
2132
2127
2127
2127
2127
2129
2129
2129
2130
2130
2130
2129
2129
2129
2134
2134
2134
2128
2128
2128
2128
2129
2129
2129
2131
2131
2131
2131
2131
2131
2131
2131
2131
2128
2128
2128
2128
2125
2125
2125
2132
2132
2132
2127
2127
2127
2128
2128
2128
2131
2131
2131
2131
2130
2130
2130
2123
2123
2123
2129
2129
2129
2130
2130
2130
2129
2129
2129
2129
2127
2127
2127
2127
2127
2127
2129
2129
2129
2133
2133
2133
2127
2127
2127
2127
2129
2129
2129
2131
2131
2131
2129
2129
2129
2132
2132
2132
2130
2130
2130
2130
2130
2130
2130
2130
2130
2130
2126
2126
2126
2131
2131
2131
2131
2131
2131
2131
2127
2127
2127
2130
2130
2130
2129
2129
2129
2132
2132
2132
2130
2130
2130
2130
2127
2127
2127
2131
2131
2131
2128
2128
2128
2129
2129
2129
2128
2128
2128
2128
2127
2127
2127
2130
2130
2130
2129
2129
2129
2123
2123
2123
2130
2130
2130
2130
2127
2127
2127
2129
2129
2129
2131
2131
2131
2133
2133
2133
2129
2129
2129
2129
2126
2126
2126
2132
2132
2132
2128
2128
2128
2132
2132
2132
2128
2128
2128
2128
2127
2127
2127
2135
2135
2135
2127
2127
2127
2132
2132
2132
2128
2128
2128
2128
2128
2128
2128
2129
2129
2129
2128
2128
2128
2131
2131
2131
2129
2129
2129
2129
2129
2129
2129
2129
2129
2129
2131
2131
2131
2131
2131
2131
2129
2129
2129
2129
2128
2128
2128
2131
2131
2131
2134
2134
2134
2133
2133
2133
2130
2130
2130
2130
2128
2128
2128
2128
2128
2128
2127
2127
2127
2129
2129
2129
2129
2129
2129
2129
2130
2130
2130
2128
2128
2128
2129
2129
2129
2132
2132
2132
2130
2130
2130
2130
2127
2127
2127
2130
2130
2130
2127
2127
2127
2128
2128
2128
2129
2129
2129
2129
2124
2124
2124
2130
2130
2130
2127
2127
2127
2134
2134
2134
2131
2131
2131
2131
2127
2127
2127
2126
2126
2126
2131
2131
2131
2131
2131
2131
2135
2135
2135
2135
2129
2129
2129
2123
2123
2123
2128
2128
2128
2130
2130
2130
2131
2131
2131
2131
2125
2125
2125
2126
2126
2126
2128
2128
2128
2131
2131
2131
2126
2126
2126
2126
2127
2127
2127
2129
2129
2129
2127
2127
2127
2132
2132
2132
2132
2132
2132
2132
2126
2126
2126
2128
2128
2128
2127
2127
2127
2129
2129
2129
2131
2131
2131
2131
2132
2132
2132
2126
2126
2126
2130
2130
2130
2131
2131
2131
2130
2130
2130
2130
2126
2126
2126
2130
2130
2130
2131
2131
2131
2129
2129
2129
2131
2131
2131
2131
2126
2126
2126
2129
2129
2129
2127
2127
2127
2133
2133
2133
2130
2130
2130
2130
2129
2129
2129
2129
2129
2129
2128
2128
2128
2134
2134
2134
2130
2130
2130
2130
2129
2129
2129
2128
2128
2128
2126
2126
2126
2126
2126
2126
2130
2130
2130
2130
2127
2127
2127
2128
2128
2128
2129
2129
2129
2132
2132
2132
2127
2127
2127
2127
2131
2131
2131
2129
2129
2129
2130
2130
2130
2130
2130
2130
2126
2126
2126
2126
2125
2125
2125
2126
2126
2126
2127
2127
2127
2129
2129
2129
2131
2131
2131
2131
2129
2129
2129
2131
2131
2131
2128
2128
2128
2127
2127
2127
2128
2128
2128
2128
2127
2127
2127
2128
2128
2128
2127
2127
2127
2130
2130
2130
2126
2126
2126
2126
2128
2128
2128
2128
2128
2128
2131
2131
2131
2130
2130
2130
2129
2129
2129
2129
2126
2126
2126
2131
2131
2131
2131
2131
2131
2131
2131
2131
2132
2132
2132
2132
2130
2130
2130
2128
2128
2128
2128
2128
2128
2131
2131
2131
2130
2130
2130
2130
2130
2130
2130
2130
2130
2130
2129
2129
2129
2130
2130
2130
2131
2131
2131
2131
2130
2130
2130
2127
2127
2127
2129
2129
2129
2131
2131
2131
2131
2131
2131
2131
2125
2125
2125
2128
2128
2128
2127
2127
2127
2131
2131
2131
2130
2130
2130
2130
2130
2130
2130
2129
2129
2129
2128
2128
2128
2131
2131
2131
2132
2132
2132
2132
2126
2126
2126
2129
2129
2129
2128
2128
2128
2131
2131
2131
2131
2131
2131
2131
2125
2125
2125
2136
2136
2136
2126
2126
2126
2131
2131
2131
2131
2131
2131
2131
2130
2130
2130
2129
2129
2129
2128
2128
2128
2133
2133
2133
2128
2128
2128
2128
2130
2130
2130
2130
2130
2130
2127
2127
2127
2132
2132
2132
2129
2129
2129
2129
2126
2126
2126
2128
2128
2128
2130
2130
2130
2135
2135
2135
2128
2128
2128
2128
2129
2129
2129
2127
2127
2127
2127
2127
2127
2131
2131
2131
2128
2128
2128
2128
2128
2128
2128
2131
2131
2131
2127
2127
2127
2130
2130
2130
2130
2130
2130
2130
2129
2129
2129
2129
2129
2129
2129
2129
2129
2130
2130
2130
2129
2129
2129
2129
2131
2131
2131
2129
2129
2129
2130
2130
2130
2133
2133
2133
2128
2128
2128
2128
2129
2129
2129
2129
2129
2129
2127
2127
2127
2133
2133
2133
2127
2127
2127
2127
2127
2127
2127
2130
2130
2130
2129
2129
2129
2134
2134
2134
2130
2130
2130
2130
2130
2130
2130
2134
2134
2134
2127
2127
2127
2129
2129
2129
2130
2130
2130
2130
2129
2129
2129
2122
2122
2122
2126
2126
2126
2128
2128
2128
2127
2127
2127
2127
2130
2130
2130
2129
2129
2129
2128
2128
2128
2129
2129
2129
2130
2130
2130
2130
2126
2126
2126
2129
2129
2129
2130
2130
2130
2129
2129
2129
2127
2127
2127
2127
2126
2126
2126
2131
2131
2131
2129
2129
2129
2129
2129
2129
2128
2128
2128
2128
2126
2126
2126
2129
2129
2129
2127
2127
2127
2132
2132
2132
2126
2126
2126
2126
2123
2123
2123
2129
2129
2129
2131
2131
2131
2125
2125
2125
2128
2128
2128
2128
2130
2130
2130
2129
2129
2129
2130
2130
2130
2131
2131
2131
2130
2130
2130
2130
2127
2127
2127
2131
2131
2131
2128
2128
2128
2129
2129
2129
2130
2130
2130
2130
2126
2126
2126
2123
2123
2123
2128
2128
2128
2131
2131
2131
2129
2129
2129
2129
2127
2127
2127
2124
2124
2124
2127
2127
2127
2130
2130
2130
2132
2132
2132
2132
2126
2126
2126
2127
2127
2127
2128
2128
2128
2131
2131
2131
2128
2128
2128
2128
2127
2127
2127
2131
2131
2131
2126
2126
2126
2131
2131
2131
2129
2129
2129
2129
2128
2128
2128
2129
2129
2129
2133
2133
2133
2131
2131
2131
2129
2129
2129
2129
2128
2128
2128
2131
2131
2131
2129
2129
2129
2130
2130
2130
2131
2131
2131
2131
2128
2128
2128
2128
2128
2128
2132
2132
2132
2134
2134
2134
2131
2131
2131
2131
2126
2126
2126
2128
2128
2128
2125
2125
2125
2132
2132
2132
2131
2131
2131
2131
2129
2129
2129
2128
2128
2128
2126
2126
2126
2133
2133
2133
2128
2128
2128
2128
2128
2128
2128
2130
2130
2130
2130
2130
2130
2128
2128
2128
2133
2133
2133
2133
2129
2129
2129
2129
2129
2129
2127
2127
2127
2132
2132
2132
2134
2134
2134
2134
2126
2126
2126
2129
2129
2129
2127
2127
2127
2133
2133
2133
2128
2128
2128
2128
2126
2126
2126
2133
2133
2133
2130
2130
2130
2133
2133
2133
2128
2128
2128
2128
2127
2127
2127
2128
2128
2128
2128
2128
2128
2129
2129
2129
2129
2129
2129
2129
2128
2128
2128
2130
2130
2130
2126
2126
2126
2131
2131
2131
2129
2129
2129
2129
2128
2128
2128
2128
2128
2128
2129
2129
2129
2135
2135
2135
2124
2124
2124
2124
2128
2128
2128
2129
2129
2129
2130
2130
2130
2129
2129
2129
2130
2130
2130
2130
2130
2130
2130
2130
2130
2130
2127
2127
2127
2133
2133
2133
2129
2129
2129
2129
2131
2131
2131
2129
2129
2129
2129
2129
2129
2131
2131
2131
2129
2129
2129
2129
2127
2127
2127
2128
2128
2128
2128
2128
2128
2133
2133
2133
2129
2129
2129
2129
2127
2127
2127
2129
2129
2129
2129
2129
2129
2131
2131
2131
2130
2130
2130
2130
2126
2126
2126
2126
2126
2126
2129
2129
2129
2131
2131
2131
2132
2132
2132
2132
2129
2129
2129
2126
2126
2126
2128
2128
2128
2131
2131
2131
2130
2130
2130
2130
2127
2127
2127
2129
2129
2129
2132
2132
2132
2131
2131
2131
2130
2130
2130
2130
2130
2130
2130
2127
2127
2127
2127
2127
2127
2128
2128
2128
2127
2127
2127
2127
2127
2127
2127
2125
2125
2125
2127
2127
2127
2131
2131
2131
2130
2130
2130
2130
2125
2125
2125
2130
2130
2130
2127
2127
2127
2134
2134
2134
2129
2129
2129
2129
2129
2129
2129
2128
2128
2128
2128
2128
2128
2127
2127
2127
2131
2131
2131
2131
2131
2131
2131
2128
2128
2128
2129
2129
2129
2133
2133
2133
2131
2131
2131
2131
2125
2125
2125
2129
2129
2129
2127
2127
2127
2132
2132
2132
2127
2127
2127
2127
2129
2129
2129
2127
2127
2127
2129
2129
2129
2131
2131
2131
2133
2133
2133
2133
2127
2127
2127
2127
2127
2127
2128
2128
2128
2131
2131
2131
2132
2132
2132
2132
2127
2127
2127
2129
2129
2129
2130
2130
2130
2129
2129
2129
2128
2128
2128
2128
2123
2123
2123
2132
2132
2132
2130
2130
2130
2128
2128
2128
2129
2129
2129
2129
2127
2127
2127
2129
2129
2129
2130
2130
2130
2132
2132
2132
2132
2132
2132
2132
2127
2127
2127
2130
2130
2130
2125
2125
2125
2134
2134
2134
2130
2130
2130
2130
2130
2130
2130
2129
2129
2129
2127
2127
2127
2131
2131
2131
2125
2125
2125
2125
2127
2127
2127
2132
2132
2132
2128
2128
2128
2133
2133
2133
2130
2130
2130
2130
2132
2132
2132
2130
2130
2130
2129
2129
2129
2134
2134
2134
2127
2127
2127
2127
2126
2126
2126
2132
2132
2132
2128
2128
2128
2130
2130
2130
2133
2133
2133
2133
2129
2129
2129
2133
2133
2133
2129
2129
2129
2131
2131
2131
2132
2132
2132
2132
2129
2129
2129
2126
2126
2126
2126
2126
2126
2130
2130
2130
2129
2129
2129
2129
2127
2127
2127
2128
2128
2128
2130
2130
2130
2132
2132
2132
2128
2128
2128
2128
2129
2129
2129
2127
2127
2127
2130
2130
2130
2131
2131
2131
2129
2129
2129
2129
2127
2127
2127
2129
2129
2129
2133
2133
2133
2133
2133
2133
2129
2129
2129
2129
2126
2126
2126
2127
2127
2127
2129
2129
2129
2131
2131
2131
2135
2135
2135
2135
2128
2128
2128
2128
2128
2128
2127
2127
2127
2133
2133
2133
2129
2129
2129
2129
2128
2128
2128
2129
2129
2129
2128
2128
2128
2131
2131
2131
2129
2129
2129
2129
2126
2126
2126
2130
2130
2130
2128
2128
2128
2129
2129
2129
2127
2127
2127
2127
2128
2128
2128
2132
2132
2132
2132
2132
2132
2130
2130
2130
2133
2133
2133
2133
2127
2127
2127
2129
2129
2129
2128
2128
2128
2129
2129
2129
2127
2127
2127
2127
2128
2128
2128
2129
2129
2129
2125
2125
2125
2130
2130
2130
2129
2129
2129
2129
2126
2126
2126
2129
2129
2129
2129
2129
2129
2130
2130
2130
2129
2129
2129
2129
2123
2123
2123
2130
2130
2130
2128
2128
2128
2135
2135
2135
2130
2130
2130
2130
2127
2127
2127
2130
2130
2130
2127
2127
2127
2131
2131
2131
2127
2127
2127
2127
2129
2129
2129
2130
2130
2130
2131
2131
2131
2126
2126
2126
2129
2129
2129
2129
2127
2127
2127
2129
2129
2129
2128
2128
2128
2128
2128
2128
2126
2126
2126
2126
2127
2127
2127
2130
2130
2130
2126
2126
2126
2130
2130
2130
2127
2127
2127
2127
2129
2129
2129
2123
2123
2123
2127
2127
2127
2126
2126
2126
2113
2113
2113
2113
2128
2128
2128
2123
2123
2123
2128
2128
2128
2129
2129
2129
2124
2124
2124
2124
2129
2129
2129
2128
2128
2128
2128
2128
2128
2132
2132
2132
2128
2128
2128
2128
2126
2126
2126
2127
2127
2127
2124
2124
2124
2133
2133
2133
2129
2129
2129
2129
2127
2127
2127
2129
2129
2129
2127
2127
2127
2128
2128
2128
2131
2131
2131
2131
2127
2127
2127
2127
2127
2127
2130
2130
2130
2130
2130
2130
2130
2130
2130
2130
2129
2129
2129
2130
2130
2130
2129
2129
2129
2132
2132
2132
2130
2130
2130
2130
2127
2127
2127
2128
2128
2128
2128
2128
2128
2128
2128
2128
2127
2127
2127
2127
2126
2126
2126
2130
2130
2130
2128
2128
2128
2129
2129
2129
2130
2130
2130
2130
2126
2126
2126
2130
2130
2130
2129
2129
2129
2131
2131
2131
2131
2131
2131
2131
2125
2125
2125
2131
2131
2131
2128
2128
2128
2131
2131
2131
2132
2132
2132
2132
2127
2127
2127
2130
2130
2130
2129
2129
2129
2132
2132
2132
2131
2131
2131
2131
2127
2127
2127
2128
2128
2128
2131
2131
2131
2130
2130
2130
2132
2132
2132
2132
2129
2129
2129
2129
2129
2129
2124
2124
2124
2129
2129
2129
2130
2130
2130
2130
2129
2129
2129
2132
2132
2132
2129
2129
2129
2130
2130
2130
2132
2132
2132
2132
2128
2128
2128
2128
2128
2128
2128
2128
2128
2130
2130
2130
2129
2129
2129
2129
2129
2129
2129
2129
2129
2129
2128
2128
2128
2137
2137
2137
2132
2132
2132
2132
2129
2129
2129
2124
2124
2124
2129
2129
2129
2129
2129
2129
2129
2129
2129
2129
2125
2125
2125
2131
2131
2131
2129
2129
2129
2128
2128
2128
2132
2132
2132
2132
2127
2127
2127
2125
2125
2125
2130
2130
2130
2131
2131
2131
2128
2128
2128
2128
2127
2127
2127
2128
2128
2128
2126
2126
2126
2130
2130
2130
2132
2132
2132
2132
2126
2126
2126
2128
2128
2128
2127
2127
2127
2128
2128
2128
2133
2133
2133
2133
2128
2128
2128
2132
2132
2132
2131
2131
2131
2131
2131
2131
2125
2125
2125
2125
2129
2129
2129
2130
2130
2130
2128
2128
2128
2132
2132
2132
2131
2131
2131
2131
2128
2128
2128
2130
2130
2130
2127
2127
2127
2137
2137
2137
2130
2130
2130
2130
2125
2125
2125
2134
2134
2134
2127
2127
2127
2128
2128
2128
2129
2129
2129
2129
2128
2128
2128
2129
2129
2129
2127
2127
2127
2132
2132
2132
2130
2130
2130
2130
2130
2130
2130
2129
2129
2129
2127
2127
2127
2129
2129
2129
2128
2128
2128
2128
2128
2128
2128
2129
2129
2129
2128
2128
2128
2129
2129
2129
2129
2129
2129
2129
2129
2129
2129
2129
2129
2129
2128
2128
2128
2131
2131
2131
2129
2129
2129
2129
2128
2128
2128
2130
2130
2130
2124
2124
2124
2129
2129
2129
2130
2130
2130
2130
2127
2127
2127
2130
2130
2130
2128
2128
2128
2131
2131
2131
2131
2131
2131
2131
2130
2130
2130
2129
2129
2129
2128
2128
2128
2134
2134
2134
2131
2131
2131
2131
2129
2129
2129
2129
2129
2129
2127
2127
2127
2128
2128
2128
2131
2131
2131
2131
2124
2124
2124
2129
2129
2129
2128
2128
2128
2130
2130
2130
2128
2128
2128
2128
2125
2125
2125
2127
2127
2127
2130
2130
2130
2130
2130
2130
2128
2128
2128
2128
2128
2128
2128
2130
2130
2130
2128
2128
2128
2133
2133
2133
2126
2126
2126
2126
2127
2127
2127
2131
2131
2131
2126
2126
2126
2132
2132
2132
2132
2132
2132
2132
2126
2126
2126
2132
2132
2132
2130
2130
2130
2129
2129
2129
2128
2128
2128
2128
2129
2129
2129
2130
2130
2130
2132
2132
2132
2130
2130
2130
2133
2133
2133
2133
2129
2129
2129
2127
2127
2127
2128
2128
2128
2129
2129
2129
2131
2131
2131
2131
2126
2126
2126
2129
2129
2129
2127
2127
2127
2129
2129
2129
2129
2129
2129
2129
2127
2127
2127
2129
2129
2129
2132
2132
2132
2135
2135
2135
2129
2129
2129
2129
2125
2125
2125
2125
2125
2125
2128
2128
2128
2133
2133
2133
2130
2130
2130
2130
2129
2129
2129
2128
2128
2128
2128
2128
2128
2131
2131
2131
2133
2133
2133
2133
2127
2127
2127
2127
2127
2127
2127
2127
2127
2135
2135
2135
2132
2132
2132
2132
2127
2127
2127
2133
2133
2133
2128
2128
2128
2132
2132
2132
2130
2130
2130
2130
2127
2127
2127
2132
2132
2132
2127
2127
2127
2130
2130
2130
2129
2129
2129
2129
2127
2127
2127
2128
2128
2128
2131
2131
2131
2130
2130
2130
2130
2130
2130
2130
2130
2130
2130
2127
2127
2127
2131
2131
2131
2131
2131
2131
2131
2131
2131
2131
2125
2125
2125
2132
2132
2132
2127
2127
2127
2133
2133
2133
2129
2129
2129
2129
2128
2128
2128
2128
2128
2128
2129
2129
2129
2128
2128
2128
2129
2129
2129
2129
2130
2130
2130
2134
2134
2134
2126
2126
2126
2131
2131
2131
2131
2131
2131
2131
2127
2127
2127
2125
2125
2125
2127
2127
2127
2126
2126
2126
2130
2130
2130
2130
2128
2128
2128
2130
2130
2130
2129
2129
2129
2133
2133
2133
2131
2131
2131
2131
2125
2125
2125
2124
2124
2124
2129
2129
2129
2131
2131
2131
2128
2128
2128
2128
2129
2129
2129
2129
2129
2129
2125
2125
2125
2131
2131
2131
2129
2129
2129
2129
2129
2129
2129
2130
2130
2130
2124
2124
2124
2132
2132
2132
2132
2132
2132
2132
2127
2127
2127
2125
2125
2125
2124
2124
2124
2128
2128
2128
2130
2130
2130
2130
2128
2128
2128
2129
2129
2129
2127
2127
2127
2130
2130
2130
2127
2127
2127
2127
2127
2127
2127
2127
2127
2127
2128
2128
2128
2133
2133
2133
2123
2123
2123
2123
2126
2126
2126
2132
2132
2132
2128
2128
2128
2131
2131
2131
2128
2128
2128
2128
2125
2125
2125
2129
2129
2129
2127
2127
2127
2131
2131
2131
2134
2134
2134
2134
2125
2125
2125
2130
2130
2130
2123
2123
2123
2130
2130
2130
2130
2130
2130
2130
2129
2129
2129
2129
2129
2129
2129
2129
2129
2131
2131
2131
2134
2134
2134
2134
2129
2129
2129
2129
2129
2129
2135
2135
2135
2131
2131
2131
2131
2131
2131
2131
2127
2127
2127
2129
2129
2129
2131
2131
2131
2129
2129
2129
2130
2130
2130
2130
2127
2127
2127
2129
2129
2129
2130
2130
2130
2128
2128
2128
2131
2131
2131
2131
2120
2120
2120
2129
2129
2129
2129
2129
2129
2135
2135
2135
2130
2130
2130
2130
2131
2131
2131
2129
2129
2129
2129
2129
2129
2131
2131
2131
2131
2131
2131
2131
2127
2127
2127
2127
2127
2127
2129
2129
2129
2130
2130
2130
2124
2124
2124
2124
2129
2129
2129
2127
2127
2127
2128
2128
2128
2130
2130
2130
2128
2128
2128
2128
2126
2126
2126
2130
2130
2130
2126
2126
2126
2127
2127
2127
2129
2129
2129
2129
2128
2128
2128
2130
2130
2130
2127
2127
2127
2131
2131
2131
2133
2133
2133
2133
2128
2128
2128
2131
2131
2131
2127
2127
2127
2131
2131
2131
2129
2129
2129
2129
2126
2126
2126
2131
2131
2131
2129
2129
2129
2130
2130
2130
2129
2129
2129
2129
2130
2130
2130
2131
2131
2131
2125
2125
2125
2133
2133
2133
2130
2130
2130
2130
2131
2131
2131
2128
2128
2128
2127
2127
2127
2134
2134
2134
2127
2127
2127
2127
2129
2129
2129
2128
2128
2128
2129
2129
2129
2131
2131
2131
2130
2130
2130
2130
2125
2125
2125
2130
2130
2130
2130
2130
2130
2131
2131
2131
2129
2129
2129
2129
2128
2128
2128
2129
2129
2129
2131
2131
2131
2127
2127
2127
2129
2129
2129
2129
2128
2128
2128
2129
2129
2129
2129
2129
2129
2130
2130
2130
2127
2127
2127
2127
2124
2124
2124
2128
2128
2128
2129
2129
2129
2131
2131
2131
2128
2128
2128
2128
2126
2126
2126
2131
2131
2131
2129
2129
2129
2127
2127
2127
2128
2128
2128
2128
2126
2126
2126
2130
2130
2130
2128
2128
2128
2133
2133
2133
2131
2131
2131
2131
2133
2133
2133
2132
2132
2132
2127
2127
2127
2133
2133
2133
2131
2131
2131
2131
2128
2128
2128
2126
2126
2126
2129
2129
2129
2132
2132
2132
2129
2129
2129
2129
2127
2127
2127
2131
2131
2131
2128
2128
2128
2130
2130
2130
2127
2127
2127
2127
2126
2126
2126
2131
2131
2131
2128
2128
2128
2132
2132
2132
2126
2126
2126
2126
2129
2129
2129
2130
2130
2130
2123
2123
2123
2131
2131
2131
2129
2129
2129
2129
2127
2127
2127
2131
2131
2131
2125
2125
2125
2132
2132
2132
2130
2130
2130
2130
2124
2124
2124
2127
2127
2127
2128
2128
2128
2130
2130
2130
2130
2130
2130
2130
2129
2129
2129
2128
2128
2128
2126
2126
2126
2132
2132
2132
2130
2130
2130
2130
2129
2129
2129
2129
2129
2129
2129
2129
2129
2131
2131
2131
2129
2129
2129
2129
2126
2126
2126
2130
2130
2130
2126
2126
2126
2131
2131
2131
2126
2126
2126
2126
2129
2129
2129
2122
2122
2122
2129
2129
2129
2131
2131
2131
2128
2128
2128
2128
2127
2127
2127
2129
2129
2129
2129
2129
2129
2133
2133
2133
2130
2130
2130
2130
2132
2132
2132
2130
2130
2130
2127
2127
2127
2133
2133
2133
2128
2128
2128
2128
2132
2132
2132
2127
2127
2127
2127
2127
2127
2130
2130
2130
2131
2131
2131
2131
2129
2129
2129
2129
2129
2129
2127
2127
2127
2131
2131
2131
2130
2130
2130
2130
2126
2126
2126
2128
2128
2128
2128
2128
2128
2124
2124
2124
2131
2131
2131
2131
2129
2129
2129
2128
2128
2128
2128
2128
2128
2133
2133
2133
2130
2130
2130
2130
2128
2128
2128
2130
2130
2130
2131
2131
2131
2130
2130
2130
2136
2136
2136
2136
2129
2129
2129
2132
2132
2132
2128
2128
2128
2131
2131
2131
2126
2126
2126
2126
2129
2129
2129
2130
2130
2130
2128
2128
2128
2132
2132
2132
2129
2129
2129
2129
2125
2125
2125
2129
2129
2129
2125
2125
2125
2131
2131
2131
2130
2130
2130
2130
2127
2127
2127
2129
2129
2129
2129
2129
2129
2132
2132
2132
2129
2129
2129
2129
2128
2128
2128
2131
2131
2131
2127
2127
2127
2130
2130
2130
2130
2130
2130
2130
2133
2133
2133
2129
2129
2129
2127
2127
2127
2129
2129
2129
2130
2130
2130
2130
2126
2126
2126
2130
2130
2130
2130
2130
2130
2136
2136
2136
2128
2128
2128
2128
2129
2129
2129
2129
2129
2129
2127
2127
2127
2131
2131
2131
2130
2130
2130
2130
2129
2129
2129
2131
2131
2131
2133
2133
2133
2130
2130
2130
2130
2130
2130
2130
2125
2125
2125
2132
2132
2132
2127
2127
2127
2132
2132
2132
2131
2131
2131
2131
2125
2125
2125
2129
2129
2129
2132
2132
2132
2131
2131
2131
2128
2128
2128
2128
2128
2128
2128
2131
2131
2131
2119
2119
2119
2130
2130
2130
2134
2134
2134
2134
2126
2126
2126
2129
2129
2129
2127
2127
2127
2131
2131
2131
2129
2129
2129
2129
2128
2128
2128
2129
2129
2129
2128
2128
2128
2129
2129
2129
2130
2130
2130
2130
2127
2127
2127
2130
2130
2130
2127
2127
2127
2136
2136
2136
2130
2130
2130
2130
2127
2127
2127
2129
2129
2129
2127
2127
2127
2128
2128
2128
2131
2131
2131
2131
2130
2130
2130
2131
2131
2131
2127
2127
2127
2132
2132
2132
2133
2133
2133
2133
2127
2127
2127
2128
2128
2128
2129
2129
2129
2133
2133
2133
2128
2128
2128
2128
2129
2129
2129
2128
2128
2128
2128
2128
2128
2132
2132
2132
2129
2129
2129
2129
2126
2126
2126
2128
2128
2128
2129
2129
2129
2128
2128
2128
2129
2129
2129
2129
2127
2127
2127
2130
2130
2130
2123
2123
2123
2129
2129
2129
2127
2127
2127
2127
2127
2127
2127
2126
2126
2126
2130
2130
2130
2133
2133
2133
2128
2128
2128
2128
2131
2131
2131
2132
2132
2132
2128
2128
2128
2129
2129
2129
2128
2128
2128
2128
2132
2132
2132
2129
2129
2129
2133
2133
2133
2130
2130
2130
2131
2131
2131
2131
2125
2125
2125
2129
2129
2129
2128
2128
2128
2135
2135
2135
2130
2130
2130
2130
2130
2130
2130
2130
2130
2130
2129
2129
2129
2131
2131
2131
2128
2128
2128
2128
2127
2127
2127
2127
2127
2127
2127
2127
2127
2130
2130
2130
2131
2131
2131
2131
2125
2125
2125
2127
2127
2127
2129
2129
2129
2133
2133
2133
2132
2132
2132
2132
2127
2127
2127
2127
2127
2127
2128
2128
2128
2132
2132
2132
2129
2129
2129
2129
2129
2129
2129
2128
2128
2128
2130
2130
2130
2131
2131
2131
2130
2130
2130
2130
2127
2127
2127
2129
2129
2129
2129
2129
2129
2132
2132
2132
2127
2127
2127
2127
2128
2128
2128
2132
2132
2132
2126
2126
2126
2132
2132
2132
2130
2130
2130
2130
2129
2129
2129
2129
2129
2129
2126
2126
2126
2135
2135
2135
2129
2129
2129
2129
2131
2131
2131
2128
2128
2128
2128
2128
2128
2130
2130
2130
2129
2129
2129
2129
2125
2125
2125
2130
2130
2130
2129
2129
2129
2132
2132
2132
2131
2131
2131
2131
2127
2127
2127
2131
2131
2131
2125
2125
2125
2134
2134
2134
2126
2126
2126
2126
2127
2127
2127
2130
2130
2130
2129
2129
2129
2131
2131
2131
2133
2133
2133
2133
2127
2127
2127
2131
2131
2131
2127
2127
2127
2131
2131
2131
2129
2129
2129
2129
2126
2126
2126
2131
2131
2131
2128
2128
2128
2130
2130
2130
2129
2129
2129
2129
2129
2129
2129
2128
2128
2128
2129
2129
2129
2134
2134
2134
2131
2131
2131
2131
2125
2125
2125
2131
2131
2131
2129
2129
2129
2131
2131
2131
2130
2130
2130
2130
2127
2127
2127
2129
2129
2129
2131
2131
2131
2133
2133
2133
2127
2127
2127
2127
2127
2127
2127
2129
2129
2129
2128
2128
2128
2131
2131
2131
2128
2128
2128
2128
2130
2130
2130
2129
2129
2129
2126
2126
2126
2131
2131
2131
2131
2131
2131
2131
2125
2125
2125
2127
2127
2127
2130
2130
2130
2131
2131
2131
2123
2123
2123
2123
2127
2127
2127
2127
2127
2127
2129
2129
2129
2131
2131
2131
2128
2128
2128
2128
2124
2124
2124
2127
2127
2127
2129
2129
2129
2130
2130
2130
2132
2132
2132
2132
2128
2128
2128
2128
2128
2128
2133
2133
2133
2131
2131
2131
2129
2129
2129
2129
2127
2127
2127
2128
2128
2128
2131
2131
2131
2133
2133
2133
2133
2133
2133
2133
2129
2129
2129
2128
2128
2128
2129
2129
2129
2131
2131
2131
2129
2129
2129
2129
2128
2128
2128
2129
2129
2129
2127
2127
2127
2128
2128
2128
2130
2130
2130
2130
2127
2127
2127
2127
2127
2127
2127
2127
2127
2137
2137
2137
2128
2128
2128
2128
2128
2128
2128
2130
2130
2130
2126
2126
2126
2130
2130
2130
2132
2132
2132
2132
2126
2126
2126
2129
2129
2129
2127
2127
2127
2131
2131
2131
2129
2129
2129
2129
2124
2124
2124
2131
2131
2131
2128
2128
2128
2130
2130
2130
2125
2125
2125
2125
2129
2129
2129
2130
2130
2130
2128
2128
2128
2130
2130
2130
2128
2128
2128
2128
2128
2128
2128
2128
2128
2128
2134
2134
2134
2132
2132
2132
2128
2128
2128
2128
2126
2126
2126
2130
2130
2130
2134
2134
2134
2131
2131
2131
2130
2130
2130
2130
2134
2134
2134
2130
2130
2130
2128
2128
2128
2130
2130
2130
2131
2131
2131
2131
2127
2127
2127
2130
2130
2130
2131
2131
2131
2135
2135
2135
2130
2130
2130
2130
2132
2132
2132
2129
2129
2129
2130
2130
2130
2138
2138
2138
2131
2131
2131
2131
2126
2126
2126
2130
2130
2130
2129
2129
2129
2132
2132
2132
2132
2132
2132
2132
2129
2129
2129
2126
2126
2126
2127
2127
2127
2129
2129
2129
2131
2131
2131
2131
2124
2124
2124
2131
2131
2131
2127
2127
2127
2129
2129
2129
2132
2132
2132
2132
2131
2131
2131
2130
2130
2130
2129
2129
2129
2130
2130
2130
2132
2132
2132
2132
2128
2128
2128
2130
2130
2130
2133
2133
2133
2131
2131
2131
2132
2132
2132
2132
2125
2125
2125
2128
2128
2128
2131
2131
2131
2133
2133
2133
2129
2129
2129
2129
2129
2129
2129
2130
2130
2130
2131
2131
2131
2129
2129
2129
2130
2130
2130
2130
2126
2126
2126
2129
2129
2129
2124
2124
2124
2133
2133
2133
2130
2130
2130
2130
2133
2133
2133
2127
2127
2127
2129
2129
2129
2126
2126
2126
2128
2128
2128
2128
2126
2126
2126
2129
2129
2129
2127
2127
2127
2131
2131
2131
2129
2129
2129
2129
2128
2128
2128
2129
2129
2129
2128
2128
2128
2133
2133
2133
2132
2132
2132
2132
2130
2130
2130
2126
2126
2126
2127
2127
2127
2131
2131
2131
2132
2132
2132
2132
2130
2130
2130
2132
2132
2132
2129
2129
2129
2129
2129
2129
2130
2130
2130
2130
2127
2127
2127
2127
2127
2127
2128
2128
2128
2130
2130
2130
2131
2131
2131
2131
2126
2126
2126
2130
2130
2130
2125
2125
2125
2131
2131
2131
2131
2131
2131
2131
2127
2127
2127
2127
2127
2127
2129
2129
2129
2130
2130
2130
2129
2129
2129
2129
2131
2131
2131
2127
2127
2127
2124
2124
2124
2131
2131
2131
2128
2128
2128
2128
2128
2128
2128
2123
2123
2123
2127
2127
2127
2133
2133
2133
2126
2126
2126
2126
2123
2123
2123
2129
2129
2129
2126
2126
2126
2131
2131
2131
2127
2127
2127
2127
2129
2129
2129
2129
2129
2129
2129
2129
2129
2129
2129
2129
2129
2129
2129
2129
2125
2125
2125
2125
2125
2125
2129
2129
2129
2132
2132
2132
2125
2125
2125
2125
2128
2128
2128
2129
2129
2129
2128
2128
2128
2132
2132
2132
2130
2130
2130
2130
2130
2130
2130
2128
2128
2128
2127
2127
2127
2131
2131
2131
2129
2129
2129
2129
2124
2124
2124
2129
2129
2129
2124
2124
2124
2133
2133
2133
2130
2130
2130
2130
2129
2129
2129
2132
2132
2132
2129
2129
2129
2130
2130
2130
2130
2130
2130
2130
2125
2125
2125
2130
2130
2130
2129
2129
2129
2135
2135
2135
2129
2129
2129
2129
2131
2131
2131
2130
2130
2130
2129
2129
2129
2130
2130
2130
2131
2131
2131
2131
2129
2129
2129
2125
2125
2125
2129
2129
2129
2130
2130
2130
2129
2129
2129
2129
2129
2129
2129
2130
2130
2130
2128
2128
2128
2126
2126
2126
2134
2134
2134
2134
2127
2127
2127
2127
2127
2127
2129
2129
2129
2129
2129
2129
2129
2129
2129
2129
2129
2129
2129
2130
2130
2130
2127
2127
2127
2131
2131
2131
2131
2131
2131
2131
2126
2126
2126
2129
2129
2129
2122
2122
2122
2120
2120
2120
2131
2131
2131
2131
2128
2128
2128
2130
2130
2130
2131
2131
2131
2130
2130
2130
2131
2131
2131
2131
2129
2129
2129
2128
2128
2128
2127
2127
2127
2132
2132
2132
2126
2126
2126
2126
2126
2126
2126
2131
2131
2131
2131
2131
2131
2133
2133
2133
2131
2131
2131
2131
2128
2128
2128
2130
2130
2130
2130
2130
2130
2131
2131
2131
2130
2130
2130
2130
2127
2127
2127
2132
2132
2132
2128
2128
2128
2129
2129
2129
2128
2128
2128
2128
2127
2127
2127
2128
2128
2128
2126
2126
2126
2134
2134
2134
2130
2130
2130
2130
2126
2126
2126
2124
2124
2124
2128
2128
2128
2130
2130
2130
2133
2133
2133
2133
2128
2128
2128
2129
2129
2129
2128
2128
2128
2130
2130
2130
2133
2133
2133
2133
2129
2129
2129
2135
2135
2135
2123
2123
2123
2130
2130
2130
2129
2129
2129
2129
2128
2128
2128
2128
2128
2128
2126
2126
2126
2132
2132
2132
2129
2129
2129
2129
2127
2127
2127
2128
2128
2128
2130
2130
2130
2132
2132
2132
2129
2129
2129
2129
2127
2127
2127
2126
2126
2126
2127
2127
2127
2133
2133
2133
2130
2130
2130
2130
2126
2126
2126
2131
2131
2131
2131
2131
2131
2129
2129
2129
2129
2129
2129
2129
2127
2127
2127
2133
2133
2133
2129
2129
2129
2129
2129
2129
2132
2132
2132
2132
2128
2128
2128
2127
2127
2127
2127
2127
2127
2133
2133
2133
2129
2129
2129
2129
2129
2129
2129
2125
2125
2125
2131
2131
2131
2131
2131
2131
2129
2129
2129
2129
2128
2128
2128
2130
2130
2130
2130
2130
2130
2130
2130
2130
2127
2127
2127
2127
2128
2128
2128
2130
2130
2130
2129
2129
2129
2132
2132
2132
2130
2130
2130
2130
2130
2130
2130
2128
2128
2128
2129
2129
2129
2132
2132
2132
2130
2130
2130
2130
2126
2126
2126
2128
2128
2128
2128
2128
2128
2130
2130
2130
2125
2125
2125
2125
2132
2132
2132
2129
2129
2129
2129
2129
2129
2130
2130
2130
2130
2130
2130
2130
2126
2126
2126
2130
2130
2130
2125
2125
2125
2132
2132
2132
2128
2128
2128
2128
2129
2129
2129
2133
2133
2133
2130
2130
2130
2132
2132
2132
2133
2133
2133
2133
2127
2127
2127
2128
2128
2128
2129
2129
2129
2130
2130
2130
2128
2128
2128
2128
2127
2127
2127
2127
2127
2127
2125
2125
2125
2133
2133
2133
2130
2130
2130
2130
2128
2128
2128
2129
2129
2129
2129
2129
2129
2129
2129
2129
2128
2128
2128
2128
2127
2127
2127
2131
2131
2131
2129
2129
2129
2130
2130
2130
2129
2129
2129
2129
2125
2125
2125
2130
2130
2130
2129
2129
2129
2134
2134
2134
2131
2131
2131
2131
2135
2135
2135
2131
2131
2131
2132
2132
2132
2138
2138
2138
2129
2129
2129
2129
2124
2124
2124
2131
2131
2131
2128
2128
2128
2132
2132
2132
2129
2129
2129
2129
2128
2128
2128
2128
2128
2128
2128
2128
2128
2131
2131
2131
2131
2131
2131
2131
2129
2129
2129
2129
2129
2129
2127
2127
2127
2131
2131
2131
2130
2130
2130
2130
2126
2126
2126
2129
2129
2129
2128
2128
2128
2130
2130
2130
2128
2128
2128
2128
2127
2127
2127
2128
2128
2128
2128
2128
2128
2131
2131
2131
2130
2130
2130
2130
2128
2128
2128
2129
2129
2129
2128
2128
2128
2128
2128
2128
2130
2130
2130
2130
2130
2130
2130
2128
2128
2128
2127
2127
2127
2131
2131
2131
2129
2129
2129
2129
2130
2130
2130
2127
2127
2127
2130
2130
2130
2130
2130
2130
2132
2132
2132
2132
2125
2125
2125
2129
2129
2129
2127
2127
2127
2134
2134
2134
2130
2130
2130
2130
2128
2128
2128
2129
2129
2129
2128
2128
2128
2131
2131
2131
2132
2132
2132
2132
2128
2128
2128
2127
2127
2127
2128
2128
2128
2131
2131
2131
2129
2129
2129
2129
2129
2129
2129
2130
2130
2130
2127
2127
2127
2132
2132
2132
2131
2131
2131
2131
2127
2127
2127
2128
2128
2128
2131
2131
2131
2133
2133
2133
2132
2132
2132
2132
2129
2129
2129
2126
2126
2126
2127
2127
2127
2131
2131
2131
2129
2129
2129
2129
2127
2127
2127
2130
2130
2130
2125
2125
2125
2129
2129
2129
2130
2130
2130
2130
2128
2128
2128
2128
2128
2128
2129
2129
2129
2129
2129
2129
2131
2131
2131
2131
2125
2125
2125
2128
2128
2128
2129
2129
2129
2129
2129
2129
2130
2130
2130
2130
2126
2126
2126
2131
2131
2131
2126
2126
2126
2132
2132
2132
2131
2131
2131
2131
2127
2127
2127
2121
2121
2121
2129
2129
2129
2131
2131
2131
2132
2132
2132
2132
2123
2123
2123
2130
2130
2130
2128
2128
2128
2133
2133
2133
2128
2128
2128
2128
2129
2129
2129
2129
2129
2129
2119
2119
2119
2131
2131
2131
2129
2129
2129
2129
2129
2129
2129
2130
2130
2130
2133
2133
2133
2135
2135
2135
2128
2128
2128
2128
2128
2128
2128
2129
2129
2129
2128
2128
2128
2128
2128
2128
2129
2129
2129
2129
2128
2128
2128
2131
2131
2131
2129
2129
2129
2128
2128
2128
2130
2130
2130
2130
2129
2129
2129
2129
2129
2129
2128
2128
2128
2128
2128
2128
2127
2127
2127
2127
2127
2127
2127
2129
2129
2129
2127
2127
2127
2129
2129
2129
2127
2127
2127
2127
2130
2130
2130
2131
2131
2131
2126
2126
2126
2129
2129
2129
2131
2131
2131
2131
2129
2129
2129
2124
2124
2124
2128
2128
2128
2130
2130
2130
2128
2128
2128
2128
2126
2126
2126
2129
2129
2129
2126
2126
2126
2130
2130
2130
2126
2126
2126
2126
2128
2128
2128
2127
2127
2127
2124
2124
2124
2130
2130
2130
2128
2128
2128
2128
2127
2127
2127
2129
2129
2129
2124
2124
2124
2130
2130
2130
2130
2130
2130
2130
2128
2128
2128
2131
2131
2131
2128
2128
2128
2133
2133
2133
2128
2128
2128
2128
2130
2130
2130
2130
2130
2130
2129
2129
2129
2131
2131
2131
2127
2127
2127
2127
2125
2125
2125
2129
2129
2129
2128
2128
2128
2134
2134
2134
2132
2132
2132
2132
2129
2129
2129
2129
2129
2129
2128
2128
2128
2129
2129
2129
2130
2130
2130
2130
2128
2128
2128
2132
2132
2132
2128
2128
2128
2131
2131
2131
2128
2128
2128
2128
2129
2129
2129
2127
2127
2127
2134
2134
2134
2131
2131
2131
2132
2132
2132
2132
2130
2130
2130
2128
2128
2128
2133
2133
2133
2132
2132
2132
2129
2129
2129
2129
2128
2128
2128
2129
2129
2129
2129
2129
2129
2131
2131
2131
2130
2130
2130
2130
2127
2127
2127
2130
2130
2130
2129
2129
2129
2135
2135
2135
2130
2130
2130
2130
2131
2131
2131
2129
2129
2129
2128
2128
2128
2130
2130
2130
2127
2127
2127
2127
2128
2128
2128
2133
2133
2133
2128
2128
2128
2130
2130
2130
2130
2130
2130
2130
2127
2127
2127
2134
2134
2134
2129
2129
2129
2133
2133
2133
2128
2128
2128
2128
2127
2127
2127
2130
2130
2130
2128
2128
2128
2133
2133
2133
2130
2130
2130
2130
2125
2125
2125
2128
2128
2128
2128
2128
2128
2132
2132
2132
2127
2127
2127
2127
2129
2129
2129
2131
2131
2131
2128
2128
2128
2129
2129
2129
2128
2128
2128
2128
2130
2130
2130
2129
2129
2129
2129
2129
2129
2131
2131
2131
2127
2127
2127
2127
2130
2130
2130
2127
2127
2127
2128
2128
2128
2132
2132
2132
2128
2128
2128
2128
2127
2127
2127
2132
2132
2132
2129
2129
2129
2130
2130
2130
2129
2129
2129
2129
2128
2128
2128
2129
2129
2129
2128
2128
2128
2127
2127
2127
2128
2128
2128
2128
2128
2128
2128
2128
2128
2128
2131
2131
2131
2131
2131
2131
2128
2128
2128
2128
2127
2127
2127
2129
2129
2129
2128
2128
2128
2131
2131
2131
2128
2128
2128
2128
2129
2129
2129
2128
2128
2128
2128
2128
2128
2131
2131
2131
2128
2128
2128
2128
2125
2125
2125
2127
2127
2127
2126
2126
2126
2132
2132
2132
2128
2128
2128
2128
2128
2128
2128
2132
2132
2132
2128
2128
2128
2132
2132
2132
2132
2132
2132
2132
2128
2128
2128
2129
2129
2129
2130
2130
2130
2128
2128
2128
2131
2131
2131
2131
2129
2129
2129
2130
2130
2130
2129
2129
2129
2128
2128
2128
2128
2128
2128
2128
2130
2130
2130
2132
2132
2132
2127
2127
2127
2130
2130
2130
2130
2130
2130
2130
2125
2125
2125
2129
2129
2129
2126
2126
2126
2128
2128
2128
2130
2130
2130
2130
2128
2128
2128
2128
2128
2128
2128
2128
2128
2133
2133
2133
2126
2126
2126
2126
2128
2128
2128
2125
2125
2125
2130
2130
2130
2131
2131
2131
2128
2128
2128
2128
2128
2128
2128
2130
2130
2130
2130
2130
2130
2131
2131
2131
2129
2129
2129
2129
2126
2126
2126
2129
2129
2129
2127
2127
2127
2131
2131
2131
2131
2131
2131
2131
2129
2129
2129
2130
2130
2130
2129
2129
2129
2131
2131
2131
2129
2129
2129
2129
2130
2130
2130
2130
2130
2130
2127
2127
2127
2133
2133
2133
2125
2125
2125
2125
2131
2131
2131
2127
2127
2127
2128
2128
2128
2128
2128
2128
2129
2129
2129
2129
2129
2129
2129
2130
2130
2130
2133
2133
2133
2130
2130
2130
2132
2132
2132
2132
2128
2128
2128
2127
2127
2127
2127
2127
2127
2130
2130
2130
2132
2132
2132
2132
2130
2130
2130
2129
2129
2129
2128
2128
2128
2134
2134
2134
2130
2130
2130
2130
2127
2127
2127
2130
2130
2130
2127
2127
2127
2130
2130
2130
2129
2129
2129
2129
2127
2127
2127
2128
2128
2128
2133
2133
2133
2130
2130
2130
2133
2133
2133
2133
2128
2128
2128
2128
2128
2128
2125
2125
2125
2134
2134
2134
2130
2130
2130
2130
2129
2129
2129
2131
2131
2131
2129
2129
2129
2130
2130
2130
2130
2130
2130
2130
2129
2129
2129
2130
2130
2130
2128
2128
2128
2138
2138
2138
2130
2130
2130
2130
2129
2129
2129
2130
2130
2130
2127
2127
2127
2128
2128
2128
2133
2133
2133
2133
2130
2130
2130
2129
2129
2129
2128
2128
2128
2133
2133
2133
2129
2129
2129
2129
2127
2127
2127
2126
2126
2126
2129
2129
2129
2131
2131
2131
2131
2131
2131
2131
2130
2130
2130
2128
2128
2128
2128
2128
2128
2128
2128
2128
2128
2128
2128
2128
2133
2133
2133
2128
2128
2128
2130
2130
2130
2131
2131
2131
2129
2129
2129
2129
2126
2126
2126
2130
2130
2130
2132
2132
2132
2130
2130
2130
2130
2130
2130
2130
2119
2119
2119
2129
2129
2129
2128
2128
2128
2138
2138
2138
2130
2130
2130
2130
2127
2127
2127
2130
2130
2130
2128
2128
2128
2129
2129
2129
2129
2129
2129
2129
2124
2124
2124
2126
2126
2126
2127
2127
2127
2131
2131
2131
2130
2130
2130
2130
2128
2128
2128
2131
2131
2131
2129
2129
2129
2130
2130
2130
2132
2132
2132
2132
2128
2128
2128
2134
2134
2134
2128
2128
2128
2131
2131
2131
2130
2130
2130
2130
2128
2128
2128
2131
2131
2131
2132
2132
2132
2128
2128
2128
2129
2129
2129
2129
2128
2128
2128
2128
2128
2128
2127
2127
2127
2132
2132
2132
2128
2128
2128
2128
2127
2127
2127
2129
2129
2129
2128
2128
2128
2129
2129
2129
2127
2127
2127
2127
2127
2127
2127
2133
2133
2133
2127
2127
2127
2129
2129
2129
2128
2128
2128
2128
2129
2129
2129
2128
2128
2128
2128
2128
2128
2128
2128
2128
2130
2130
2130
2130
2130
2130
2130
2129
2129
2129
2128
2128
2128
2127
2127
2127
2127
2127
2127
2127
2127
2127
2127
2133
2133
2133
2129
2129
2129
2132
2132
2132
2132
2132
2132
2132
2128
2128
2128
2132
2132
2132
2128
2128
2128
2134
2134
2134
2129
2129
2129
2129
2129
2129
2129
2133
2133
2133
2128
2128
2128
2132
2132
2132
2130
2130
2130
2130
2128
2128
2128
2128
2128
2128
2129
2129
2129
2133
2133
2133
2130
2130
2130
2130
2128
2128
2128
2130
2130
2130
2131
2131
2131
2131
2131
2131
2132
2132
2132
2132
2126
2126
2126
2130
2130
2130
2131
2131
2131
2133
2133
2133
2128
2128
2128
2128
2128
2128
2128
2127
2127
2127
2128
2128
2128
2133
2133
2133
2131
2131
2131
2131
2132
2132
2132
2129
2129
2129
2130
2130
2130
2134
2134
2134
2131
2131
2131
2131
2130
2130
2130
2130
2130
2130
2129
2129
2129
2132
2132
2132
2132
2132
2132
2132
2129
2129
2129
2131
2131
2131
2130
2130
2130
2130
2130
2130
2127
2127
2127
2127
2129
2129
2129
2124
2124
2124
2128
2128
2128
2132
2132
2132
2128
2128
2128
2128
2128
2128
2128
2123
2123
2123
2129
2129
2129
2131
2131
2131
2130
2130
2130
2130
2128
2128
2128
2125
2125
2125
2127
2127
2127
2133
2133
2133
2128
2128
2128
2128
2125
2125
2125
2129
2129
2129
2124
2124
2124
2130
2130
2130
2129
2129
2129
2129
2129
2129
2129
2131
2131
2131
2126
2126
2126
2133
2133
2133
2128
2128
2128
2128
2131
2131
2131
2128
2128
2128
2127
2127
2127
2131
2131
2131
2129
2129
2129
2129
2130
2130
2130
2129
2129
2129
2128
2128
2128
2128
2128
2128
2128
2128
2128
2128
2127
2127
2127
2129
2129
2129
2129
2129
2129
2131
2131
2131
2130
2130
2130
2130
2129
2129
2129
2127
2127
2127
2128
2128
2128
2132
2132
2132
2131
2131
2131
2131
2127
2127
2127
2123
2123
2123
2130
2130
2130
2128
2128
2128
2130
2130
2130
2130
2128
2128
2128
2129
2129
2129
2128
2128
2128
2131
2131
2131
2130
2130
2130
2130
2126
2126
2126
2129
2129
2129
2124
2124
2124
2132
2132
2132
2131
2131
2131
2131
2127
2127
2127
2131
2131
2131
2132
2132
2132
2131
2131
2131
2131
2131
2131
2131
2135
2135
2135
2129
2129
2129
2128
2128
2128
2130
2130
2130
2130
2130
2130
2130
2129
2129
2129
2131
2131
2131
2128
2128
2128
2132
2132
2132
2127
2127
2127
2127
2127
2127
2127
2130
2130
2130
2127
2127
2127
2130
2130
2130
2130
2130
2130
2130
2125
2125
2125
2130
2130
2130
2126
2126
2126
2126
2126
2126
2132
2132
2132
2132
2127
2127
2127
2132
2132
2132
2127
2127
2127
2131
2131
2131
2130
2130
2130
2130
2128
2128
2128
2132
2132
2132
2125
2125
2125
2133
2133
2133
2130
2130
2130
2130
2128
2128
2128
2129
2129
2129
2129
2129
2129
2133
2133
2133
2133
2133
2133
2133
2128
2128
2128
2129
2129
2129
2129
2129
2129
2133
2133
2133
2128
2128
2128
2128
2130
2130
2130
2130
2130
2130
2129
2129
2129
2130
2130
2130
2130
2130
2130
2130
2127
2127
2127
2131
2131
2131
2130
2130
2130
2132
2132
2132
2130
2130
2130
2130
2125
2125
2125
2129
2129
2129
2127
2127
2127
2130
2130
2130
2128
2128
2128
2128
2127
2127
2127
2131
2131
2131
2126
2126
2126
2129
2129
2129
2130
2130
2130
2130
2125
2125
2125
2131
2131
2131
2127
2127
2127
2131
2131
2131
2131
2131
2131
2131
2124
2124
2124
2132
2132
2132
2128
2128
2128
2135
2135
2135
2132
2132
2132
2132
2127
2127
2127
2126
2126
2126
2128
2128
2128
2131
2131
2131
2130
2130
2130
2130
2125
2125
2125
2129
2129
2129
2127
2127
2127
2132
2132
2132
2131
2131
2131
2131
2129
2129
2129
2129
2129
2129
2129
2129
2129
2134
2134
2134
2127
2127
2127
2127
2126
2126
2126
2128
2128
2128
2129
2129
2129
2130
2130
2130
2129
2129
2129
2129
2125
2125
2125
2131
2131
2131
2129
2129
2129
2131
2131
2131
2130
2130
2130
2130
2130
2130
2130
2130
2130
2130
2128
2128
2128
2134
2134
2134
2127
2127
2127
2127
2130
2130
2130
2132
2132
2132
2127
2127
2127
2130
2130
2130
2131
2131
2131
2131
2127
2127
2127
2129
2129
2129
2131
2131
2131
2131
2131
2131
2129
2129
2129
2129
2128
2128
2128
2129
2129
2129
2128
2128
2128
2132
2132
2132
2128
2128
2128
2128
2128
2128
2128
2128
2128
2128
2126
2126
2126
2132
2132
2132
2130
2130
2130
2130
2128
2128
2128
2127
2127
2127
2126
2126
2126
2131
2131
2131
2129
2129
2129
2129
2127
2127
2127
2128
2128
2128
2130
2130
2130
2130
2130
2130
2130
2130
2130
2130
2128
2128
2128
2129
2129
2129
2128
2128
2128
2131
2131
2131
2129
2129
2129
2129
2125
2125
2125
2127
2127
2127
2129
2129
2129
2133
2133
2133
2129
2129
2129
2129
2127
2127
2127
2128
2128
2128
2130
2130
2130
2132
2132
2132
2130
2130
2130
2130
2127
2127
2127
2132
2132
2132
2128
2128
2128
2133
2133
2133
2134
2134
2134
2134
2129
2129
2129
2126
2126
2126
2128
2128
2128
2132
2132
2132
2130
2130
2130
2130
2129
2129
2129
2130
2130
2130
2132
2132
2132
2132
2132
2132
2130
2130
2130
2130
2129
2129
2129
2129
2129
2129
2131
2131
2131
2134
2134
2134
2125
2125
2125
2125
2129
2129
2129
2133
2133
2133
2130
2130
2130
2128
2128
2128
2127
2127
2127
2127
2125
2125
2125
2129
2129
2129
2129
2129
2129
2128
2128
2128
2125
2125
2125
2125
2127
2127
2127
2129
2129
2129
2131
2131
2131
2125
2125
2125
2128
2128
2128
2128
2128
2128
2128
2129
2129
2129
2127
2127
2127
2127
2127
2127
2127
2127
2127
2127
2127
2127
2127
2129
2129
2129
2130
2130
2130
2129
2129
2129
2132
2132
2132
2132
2126
2126
2126
2128
2128
2128
2130
2130
2130
2127
2127
2127
2132
2132
2132
2132
2127
2127
2127
2127
2127
2127
2128
2128
2128
2131
2131
2131
2130
2130
2130
2130
