2042
2042
2047
2047
2047
2047
2048
2048
2048
2042
2042
2042
2048
2048
2048
2044
2044
2044
2046
2046
2046
2046
2050
2050
2050
2040
2040
2040
2046
2046
2046
2042
2042
2042
2046
2046
2046
2046
2049
2049
2049
2045
2045
2045
2054
2054
2054
2044
2044
2044
2051
2051
2051
2051
2049
2049
2049
2041
2041
2041
2041
2041
2041
2041
2041
2041
2048
2048
2048
2048
2045
2045
2045
2044
2044
2044
2049
2049
2049
2044
2044
2044
2048
2044
2044
2045
2045
2045
2045
2047
2047
2047
2045
2045
2045
2046
2046
2046
2043
2043
2043
2047
2047
2047
2047
2040
2040
2040
2045
2045
2045
2056
2056
2056
2045
2045
2045
2051
2051
2051
2051
2047
2047
2047
2043
2043
2043
2047
2047
2047
2041
2041
2041
2047
2047
2047
2047
2046
2046
2046
2044
2044
2044
2047
2047
2047
2043
2043
2043
2044
2044
2044
2044
2046
2046
2046
2042
2042
2042
2047
2047
2047
2043
2043
2043
2050
2050
2050
2050
2047
2047
2047
2042
2042
2042
2045
2045
2045
2039
2039
2039
2047
2047
2047
2047
2052
2052
2052
2042
2042
2042
2047
2047
2047
2046
2046
2046
2048
2048
2048
2048
2048
2048
2048
2043
2043
2043
2049
2049
2049
2044
2044
2044
2050
2050
2050
2050
2048
2048
2048
2039
2039
2039
2049
2049
2049
2041
2041
2041
2046
2046
2046
2046
2046
2046
2046
2043
2043
2043
2043
2043
2043
2042
2042
2042
2048
2048
2048
2048
2047
2047
2047
2045
2045
2045
2049
2049
2049
2044
2044
2044
2047
2047
2047
2047
2053
2053
2053
2043
2043
2043
2045
2045
2045
2040
2040
2040
2053
2053
2053
2053
2048
2048
2048
2043
2043
2043
2047
2047
2047
2043
2043
2043
2050
2050
2050
2050
2048
2048
2048
2043
2043
2043
2047
2047
2047
2043
2043
2043
2047
2047
2047
2047
2046
2046
2046
2043
2043
2043
2047
2047
2047
2043
2043
2043
2049
2049
2049
2049
2048
2048
2048
2043
2043
2043
2047
2047
2047
2042
2042
2042
2047
2047
2047
2047
2049
2049
2049
2046
2046
2046
2040
2040
2040
2042
2042
2042
2048
2048
2048
2048
2050
2050
2050
2044
2044
2044
2050
2050
2050
2043
2043
2043
2051
2051
2051
2051
2047
2047
2047
2042
2042
2042
2046
2046
2046
2043
2043
2043
2047
2047
2047
2047
2047
2047
2047
2042
2042
2042
2046
2046
2046
2043
2043
2043
2047
2047
2047
2047
2046
2046
2046
2037
2037
2037
2046
2046
2046
2042
2042
2042
2047
2047
2047
2047
2045
2045
2045
2038
2038
2038
2041
2041
2041
2041
2041
2041
2041
2041
2041
2041
2045
2045
2045
2043
2043
2043
2046
2046
2046
2041
2041
2041
2048
2048
2048
2048
2046
2046
2046
2043
2043
2043
2047
2047
2047
2043
2043
2043
2045
2045
2045
2045
2047
2047
2047
2043
2043
2043
2046
2046
2046
2045
2045
2045
2047
2047
2047
2047
2047
2047
2047
2041
2041
2041
2048
2048
2048
2044
2044
2044
2046
2046
2046
2046
2045
2045
2045
2043
2043
2043
2044
2044
2044
2042
2042
2042
2041
2041
2041
2041
2051
2051
2051
2043
2043
2043
2047
2047
2047
2044
2044
2044
2050
2050
2050
2050
2050
2050
2050
2043
2043
2043
2048
2048
2048
2043
2043
2043
2045
2045
2045
2045
2045
2045
2045
2042
2042
2042
2046
2046
2046
2042
2042
2042
2046
2046
2046
2046
2045
2045
2045
2045
2045
2045
2049
2049
2049
2041
2041
2041
2045
2045
2045
2045
2048
2048
2048
2043
2043
2043
2051
2051
2051
2041
2041
2041
2045
2045
2045
2045
2050
2050
2050
2041
2041
2041
2041
2041
2041
2044
2044
2044
2048
2048
2048
2048
2048
2048
2048
2043
2043
2043
2047
2047
2047
2043
2043
2043
2047
2047
2047
2047
2047
2047
2047
2044
2044
2044
2047
2047
2047
2043
2043
2043
2044
2044
2044
2044
2048
2048
2048
2043
2043
2043
2048
2048
2048
2042
2042
2042
2052
2052
2052
2052
2049
2049
2049
2041
2041
2041
2053
2053
2053
2038
2038
2038
2048
2048
2048
2048
2046
2046
2046
2046
2046
2046
2049
2049
2049
2043
2043
2043
2049
2049
2049
2049
2047
2047
2047
2039
2039
2039
2050
2050
2050
2039
2039
2039
2047
2047
2047
2047
2047
2047
2047
2047
2047
2047
2047
2047
2047
2039
2039
2039
2043
2043
2043
2043
2047
2047
2047
2040
2040
2040
2048
2048
2048
2043
2043
2043
2047
2047
2047
2047
2051
2051
2051
2042
2042
2042
2046
2046
2046
2039
2039
2039
2046
2046
2046
2046
2051
2051
2051
2043
2043
2043
2049
2049
2049
2043
2043
2043
2045
2045
2045
2045
2048
2048
2048
2044
2044
2044
2050
2050
2050
2043
2043
2043
2046
2046
2046
2046
2045
2045
2045
2040
2040
2040
2047
2047
2047
2041
2041
2041
2046
2046
2046
2046
2047
2047
2047
2042
2042
2042
2047
2047
2047
2042
2042
2042
2046
2046
2046
2046
2046
2046
2046
2043
2043
2043
2047
2047
2047
2043
2043
2043
2046
2046
2046
2046
2047
2047
2047
2042
2042
2042
2047
2047
2047
2042
2042
2042
2047
2047
2047
2047
2046
2046
2046
2043
2043
2043
2043
2043
2043
2045
2045
2045
2048
2048
2048
2048
2046
2046
2046
2036
2036
2036
2048
2048
2048
2036
2036
2036
2045
2045
2045
2045
2044
2044
2044
2040
2040
2040
2051
2051
2051
2043
2043
2043
2048
2048
2048
2048
2047
2047
2047
2045
2045
2045
2055
2055
2055
2041
2041
2041
2046
2046
2046
2046
2046
2046
2046
2050
2050
2050
2046
2046
2046
2044
2044
2044
2044
2044
2044
2044
2045
2045
2045
2041
2041
2041
2046
2046
2046
2039
2039
2039
2047
2047
2047
2047
2048
2048
2048
2044
2044
2044
2047
2047
2047
2043
2043
2043
2049
2049
2049
2049
2047
2047
2047
2044
2044
2044
2047
2047
2047
2043
2043
2043
2047
2047
2047
2047
2050
2050
2050
2040
2040
2040
2050
2050
2050
2044
2044
2044
2046
2046
2046
