33510
33662
33662
33662
33662
33597
33597
33597
33445
33445
33445
33619
33619
33619
33532
33532
33532
33532
33532
33532
33532
33532
33532
33532
33532
33532
33532
33575
33575
33575
33510
33510
33510
33597
33597
33597
33597
33575
33575
33575
33575
33575
33575
33619
33619
33619
33467
33467
33467
33379
33379
33379
33379
33575
33575
33575
33488
33488
33488
33445
33445
33445
33510
33510
33510
33575
33575
33575
33575
33597
33597
33597
33510
33510
33510
33619
33619
33619
33423
33423
33423
33575
33575
33575
33575
33619
33619
33619
33554
33554
33554
33488
33488
33488
33532
33532
33532
33575
33575
33575
33575
33554
33554
33554
33597
33597
33597
33619
33619
33619
33445
33445
33445
33619
33619
33619
33619
33597
33597
33597
33488
33488
33488
33619
33619
33619
33445
33445
33445
33641
33641
33641
33641
33619
33619
33619
33554
33554
33554
33510
33510
33510
33467
33467
33467
33619
33619
33619
33619
33662
33662
33662
33597
33597
33597
33619
33619
33619
33510
33510
33510
33597
33597
33597
33597
33619
33619
33619
33510
33510
33510
33554
33554
33554
33488
33488
33488
33684
33684
33684
33684
33641
33641
33641
33445
33445
33445
33619
33619
33619
33554
33554
33554
33532
33532
33532
33532
33684
33684
33684
33597
33597
33597
33597
33597
33597
33532
33532
33532
33662
33662
33662
33662
33445
33445
33445
33488
33488
33488
33554
33554
33554
33597
33597
33597
33510
33510
33510
33510
33706
33706
33706
33292
33292
33292
33662
33662
33662
33510
33510
33510
33597
33597
33597
33597
33575
33575
33575
33510
33510
33510
33532
33532
33532
33510
33510
33510
33641
33641
33641
33641
33554
33554
33554
33510
33510
33510
33662
33662
33662
33575
33575
33575
33575
33575
33575
33575
33575
33575
33575
33510
33510
33510
33641
33641
33641
33532
33532
33532
33749
33749
33749
33749
33532
33532
33532
33510
33510
33510
33597
33597
33597
33575
33575
33575
33662
33662
33662
33662
33641
33641
33641
33423
33423
33423
33684
33684
33684
33510
33510
33510
33554
33554
33554
33554
33554
33554
33554
33510
33510
33510
33597
33597
33597
33554
33554
33554
33619
33619
33619
33619
33597
33597
33597
33641
33641
33641
33619
33619
33619
33575
33575
33575
33554
33554
33554
33554
33728
33728
33728
33532
33532
33532
33706
33706
33706
33488
33488
33488
33597
33597
33597
33597
33532
33532
33532
33554
33554
33554
33597
33597
33597
33488
33488
33488
33575
33575
33575
33575
33619
33619
33619
33467
33467
33467
33749
33749
33749
33488
33488
33488
33575
33575
33575
33575
33641
33641
33641
33532
33532
33532
33597
33597
33597
33554
33554
33554
33619
33619
33619
33619
33575
33575
33575
33488
33488
33488
33597
33597
33597
33467
33467
33467
33706
33706
33706
33706
33554
33554
33554
33532
33532
33532
33619
33619
33619
33488
33488
33488
33575
33575
33575
33575
33684
33684
33684
33554
33554
33554
33662
33662
33662
33554
33554
33554
33619
33619
33619
33619
33619
33619
33619
33554
33554
33554
33749
33749
33749
33532
33532
33532
33706
33706
33706
33706
33619
33619
33619
33641
33641
33641
33554
33554
33554
33510
33510
33510
33619
33619
33619
33619
33510
33510
33510
33445
33445
33445
33619
33619
33619
33554
33554
33554
33641
33641
33641
33641
33619
33619
33619
33488
33488
33488
33510
33510
33510
33597
33597
33597
33532
33532
33532
33532
33575
33575
33575
33336
33336
33336
33662
33662
33662
33554
33554
33554
33575
33575
33575
33575
33510
33510
33510
33532
33532
33532
33488
33488
33488
33554
33554
33554
33575
33575
33575
33575
33619
33619
33619
33554
33554
33554
33532
33532
33532
33554
33554
33554
33619
33619
33619
33619
33597
33597
33597
33532
33532
33532
33684
33684
33684
33488
33488
33488
33662
33662
33662
33662
33619
33619
33619
33532
33532
33532
33619
33619
33619
33532
33532
33532
33488
33488
33488
33488
33575
33575
33575
33597
33597
33597
33706
33706
33706
33488
33488
33488
33554
33554
33554
33554
33597
33597
33597
33510
33510
33510
33510
33510
33510
33488
33488
33488
33641
33641
33641
33641
33554
33554
33554
33554
33554
33554
33597
33597
33597
33510
33510
33510
33619
33619
33619
33619
33619
33619
33619
33445
33445
33445
33662
33662
33662
33488
33488
33488
33575
33575
33575
33575
33619
33619
33619
33532
33532
33532
33575
33575
33575
33597
33597
33597
33575
33575
33575
33575
33597
33597
33597
33488
33488
33488
33684
33684
33684
33510
33510
33510
33706
33706
33706
33706
33793
33793
33793
33532
33532
33532
33597
33597
33597
33532
33532
33532
33575
33575
33575
33575
33641
33641
33641
33510
33510
33510
33641
33641
33641
33554
33554
33554
33706
33706
33706
33706
33554
33554
33554
33575
33575
33575
33488
33488
33488
33532
33532
33532
33619
33619
33619
33619
33728
33728
33728
33467
33467
33467
33554
33554
33554
33423
33423
33423
33619
33619
33619
33619
33619
33619
33619
33488
33488
33488
33445
33445
33445
33488
33488
33488
33554
33554
33554
33554
33445
33445
33445
33510
33510
33510
33662
33662
33662
33488
33488
33488
33575
33575
33575
33575
33575
33575
33575
33488
33488
33488
33554
33554
33554
33554
33554
33554
33619
33619
33619
33619
33445
33445
33445
33532
33532
33532
33641
33641
33641
33379
33379
33379
33706
33706
33706
33706
33619
33619
33619
33662
33662
33662
33575
33575
33575
33554
33554
33554
33619
33619
33619
33619
33554
33554
33554
33510
33510
33510
33641
33641
33641
33488
33488
33488
33706
33706
33706
33706
33575
33575
33575
33488
33488
33488
33662
33662
33662
33467
33467
33467
33597
33597
33597
33597
33575
33575
33575
33467
33467
33467
33597
33597
33597
33749
33749
33749
33510
33510
33510
33510
33749
33749
33749
33488
33488
33488
33641
33641
33641
33423
33423
33423
33641
33641
33641
33641
33662
33662
33662
33532
33532
33532
33706
33706
33706
33706
33706
33706
33575
33575
33575
33575
33597
33597
33597
33467
33467
33467
33641
33641
33641
33488
33488
33488
33662
33662
33662
33662
33532
33532
33532
33510
33510
33510
33641
33641
33641
33488
33488
33488
33684
33684
33684
33684
33575
33575
33575
33401
33401
33401
33597
33597
33597
33467
33467
33467
33771
33771
33771
33771
33597
33597
33597
33532
33532
33532
33684
33684
33684
33488
33488
33488
33575
33575
33575
33575
33597
33597
33597
33662
33662
33662
33662
33662
33662
33488
33488
33488
33641
33641
33641
33641
33532
33532
33532
33510
33510
33510
33554
33554
33554
33532
33532
33532
33445
33445
33445
33445
33619
33619
33619
33510
33510
33510
33641
33641
33641
33662
33662
33662
33467
33467
33467
33467
33641
33641
33641
33532
33532
33532
33575
33575
33575
33467
33467
33467
33749
33749
33749
33749
33554
33554
33554
33467
33467
33467
33445
33445
33445
33532
33532
33532
33619
33619
33619
33619
33554
33554
33554
33467
33467
33467
33597
33597
33597
33227
33227
33227
33706
33706
33706
33706
33684
33684
33684
33554
33554
33554
33641
33641
33641
33467
33467
33467
33662
33662
33662
33662
33597
33597
33597
33510
33510
33510
33619
33619
33619
33684
33684
33684
33662
33662
33662
33662
33575
33575
33575
33510
33510
33510
33467
33467
33467
33532
33532
33532
33706
33706
33706
33706
33532
33532
33532
33510
33510
33510
33641
33641
33641
33445
33445
33445
33662
33662
33662
33662
33597
33597
33597
33401
33401
33401
33619
33619
33619
33575
33575
33575
33619
33619
33619
33619
33597
33597
33597
33510
33510
33510
33662
33662
33662
33554
33554
33554
33575
33575
33575
33575
33597
33597
33597
33532
33532
33532
33575
33575
33575
33510
33510
33510
33554
33554
33554
33554
33575
33575
33575
33575
33575
33575
33619
33619
33619
33554
33554
33554
33510
33510
33510
33510
33358
33358
33358
33532
33532
33532
33575
33575
33575
33510
33510
33510
33597
33597
33597
33597
33641
33641
33641
33401
33401
33401
33619
33619
33619
33575
33575
33575
33619
33619
33619
33619
33597
33597
33597
33488
33488
33488
33488
33488
33488
33488
33488
33488
33619
33619
33619
33619
33575
33575
33575
33445
33445
33445
33641
33641
33641
33379
33379
33379
33641
33641
33641
33641
33575
33575
33575
33510
33510
33510
33554
33554
33554
33510
33510
33510
33510
33510
33510
33510
33662
33662
33662
33532
33532
33532
33532
33532
33532
33467
33467
33467
33619
33619
33619
33619
33488
33488
33488
33575
33575
33575
33619
33619
33619
33488
33488
33488
33641
33641
33641
33641
33641
33641
33641
33510
33510
33510
33619
33619
33619
33445
33445
33445
33641
33641
33641
33641
33619
33619
33619
33467
33467
33467
33597
33597
33597
33510
33510
33510
33619
33619
33619
33619
33510
33510
33510
33532
33532
33532
33619
33619
33619
33467
33467
33467
33575
33575
33575
33575
33532
33532
33532
33554
33554
33554
33641
33641
33641
33554
33554
33554
33488
33488
33488
33488
33684
33684
33684
33488
33488
33488
33575
33575
33575
33488
33488
33488
33619
33619
33619
33619
33597
33597
33597
33445
33445
33445
33619
33619
33619
33467
33467
33467
33619
33619
33619
33619
33619
33619
33619
33554
33554
33554
33662
33662
33662
33401
33401
33401
33597
33597
33597
33597
33597
33597
33597
33510
33510
33510
33554
33554
33554
33488
33488
33488
33575
33575
33575
33575
33684
33684
33684
33575
33575
33575
33597
33597
33597
33358
33358
33358
33771
33771
33771
33771
33575
33575
33575
33358
33358
33358
33358
33358
33358
33554
33554
33554
33575
33575
33575
33575
33684
33684
33684
33510
33510
33510
33641
33641
33641
33445
33445
33445
33641
33641
33641
33641
33619
33619
33619
33423
33423
33423
33619
33619
33619
33314
33314
33314
33619
33619
33619
33619
33554
33554
33554
33445
33445
33445
33619
33619
33619
33510
33510
33510
33597
33597
33597
33597
33662
33662
33662
33575
33575
33575
33575
33575
33575
33401
33401
33401
33662
33662
33662
33662
33597
33597
33597
33554
33554
33554
33662
33662
33662
33575
33575
33575
33575
33575
33575
33575
33575
33575
33575
33488
33488
33488
33684
33684
33684
33445
33445
33445
33619
33619
33619
33619
33597
33597
33597
33554
33554
33554
33597
33597
33597
33467
33467
33467
33619
33619
33619
33619
33597
33597
33597
33488
33488
33488
33575
33575
33575
33510
33510
33510
33597
33597
33597
33597
33597
33597
33597
33510
33510
33510
33684
33684
33684
33575
33575
33575
33597
33597
33597
33597
33575
33575
33575
33510
33510
33510
33641
33641
33641
33554
33554
33554
33467
33467
33467
33467
33401
33401
33401
33575
33575
33575
33554
33554
33554
33532
33532
33532
33575
33575
33575
33575
33619
33619
33619
33619
33619
33619
33554
33554
33554
33532
33532
33532
33619
33619
33619
33619
33597
33597
33597
33532
33532
33532
33597
33597
33597
33423
33423
33423
33684
33684
33684
33684
33684
33684
33684
33467
33467
33467
33619
33619
33619
33467
33467
33467
33597
33597
33597
33597
33597
33597
33597
33554
33554
33554
33641
33641
33641
33488
33488
33488
33771
33771
33771
33771
33554
33554
33554
33597
33597
33597
33597
33597
33597
33488
33488
33488
33619
33619
33619
33619
33597
33597
33597
33575
33575
33575
33554
33554
33554
33532
33532
33532
33619
33619
33619
33619
33510
33510
33510
33532
33532
33532
33619
33619
33619
33510
33510
33510
33597
33597
33597
33597
33597
33597
33597
33488
33488
33488
33597
33597
33597
33445
33445
33445
33575
33575
33575
33575
33641
33641
33641
33554
33554
33554
33619
33619
33619
33488
33488
33488
33684
33684
33684
33684
33554
33554
33554
33532
33532
33532
33793
33793
33793
33619
33619
33619
33575
33575
33575
33575
33619
33619
33619
33488
33488
33488
33597
33597
33597
33532
33532
33532
33597
33597
33597
33597
33510
33510
33510
33554
33554
33554
33532
33532
33532
33554
33554
33554
33597
33597
33597
33597
33597
33597
33597
33401
33401
33401
33554
33554
33554
33619
33619
33619
33619
33619
33619
33619
33662
33662
33662
33510
33510
33510
33619
33619
33619
33532
33532
33532
33510
33510
33510
33510
33619
33619
33619
33488
33488
33488
33597
33597
33597
33227
33227
33227
33575
33575
33575
33575
33684
33684
33684
33423
33423
33423
33641
33641
33641
33575
33575
33575
33597
33597
33597
33597
33554
33554
33554
33467
33467
33467
33575
33575
33575
33554
33554
33554
33619
33619
33619
33619
33597
33597
33597
33641
33641
33641
33619
33619
33619
33619
33619
33619
33684
33684
33684
33684
33575
33575
33575
33467
33467
33467
33728
33728
33728
33467
33467
33467
33706
33706
33706
33706
33467
33467
33467
33510
33510
33510
33684
33684
33684
33510
33510
33510
33488
33488
33488
33488
33597
33597
33597
33575
33575
33575
33445
33445
33445
33445
33445
33445
33532
33532
33532
33532
33706
33706
33706
33554
33554
33554
33684
33684
33684
33510
33510
33510
33554
33554
33554
33554
33575
33575
33575
33488
33488
33488
33684
33684
33684
33597
33597
33597
33684
33684
33684
33684
33510
33510
33510
33793
33793
33793
33575
33575
33575
33488
33488
33488
33641
33641
33641
33641
33467
33467
33467
33510
33510
33510
33575
33575
33575
33554
33554
33554
33575
33575
33575
33575
33554
33554
33554
33488
33488
33488
33445
33445
33445
33379
33379
33379
33749
33749
33749
33749
33532
33532
33532
33532
33532
33532
33488
33488
33488
33488
33488
33488
33619
33619
33619
33619
33575
33575
33575
33532
33532
33532
33597
33597
33597
33488
33488
33488
33619
33619
33619
33619
33575
33575
33575
33467
33467
33467
33771
33771
33771
33510
33510
33510
33641
33641
33641
33641
33532
33532
33532
33554
33554
33554
33597
33597
33597
33488
33488
33488
33575
33575
33575
33575
33597
33597
33597
33532
33532
33532
33575
33575
33575
33379
33379
33379
33641
33641
33641
33641
33532
33532
33532
33467
33467
33467
33662
33662
33662
33488
33488
33488
33575
33575
33575
33575
33619
33619
33619
33358
33358
33358
33619
33619
33619
33532
33532
33532
33575
33575
33575
33575
33641
33641
33641
33467
33467
33467
33619
33619
33619
33532
33532
33532
33510
33510
33510
33510
33728
33728
33728
33510
33510
33510
33575
33575
33575
33532
33532
33532
33597
33597
33597
33597
33597
33597
33597
33554
33554
33554
33662
33662
33662
33488
33488
33488
33292
33292
33292
33292
33532
33532
33532
33554
33554
33554
33662
33662
33662
33488
33488
33488
33597
33597
33597
33597
33597
33597
33597
33423
33423
33423
33619
33619
33619
33575
33575
33575
33641
33641
33641
33641
33619
33619
33619
33554
33554
33554
33597
33597
33597
33597
33597
33597
33554
33554
33554
33554
33641
33641
33641
33510
33510
33510
33597
33597
33597
33423
33423
33423
33597
33597
33597
33597
33619
33619
33619
33575
33575
33575
33619
33619
33619
33488
33488
33488
33641
33641
33641
33641
33554
33554
33554
33445
33445
33445
33684
33684
33684
33532
33532
33532
33575
33575
33575
33575
33641
33641
33641
33619
33619
33619
33575
33575
33575
33467
33467
33467
33554
33554
33554
33554
33488
33488
33488
33510
33510
33510
33554
33554
33554
33510
33510
33510
33706
33706
33706
33706
33619
33619
33619
33401
33401
33401
33619
33619
33619
33423
33423
33423
33662
33662
33662
33662
33619
33619
33619
33554
33554
33554
33597
33597
33597
33467
33467
33467
33532
33532
33532
33532
33488
33488
33488
33532
33532
33532
33684
33684
33684
33575
33575
33575
33510
33510
33510
33510
33597
33597
33597
33401
33401
33401
33575
33575
33575
33554
33554
33554
33597
33597
33597
33597
33597
33597
33597
33510
33510
33510
33532
33532
33532
33554
33554
33554
33641
33641
33641
33641
33554
33554
33554
33314
33314
33314
33641
33641
33641
33314
33314
33314
33662
33662
33662
33662
33597
33597
33597
33554
33554
33554
33554
33554
33554
33532
33532
33532
33510
33510
33510
33510
33749
33749
33749
33488
33488
33488
33575
33575
33575
33336
33336
33336
33641
33641
33641
33641
33597
33597
33597
33641
33641
33641
33597
33597
33597
33488
33488
33488
33597
33597
33597
33597
33619
33619
33619
33510
33510
33510
33488
33488
33488
33575
33575
33575
33684
33684
33684
33684
33619
33619
33619
33619
33619
33619
33662
33662
33662
33575
33575
33575
33575
33575
33575
33575
33597
33597
33597
33358
33358
33358
33575
33575
33575
33597
33597
33597
33641
33641
33641
33641
33641
33641
33641
33532
33532
33532
33641
33641
33641
33379
33379
33379
33641
33641
33641
33641
33662
33662
33662
33467
33467
33467
33597
33597
33597
33445
33445
33445
33597
33597
33597
33597
33641
33641
33641
33510
33510
33510
33728
33728
33728
33532
33532
33532
33684
33684
33684
33684
33575
33575
33575
33467
33467
33467
33706
33706
33706
33423
33423
33423
33575
33575
33575
33575
33597
33597
33597
33445
33445
33445
33575
33575
33575
33510
33510
33510
33706
33706
33706
33706
33488
33488
33488
33510
33510
33510
33575
33575
33575
33554
33554
33554
33445
33445
33445
33445
33575
33575
33575
33488
33488
33488
33401
33401
33401
33532
33532
33532
33641
33641
33641
33641
33597
33597
33597
33554
33554
33554
33597
33597
33597
33554
33554
33554
33554
33554
33554
33554
33641
33641
33641
33510
33510
33510
33641
33641
33641
33662
33662
33662
33597
33597
33597
33597
33554
33554
33554
33554
33554
33554
33510
33510
33510
33532
33532
33532
33597
33597
33597
33597
33706
33706
33706
33510
33510
33510
33575
33575
33575
33488
33488
33488
33575
33575
33575
33575
33619
33619
33619
33575
33575
33575
33619
33619
33619
33575
33575
33575
33597
33597
33597
33597
33619
33619
33619
33467
33467
33467
33532
33532
33532
33532
33532
33532
33641
33641
33641
33641
33641
33641
33641
33510
33510
33510
33597
33597
33597
33597
33597
33597
33488
33488
33488
33488
33662
33662
33662
33619
33619
33619
33706
33706
33706
33510
33510
33510
33641
33641
33641
33641
33619
33619
33619
33510
33510
33510
33554
33554
33554
33488
33488
33488
33619
33619
33619
33619
33597
33597
33597
33706
33706
33706
33684
33684
33684
33488
33488
33488
33445
33445
33445
33445
33706
33706
33706
33445
33445
33445
33575
33575
33575
33488
33488
33488
33597
33597
33597
33597
33575
33575
33575
33488
33488
33488
33575
33575
33575
33532
33532
33532
33641
33641
33641
33641
33575
33575
33575
33314
33314
33314
33445
33445
33445
33510
33510
33510
33619
33619
33619
33619
33597
33597
33597
33510
33510
33510
33619
33619
33619
33510
33510
33510
33575
33575
33575
33575
33597
33597
33597
33401
33401
33401
33445
33445
33445
33488
33488
33488
33597
33597
33597
33597
33532
33532
33532
33488
33488
33488
33706
33706
33706
33532
33532
33532
33597
33597
33597
33597
33575
33575
33575
33510
33510
33510
33619
33619
33619
33510
33510
33510
33597
33597
33597
33597
33554
33554
33554
33597
33597
33597
33488
33488
33488
33554
33554
33554
33706
33706
33706
33706
33532
33532
33532
33532
33532
33532
33641
33641
33641
33554
33554
33554
33597
33597
33597
33597
33619
33619
33619
33510
33510
33510
33619
33619
33619
33445
33445
33445
33445
33445
33445
33445
33532
33532
33532
33575
33575
33575
33662
33662
33662
33532
33532
33532
33597
33597
33597
33597
33597
33597
33597
33445
33445
33445
33575
33575
33575
33467
33467
33467
33619
33619
33619
33619
33554
33554
33554
33467
33467
33467
33728
33728
33728
33554
33554
33554
33358
33358
33358
33358
33575
33575
33575
33554
33554
33554
33597
33597
33597
33488
33488
33488
33597
33597
33597
33597
33597
33597
33597
33619
33619
33619
33619
33619
33619
33510
33510
33510
33488
33488
33488
33488
33554
33554
33554
33510
33510
33510
33706
33706
33706
33532
33532
33532
33575
33575
33575
33575
33554
33554
33554
33467
33467
33467
33575
33575
33575
33488
33488
33488
33619
33619
33619
33619
33597
33597
33597
33554
33554
33554
33554
33554
33554
33423
33423
33423
33597
33597
33597
33597
33467
33467
33467
33467
33467
33467
33684
33684
33684
33532
33532
33532
33641
33641
33641
33641
33575
33575
33575
33358
33358
33358
33641
33641
33641
33467
33467
33467
33510
33510
33510
33510
33684
33684
33684
33423
33423
33423
33554
33554
33554
33510
33510
33510
33597
33597
33597
33597
33597
33597
33597
33510
33510
33510
33641
33641
33641
33488
33488
33488
33597
33597
33597
33597
33641
33641
33641
33619
33619
33619
33467
33467
33467
33488
33488
33488
33641
33641
33641
33641
33641
33641
33641
33532
33532
33532
33575
33575
33575
33510
33510
33510
33575
33575
33575
33575
33597
33597
33597
33510
33510
33510
33619
33619
33619
33488
33488
33488
33554
33554
33554
33554
33619
33619
33619
33510
33510
33510
33554
33554
33554
33445
33445
33445
33510
33510
33510
33510
33684
33684
33684
33575
33575
33575
33619
33619
33619
33510
33510
33510
33619
33619
33619
33619
33597
33597
33597
33445
33445
33445
33619
33619
33619
33728
33728
33728
33662
33662
33662
33662
33641
33641
33641
33510
33510
33510
33532
33532
33532
33488
33488
33488
33619
33619
33619
33619
33575
33575
33575
33467
33467
33467
33597
33597
33597
33445
33445
33445
33488
33488
33488
33488
33641
33641
33641
33467
33467
33467
33706
33706
33706
33532
33532
33532
33662
33662
33662
33662
33532
33532
33532
33510
33510
33510
33597
33597
33597
33532
33532
33532
33554
33554
33554
33554
33575
33575
33575
33423
33423
33423
33662
33662
33662
33510
33510
33510
33706
33706
33706
33706
33619
33619
33619
33510
33510
33510
33488
33488
33488
33423
33423
33423
33619
33619
33619
33619
33597
33597
33597
33532
33532
33532
33597
33597
33597
33467
33467
33467
33641
33641
33641
33641
33684
33684
33684
33488
33488
33488
33575
33575
33575
33488
33488
33488
33554
33554
33554
33554
33662
33662
33662
33510
33510
33510
33597
33597
33597
33379
33379
33379
33554
33554
33554
33554
33641
33641
33641
33532
33532
33532
33575
33575
33575
33510
33510
33510
33641
33641
33641
33641
33684
33684
33684
33488
33488
33488
33575
33575
33575
33510
33510
33510
33619
33619
33619
33619
33554
33554
33554
33554
33554
33554
33554
33554
33554
33554
33554
33554
33554
33554
33554
33554
33728
33728
33728
33467
33467
33467
33684
33684
33684
33575
33575
33575
33619
33619
33619
33619
33575
33575
33575
33510
33510
33510
33554
33554
33554
33662
33662
33662
33619
33619
33619
33619
33510
33510
33510
33532
33532
33532
33575
33575
33575
33445
33445
33445
33532
33532
33532
33532
33706
33706
33706
33554
33554
33554
33662
33662
33662
33488
33488
33488
33597
33597
33597
33597
33575
33575
33575
33532
33532
33532
33619
33619
33619
33510
33510
33510
33597
33597
33597
33597
33554
33554
33554
33467
33467
33467
33728
33728
33728
33554
33554
33554
33641
33641
33641
33641
33445
33445
33445
33467
33467
33467
33575
33575
33575
33619
33619
33619
33575
33575
33575
33575
33554
33554
33554
33554
33554
33554
33467
33467
33467
33358
33358
33358
33532
33532
33532
33532
33771
33771
33771
33510
33510
33510
33662
33662
33662
33554
33554
33554
33554
33554
33554
33554
33597
33597
33597
33510
33510
33510
33662
33662
33662
33379
33379
33379
33662
33662
33662
33662
33554
33554
33554
33510
33510
33510
33684
33684
33684
33510
33510
33510
33706
33706
33706
33706
33641
33641
33641
33467
33467
33467
33641
33641
33641
33532
33532
33532
33662
33662
33662
33662
33575
33575
33575
33532
33532
33532
33597
33597
33597
33554
33554
33554
33532
33532
33532
33532
33684
33684
33684
33575
33575
33575
33706
33706
33706
33510
33510
33510
33619
33619
33619
33619
33619
33619
33619
33575
33575
33575
33597
33597
33597
33532
33532
33532
33554
33554
33554
33554
33597
33597
33597
33575
33575
33575
33532
33532
33532
33532
33532
33532
33575
33575
33575
33575
33684
33684
33684
33510
33510
33510
33619
33619
33619
33510
33510
33510
33619
33619
33619
33619
33597
33597
33597
33488
33488
33488
33662
33662
33662
33467
33467
33467
33554
33554
33554
33554
33706
33706
33706
33488
33488
33488
33728
33728
33728
33532
33532
33532
33575
33575
33575
33575
33619
33619
33619
33554
33554
33554
33597
33597
33597
33597
33597
33597
33619
33619
33619
33619
33619
33619
33619
33314
33314
33314
33554
33554
33554
33532
33532
33532
33575
33575
33575
33575
33684
33684
33684
33510
33510
33510
33554
33554
33554
33358
33358
33358
33597
33597
33597
33597
33619
33619
33619
33597
33597
33597
33641
33641
33641
33467
33467
33467
33423
33423
33423
33423
33662
33662
33662
33575
33575
33575
33597
33597
33597
33445
33445
33445
33597
33597
33597
33597
33532
33532
33532
33575
33575
33575
33641
33641
33641
33554
33554
33554
33575
33575
33575
33575
33597
33597
33597
33445
33445
33445
33619
33619
33619
33488
33488
33488
33619
33619
33619
33619
33575
33575
33575
33488
33488
33488
33575
33575
33575
33641
33641
33641
33575
33575
33575
33575
33554
33554
33554
33488
33488
33488
33532
33532
33532
33379
33379
33379
33597
33597
33597
33597
33662
33662
33662
33554
33554
33554
33554
33554
33554
33488
33488
33488
33619
33619
33619
33619
33554
33554
33554
33554
33554
33554
33597
33597
33597
33379
33379
33379
33575
33575
33575
33575
33597
33597
33597
33445
33445
33445
33619
33619
33619
33445
33445
33445
33488
33488
33488
33488
33728
33728
33728
33510
33510
33510
33597
33597
33597
33532
33532
33532
33597
33597
33597
33597
33597
33597
33597
33488
33488
33488
33706
33706
33706
33619
33619
33619
33619
33619
33619
33619
33554
33554
33554
33445
33445
33445
33532
33532
33532
33510
33510
33510
33641
33641
33641
33641
33597
33597
33597
33510
33510
33510
33597
33597
33597
33358
33358
33358
33619
33619
33619
33619
33532
33532
33532
33554
33554
33554
33554
33554
33554
33488
33488
33488
33662
33662
33662
33662
33575
33575
33575
33532
33532
33532
33597
33597
33597
33445
33445
33445
33597
33597
33597
33597
33597
33597
33597
33488
33488
33488
33619
33619
33619
33532
33532
33532
33619
33619
33619
33619
33684
33684
33684
33554
33554
33554
33488
33488
33488
33467
33467
33467
33597
33597
33597
33597
33619
33619
33619
33597
33597
33597
33597
33597
33597
33532
33532
33532
33575
33575
33575
33575
33554
33554
33554
33597
33597
33597
33575
33575
33575
33510
33510
33510
33641
33641
33641
33641
33575
33575
33575
33575
33575
33575
33641
33641
33641
33619
33619
33619
33619
33619
33619
33619
33597
33597
33597
33488
33488
33488
33619
33619
33619
33488
33488
33488
33749
33749
33749
33749
33597
33597
33597
33488
33488
33488
33619
33619
33619
33510
33510
33510
33619
33619
33619
33619
33597
33597
33597
33510
33510
33510
33662
33662
33662
33488
33488
33488
33619
33619
33619
33619
33641
33641
33641
33510
33510
33510
33684
33684
33684
33467
33467
33467
33575
33575
33575
33575
33554
33554
33554
33445
33445
33445
33662
33662
33662
33445
33445
33445
33619
33619
33619
33619
33619
33619
33619
33554
33554
33554
33706
33706
33706
33379
33379
33379
33706
33706
33706
33706
33728
33728
33728
33532
33532
33532
33532
33532
33532
33510
33510
33510
33575
33575
33575
33575
33554
33554
33554
33423
33423
33423
33619
33619
33619
33532
33532
33532
33641
33641
33641
33641
33554
33554
33554
33488
33488
33488
33467
33467
33467
33467
33467
33467
33641
33641
33641
33641
33575
33575
33575
33467
33467
33467
33619
33619
33619
33467
33467
33467
33554
33554
33554
33554
33575
33575
33575
33532
33532
33532
33358
33358
33358
33510
33510
33510
33706
33706
33706
33706
33467
33467
33467
33510
33510
33510
33619
33619
33619
33488
33488
33488
33554
33554
33554
33554
33597
33597
33597
33510
33510
33510
33619
33619
33619
33467
33467
33467
33554
33554
33554
33554
33619
33619
33619
33488
33488
33488
33554
33554
33554
33510
33510
33510
33619
33619
33619
33619
33662
33662
33662
33532
33532
33532
33619
33619
33619
33554
33554
33554
33575
33575
33575
33575
33706
33706
33706
33488
33488
33488
33771
33771
33771
33597
33597
33597
33575
33575
33575
33575
33575
33575
33575
33510
33510
33510
33597
33597
33597
33379
33379
33379
33619
33619
33619
33619
33597
33597
33597
33532
33532
33532
33575
33575
33575
33532
33532
33532
33445
33445
33445
33445
33641
33641
33641
33467
33467
33467
33532
33532
33532
33554
33554
33554
33597
33597
33597
33597
33575
33575
33575
33597
33597
33597
33597
33597
33597
33706
33706
33706
33641
33641
33641
33641
33597
33597
33597
33510
33510
33510
33684
33684
33684
33314
33314
33314
33554
33554
33554
33554
33641
33641
33641
33510
33510
33510
33597
33597
33597
33575
33575
33575
33597
33597
33597
33597
33575
33575
33575
33510
33510
33510
33662
33662
33662
33488
33488
33488
33488
33488
33488
33488
33619
33619
33619
33749
33749
33749
33597
33597
33597
33554
33554
33554
33597
33597
33597
33597
33641
33641
33641
33554
33554
33554
33575
33575
33575
33467
33467
33467
33641
33641
33641
33641
33597
33597
33597
33467
33467
33467
33728
33728
33728
33619
33619
33619
33619
33619
33619
33619
33619
33619
33619
33467
33467
33467
33554
33554
33554
33532
33532
33532
33641
33641
33641
33641
33641
33641
33641
33532
33532
33532
33684
33684
33684
33467
33467
33467
33771
33771
33771
33771
33662
33662
33662
33510
33510
33510
33554
33554
33554
33554
33554
33554
33597
33597
33597
33597
33575
33575
33575
33575
33575
33575
33575
33575
33575
33554
33554
33554
33575
33575
33575
33575
33575
33575
33575
33467
33467
33467
33662
33662
33662
33467
33467
33467
33423
33423
33423
33423
33597
33597
33597
33641
33641
33641
33597
33597
33597
33575
33575
33575
33575
33575
33575
33575
33554
33554
33554
33510
33510
33510
33641
33641
33641
33510
33510
33510
33597
33597
33597
33597
33575
33575
33575
33554
33554
33554
33597
33597
33597
33510
33510
33510
33641
33641
33641
33641
33532
33532
33532
33597
33597
33597
33619
33619
33619
33532
33532
33532
33575
33575
33575
33575
33619
33619
33619
33488
33488
33488
33728
33728
33728
33532
33532
33532
33575
33575
33575
33575
33575
33575
33575
33554
33554
33554
33662
33662
33662
33554
33554
33554
33597
33597
33597
33597
33619
33619
33619
33532
33532
33532
33662
33662
33662
33488
33488
33488
33706
33706
33706
33706
33575
33575
33575
33488
33488
33488
33532
33532
33532
33554
33554
33554
33619
33619
33619
33619
33532
33532
33532
33532
33532
33532
33619
33619
33619
33488
33488
33488
33641
33641
33641
33641
33619
33619
33619
33510
33510
33510
33662
33662
33662
33488
33488
33488
33619
33619
33619
33619
33706
33706
33706
33641
33641
33641
33575
33575
33575
33532
33532
33532
33619
33619
33619
33619
33597
33597
33597
33488
33488
33488
33597
33597
33597
33532
33532
33532
33532
33532
33532
33532
33401
33401
33401
33336
33336
33336
33619
33619
33619
33575
33575
33575
33597
33597
33597
33597
33575
33575
33575
33445
33445
33445
33619
33619
33619
33532
33532
33532
33641
33641
33641
33641
33510
33510
33510
33488
33488
33488
33532
33532
33532
33488
33488
33488
33532
33532
33532
33532
33510
33510
33510
33554
33554
33554
33597
33597
33597
33423
33423
33423
33619
33619
33619
33619
33619
33619
33619
33510
33510
33510
33619
33619
33619
33488
33488
33488
33684
33684
33684
33684
33619
33619
33619
33510
33510
33510
33684
33684
33684
33619
33619
33619
33597
33597
33597
33597
33684
33684
33684
33467
33467
33467
33619
33619
33619
33488
33488
33488
33532
33532
33532
33532
33728
33728
33728
33575
33575
33575
33662
33662
33662
33488
33488
33488
33641
33641
33641
33641
33597
33597
33597
33575
33575
33575
33619
33619
33619
33554
33554
33554
33619
33619
33619
33619
33641
33641
33641
33554
33554
33554
33706
33706
33706
33532
33532
33532
33662
33662
33662
33662
33532
33532
33532
33532
33532
33532
33641
33641
33641
33510
33510
33510
33575
33575
33575
33575
33575
33575
33575
33488
33488
33488
33575
33575
33575
33510
33510
33510
33532
33532
33532
33532
33662
33662
33662
33532
33532
33532
33662
33662
33662
33532
33532
33532
33858
33858
33858
33858
33597
33597
33597
33510
33510
33510
33532
33532
33532
33423
33423
33423
33641
33641
33641
33641
33619
33619
33619
33510
33510
33510
33488
33488
33488
33488
33488
33488
33619
33619
33619
33619
33641
33641
33641
33467
33467
33467
33597
33597
33597
33401
33401
33401
33554
33554
33554
33554
33619
33619
33619
33532
33532
33532
33641
33641
33641
33532
33532
33532
33510
33510
33510
33510
33575
33575
33575
33575
33575
33575
33597
33597
33597
33488
33488
33488
33510
33510
33510
33510
33619
33619
33619
33379
33379
33379
33684
33684
33684
33619
33619
33619
33575
33575
33575
33575
33662
33662
33662
33467
33467
33467
33728
33728
33728
33554
33554
33554
33619
33619
33619
33619
33575
33575
33575
33423
33423
33423
33641
33641
33641
33510
33510
33510
33771
33771
33771
33771
33684
33684
33684
33532
33532
33532
33575
33575
33575
33532
33532
33532
33488
33488
33488
33488
33706
33706
33706
33532
33532
33532
33575
33575
33575
33532
33532
33532
33641
33641
33641
33641
33597
33597
33597
33619
33619
33619
33597
33597
33597
33510
33510
33510
33597
33597
33597
33597
33554
33554
33554
33532
33532
33532
33510
33510
33510
33488
33488
33488
33597
33597
33597
33597
33793
33793
33793
33467
33467
33467
33597
33597
33597
33467
33467
33467
33554
33554
33554
33554
33662
33662
33662
33467
33467
33467
33728
33728
33728
33532
33532
33532
33575
33575
33575
33575
33532
33532
33532
33467
33467
33467
33641
33641
33641
33488
33488
33488
33619
33619
33619
33619
33597
33597
33597
33423
33423
33423
33597
33597
33597
33467
33467
33467
33641
33641
33641
33641
33662
33662
33662
33488
33488
33488
33597
33597
33597
33532
33532
33532
33554
33554
33554
33554
33619
33619
33619
33510
33510
33510
33575
33575
33575
33641
33641
33641
33532
33532
33532
33532
33532
33532
33532
33510
33510
33510
33575
33575
33575
33532
33532
33532
33510
33510
33510
33510
33662
33662
33662
33510
33510
33510
33619
33619
33619
33488
33488
33488
33597
33597
33597
33597
33619
33619
33619
33510
33510
33510
33662
33662
33662
33554
33554
33554
33706
33706
33706
33706
33836
33836
33836
33467
33467
33467
33597
33597
33597
33467
33467
33467
33597
33597
33597
33597
33619
33619
33619
33619
33619
33619
33619
33619
33619
33445
33445
33445
33575
33575
33575
33575
33597
33597
33597
33510
33510
33510
33662
33662
33662
33510
33510
33510
33532
33532
33532
33532
33662
33662
33662
33532
33532
33532
33619
33619
33619
33619
33619
33619
33597
33597
33597
33597
33597
33597
33597
33532
33532
33532
33641
33641
33641
33510
33510
33510
33597
33597
33597
33597
33619
33619
33619
33510
33510
33510
33467
33467
33467
33510
33510
33510
33619
33619
33619
33619
33619
33619
33619
33488
33488
33488
33597
33597
33597
33488
33488
33488
33662
33662
33662
33662
33619
33619
33619
33510
33510
33510
33641
33641
33641
33488
33488
33488
33641
33641
33641
33641
33662
33662
33662
33532
33532
33532
33619
33619
33619
33488
33488
33488
33575
33575
33575
33575
33597
33597
33597
33467
33467
33467
33836
33836
33836
33467
33467
33467
33641
33641
33641
33641
33554
33554
33554
33488
33488
33488
33510
33510
33510
33488
33488
33488
33575
33575
33575
33575
33510
33510
33510
33554
33554
33554
33597
33597
33597
33510
33510
33510
33597
33597
33597
33597
33554
33554
33554
33467
33467
33467
33619
33619
33619
33575
33575
33575
33488
33488
33488
33488
33140
33140
33140
33314
33314
33314
33597
33597
33597
33401
33401
33401
33597
33597
33597
33597
33619
33619
33619
33554
33554
33554
33597
33597
33597
33488
33488
33488
33641
33641
33641
33641
33619
33619
33619
33510
33510
33510
33641
33641
33641
33510
33510
33510
33575
33575
33575
33575
33597
33597
33597
33575
33575
33575
33575
33575
33575
33510
33510
33510
33532
33532
33532
33532
33597
33597
33597
33510
33510
33510
33684
33684
33684
33488
33488
33488
33619
33619
33619
33619
33619
33619
33619
33684
33684
33684
33532
33532
33532
33749
33749
33749
33597
33597
33597
33597
33575
33575
33575
33510
33510
33510
33619
33619
33619
33532
33532
33532
33532
33532
33532
33532
33662
33662
33662
33510
33510
33510
33597
33597
33597
33379
33379
33379
33619
33619
33619
33619
33554
33554
33554
33532
33532
33532
33619
33619
33619
33510
33510
33510
33554
33554
33554
33554
33597
33597
33597
33554
33554
33554
33619
33619
33619
33488
33488
33488
33597
33597
33597
33597
33575
33575
33575
33619
33619
33619
33532
33532
33532
33619
33619
33619
33641
33641
33641
33641
33510
33510
33510
33575
33575
33575
33684
33684
33684
33510
33510
33510
33619
33619
33619
33619
33445
33445
33445
33532
33532
33532
33619
33619
33619
33554
33554
33554
33554
33554
33554
33554
33662
33662
33662
33488
33488
33488
33597
33597
33597
33467
33467
33467
33641
33641
33641
33641
33641
33641
33641
33488
33488
33488
33597
33597
33597
33488
33488
33488
33597
33597
33597
33597
33619
33619
33619
33401
33401
33401
33597
33597
33597
33401
33401
33401
33575
33575
33575
33575
33575
33575
33575
33532
33532
33532
33554
33554
33554
33488
33488
33488
33575
33575
33575
33575
33597
33597
33597
33510
33510
33510
33597
33597
33597
33554
33554
33554
33662
33662
33662
33662
33554
33554
33554
33423
33423
33423
33641
33641
33641
33467
33467
33467
33532
33532
33532
33532
33728
33728
33728
33532
33532
33532
33575
33575
33575
33488
33488
33488
33423
33423
33423
33423
33575
33575
33575
33575
33575
33575
33706
33706
33706
33423
33423
33423
33554
33554
33554
33554
33510
33510
33510
33532
33532
33532
33532
33532
33532
33554
33554
33554
33597
33597
33597
33597
33619
33619
33619
33510
33510
33510
33597
33597
33597
33641
33641
33641
33554
33554
33554
33554
33619
33619
33619
33532
33532
33532
33575
33575
33575
33510
33510
33510
33728
33728
33728
33728
33510
33510
33510
33488
33488
33488
33619
33619
33619
33532
33532
33532
33597
33597
33597
33597
33597
33597
33597
33488
33488
33488
33619
33619
33619
33532
33532
33532
33510
33510
33510
33510
33532
33532
33532
33532
33532
33532
33728
33728
33728
33510
33510
33510
33575
33575
33575
33575
33641
33641
33641
33510
33510
33510
33554
33554
33554
33575
33575
33575
33706
33706
33706
33706
33597
33597
33597
33597
33597
33597
33662
33662
33662
33532
33532
33532
33619
33619
33619
33619
33532
33532
33532
33488
33488
33488
33575
33575
33575
33467
33467
33467
33575
33575
33575
33575
33575
33575
33575
33445
33445
33445
33554
33554
33554
33358
33358
33358
33597
33597
33597
33597
33619
33619
33619
33488
33488
33488
33488
33488
33488
33488
33488
33488
33619
33619
33619
33619
33597
33597
33597
33532
33532
33532
33641
33641
33641
33488
33488
33488
33619
33619
33619
33619
33575
33575
33575
33510
33510
33510
33554
33554
33554
33423
33423
33423
33575
33575
33575
33575
33662
33662
33662
33445
33445
33445
33597
33597
33597
33488
33488
33488
33619
33619
33619
33619
33641
33641
33641
33488
33488
33488
33575
33575
33575
33336
33336
33336
33510
33510
33510
33510
33706
33706
33706
33532
33532
33532
33597
33597
33597
33532
33532
33532
33619
33619
33619
33619
33597
33597
33597
33554
33554
33554
33641
33641
33641
33488
33488
33488
33619
33619
33619
33619
33706
33706
33706
33575
33575
33575
33684
33684
33684
33467
33467
33467
33641
33641
33641
33641
33619
33619
33619
33532
33532
33532
33554
33554
33554
33445
33445
33445
33575
33575
33575
33575
33597
33597
33597
33488
33488
33488
33619
33619
33619
33510
33510
33510
33793
33793
33793
33793
33510
33510
33510
33554
33554
33554
33554
33554
33554
33554
33554
33554
33575
33575
33575
33575
33597
33597
33597
33467
33467
33467
33597
33597
33597
33488
33488
33488
33662
33662
33662
33662
33619
33619
33619
33532
33532
33532
33554
33554
33554
33532
33532
33532
33510
33510
33510
33510
33619
33619
33619
33597
33597
33597
33662
33662
33662
33510
33510
33510
33575
33575
33575
33575
33575
33575
33575
33510
33510
33510
33575
33575
33575
33488
33488
33488
33597
33597
33597
33597
33554
33554
33554
33488
33488
33488
33641
33641
33641
33510
33510
33510
33597
33597
33597
33597
33597
33597
33597
33510
33510
33510
33619
33619
33619
33488
33488
33488
33641
33641
33641
33641
33510
33510
33510
33554
33554
33554
33467
33467
33467
33532
33532
33532
33597
33597
33597
33597
33597
33597
33597
33423
33423
33423
33619
33619
33619
33445
33445
33445
33575
33575
33575
33575
33619
33619
33619
33510
33510
33510
33488
33488
33488
33488
33488
33488
33510
33510
33510
33510
33662
33662
33662
33575
33575
33575
33554
33554
33554
33379
33379
33379
33575
33575
33575
33575
33619
33619
33619
33488
33488
33488
33619
33619
33619
33467
33467
33467
33467
33467
33467
33467
33771
33771
33771
33488
33488
33488
33619
33619
33619
33445
33445
33445
33619
33619
33619
33619
33662
33662
33662
33641
33641
33641
33597
33597
33597
33597
33597
33597
33619
33619
33619
33619
33532
33532
33532
33510
33510
33510
33684
33684
33684
33510
33510
33510
33662
33662
33662
33662
33510
33510
33510
33597
33597
33597
33641
33641
33641
33684
33684
33684
33641
33641
33641
33641
33510
33510
33510
33423
33423
33423
33510
33510
33510
33532
33532
33532
33641
33641
33641
33641
33641
33641
33641
33467
33467
33467
33597
33597
33597
33641
33641
33641
33575
33575
33575
33575
33488
33488
33488
33488
33488
33488
33554
33554
33554
33510
33510
33510
33619
33619
33619
33619
33619
33619
33619
33467
33467
33467
33597
33597
33597
33510
33510
33510
33488
33488
33488
33488
33619
33619
33619
33554
33554
33554
33467
33467
33467
33532
33532
33532
33597
33597
33597
33597
33575
33575
33575
33488
33488
33488
33597
33597
33597
33510
33510
33510
33575
33575
33575
33575
33488
33488
33488
33467
33467
33467
33532
33532
33532
33467
33467
33467
33554
33554
33554
33554
33575
33575
33575
33510
33510
33510
33554
33554
33554
33467
33467
33467
33619
33619
33619
33619
33597
33597
33597
33532
33532
33532
33597
33597
33597
33510
33510
33510
33554
33554
33554
33554
33684
33684
33684
33597
33597
33597
33619
33619
33619
33401
33401
33401
33575
33575
33575
33575
33684
33684
33684
33488
33488
33488
33597
33597
33597
33510
33510
33510
33532
33532
33532
33532
33510
33510
33510
33554
33554
33554
33575
33575
33575
33597
33597
33597
33467
33467
33467
33467
33575
33575
33575
33554
33554
33554
33684
33684
33684
33532
33532
33532
33641
33641
33641
33641
33575
33575
33575
33510
33510
33510
33510
33510
33510
33510
33510
33510
33575
33575
33575
33575
33619
33619
33619
33510
33510
33510
33597
33597
33597
33358
33358
33358
33684
33684
33684
33684
33532
33532
33532
33467
33467
33467
33597
33597
33597
33488
33488
33488
33575
33575
33575
33575
33706
33706
33706
33445
33445
33445
33575
33575
33575
33532
33532
33532
33554
33554
33554
33554
33532
33532
33532
33619
33619
33619
33488
33488
33488
33401
33401
33401
33619
33619
33619
33619
33575
33575
33575
33575
33575
33575
33641
33641
33641
33510
33510
33510
33554
33554
33554
33554
33575
33575
33575
33488
33488
33488
33575
33575
33575
33488
33488
33488
33597
33597
33597
33597
33554
33554
33554
33554
33554
33554
33619
33619
33619
33532
33532
33532
33510
33510
33510
33510
33597
33597
33597
33510
33510
33510
33597
33597
33597
33641
33641
33641
33510
33510
33510
33510
33554
33554
33554
33554
33554
33554
33662
33662
33662
33467
33467
33467
33619
33619
33619
33619
33706
33706
33706
33488
33488
33488
33488
33488
33488
33554
33554
33554
33641
33641
33641
33641
33575
33575
33575
33575
33575
33575
33641
33641
33641
33423
33423
33423
33554
33554
33554
33554
33641
33641
33641
33575
33575
33575
33575
33575
33575
33554
33554
33554
33575
33575
33575
33575
33575
33575
33575
33532
33532
33532
33619
33619
33619
33532
33532
33532
33575
33575
33575
33575
33619
33619
33619
33510
33510
33510
33445
33445
33445
33575
33575
33575
33554
33554
33554
33554
33641
33641
33641
33467
33467
33467
33641
33641
33641
33467
33467
33467
33619
33619
33619
33619
33641
33641
33641
33575
33575
33575
33619
33619
33619
33488
33488
33488
33575
33575
33575
33575
33662
33662
33662
33597
33597
33597
33619
33619
33619
33488
33488
33488
33532
33532
33532
33532
33684
33684
33684
33488
33488
33488
33619
33619
33619
33488
33488
33488
33619
33619
33619
33619
33641
33641
33641
33445
33445
33445
33510
33510
33510
33510
33510
33510
33641
33641
33641
33641
33619
33619
33619
33532
33532
33532
33532
33532
33532
33467
33467
33467
33597
33597
33597
33597
33554
33554
33554
33662
33662
33662
33575
33575
33575
33488
33488
33488
33510
33510
33510
33510
33706
33706
33706
33619
33619
33619
33662
33662
33662
33488
33488
33488
33619
33619
33619
33619
33554
33554
33554
33575
33575
33575
33641
33641
33641
33597
33597
33597
33619
33619
33619
33619
33597
33597
33597
33488
33488
33488
33619
33619
33619
33467
33467
33467
33575
33575
33575
33575
33662
33662
33662
33510
33510
33510
33554
33554
33554
33532
33532
33532
33641
33641
33641
33641
33619
33619
33619
33554
33554
33554
33619
33619
33619
33445
33445
33445
33488
33488
33488
33488
33554
33554
33554
33554
33554
33554
33510
33510
33510
33532
33532
33532
33597
33597
33597
33597
33554
33554
33554
33510
33510
33510
33597
33597
33597
33554
33554
33554
33575
33575
33575
33575
33554
33554
33554
33532
33532
33532
33728
33728
33728
33575
33575
33575
33641
33641
33641
33641
33554
33554
33554
33467
33467
33467
33575
33575
33575
33575
33575
33575
33597
33597
33597
33597
33619
33619
33619
33597
33597
33597
33575
33575
33575
33510
33510
33510
33597
33597
33597
33597
33597
33597
33597
33532
33532
33532
33662
33662
33662
33510
33510
33510
33575
33575
33575
33575
33641
33641
33641
33575
33575
33575
33575
33575
33575
33423
33423
33423
33619
33619
33619
33619
33597
33597
33597
33554
33554
33554
33575
33575
33575
33445
33445
33445
33597
33597
33597
33597
33467
33467
33467
33488
33488
33488
33597
33597
33597
33575
33575
33575
33532
33532
33532
33532
33554
33554
33554
33575
33575
33575
33575
33575
33575
33488
33488
33488
33510
33510
33510
33510
33641
33641
33641
33467
33467
33467
33662
33662
33662
33510
33510
33510
33532
33532
33532
33532
33641
33641
33641
33532
33532
33532
33575
33575
33575
33488
33488
33488
33641
33641
33641
33641
33597
33597
33597
33510
33510
33510
33597
33597
33597
33488
33488
33488
33554
33554
33554
33554
33532
33532
33532
33488
33488
33488
33641
33641
33641
33532
33532
33532
33597
33597
33597
33597
33619
33619
33619
33575
33575
33575
33619
33619
33619
33510
33510
33510
33619
33619
33619
33619
33641
33641
33641
33597
33597
33597
33554
33554
33554
33467
33467
33467
33554
33554
33554
33554
33641
33641
33641
33554
33554
33554
33575
33575
33575
33532
33532
33532
33575
33575
33575
33575
33597
33597
33597
33488
33488
33488
33510
33510
33510
33554
33554
33554
33662
33662
33662
33662
33641
33641
33641
33510
33510
33510
33597
33597
33597
33575
33575
33575
33597
33597
33597
33597
33641
33641
33641
33597
33597
33597
33554
33554
33554
33445
33445
33445
33445
33445
33445
33445
33488
33488
33488
33532
33532
33532
33532
33532
33532
33510
33510
33510
33597
33597
33597
33597
33575
33575
33575
33488
33488
33488
33597
33597
33597
33445
33445
33445
33619
33619
33619
33619
33619
33619
33619
33532
33532
33532
33619
33619
33619
33575
33575
33575
33597
33597
33597
33597
33532
33532
33532
33488
33488
33488
33554
33554
33554
33554
33554
33554
33575
33575
33575
33575
33597
33597
33597
33575
33575
33575
33575
33575
33575
33532
33532
33532
33749
33749
33749
33749
33510
33510
33510
33554
33554
33554
33467
33467
33467
33510
33510
33510
33597
33597
33597
33597
33662
33662
33662
33532
33532
33532
33619
33619
33619
33532
33532
33532
33597
33597
33597
33597
33575
33575
33575
33488
33488
33488
33706
33706
33706
33510
33510
33510
33597
33597
33597
33597
33575
33575
33575
33488
33488
33488
33619
33619
33619
33554
33554
33554
33575
33575
33575
33575
33575
33575
33575
33467
33467
33467
33619
33619
33619
33619
33619
33619
33488
33488
33488
33488
33445
33445
33445
33575
33575
33575
33532
33532
33532
33423
33423
33423
33575
33575
33575
33575
33532
33532
33532
33575
33575
33575
33554
33554
33554
33619
33619
33619
33619
33619
33619
33619
33554
33554
33554
33554
33554
33554
33619
33619
33619
33510
33510
33510
33532
33532
33532
33532
33706
33706
33706
33532
33532
33532
33575
33575
33575
33488
33488
33488
33619
33619
33619
33619
33597
33597
33597
33575
33575
33575
33575
33575
33575
33575
33575
33575
33467
33467
33467
33467
33554
33554
33554
33445
33445
33445
33641
33641
33641
33488
33488
33488
33641
33641
33641
33641
33532
33532
33532
33510
33510
33510
33597
33597
33597
33597
33597
33597
33662
33662
33662
33662
33706
33706
33706
33488
33488
33488
33684
33684
33684
33532
33532
33532
33597
33597
33597
33597
33575
33575
33575
33510
33510
33510
33619
33619
33619
33488
33488
33488
33597
33597
33597
33597
33662
33662
33662
33532
33532
33532
33619
33619
33619
33532
33532
33532
33532
33532
33532
33532
33684
33684
33684
33554
33554
33554
33684
33684
33684
33467
33467
33467
33532
33532
33532
33532
33641
33641
33641
33554
33554
33554
33597
33597
33597
33532
33532
33532
33597
33597
33597
33597
33641
33641
33641
33510
33510
33510
33641
33641
33641
33597
33597
33597
33641
33641
33641
33641
33597
33597
33597
33510
33510
33510
33532
33532
33532
33532
33532
33532
33641
33641
33641
33641
33554
33554
33554
33532
33532
33532
33575
33575
33575
33488
33488
33488
33532
33532
33532
33532
33532
33532
33532
33510
33510
33510
33575
33575
33575
33532
33532
33532
33488
33488
33488
33488
33510
33510
33510
33532
33532
33532
33684
33684
33684
33575
33575
33575
33575
33575
33575
33575
33554
33554
33554
33445
33445
33445
33619
33619
33619
33575
33575
33575
33619
33619
33619
33619
33554
33554
33554
33510
33510
33510
33619
33619
33619
33445
33445
33445
33510
33510
33510
33510
33619
33619
33619
33532
33532
33532
33597
33597
33597
33488
33488
33488
33597
33597
33597
33597
33662
33662
33662
33575
33575
33575
33641
33641
33641
33554
33554
33554
33575
33575
33575
33575
33488
33488
33488
33510
33510
33510
33641
33641
33641
33358
33358
33358
33619
33619
33619
33619
33706
33706
33706
33575
33575
33575
33554
33554
33554
33423
33423
33423
33575
33575
33575
33575
33619
33619
33619
33532
33532
33532
33684
33684
33684
33532
33532
33532
33597
33597
33597
33597
33467
33467
33467
33336
33336
33336
33706
33706
33706
33510
33510
33510
33619
33619
33619
33619
33597
33597
33597
33532
33532
33532
33597
33597
33597
33488
33488
33488
33510
33510
33510
33510
33662
33662
33662
33510
33510
33510
33597
33597
33597
33401
33401
33401
33597
33597
33597
33597
33575
33575
33575
33554
33554
33554
33575
33575
33575
33532
33532
33532
33619
33619
33619
33619
33619
33619
33619
33467
33467
33467
33706
33706
33706
33510
33510
33510
33706
33706
33706
33706
33554
33554
33554
33401
33401
33401
33684
33684
33684
33554
33554
33554
33575
33575
33575
33575
33554
33554
33554
33554
33554
33554
33619
33619
33619
33488
33488
33488
33532
33532
33532
33532
33662
33662
33662
33532
33532
33532
33379
33379
33379
33554
33554
33554
33619
33619
33619
33619
33510
33510
33510
33488
33488
33488
33619
33619
33619
33662
33662
33662
33597
33597
33597
33597
33554
33554
33554
33510
33510
33510
33510
33510
33510
33532
33532
33532
33510
33510
33510
33510
33684
33684
33684
33488
33488
33488
33641
33641
33641
33379
33379
33379
33575
33575
33575
33575
33619
33619
33619
33597
33597
33597
33554
33554
33554
33488
33488
33488
33575
33575
33575
33575
33488
33488
33488
33488
33488
33488
33641
33641
33641
33445
33445
33445
33619
33619
33619
33619
33575
33575
33575
33510
33510
33510
33597
33597
33597
33510
33510
33510
33575
33575
33575
33575
33597
33597
33597
33575
33575
33575
33619
33619
33619
33532
33532
33532
33597
33597
33597
33597
33815
33815
33815
33619
33619
33619
33597
33597
33597
33532
33532
33532
33619
33619
33619
33619
33619
33619
33619
33401
33401
33401
33662
33662
33662
33488
33488
33488
33575
33575
33575
33575
33510
33510
33510
33358
33358
33358
33684
33684
33684
33575
33575
33575
33619
33619
33619
33619
33554
33554
33554
33401
33401
33401
33575
33575
33575
33445
33445
33445
33554
33554
33554
33554
33619
33619
33619
33554
33554
33554
33706
33706
33706
33554
33554
33554
33554
33554
33554
33554
33445
33445
33445
33488
33488
33488
33619
33619
33619
33575
33575
33575
33554
33554
33554
33554
33575
33575
33575
33467
33467
33467
33641
33641
33641
33488
33488
33488
33684
33684
33684
33684
33554
33554
33554
33358
33358
33358
33575
33575
33575
33510
33510
33510
33575
33575
33575
33575
33662
33662
33662
33575
33575
33575
33597
33597
33597
33510
33510
33510
33619
33619
33619
33619
33554
33554
33554
33532
33532
33532
33597
33597
33597
33423
33423
33423
33575
33575
33575
33575
33554
33554
33554
33423
33423
33423
33619
33619
33619
33488
33488
33488
33619
33619
33619
33619
33641
33641
33641
33488
33488
33488
33597
33597
33597
33445
33445
33445
33597
33597
33597
33597
33597
33597
33597
33445
33445
33445
33662
33662
33662
33510
33510
33510
33510
33510
33510
33510
33619
33619
33619
33467
33467
33467
33575
33575
33575
33445
33445
33445
33597
33597
33597
33597
33641
33641
33641
33597
33597
33597
33575
33575
33575
33379
33379
33379
33575
33575
33575
33575
33619
33619
33619
33532
33532
33532
33532
33532
33532
33510
33510
33510
33619
33619
33619
33619
33619
33619
33619
33510
33510
33510
33575
33575
33575
33445
33445
33445
33532
33532
33532
33532
33771
33771
33771
33575
33575
33575
33532
33532
33532
33532
33532
33532
33467
33467
33467
33467
33619
33619
33619
33510
33510
33510
33619
33619
33619
33597
33597
33597
33619
33619
33619
33619
33619
33619
33619
33575
33575
33575
33684
33684
33684
33467
33467
33467
33488
33488
33488
33488
33532
33532
33532
33467
33467
33467
33706
33706
33706
33488
33488
33488
33554
33554
33554
33554
33597
33597
33597
33532
33532
33532
33662
33662
33662
33488
33488
33488
33554
33554
33554
33554
33662
33662
33662
33467
33467
33467
33597
33597
33597
33532
33532
33532
33488
33488
33488
33488
33532
33532
33532
33532
33532
33532
33619
33619
33619
33510
33510
33510
33575
33575
33575
33575
33597
33597
33597
33554
33554
33554
33532
33532
33532
33510
33510
33510
33619
33619
33619
33619
33488
33488
33488
33510
33510
33510
33597
33597
33597
33488
33488
33488
33641
33641
33641
33641
33619
33619
33619
33554
33554
33554
33554
33554
33554
33488
33488
33488
33619
33619
33619
33619
33662
33662
33662
33488
33488
33488
33532
33532
33532
33488
33488
33488
33488
33488
33488
33488
33532
33532
33532
33554
33554
33554
33619
33619
33619
33532
33532
33532
33684
33684
33684
33684
33510
33510
33510
33423
33423
33423
33554
33554
33554
33445
33445
33445
33554
33554
33554
33554
33641
33641
33641
33488
33488
33488
33554
33554
33554
33488
33488
33488
33597
33597
33597
33597
33575
33575
33575
33532
33532
33532
33401
33401
33401
33467
33467
33467
33532
33532
33532
33532
33641
33641
33641
33575
33575
33575
33662
33662
33662
33488
33488
33488
33575
33575
33575
33575
33510
33510
33510
33532
33532
33532
33619
33619
33619
33554
33554
33554
33554
33554
33554
33554
33836
33836
33836
33619
33619
33619
33641
33641
33641
33575
33575
33575
33575
33575
33575
33575
33597
33597
33597
33554
33554
33554
33728
33728
33728
33249
33249
33249
33554
33554
33554
33554
33554
33554
33554
33554
33554
33554
33423
33423
33423
33554
33554
33554
33597
33597
33597
33597
33575
33575
33575
33488
33488
33488
33662
33662
33662
33554
33554
33554
33662
33662
33662
33662
33619
33619
33619
33467
33467
33467
33532
33532
33532
33532
33532
33532
33619
33619
33619
33619
33575
33575
33575
33554
33554
33554
33575
33575
33575
33554
33554
33554
33554
33554
33554
33554
33532
33532
33532
33532
33532
33532
33662
33662
33662
33510
33510
33510
33445
33445
33445
33445
33423
33423
33423
33423
33423
33423
33575
33575
33575
33488
33488
33488
33597
33597
33597
33597
33619
33619
33619
33532
33532
33532
33597
33597
33597
33532
33532
33532
33554
33554
33554
33554
33706
33706
33706
33488
33488
33488
33619
33619
33619
33401
33401
33401
33597
33597
33597
33597
33619
33619
33619
33532
33532
33532
33597
33597
33597
33554
33554
33554
33597
33597
33597
33597
33662
33662
33662
33510
33510
33510
33728
33728
33728
33510
33510
33510
33619
33619
33619
33619
33554
33554
33554
33532
33532
33532
33575
33575
33575
33401
33401
33401
33575
33575
33575
33575
33575
33575
33575
33423
33423
33423
33619
33619
33619
33510
33510
33510
33684
33684
33684
33684
33641
33641
33641
33662
33662
33662
33641
33641
33641
33488
33488
33488
33662
33662
33662
33662
33662
33662
33662
33575
33575
33575
33575
33575
33575
33445
33445
33445
33619
33619
33619
33619
33619
33619
33619
33532
33532
33532
33662
33662
33662
33488
33488
33488
33597
33597
33597
33597
33619
33619
33619
33488
33488
33488
33597
33597
33597
33488
33488
33488
33641
33641
33641
33641
33575
33575
33575
33641
33641
33641
33597
33597
33597
33445
33445
33445
33510
33510
33510
33510
33554
33554
33554
33554
33554
33554
33641
33641
33641
33467
33467
33467
33554
33554
33554
33554
33467
33467
33467
33554
33554
33554
33597
33597
33597
33488
33488
33488
33684
33684
33684
33684
33619
33619
33619
33641
33641
33641
33597
33597
33597
33423
33423
33423
33554
33554
33554
33554
33597
33597
33597
33532
33532
33532
33749
33749
33749
33488
33488
33488
33619
33619
33619
33619
33554
33554
33554
33423
33423
33423
33641
33641
33641
33467
33467
33467
33641
33641
33641
33641
33554
33554
33554
33445
33445
33445
33575
33575
33575
33532
33532
33532
33532
33532
33532
33532
33597
33597
33597
33554
33554
33554
33619
33619
33619
33575
33575
33575
33554
33554
33554
33554
33597
33597
33597
33423
33423
33423
33641
33641
33641
33445
33445
33445
33597
33597
33597
33597
33619
33619
33619
33532
33532
33532
33619
33619
33619
33467
33467
33467
33575
33575
33575
33575
33532
33532
33532
33575
33575
33575
33597
33597
33597
33532
33532
33532
33554
33554
33554
33554
33597
33597
33597
33554
33554
33554
33619
33619
33619
33510
33510
33510
33662
33662
33662
33662
33510
33510
33510
33510
33510
33510
33423
33423
33423
33575
33575
33575
33575
33575
33575
33575
33619
33619
33619
33554
33554
33554
33597
33597
33597
33597
33597
33597
33575
33575
33575
33575
33597
33597
33597
33510
33510
33510
33358
33358
33358
33575
33575
33575
33554
33554
33554
33554
33641
33641
33641
33532
33532
33532
33619
33619
33619
33532
33532
33532
33597
33597
33597
33597
33575
33575
33575
33445
33445
33445
33619
33619
33619
33488
33488
33488
33532
33532
33532
33532
33292
33292
33292
33597
33597
33597
33619
33619
33619
33510
33510
33510
33575
33575
33575
33575
33597
33597
33597
33401
33401
33401
33575
33575
33575
33423
33423
33423
33662
33662
33662
33662
33597
33597
33597
33532
33532
33532
33728
33728
33728
33510
33510
33510
33619
33619
33619
33619
33684
33684
33684
33467
33467
33467
33641
33641
33641
33488
33488
33488
33619
33619
33619
33619
33554
33554
33554
33401
33401
33401
33619
33619
33619
33401
33401
33401
33554
33554
33554
33554
33575
33575
33575
33554
33554
33554
33575
33575
33575
33510
33510
33510
33554
33554
33554
33554
33597
33597
33597
33510
33510
33510
33467
33467
33467
33423
33423
33423
33510
33510
33510
33510
33597
33597
33597
33575
33575
33575
33597
33597
33597
33510
33510
33510
33575
33575
33575
33575
33575
33575
33575
33510
33510
33510
33575
33575
33575
33488
33488
33488
33488
33488
33488
33488
33597
33597
33597
33597
33597
33597
33554
33554
33554
33575
33575
33575
33641
33641
33641
33641
33619
33619
33619
33467
33467
33467
33597
33597
33597
33467
33467
33467
33575
33575
33575
33575
33554
33554
33554
33401
33401
33401
33662
33662
33662
33510
33510
33510
33575
33575
33575
33575
33575
33575
33575
33488
33488
33488
33597
33597
33597
33532
33532
33532
33575
33575
33575
33575
33619
33619
33619
33488
33488
33488
33554
33554
33554
33379
33379
33379
33575
33575
33575
33575
33532
33532
33532
33445
33445
33445
33575
33575
33575
33662
33662
33662
33597
33597
33597
33597
33554
33554
33554
33554
33554
33554
33597
33597
33597
33336
33336
33336
33467
33467
33467
33467
33575
33575
33575
33554
33554
33554
33662
33662
33662
33488
33488
33488
33597
33597
33597
33597
33554
33554
33554
33554
33554
33554
33619
33619
33619
33641
33641
33641
33619
33619
33619
33619
33467
33467
33467
33401
33401
33401
33641
33641
33641
33488
33488
33488
33619
33619
33619
33619
33532
33532
33532
33532
33532
33532
33597
33597
33597
33575
33575
33575
33641
33641
33641
33641
33619
33619
33619
33597
33597
33597
33554
33554
33554
33532
33532
33532
33619
33619
33619
33619
33641
33641
33641
33554
33554
33554
33728
33728
33728
33510
33510
33510
33597
33597
33597
33597
33575
33575
33575
33510
33510
33510
33662
33662
33662
33532
33532
33532
33575
33575
33575
33575
33706
33706
33706
33554
33554
33554
33575
33575
33575
33510
33510
33510
33597
33597
33597
33597
33597
33597
33597
33532
33532
33532
33575
33575
33575
33488
33488
33488
33467
33467
33467
33467
33641
33641
33641
33488
33488
33488
33641
33641
33641
33401
33401
33401
33641
33641
33641
33641
33641
33641
33641
33510
33510
33510
33597
33597
33597
33510
33510
33510
33379
33379
33379
33379
33575
33575
33575
33510
33510
33510
33662
33662
33662
33488
33488
33488
33641
33641
33641
33641
33554
33554
33554
33488
33488
33488
33532
33532
33532
33510
33510
33510
33532
33532
33532
33532
33554
33554
33554
33597
33597
33597
33575
33575
33575
33488
33488
33488
33510
33510
33510
33510
33706
33706
33706
33467
33467
33467
33467
33467
33467
33423
33423
33423
33619
33619
33619
33619
33641
33641
33641
33532
33532
33532
33445
33445
33445
33488
33488
33488
33401
33401
33401
33401
33597
33597
33597
33510
33510
33510
33662
33662
33662
33510
33510
33510
33641
33641
33641
33641
33554
33554
33554
33445
33445
33445
33619
33619
33619
33510
33510
33510
33554
33554
33554
33554
33597
33597
33597
33488
33488
33488
33619
33619
33619
33510
33510
33510
33641
33641
33641
33641
33532
33532
33532
33532
33532
33532
33597
33597
33597
33488
33488
33488
33597
33597
33597
33597
33815
33815
33815
33706
33706
33706
33575
33575
33575
33554
33554
33554
33597
33597
33597
33597
33662
33662
33662
33510
33510
33510
33554
33554
33554
33510
33510
33510
33575
33575
33575
33575
33597
33597
33597
33423
33423
33423
33619
33619
33619
33401
33401
33401
33597
33597
33597
33597
33597
33597
33597
33488
33488
33488
33641
33641
33641
33532
33532
33532
33662
33662
33662
33662
33662
33662
33662
33488
33488
33488
33815
33815
33815
33467
33467
