2115
2115
2115
2122
2122
2122
2119
2119
2119
2120
2120
2120
2119
2119
2119
2119
2119
2119
2119
2123
2123
2123
2119
2119
2119
2120
2120
2120
2120
2120
2120
2120
2125
2125
2125
2114
2114
2114
2119
2119
2119
2119
2119
2119
2119
2119
2119
2119
2121
2121
2121
2121
2121
2121
2120
2120
2120
2119
2119
2119
2119
2119
2119
2119
2118
2118
2118
2119
2119
2119
2123
2123
2123
2119
2119
2119
2113
2113
2113
2113
2119
2119
2119
2118
2118
2118
2119
2119
2119
2119
2119
2119
2117
2117
2117
2121
2121
2121
2121
2118
2118
2118
2121
2121
2121
2117
2117
2117
2121
2121
2121
2119
2119
2119
2119
2121
2121
2121
2116
2116
2116
2126
2126
2126
2120
2120
2120
2120
2120
2120
2120
2120
2120
2120
2121
2121
2121
2118
2118
2118
2119
2119
2119
2119
2119
2119
2119
2120
2120
2120
2122
2122
2122
2118
2118
2118
2119
2119
2119
2120
2120
2120
2120
2120
2120
2120
2123
2123
2123
2122
2122
2122
2119
2119
2119
2121
2121
2121
2121
2119
2119
2119
2122
2122
2122
2119
2119
2119
2119
2119
2119
2119
2119
2119
2119
2118
2118
2118
2118
2118
2118
2118
2118
2118
2118
2118
2118
2124
2124
2124
2124
2121
2121
2121
2121
2121
2121
2117
2117
2117
2119
2119
2119
2119
2119
2119
2119
2113
2113
2113
2122
2122
2122
2122
2122
2122
2119
2119
2119
2119
2119
2119
2119
2122
2122
2122
2125
2125
2125
2127
2127
2127
2121
2121
2121
2120
2120
2120
2120
2119
2119
2119
2121
2121
2121
2125
2125
2125
2118
2118
2118
2117
2117
2117
2117
2116
2116
2116
2120
2120
2120
2121
2121
2121
2119
2119
2119
2122
2122
2122
2122
2118
2118
2118
2119
2119
2119
2120
2120
2120
2121
2121
2121
2120
2120
2120
2120
2123
2123
2123
2121
2121
2121
2121
2121
2121
2120
2120
2120
2122
2122
2122
2122
2119
2119
2119
2119
2119
2119
2120
2120
2120
2119
2119
2119
2114
2114
2114
2114
2119
2119
2119
2120
2120
2120
2120
2120
2120
2121
2121
2121
2120
2120
2120
2120
2119
2119
2119
2121
2121
2121
2126
2126
2126
2121
2121
2121
2122
2122
2122
2122
2118
2118
2118
2119
2119
2119
2121
2121
2121
2119
2119
2119
2117
2117
2117
2117
2119
2119
2119
2121
2121
2121
2119
2119
2119
2125
2125
2125
2123
2123
2123
2123
2121
2121
2121
2119
2119
2119
2121
2121
2121
2116
2116
2116
2118
2118
2118
2118
2116
2116
2116
2117
2117
2117
2118
2118
2118
2125
2125
2125
2121
2121
2121
2121
2118
2118
2118
2117
2117
2117
2118
2118
2118
2121
2121
2121
2119
2119
2119
2119
2113
2113
2113
2124
2124
2124
2120
2120
2120
2121
2121
2121
2120
2120
2120
2120
2116
2116
2116
2122
2122
2122
2122
2122
2122
2119
2119
2119
2118
2118
2118
2118
2124
2124
2124
2120
2120
2120
2121
2121
2121
2120
2120
2120
2121
2121
2121
2121
2121
2121
2121
2119
2119
2119
2120
2120
2120
2120
2120
2120
2120
2120
2120
2120
2119
2119
2119
2121
2121
2121
2121
2121
2121
2121
2121
2121
2121
2121
2121
2121
2121
2121
2121
2120
2120
2120
2119
2119
2119
2120
2120
2120
2120
2120
2120
2120
2120
2120
2120
2120
2120
2120
2120
2120
2120
2121
2121
2121
2121
2121
2121
2121
2119
2119
2119
2120
2120
2120
2118
2118
2118
2117
2117
2117
2116
2116
2116
2116
2119
2119
2119
2119
2119
2119
2118
2118
2118
2117
2117
2117
2117
2117
2117
2117
2122
2122
2122
2119
2119
2119
2120
2120
2120
2125
2125
2125
2121
2121
2121
2121
2121
2121
2121
2120
2120
2120
2119
2119
2119
2122
2122
2122
2121
2121
2121
2121
2118
2118
2118
2120
2120
2120
2116
2116
2116
2119
2119
2119
2122
2122
2122
2122
2123
2123
2123
2120
2120
2120
2117
2117
2117
2123
2123
2123
2119
2119
2119
2119
2118
2118
2118
2118
2118
2118
2121
2121
2121
2121
2121
2121
2120
2120
2120
2120
2117
2117
2117
2122
2122
2122
2120
2120
2120
2117
2117
2117
2121
2121
2121
2121
2121
2121
2121
2119
2119
2119
2121
2121
2121
2121
2121
2121
2121
2121
2121
2121
2118
2118
2118
2117
2117
2117
2120
2120
2120
2122
2122
2122
2120
2120
2120
2120
2118
2118
2118
2120
2120
2120
2120
2120
2120
2125
2125
2125
2121
2121
2121
2121
2122
2122
2122
2120
2120
2120
2119
2119
2119
2120
2120
2120
2118
2118
2118
2118
2120
2120
2120
2120
2120
2120
2119
2119
2119
2119
2119
2119
2117
2117
2117
2117
2119
2119
2119
2120
2120
2120
2121
2121
2121
2130
2130
2130
2116
2116
2116
2116
2120
2120
2120
2120
2120
2120
2121
2121
2121
2123
2123
2123
2124
2124
2124
2124
2122
2122
2122
2124
2124
2124
2117
2117
2117
2116
2116
2116
2120
2120
2120
2120
2123
2123
2123
2121
2121
2121
2124
2124
2124
2124
2124
2124
2119
2119
2119
2119
2129
2129
2129
2120
2120
2120
2111
2111
2111
2121
2121
2121
2120
2120
2120
2120
2117
2117
2117
2117
2117
2117
2114
2114
2114
2117
2117
2117
2119
2119
2119
2119
2115
2115
2115
2120
2120
2120
2120
2120
2120
2123
2123
2123
2119
2119
2119
2119
2118
2118
2118
2119
2119
2119
2115
2115
2115
2121
2121
2121
2118
2118
2118
2118
2120
2120
2120
2121
2121
2121
2122
2122
2122
2120
2120
2120
2120
2120
2120
2120
2113
2113
2113
2124
2124
2124
2121
2121
2121
2121
2121
2121
2122
2122
2122
2122
2121
2121
2121
2121
2121
2121
2120
2120
2120
2119
2119
2119
2119
2119
2119
2119
2118
2118
2118
2120
2120
2120
2121
2121
2121
2117
2117
2117
2117
2117
2117
2117
2118
2118
2118
2119
2119
2119
2121
2121
2121
2119
2119
2119
2120
2120
2120
2120
2122
2122
2122
2119
2119
2119
2122
2122
2122
2117
2117
2117
2119
2119
2119
2119
2119
2119
2119
2117
2117
