2157
2157
2148
2148
2148
2155
2155
2155
2155
2153
2153
2153
2151
2151
2151
2152
2152
2152
2158
2158
2158
2155
2155
2155
2155
2156
2156
2156
2154
2154
2154
2153
2153
2153
2153
2153
2153
2156
2156
2156
2156
2154
2154
2154
2151
2151
2151
2156
2156
2156
2153
2153
2153
2156
2156
2156
2156
2153
2153
2153
2150
2150
2150
2153
2153
2153
2151
2151
2151
2154
2154
2154
2154
2156
2156
2156
2158
2158
2158
2152
2152
2152
2153
2157
2157
2152
2152
2152
2156
2156
2156
2156
2155
2155
2155
2152
2152
2152
2160
2160
2160
2150
2150
2150
2159
2159
2159
2159
2155
2155
2155
2151
2151
2151
2155
2155
2155
2152
2152
2152
2157
2157
2157
2157
2156
2156
2156
2147
2147
2147
2156
2156
2156
2152
2152
2152
2155
2155
2155
2155
2155
2155
2155
2152
2152
2152
2160
2160
2160
2153
2153
2153
2155
2155
2155
2155
2159
2159
2159
2152
2152
2152
2157
2157
2157
2151
2151
2151
2152
2152
2152
2152
2158
2158
2158
2153
2153
2153
2158
2158
2158
2152
2152
2152
2154
2154
2154
2154
2154
2154
2154
2152
2152
2152
2156
2156
2156
2153
2153
2153
2158
2158
2158
2158
2152
2152
2152
2149
2149
2149
2155
2155
2155
2152
2152
2152
2156
2156
2156
2156
2155
2155
2155
2153
2153
2153
2155
2155
2155
2152
2152
2152
2156
2156
2156
2156
2157
2157
2157
2151
2151
2151
2156
2156
2156
2153
2153
2153
2156
2156
2156
2156
2157
2157
2157
2152
2152
2152
2157
2157
2157
2153
2153
2153
2157
2157
2157
2157
2153
2153
2153
2152
2152
2152
2154
2154
2154
2151
2151
2151
2155
2155
2155
2155
2152
2152
2152
2155
2155
2155
2158
2158
2158
2154
2154
2154
2156
2156
2156
2156
2158
2158
2158
2153
2153
2153
2153
2153
2153
2153
2153
2153
2153
2153
2153
2153
2154
2154
2154
2152
2152
2152
2155
2155
2155
2153
2153
2153
2154
2154
2154
2154
2157
2157
2157
2154
2154
2154
2158
2158
2158
2156
2156
2156
2160
2160
2160
2160
2149
2149
2149
2155
2155
2155
2155
2155
2155
2152
2152
2152
2155
2155
2155
2155
2155
2155
2155
2151
2151
2151
2156
2156
2156
2151
2151
2151
2160
2160
2160
2160
2157
2157
2157
2153
2153
2153
2157
2157
2157
2159
2159
2159
2154
2154
2154
2154
2156
2156
2156
2151
2151
2151
2157
2157
2157
2157
2157
2157
2156
2156
2156
2156
2158
2158
2158
2152
2152
2152
2154
2154
2154
2154
2154
2154
2159
2159
2159
2159
2152
2152
2152
2152
2152
2152
2156
2156
2156
2153
2153
2153
2156
2156
2156
2156
2159
2159
2159
2153
2153
2153
2156
2156
2156
2150
2150
2150
2155
2155
2155
2155
2155
2155
2155
2154
2154
2154
2156
2156
2156
2152
2152
2152
2155
2155
2155
2155
2154
2154
2154
2150
2150
2150
2157
2157
2157
2153
2153
2153
2154
2154
2154
2154
2155
2155
2155
2152
2152
2152
2155
2155
2155
2154
2154
2154
2160
2160
2160
2160
2156
2156
2156
2153
2153
2153
2155
2155
2155
2151
2151
2151
2154
2154
2154
2154
2156
2156
2156
2152
2152
2152
2155
2155
2155
2152
2152
2152
2157
2157
2157
2157
2156
2156
2156
2152
2152
2152
2159
2159
2159
2151
2151
2151
2156
2156
2156
2156
2150
2150
2150
2153
2153
2153
2154
2154
2154
2150
2150
2150
2155
2155
2155
2155
2153
2153
2153
2150
2150
2150
2159
2159
2159
2152
2152
2152
2153
2153
2153
2153
2156
2156
2156
2153
2153
2153
2155
2155
2155
2153
2153
2153
2157
2157
2157
2157
2158
2158
2158
2148
2148
2148
2155
2155
2155
2151
2151
2151
2154
2154
2154
2154
2158
2158
2158
2151
2151
2151
2159
2159
2159
2151
2151
2151
2156
2156
2156
2156
2156
2156
2156
2154
2154
2154
2156
2156
2156
2152
2152
2152
2156
2156
2156
2156
2157
2157
2157
2151
2151
2151
2158
2158
2158
2153
2153
2153
2155
2155
2155
2155
2153
2153
2153
2151
2151
2151
2158
2158
2158
2153
2153
2153
2157
2157
2157
2157
2152
2152
2152
2153
2153
2153
2159
2159
2159
2146
2146
2146
2155
2155
2155
2155
2154
2154
2154
2151
2151
2151
2158
2158
2158
2154
2154
2154
2155
2155
2155
2155
2157
2157
2157
2144
2144
2144
2159
2159
2159
2151
2151
2151
2154
2154
2154
2154
2156
2156
2156
2153
2153
2153
2160
2160
2160
2152
2152
2152
2161
2161
2161
2161
2157
2157
2157
2155
2155
2155
2157
2157
2157
2151
2151
2151
2155
2155
2155
2155
2156
2156
2156
2151
2151
2151
2160
2160
2160
2152
2152
2152
2157
2157
2157
2157
2155
2155
2155
2152
2152
2152
2155
2155
2155
2151
2151
2151
2155
2155
2155
2155
2158
2158
2158
2151
2151
2151
2153
2153
2153
2153
2153
2153
2155
2155
2155
2155
2156
2156
2156
2153
2153
2153
2155
2155
2155
2150
2150
2150
2160
2160
2160
2160
2156
2156
2156
2151
2151
2151
2158
2158
2158
2151
2151
2151
2158
2158
2158
2158
2154
2154
2154
2152
2152
2152
2154
2154
2154
2158
2158
2158
2156
2156
2156
2156
2155
2155
2155
2156
2156
2156
2156
2156
2156
2152
2152
2152
2160
2160
2160
2160
2157
2157
2157
2156
2156
2156
2155
2155
2155
2152
2152
2152
2154
2154
2154
2154
2161
2161
2161
2151
2151
2151
2159
2159
2159
2152
2152
2152
2155
2155
2155
2155
2156
2156
2156
2153
2153
2153
2157
2157
2157
2153
2153
2153
2158
2158
2158
2158
2153
2153
2153
2151
2151
2151
2154
2154
2154
2146
2146
2146
2156
2156
2156
2156
2158
2158
2158
2154
2154
2154
2165
2165
2165
2152
2152
2152
2156
2156
2156
2156
2152
2152
2152
2153
2153
2153
2157
2157
2157
2152
2152
2152
2154
2154
2154
2154
2158
2158
2158
2153
2153
2153
2154
2154
2154
2155
2155
2155
2153
2153
2153
2153
2156
2156
2156
2152
2152
2152
2157
2157
2157
2154
2154
2154
