2112
2112
2116
2116
2116
2099
2099
2099
2115
2115
2115
2115
2115
2115
2113
2113
2113
2113
2113
2113
2113
2119
2119
2119
2116
2116
2116
2116
2116
2116
2120
2120
2120
2120
2114
2114
2114
2117
2117
2117
2114
2114
2114
2111
2111
2111
2112
2112
2112
2112
2114
2114
2114
2115
2115
2115
2113
2113
2113
2114
2114
2114
2114
2114
2114
2114
2111
2111
2111
2115
2115
2115
2117
2117
2117
2113
2113
2113
2118
2118
2118
2118
2115
2115
2115
2122
2122
2122
2116
2116
2116
2120
2120
2120
2112
2112
2112
2112
2114
2114
2114
2114
2114
2114
2121
2121
2121
2117
2117
2117
2113
2113
2113
2113
2120
2120
2120
2119
2119
2119
2114
2114
2114
2116
2116
2116
2116
2116
2116
2116
2114
2114
2114
2110
2110
2110
2114
2114
2114
2115
2115
2115
2113
2113
2113
2113
2113
2113
2113
2117
2117
2117
2112
2112
2112
2115
2115
2115
2117
2117
2117
2117
2122
2122
2122
2116
2116
2116
2116
2116
2116
2112
2112
2112
2113
2113
2113
2113
2113
2113
2113
2113
2113
2113
2114
2114
2114
2116
2116
2116
2122
2122
2122
2122
2124
2124
2124
2116
2116
2116
2108
2108
2108
2117
2117
2117
2116
2116
2116
2116
2116
2116
2116
2113
2113
2113
2116
2116
2116
2115
2115
2115
2117
2117
2117
2117
2113
2113
2113
2114
2114
2114
2110
2110
2110
2117
2117
2117
2118
2118
2118
2118
2119
2119
2119
2115
2115
2115
2116
2116
2116
2113
2113
2113
2115
2115
2115
2115
2115
2115
2115
2117
2117
2117
2114
2114
2114
2119
2119
2119
2118
2118
2118
2118
2115
2115
2115
2115
2115
2115
2113
2113
2113
2116
2116
2116
2117
2117
2117
2117
2113
2113
2113
2109
2109
2109
2115
2115
2115
2116
2116
2116
2115
2115
2115
2115
2114
2114
2114
2113
2113
2113
2114
2114
2114
2116
2116
2116
2113
2113
2113
2113
2112
2112
2112
2111
2111
2111
2117
2117
2117
2119
2119
2119
2111
2111
2111
2111
2117
2117
2117
2117
2117
2117
2110
2110
2110
2116
2116
2116
2115
2115
2115
2115
2117
2117
2117
2115
2115
2115
2117
2117
2117
2114
2114
2114
2115
2115
2115
2115
2115
2115
2115
2113
2113
2113
2113
2113
2113
2115
2115
2115
2116
2116
2116
2116
2115
2115
2115
2116
2116
2116
2116
2116
2116
2116
2116
2116
2108
2108
2108
2108
2113
2113
2113
2116
2116
2116
2112
2112
2112
2113
2113
2113
2118
2118
2118
2118
2114
2114
2114
2113
2113
2113
2116
2116
2116
2115
2115
2115
2115
2115
2115
2115
2112
2112
2112
2115
2115
2115
2112
2112
2112
2115
2115
2115
2109
2109
2109
2109
2121
2121
2121
2117
2117
2117
2112
2112
2112
2116
2116
2116
2115
2115
2115
2115
2113
2113
2113
2119
2119
2119
2111
2111
2111
2113
2113
2113
2111
2111
2111
2111
2108
2108
2108
2114
2114
2114
2116
2116
2116
2113
2113
2113
2113
2113
2113
2113
2112
2112
2112
2118
2118
2118
2112
2112
2112
2116
2116
2116
2117
2117
2117
2117
2113
2113
2113
2115
2115
2115
2110
2110
2110
2113
2113
2113
2113
2113
2113
2113
2105
2105
2105
2115
2115
2115
2107
2107
2107
2120
2120
2120
2114
2114
2114
2114
2115
2115
2115
2115
2115
2115
2114
2114
2114
2120
2120
2120
2113
2113
2113
2113
2118
2118
2118
2117
2117
2117
2114
2114
2114
2116
2116
2116
2115
2115
2115
2115
2115
2115
2115
2120
2120
2120
2116
2116
2116
2114
2114
2114
2116
2116
2116
2116
2114
2114
2114
2112
2112
2112
2111
2111
2111
2117
2117
2117
2118
2118
2118
2118
2109
2109
2109
2115
2115
2115
2114
2114
2114
2121
2121
2121
2113
2113
2113
2113
2113
2113
2113
2114
2114
2114
2113
2113
2113
2115
2115
2115
2119
2119
2119
2119
2115
2115
2115
2116
2116
2116
2114
2114
2114
2117
2117
2117
2117
2117
2117
2117
2104
2104
2104
2118
2118
2118
2117
2117
2117
2109
2109
2109
2117
2117
2117
2117
2115
2115
2115
2114
2114
2114
2118
2118
2118
2120
2120
2120
2113
2113
2113
2113
2117
2117
2117
2116
2116
2116
2119
2119
2119
2113
2113
2113
2116
2116
2116
2116
2113
2113
2113
2119
2119
2119
2114
2114
2114
2116
2116
2116
2118
2118
2118
2118
2109
2109
2109
2115
2115
2115
2113
2113
2113
2116
2116
2116
2117
2117
2117
2117
2111
2111
2111
2114
2114
2114
2114
2114
2114
2117
2117
2117
2099
2099
2099
2099
2114
2114
2114
2110
2110
2110
2118
2118
2118
2109
2109
2109
2109
2109
2109
2109
2113
2113
2113
2116
2116
2116
2115
2115
2115
2116
2116
2116
2115
2115
2115
2115
2115
2115
2115
2118
2118
2118
2117
2117
2117
2118
2118
2118
2114
2114
2114
2114
2114
2114
2114
2119
2119
2119
2113
2113
2113
2118
2118
2118
2116
2116
2116
2116
2115
2115
2115
2113
2113
2113
2107
2107
2107
2120
2120
2120
2115
2115
2115
2115
2114
2114
2114
2115
2115
2115
2118
2118
2118
2116
2116
2116
2116
2116
2116
2116
2111
2111
2111
2116
2116
2116
2115
2115
2115
2116
2116
2116
2124
2124
2124
2124
2114
2114
2114
2116
2116
2116
2116
2116
2116
2116
2116
2116
2112
2112
2112
2112
2115
2115
2115
2116
2116
2116
2116
2116
2116
2115
2115
2115
2114
2114
2114
2114
2117
2117
2117
2117
2117
2117
2114
2114
2114
2117
2117
2117
2113
2113
2113
2113
2113
2113
2113
2112
2112
2112
2116
2116
2116
2115
2115
2115
2116
2116
2116
2116
2113
2113
2113
2114
2114
2114
2118
2118
2118
2114
2114
2114
2110
2110
2110
2110
2113
2113
2113
2117
2117
2117
2111
2111
2111
2115
2115
2115
2116
2116
2116
2116
2110
2110
2110
2113
2113
2113
2112
2112
2112
2117
2117
2117
2116
2116
2116
2116
2117
2117
2117
2112
2112
2112
2109
2109
2109
2113
2113
2113
2117
2117
2117
2117
2115
2115
2115
2114
2114
2114
2115
2115
2115
2116
2116
2116
2118
2118
2118
2118
2120
2120
2120
2116
2116
2116
2115
2115
2115
2118
2118
2118
2115
2115
2115
2115
2109
2109
2109
2109
2109
2109
2108
2108
2108
2116
2116
2116
2113
2113
2113
2113
2113
2113
2113
2114
2114
2114
2115
2115
2115
2111
2111
2111
2114
2114
2114
2114
2115
2115
2115
2116
2116
2116
2115
2115
2115
2112
2112
2112
2117
2117
2117
2117
2114
2114
2114
2118
2118
2118
2113
2113
2113
2116
2116
2116
2111
2111
2111
2111
2114
2114
2114
2117
2117
2117
2115
2115
2115
2115
2115
2115
2114
2114
2114
2114
2114
2114
2114
2117
2117
2117
2110
2110
2110
2116
2116
2116
2113
2113
2113
2113
2113
2113
2113
2114
2114
2114
2113
2113
2113
2115
2115
2115
2118
2118
2118
2118
2114
2114
2114
2116
2116
2116
2116
2116
2116
2119
2119
2119
2119
2119
2119
2119
2119
2119
2119
2108
2108
2108
2116
2116
2116
2114
2114
2114
2111
2111
2111
2111
2111
2111
2111
2113
2113
2113
2116
2116
2116
2113
2113
2113
2118
2118
2118
2118
2114
2114
2114
2119
2119
2119
2120
2120
2120
2119
2119
2119
2116
2116
2116
2116
2113
2113
2113
2117
2117
2117
2114
2114
2114
2110
2110
2110
2114
2114
2114
2114
2115
2115
2115
2115
2115
2115
2109
2109
2109
2117
2117
2117
2114
2114
2114
2114
2117
2117
2117
2116
2116
2116
2113
2113
2113
2114
2114
2114
2114
2114
2114
2114
2116
2116
2116
2112
2112
2112
2117
2117
2117
2113
2113
2113
2114
2114
2114
2114
2112
2112
2112
2116
2116
2116
2115
2115
2115
2117
2117
2117
2116
2116
2116
2116
2115
2115
2115
2116
2116
2116
2111
2111
2111
2112
2112
2112
2112
2112
2112
2112
2114
2114
2114
2115
2115
2115
2114
2114
2114
2113
2113
2113
2117
2117
2117
2117
2115
2115
2115
2112
2112
2112
2114
2114
2114
2117
2117
2117
2116
2116
2116
2116
2116
2116
2116
2119
2119
2119
2110
2110
2110
2111
2111
2111
2116
2116
2116
2116
2111
2111
2111
2113
2113
2113
2115
2115
2115
2113
2113
2113
2113
2113
2113
2113
2116
2116
2116
2111
2111
2111
2113
2113
2113
2121
2121
2121
2111
2111
2111
2111
2112
2112
2112
2119
2119
2119
2116
2116
2116
2115
2115
2115
2116
2116
2116
2116
2118
2118
2118
2118
2118
2118
2112
2112
2112
2115
2115
2115
2112
2112
2112
2112
2114
2114
2114
2111
2111
2111
2113
2113
2113
2114
2114
2114
2120
2120
2120
2120
2113
2113
2113
2116
2116
2116
2112
2112
2112
2119
2119
2119
2109
2109
2109
2109
2112
2112
2112
2117
2117
2117
2113
2113
2113
2115
2115
2115
2111
2111
2111
2111
2115
2115
2115
2104
2104
2104
2114
2114
2114
2116
2116
2116
2112
2112
2112
2112
2117
2117
2117
2113
2113
2113
2112
2112
2112
2113
2113
2113
2117
2117
2117
2117
2113
2113
2113
2115
2115
2115
2114
2114
2114
2113
2113
2113
2120
2120
2120
2120
2112
2112
2112
2114
2114
2114
2119
2119
2119
2114
2114
2114
2109
2109
2109
2109
2116
2116
2116
2117
2117
2117
2116
2116
2116
2116
2116
2116
2114
2114
2114
2114
2113
2113
2113
2114
2114
2114
2117
2117
2117
2114
2114
2114
2115
2115
2115
2115
2110
2110
2110
2116
2116
2116
2116
2116
2116
2121
2121
2121
2111
2111
2111
2111
2114
2114
2114
2120
2120
2120
2115
2115
2115
2116
2116
2116
2113
2113
2113
2113
2116
2116
2116
2114
2114
2114
2111
2111
2111
2116
2116
2116
2116
2116
2116
2116
2114
2114
2114
2117
2117
2117
2105
2105
2105
2116
2116
2116
2114
2114
2114
2114
2115
2115
2115
2115
2115
2115
2113
2113
2113
2116
2116
2116
2115
2115
2115
2115
2112
2112
2112
2117
2117
2117
2113
2113
2113
2113
2113
2113
2116
2116
2116
2116
2114
2114
2114
2115
2115
2115
2116
2116
2116
2113
2113
2113
2117
2117
2117
2117
2111
2111
2111
2117
2117
2117
2113
2113
2113
2116
2116
2116
2115
2115
2115
2115
2119
2119
2119
2115
2115
2115
2112
2112
2112
2111
2111
2111
2115
2115
2115
2115
2115
2115
2115
2109
2109
2109
2118
2118
2118
2119
2119
2119
2115
2115
2115
2115
2119
2119
2119
2116
2116
2116
2113
2113
2113
2117
2117
2117
2121
2121
2121
2121
2121
2121
2121
2115
2115
2115
2115
2115
2115
2114
2114
2114
2111
2111
2111
2111
2113
2113
2113
2116
2116
2116
2119
2119
2119
2117
2117
2117
2115
2115
2115
2115
2102
2102
2102
2116
2116
2116
2117
2117
2117
2119
2119
2119
2117
2117
2117
2117
2113
2113
2113
2122
2122
2122
2115
2115
2115
2115
2115
2115
2118
2118
2118
2118
2112
2112
2112
2116
2116
2116
2116
2116
2116
2113
2113
2113
2114
2114
2114
2114
2115
2115
2115
2121
2121
2121
2113
2113
2113
2117
2117
2117
2115
2115
2115
2115
2114
2114
2114
2109
2109
2109
2114
2114
2114
2119
2119
2119
2114
2114
2114
2114
2106
2106
2106
2116
2116
2116
2115
2115
2115
2116
2116
2116
2114
2114
2114
2114
2114
2114
2114
2117
2117
2117
2113
2113
2113
2110
2110
2110
2113
2113
2113
2113
2116
2116
2116
2113
2113
2113
2119
2119
2119
2118
2118
2118
2112
2112
2112
2112
2115
2115
2115
2115
2115
2115
2116
2116
2116
2117
2117
2117
2114
2114
2114
2114
2114
2114
2114
2110
2110
2110
2118
2118
2118
2118
2118
2118
2117
2117
2117
2117
2116
2116
2116
2114
2114
2114
2118
2118
2118
2118
2118
2118
2112
2112
2112
2112
2116
2116
2116
2114
2114
2114
2115
2115
2115
2111
2111
2111
2116
2116
2116
2116
2113
2113
2113
2112
2112
2112
2112
2112
2112
2115
2115
2115
2108
2108
2108
2108
2112
2112
2112
2116
2116
2116
2116
2116
2116
2114
2114
2114
2115
2115
2115
2115
2107
2107
2107
2117
2117
2117
2115
2115
2115
2119
2119
2119
2114
2114
2114
2114
2114
2114
2114
2115
2115
2115
2109
2109
2109
2112
2112
2112
2114
2114
2114
2114
2115
2115
2115
2112
2112
2112
2116
2116
2116
2115
2115
2115
2119
2119
2119
2119
2112
2112
2112
2117
2117
2117
2114
2114
2114
2116
2116
2116
2115
2115
2115
2115
2112
2112
2112
2116
2116
2116
2114
2114
2114
2119
2119
2119
2115
2115
2115
2115
2115
2115
2115
2117
2117
2117
2115
2115
2115
2113
2113
2113
2116
2116
2116
2116
2115
2115
2115
2115
2115
2115
2120
2120
2120
2115
2115
2115
2113
2113
2113
2113
2116
2116
2116
2113
2113
2113
2112
2112
2112
2127
2127
2127
2111
2111
2111
2111
2114
2114
2114
2118
2118
2118
2113
2113
2113
2116
2116
2116
2116
2116
2116
2116
2117
2117
2117
2115
2115
2115
2115
2115
2115
2113
2113
2113
2114
2114
2114
2114
2115
2115
2115
2108
2108
2108
2115
2115
2115
2115
2115
2115
2112
2112
2112
2112
2109
2109
2109
2114
2114
2114
2117
2117
2117
2114
2114
2114
2115
2115
2115
2115
2111
2111
2111
2119
2119
2119
2115
2115
2115
2115
2115
2115
2114
2114
2114
2114
2116
2116
2116
2116
2116
2116
2119
2119
2119
2118
2118
2118
2115
2115
2115
2115
2122
2122
2122
2117
2117
2117
2114
2114
2114
2114
2114
2114
2115
2115
2115
2115
2114
2114
2114
2117
2117
2117
2114
2114
2114
2120
2120
2120
2115
2115
2115
2115
2113
2113
2113
2113
2113
2113
2120
2120
2120
2114
2114
2114
2113
2113
2113
2113
2115
2115
2115
2116
2116
2116
2116
2116
2116
2118
2118
2118
2114
2114
2114
2114
2114
2114
2114
2120
2120
2120
2114
2114
2114
2116
2116
2116
2109
2109
2109
2109
2115
2115
2115
2115
2115
2115
2114
2114
2114
2119
2119
2119
2112
2112
2112
2112
2112
2112
2112
2129
2129
2129
2114
2114
2114
2113
2113
2113
2116
2116
2116
2116
2114
2114
2114
2116
2116
2116
2110
2110
2110
2117
2117
2117
2117
2117
2117
2117
2114
2114
2114
2114
2114
2114
2114
2114
2114
2121
2121
2121
2114
2114
2114
2114
2113
2113
2113
2110
2110
2110
2113
2113
2113
2114
2114
2114
2114
2114
2114
2114
2114
2114
2114
2114
2114
2114
2111
2111
2111
2117
2117
2117
2116
2116
2116
2116
2105
2105
2105
2111
2111
2111
2116
2116
2116
2116
2116
2116
2119
2119
2119
2119
2109
2109
2109
2118
2118
2118
2115
2115
2115
2115
2115
2115
2117
2117
2117
2117
2114
2114
2114
2115
2115
2115
2114
2114
2114
2117
2117
2117
2114
2114
2114
2114
2114
2114
2114
2111
2111
2111
2109
2109
2109
2115
2115
2115
2114
2114
2114
2114
2118
2118
2118
2113
2113
2113
2118
2118
2118
2112
2112
2112
2115
2115
2115
2115
2113
2113
2113
2114
2114
2114
2115
2115
2115
2113
2113
2113
2117
2117
2117
2117
2113
2113
2113
2115
2115
2115
2115
2115
2115
2117
2117
2117
2114
2114
2114
2114
2111
2111
2111
2111
2111
2111
2111
2111
2111
2116
2116
2116
2115
2115
2115
2115
2115
2115
2115
2119
2119
2119
2115
2115
2115
2115
2115
2115
2109
2109
2109
2109
2114
2114
2114
2117
2117
2117
2117
2117
2117
2114
2114
2114
2116
2116
2116
2116
2114
2114
2114
2113
2113
2113
2113
2113
2113
2119
2119
2119
2116
2116
2116
2116
2112
2112
2112
2117
2117
2117
2113
2113
2113
2115
2115
2115
2126
2126
2126
2126
2113
2113
2113
2114
2114
2114
2115
2115
2115
2118
2118
2118
2115
2115
2115
2115
2114
2114
2114
2116
2116
2116
2112
2112
2112
2112
2112
2112
2119
2119
2119
2119
2113
2113
2113
2115
2115
2115
2123
2123
2123
2115
2115
2115
2115
2115
2115
2115
2113
2113
2113
2109
2109
2109
2115
2115
2115
2111
2111
2111
2115
2115
2115
2115
2115
2115
2115
2115
2115
2115
2114
2114
2114
2115
2115
2115
2108
2108
2108
2108
2114
2114
2114
2117
2117
2117
2114
2114
2114
2116
2116
2116
2113
2113
2113
2113
2114
2114
2114
2118
2118
2118
2116
2116
2116
2116
2116
2116
2116
2116
2116
2116
2112
2112
2112
2115
2115
2115
2114
2114
2114
2118
2118
2118
2119
2119
2119
2119
2117
2117
2117
2117
2117
2117
2116
2116
2116
2116
2116
2116
2112
2112
2112
2112
2116
2116
2116
2114
2114
2114
2117
2117
2117
2117
2117
2117
2111
2111
2111
2111
2112
2112
2112
2115
2115
2115
2115
2115
2115
2117
2117
2117
2116
2116
2116
2116
2112
2112
2112
2120
2120
2120
2113
2113
2113
2114
2114
2114
2119
2119
2119
2119
2117
2117
2117
2114
2114
2114
2111
2111
2111
2114
2114
2114
2112
2112
2112
2112
2112
2112
2112
2113
2113
2113
2117
2117
2117
2115
2115
2115
2112
2112
2112
2112
2114
2114
2114
2114
2114
2114
2113
2113
2113
2117
2117
2117
2113
2113
2113
2113
2112
2112
2112
2117
2117
2117
2119
2119
2119
2118
2118
2118
2112
2112
2112
2112
2114
2114
2114
2121
2121
2121
2114
2114
2114
2117
2117
2117
2112
2112
2112
2112
2111
2111
2111
2112
2112
2112
2111
2111
2111
2112
2112
2112
2119
2119
2119
2119
2109
2109
2109
2117
2117
2117
2116
2116
2116
2114
2114
2114
2109
2109
2109
2109
2116
2116
2116
2115
2115
2115
2118
2118
2118
2116
2116
2116
2112
2112
2112
2112
2114
2114
2114
2117
2117
2117
2118
2118
2118
2117
2117
2117
2113
2113
2113
2113
2113
2113
2113
2110
2110
2110
2116
2116
2116
2116
2116
2116
2115
2115
2115
2115
2111
2111
2111
2116
2116
2116
2111
2111
2111
2118
2118
2118
2112
2112
2112
2112
2111
2111
2111
2110
2110
2110
2113
2113
2113
2116
2116
2116
2112
2112
2112
2112
2114
2114
2114
2118
2118
2118
2116
2116
2116
2117
2117
2117
2114
2114
2114
2114
2109
2109
2109
2115
2115
2115
2118
2118
2118
2115
2115
2115
2116
2116
2116
2116
2114
2114
2114
2121
2121
2121
2115
2115
2115
2115
2115
2115
2112
2112
2112
2112
2111
2111
2111
2117
2117
2117
2109
2109
2109
2116
2116
2116
2110
2110
2110
2110
2116
2116
2116
2112
2112
2112
2114
2114
2114
2120
2120
2120
2115
2115
2115
2115
2113
2113
2113
2115
2115
2115
2112
2112
2112
2117
2117
2117
2113
2113
2113
2113
2109
2109
2109
2114
2114
2114
2117
2117
2117
2117
2117
2117
2115
2115
2115
2115
2112
2112
2112
2118
2118
2118
2116
2116
2116
2115
2115
2115
2112
2112
2112
2112
2117
2117
2117
2115
2115
2115
2111
2111
2111
2115
2115
2115
2111
2111
2111
2111
2114
2114
2114
2111
2111
2111
2115
2115
2115
2117
2117
2117
2117
2117
2117
2117
2116
2116
2116
2117
2117
2117
2114
2114
2114
2116
2116
2116
2119
2119
2119
2119
2112
2112
2112
2116
2116
2116
2117
2117
2117
2118
2118
2118
2115
2115
2115
2115
2116
2116
2116
2114
2114
2114
2117
2117
2117
2116
2116
2116
2111
2111
2111
2111
2108
2108
2108
2115
2115
2115
2116
2116
2116
2115
2115
2115
2112
2112
2112
2112
2116
2116
2116
2114
2114
2114
2115
2115
2115
2115
2115
2115
2113
2113
2113
2113
2116
2116
2116
2114
2114
2114
2114
2114
2114
2117
2117
2117
2115
2115
2115
2115
2121
2121
2121
2117
2117
2117
2113
2113
2113
2114
2114
2114
2115
2115
2115
2115
2114
2114
2114
2119
2119
2119
2113
2113
2113
2117
2117
2117
2113
2113
2113
2113
2117
2117
2117
2115
2115
2115
2119
2119
2119
2117
2117
2117
2108
2108
2108
2108
2115
2115
2115
2118
2118
2118
2116
2116
2116
2115
2115
2115
2115
2115
2115
2115
2114
2114
2114
2115
2115
2115
2111
2111
2111
2115
2115
2115
2112
2112
2112
2112
2110
2110
2110
2117
2117
2117
2113
2113
2113
2115
2115
2115
2116
2116
2116
2116
2114
2114
2114
2121
2121
2121
2116
2116
2116
2117
2117
2117
2115
2115
2115
2115
2119
2119
2119
2116
2116
2116
2116
2116
2116
2117
2117
2117
2121
2121
2121
2121
2113
2113
2113
2112
2112
2112
2115
2115
2115
2122
2122
2122
2114
2114
2114
2114
2113
2113
2113
2116
2116
2116
2115
2115
2115
2117
2117
2117
2115
2115
2115
2115
2110
2110
2110
2117
2117
2117
2115
2115
2115
2117
2117
2117
2113
2113
2113
2113
2113
2113
2113
2117
2117
2117
2116
2116
2116
2114
2114
2114
2117
2117
2117
2117
2116
2116
2116
2114
2114
2114
2114
2114
2114
2118
2118
2118
2117
2117
2117
2117
2114
2114
2114
2120
2120
2120
2114
2114
2114
2113
2113
2113
2118
2118
2118
2118
2113
2113
2113
2117
2117
2117
2112
2112
2112
2115
2115
2115
2118
2118
2118
2118
2119
2119
2119
2115
2115
2115
2114
2114
2114
2111
2111
2111
2113
2113
2113
2113
2111
2111
2111
2120
2120
2120
2113
2113
2113
2115
2115
2115
2116
2116
2116
2116
2115
2115
2115
2116
2116
2116
2115
2115
2115
2114
2114
2114
2115
2115
2115
2115
2115
2115
2115
2109
2109
2109
2114
2114
2114
2124
2124
2124
2114
2114
2114
2114
2112
2112
2112
2115
2115
2115
2112
2112
2112
2116
2116
2116
2109
2109
2109
2109
2109
2109
2109
2112
2112
2112
2114
2114
2114
2113
2113
2113
2114
2114
2114
2114
2112
2112
2112
2119
2119
2119
2113
2113
2113
2116
2116
2116
2114
2114
2114
2114
2119
2119
2119
2115
2115
2115
2117
2117
2117
2117
2117
2117
2115
2115
2115
2115
2114
2114
2114
2122
2122
2122
2113
2113
2113
2118
2118
2118
2116
2116
2116
2116
2114
2114
2114
2116
2116
2116
2111
2111
2111
2115
2115
2115
2116
2116
2116
2116
2117
2117
2117
2114
2114
2114
2113
2113
2113
2122
2122
2122
2115
2115
2115
2115
2113
2113
2113
2109
2109
2109
2113
2113
2113
2116
2116
2116
2112
2112
2112
2112
2115
2115
2115
2114
2114
2114
2111
2111
2111
2114
2114
2114
2113
2113
2113
2113
2114
2114
2114
2113
2113
2113
2114
2114
2114
2114
2114
2114
2114
2114
2114
2114
2112
2112
2112
2114
2114
2114
2113
2113
2113
2115
2115
2115
2115
2115
2115
2115
2110
2110
2110
2116
2116
2116
2114
2114
2114
2118
2118
2118
2116
2116
2116
2116
2113
2113
2113
2116
2116
2116
2115
2115
2115
2116
2116
2116
2112
2112
2112
2112
2115
2115
2115
2117
2117
2117
2110
2110
2110
2115
2115
2115
2116
2116
2116
2116
2115
2115
2115
2117
2117
2117
2114
2114
2114
2117
2117
2117
2117
2117
2117
2117
2107
2107
2107
2115
2115
2115
2119
2119
2119
2117
2117
2117
2117
2117
2117
2117
2113
2113
2113
2117
2117
2117
2114
2114
2114
2117
2117
2117
2115
2115
2115
2115
2114
2114
2114
2115
2115
2115
2117
2117
2117
2115
2115
2115
2112
2112
2112
2112
2112
2112
2112
2116
2116
2116
2115
2115
2115
2115
2115
2115
2114
2114
2114
2114
2113
2113
2113
2117
2117
2117
2117
2117
2117
2114
2114
2114
2115
2115
2115
2115
2115
2115
2115
2115
2115
2115
2116
2116
2116
2117
2117
2117
2115
2115
2115
2115
2115
2115
2115
2114
2114
2114
2114
2114
2114
2117
2117
2117
2115
2115
2115
2115
2113
2113
2113
2118
2118
2118
2120
2120
2120
2117
2117
2117
2105
2105
2105
2105
2110
2110
2110
2119
2119
2119
2113
2113
2113
2113
2113
2113
2113
2113
2113
2113
2113
2113
2113
2118
2118
2118
2115
2115
2115
2116
2116
2116
2114
2114
2114
2114
2115
2115
2115
2114
2114
2114
2116
2116
2116
2114
2114
2114
2119
2119
2119
2119
2114
2114
2114
2122
2122
2122
2113
2113
2113
2115
2115
2115
2114
2114
2114
2114
2105
2105
2105
2111
2111
2111
2111
2111
2111
2116
2116
2116
2122
2122
2122
2122
2113
2113
2113
2115
2115
2115
2113
2113
2113
2114
2114
2114
2112
2112
2112
2112
2115
2115
2115
2114
2114
2114
2112
2112
2112
2116
2116
2116
2124
2124
2124
2124
2110
2110
2110
2117
2117
2117
2114
2114
2114
2115
2115
2115
2116
2116
2116
2116
2111
2111
2111
2114
2114
2114
2114
2114
2114
2121
2121
2121
2114
2114
2114
2114
2116
2116
2116
2116
2116
2116
2114
2114
2114
2115
2115
2115
2119
2119
2119
2119
2109
2109
2109
2117
2117
2117
2117
2117
2117
2118
2118
2118
2114
2114
2114
2114
2113
2113
2113
2115
2115
2115
2114
2114
2114
2113
2113
2113
2118
2118
2118
2118
2115
2115
2115
2115
2115
2115
2116
2116
2116
2115
2115
2115
2112
2112
2112
2112
2115
2115
2115
2114
2114
2114
2113
2113
2113
2122
2122
2122
2115
2115
2115
2115
2111
2111
2111
2118
2118
2118
2109
2109
2109
2117
2117
2117
2110
2110
2110
2110
2115
2115
2115
2113
2113
2113
2115
2115
2115
2110
2110
2110
2114
2114
2114
2114
2113
2113
2113
2117
2117
2117
2115
2115
2115
2113
2113
2113
2109
2109
2109
2109
2116
2116
2116
2114
2114
2114
2112
2112
2112
2116
2116
2116
2114
2114
2114
2114
2115
2115
2115
2120
2120
2120
2115
2115
2115
2114
2114
2114
2113
2113
2113
2113
2112
2112
2112
2116
2116
2116
2115
2115
2115
2117
2117
2117
2107
2107
2107
2107
2116
2116
2116
2114
2114
2114
2112
2112
2112
2105
2105
2105
2112
2112
2112
2112
2112
2112
2112
2113
2113
2113
2115
2115
2115
2116
2116
2116
2115
2115
2115
2115
2114
2114
2114
2114
2114
2114
2114
2114
2114
2119
2119
2119
2115
2115
2115
2115
2113
2113
2113
2117
2117
2117
2115
2115
2115
2111
2111
2111
2116
2116
2116
2116
2117
2117
2117
2116
2116
2116
2120
2120
2120
2114
2114
2114
2112
2112
2112
2112
2111
2111
2111
2113
2113
2113
2116
2116
2116
2116
2116
2116
2115
2115
2115
2115
2108
2108
2108
2115
2115
2115
2113
2113
2113
2115
2115
2115
2110
2110
2110
2110
2117
2117
2117
2116
2116
2116
2116
2116
2116
2111
2111
2111
2114
2114
2114
2114
2115
2115
2115
2115
2115
2115
2114
2114
2114
2117
2117
2117
2114
2114
2114
2114
2115
2115
2115
2114
2114
2114
2121
2121
2121
2116
2116
2116
2116
2116
2116
2116
2111
2111
2111
2114
2114
2114
2115
2115
2115
2119
2119
2119
2115
2115
2115
2115
2112
2112
2112
2116
2116
2116
2113
2113
2113
2116
2116
2116
2115
2115
2115
2115
2114
2114
2114
2116
2116
2116
2116
2116
2116
2110
2110
2110
2115
2115
2115
2115
2112
2112
2112
2117
2117
2117
2114
2114
2114
2115
2115
2115
2112
2112
2112
2112
2116
2116
2116
2117
2117
2117
2116
2116
2116
2117
2117
2117
2113
2113
2113
2113
2115
2115
2115
2115
2115
2115
2116
2116
2116
2112
2112
2112
2115
2115
2115
2115
2114
2114
2114
2115
2115
2115
2112
2112
2112
2114
2114
2114
2113
2113
2113
2113
2114
2114
2114
2116
2116
2116
2113
2113
2113
2116
2116
2116
2116
2116
2116
2116
2112
2112
2112
2121
2121
2121
2112
2112
2112
2116
2116
2116
2111
2111
2111
2111
2113
2113
2113
2116
2116
2116
2109
2109
2109
2115
2115
2115
2112
2112
2112
2112
2116
2116
2116
2110
2110
2110
2116
2116
2116
2117
2117
2117
2113
2113
2113
2113
2114
2114
2114
2116
2116
2116
2107
2107
2107
2116
2116
2116
2113
2113
2113
2113
2113
2113
2113
2114
2114
2114
2116
2116
2116
2116
2116
2116
2116
2116
2116
2116
2115
2115
2115
2115
2115
2115
2118
2118
2118
2116
2116
2116
2111
2111
2111
2111
2117
2117
2117
2120
2120
2120
2115
2115
2115
2118
2118
2118
2115
2115
2115
2115
2112
2112
2112
2117
2117
2117
2113
2113
2113
2115
2115
2115
2123
2123
2123
2123
2114
2114
2114
2114
2114
2114
2113
2113
2113
2116
2116
2116
2110
2110
2110
2110
2115
2115
2115
2118
2118
2118
2114
2114
2114
2112
2112
2112
2113
2113
2113
2113
2114
2114
2114
2111
2111
2111
2115
2115
2115
2117
2117
2117
2114
2114
2114
2114
2113
2113
2113
2109
2109
2109
2116
2116
2116
2116
2116
2116
2113
2113
2113
2113
2113
2113
2113
2111
2111
2111
2115
2115
2115
2115
2115
2115
2112
2112
2112
2112
2120
2120
2120
2117
2117
2117
2109
2109
2109
2115
2115
2115
2110
2110
2110
2110
2109
2109
2109
2121
2121
2121
2113
2113
2113
2115
2115
2115
2113
2113
2113
2113
2114
2114
2114
2119
2119
2119
2114
2114
2114
2117
2117
2117
2116
2116
2116
2116
2110
2110
2110
2115
2115
2115
2116
2116
2116
2117
2117
2117
2116
2116
2116
2116
2116
2116
2116
2112
2112
2112
2112
2112
2112
2115
2115
2115
2120
2120
2120
2120
2117
2117
2117
2115
2115
2115
2117
2117
2117
2118
2118
2118
2116
2116
2116
2116
2114
2114
2114
2118
2118
2118
2112
2112
2112
2113
2113
2113
2113
2113
2113
2113
2112
2112
2112
2116
2116
2116
2114
2114
2114
2116
2116
2116
2112
2112
2112
2112
2116
2116
2116
2112
2112
2112
2116
2116
2116
2115
2115
2115
2115
2115
2115
2115
2112
2112
2112
2116
2116
2116
2116
2116
2116
2116
2116
2116
2113
2113
2113
2113
2117
2117
2117
2116
2116
2116
2112
2112
2112
2121
2121
2121
2113
2113
2113
2113
2115
2115
2115
2113
2113
2113
2113
2113
2113
2116
2116
2116
2108
2108
2108
2108
2115
2115
2115
2113
2113
2113
2113
2113
2113
2117
2117
2117
2113
2113
2113
2113
2113
2113
2113
2120
2120
2120
2113
2113
2113
2109
2109
2109
2115
2115
2115
2115
2114
2114
2114
2117
2117
2117
2115
2115
2115
2117
2117
2117
2110
2110
2110
2110
2107
2107
2107
2116
2116
2116
2114
2114
2114
2113
2113
2113
2117
2117
2117
2117
2112
2112
2112
2112
2112
2112
2114
2114
2114
2117
2117
2117
2116
2116
2116
2116
2113
2113
2113
2113
2113
2113
2122
2122
2122
2116
2116
2116
2115
2115
2115
2115
2112
2112
2112
2113
2113
2113
2116
2116
2116
2112
2112
2112
2113
2113
2113
2113
2112
2112
2112
2116
2116
2116
2114
2114
2114
2116
2116
2116
2114
2114
2114
2114
2111
2111
2111
2117
2117
2117
2116
2116
2116
2120
2120
2120
2115
2115
2115
2115
2114
2114
2114
2116
2116
2116
2115
2115
2115
2113
2113
2113
2114
2114
2114
2114
2110
2110
2110
2115
2115
2115
2111
2111
2111
2117
2117
2117
2116
2116
2116
2116
2115
2115
2115
2116
2116
2116
2116
2116
2116
2120
2120
2120
2115
2115
2115
2115
2114
2114
2114
2115
2115
2115
2117
2117
2117
2117
2117
2117
2115
2115
2115
2115
2117
2117
2117
2115
2115
2115
2114
2114
2114
2119
2119
2119
2114
2114
2114
2114
2115
2115
2115
2119
2119
2119
2114
2114
2114
2116
2116
2116
2118
2118
2118
2118
2112
2112
2112
2118
2118
2118
2113
2113
2113
2114
2114
2114
2116
2116
2116
2116
2114
2114
2114
2118
2118
2118
2114
2114
2114
2113
2113
2113
2117
2117
2117
2117
2110
2110
2110
2116
2116
2116
2120
2120
2120
2116
2116
2116
2116
2116
2116
2116
2113
2113
2113
2118
2118
2118
2115
2115
2115
2118
2118
2118
2114
2114
2114
2114
2112
2112
2112
2116
2116
2116
2114
2114
2114
2117
2117
2117
2118
2118
2118
2118
2118
2118
2118
2115
2115
2115
2115
2115
2115
2114
2114
2114
2113
2113
2113
2113
2114
2114
2114
2118
2118
2118
2113
2113
2113
2116
2116
2116
2111
2111
2111
2111
2116
2116
2116
2115
2115
2115
2113
2113
2113
2115
2115
2115
2115
2115
2115
2115
2113
2113
2113
2116
2116
2116
2115
2115
2115
2116
2116
2116
2111
2111
2111
2111
2114
2114
2114
2115
2115
2115
2103
2103
2103
2116
2116
2116
2115
2115
2115
2115
2112
2112
2112
2110
2110
2110
2115
2115
2115
2111
2111
2111
2114
2114
2114
2114
2111
2111
2111
2115
2115
2115
2117
2117
2117
2116
2116
2116
2113
2113
2113
2113
2113
2113
2113
2118
2118
2118
2114
2114
2114
2115
2115
2115
2116
2116
2116
2116
2112
2112
2112
2115
2115
2115
2121
2121
2121
2115
2115
2115
2109
2109
2109
2109
2116
2116
2116
2113
2113
2113
2115
2115
2115
2116
2116
2116
2118
2118
2118
2118
2117
2117
2117
2114
2114
2114
2118
2118
2118
2116
2116
2116
2117
2117
2117
2117
2113
2113
2113
2114
2114
2114
2116
2116
2116
2113
2113
2113
2119
2119
2119
2119
2115
2115
2115
2117
2117
2117
2109
2109
2109
2117
2117
2117
2114
2114
2114
2114
2114
2114
2114
2116
2116
2116
2113
2113
2113
2120
2120
2120
2114
2114
2114
2114
2113
2113
2113
2115
2115
2115
2114
2114
2114
2116
2116
2116
2113
2113
2113
2113
2113
2113
2113
2116
2116
2116
2115
2115
2115
2111
2111
2111
2112
2112
2112
2112
2116
2116
2116
2113
2113
2113
2108
2108
2108
2117
2117
2117
2115
2115
2115
2115
2111
2111
2111
2107
2107
2107
2113
2113
2113
2114
2114
2114
2117
2117
2117
2117
2114
2114
2114
2114
2114
2114
2116
2116
2116
2116
2116
2116
2120
2120
2120
2120
2112
2112
2112
2115
2115
2115
2114
2114
2114
2117
2117
2117
2115
2115
2115
2115
2114
2114
2114
2113
2113
2113
2117
2117
2117
2115
2115
2115
2113
2113
2113
2113
2114
2114
2114
2113
2113
2113
2116
2116
2116
2109
2109
2109
2114
2114
2114
2114
2114
2114
2114
2116
2116
2116
2112
2112
2112
2116
2116
2116
2111
2111
2111
2111
2115
2115
2115
2115
2115
2115
2114
2114
2114
2112
2112
2112
2116
2116
2116
2116
2113
2113
2113
2116
2116
2116
2113
2113
2113
2116
2116
2116
2112
2112
2112
2112
2110
2110
2110
2115
2115
2115
2114
2114
2114
2111
2111
2111
2114
2114
2114
2114
2117
2117
2117
2115
2115
2115
2110
2110
2110
2112
2112
2112
2115
2115
2115
2115
2117
2117
2117
2113
2113
2113
2111
2111
2111
2118
2118
2118
2113
2113
2113
2113
2113
2113
2113
2116
2116
2116
2109
2109
2109
2112
2112
2112
2113
2113
2113
2113
2112
2112
2112
2111
2111
2111
2115
2115
2115
2113
2113
2113
2115
2115
2115
2115
2111
2111
2111
2114
2114
2114
2112
2112
2112
2115
2115
2115
2113
2113
2113
2113
2114
2114
2114
2116
2116
2116
2112
2112
2112
2122
2122
2122
2114
2114
2114
2114
2115
2115
2115
2111
2111
2111
2112
2112
2112
2116
2116
2116
2116
2116
2116
2116
2120
2120
2120
2115
2115
2115
2113
2113
2113
2119
2119
2119
2115
2115
2115
2115
2112
2112
2112
2115
2115
2115
2115
2115
2115
2116
2116
2116
2112
2112
2112
2112
2113
2113
2113
2116
2116
2116
2113
2113
2113
2111
2111
2111
2114
2114
2114
2114
2116
2116
2116
2109
2109
2109
2109
2109
2109
2114
2114
2114
2117
2117
2117
2117
2110
2110
2110
2114
2114
2114
2114
2114
2114
2115
2115
2115
2115
2115
2115
2115
2113
2113
2113
2116
2116
2116
2114
2114
2114
2117
2117
2117
2113
2113
2113
2113
2105
2105
2105
2115
2115
2115
2115
2115
2115
2116
2116
2116
2115
2115
2115
2115
2114
2114
2114
2120
2120
2120
2117
2117
2117
2115
2115
2115
2118
2118
2118
2118
2119
2119
2119
2115
2115
2115
2112
2112
2112
2119
2119
2119
2116
2116
2116
2116
2114
2114
2114
2117
2117
2117
2118
2118
2118
2113
2113
2113
2112
2112
2112
2112
2119
2119
2119
2115
2115
2115
2112
2112
2112
2114
2114
2114
2116
2116
2116
2116
2113
2113
2113
2115
2115
2115
2117
2117
2117
2116
2116
2116
2116
2116
2116
2116
2119
2119
2119
2114
2114
2114
2117
2117
2117
2114
2114
2114
2113
2113
2113
2113
2111
2111
2111
2119
2119
2119
2114
2114
2114
2122
2122
2122
2113
2113
2113
2113
2108
2108
2108
2113
2113
2113
2109
2109
2109
2113
2113
2113
2115
2115
2115
2115
2112
2112
2112
2113
2113
2113
2111
2111
2111
2116
2116
2116
2116
2116
2116
2116
2114
2114
2114
2116
2116
2116
2114
2114
2114
2118
2118
2118
2117
2117
2117
2117
2114
2114
2114
2106
2106
2106
2114
2114
2114
2118
2118
2118
2114
2114
2114
2114
2108
2108
2108
2114
2114
2114
2120
2120
2120
2120
2120
2120
2115
2115
2115
2115
2113
2113
2113
2122
2122
2122
2116
2116
2116
2113
2113
2113
2115
2115
2115
2115
2116
2116
2116
2113
2113
2113
2115
2115
2115
2114
2114
2114
2115
2115
2115
2115
2112
2112
2112
2118
2118
2118
2114
2114
2114
2115
2115
2115
2120
2120
2120
2120
2105
2105
2105
2119
2119
2119
2116
2116
2116
2118
2118
2118
2114
2114
2114
2114
2113
2113
2113
2109
2109
2109
2118
2118
2118
2114
2114
2114
2114
2114
2114
2114
2117
2117
2117
2114
2114
2114
2117
2117
2117
2117
2117
2117
2115
2115
2115
2115
2115
2115
2115
2124
2124
2124
2113
2113
2113
2117
2117
2117
2114
2114
2114
2114
2111
2111
2111
2117
2117
2117
2113
2113
2113
2117
2117
2117
2114
2114
2114
2114
2112
2112
2112
2114
2114
2114
2118
2118
2118
2116
2116
2116
2117
2117
2117
2117
2111
2111
2111
2117
2117
2117
2112
2112
2112
2119
2119
2119
2112
2112
2112
2112
2113
2113
2113
2114
2114
2114
2114
2114
2114
2115
2115
2115
2112
2112
2112
2112
2112
2112
2112
2116
2116
2116
2112
2112
2112
2112
2112
2112
2117
2117
2117
2117
2115
2115
2115
2114
2114
2114
2116
2116
2116
2117
2117
2117
2116
2116
2116
2116
2108
2108
2108
2118
2118
2118
2111
2111
2111
2122
2122
2122
2118
2118
2118
2118
2112
2112
2112
2125
2125
2125
2117
2117
2117
2112
2112
2112
2114
2114
2114
2114
2111
2111
2111
2114
2114
2114
2122
2122
2122
2115
2115
2115
2113
2113
2113
2113
2112
2112
2112
2115
2115
2115
2118
2118
2118
2115
2115
2115
2115
2115
2115
2115
2114
2114
2114
2117
2117
2117
2113
2113
2113
2120
2120
2120
2116
2116
2116
2116
2113
2113
2113
2119
2119
2119
2117
2117
2117
2114
2114
2114
2118
2118
2118
2118
2109
2109
2109
2114
2114
2114
2116
2116
2116
2116
2116
2116
2116
2116
2116
2116
2113
2113
2113
2116
2116
2116
2113
2113
2113
2113
2113
2113
2115
2115
2115
2115
2115
2115
2115
2116
2116
2116
2114
2114
2114
2111
2111
2111
2115
2115
2115
2115
2112
2112
2112
2107
2107
2107
2116
2116
2116
2112
2112
2112
2114
2114
2114
2114
2112
2112
2112
2113
2113
2113
2114
2114
2114
2115
2115
2115
2114
2114
2114
2114
2113
2113
2113
2116
2116
2116
2109
2109
2109
2113
2113
2113
2111
2111
2111
2111
2116
2116
2116
2111
2111
2111
2115
2115
2115
2112
2112
2112
2111
2111
2111
2111
2111
2111
2111
2114
2114
2114
2111
2111
2111
2115
2115
2115
2111
2111
2111
2111
2112
2112
2112
2114
2114
2114
2109
2109
2109
2116
2116
2116
2115
2115
2115
2115
2114
2114
2114
2113
2113
2113
2110
2110
2110
2119
2119
2119
2115
2115
2115
2115
2117
2117
2117
2118
2118
2118
2108
2108
2108
2116
2116
2116
2115
2115
2115
2115
2115
2115
2115
2113
2113
2113
2117
2117
2117
2118
2118
2118
2113
2113
2113
2113
2115
2115
2115
2111
2111
2111
2110
2110
2110
2114
2114
2114
2114
2114
2114
2114
2115
2115
2115
2116
2116
2116
2116
2116
2116
2117
2117
2117
2113
2113
2113
2113
2112
2112
2112
2113
2113
2113
2112
2112
2112
2117
2117
2117
2110
2110
2110
2110
2117
2117
2117
2117
2117
2117
2110
2110
2110
2116
2116
2116
2113
2113
2113
2113
2120
2120
2120
2117
2117
2117
2120
2120
2120
2116
2116
2116
2114
2114
2114
2114
2114
2114
2114
2116
2116
2116
2113
2113
2113
2115
2115
2115
2114
2114
2114
2114
2113
2113
2113
2117
2117
2117
2113
2113
2113
2116
2116
2116
2109
2109
2109
2109
2104
2104
2104
2117
2117
2117
2112
2112
2112
2113
2113
2113
2115
2115
2115
2115
2113
2113
2113
2113
2113
2113
2115
2115
2115
2114
2114
2114
2112
2112
2112
2112
2111
2111
2111
2110
2110
2110
2116
2116
2116
2117
2117
2117
2113
2113
2113
2113
2115
2115
2115
2119
2119
2119
2115
2115
2115
2113
2113
2113
2120
2120
2120
2120
2113
2113
2113
2111
2111
2111
2112
2112
2112
2118
2118
2118
2113
2113
2113
2113
2111
2111
2111
2111
2111
2111
2115
2115
2115
2113
2113
2113
2107
2107
2107
2107
2111
2111
2111
2117
2117
2117
2115
2115
2115
2117
2117
2117
2114
2114
2114
2114
2116
2116
2116
2113
2113
2113
2116
2116
2116
2116
2116
2116
2112
2112
2112
2112
2117
2117
2117
2117
2117
2117
2116
2116
2116
2115
2115
2115
2115
2115
2115
2115
2113
2113
2113
2118
2118
2118
2113
2113
2113
2115
2115
2115
2117
2117
2117
2117
2114
2114
2114
2111
2111
2111
2112
2112
2112
2113
2113
2113
2114
2114
2114
2114
2116
2116
2116
2112
2112
2112
2117
2117
2117
2116
2116
2116
2112
2112
2112
2112
2108
2108
2108
2116
2116
2116
2115
2115
2115
2113
2113
2113
2116
2116
2116
2116
2112
2112
2112
2114
2114
2114
2116
2116
2116
2114
2114
2114
2115
2115
2115
2115
2112
2112
2112
2114
2114
2114
2114
2114
2114
2113
2113
2113
2114
2114
2114
2114
2107
2107
2107
2116
2116
2116
2115
2115
2115
2115
2115
2115
2120
2120
2120
2120
2117
2117
2117
2115
2115
2115
2114
2114
2114
2115
2115
2115
2118
2118
2118
2118
2109
2109
2109
2110
2110
2110
2115
2115
2115
2116
2116
2116
2109
2109
2109
2109
2109
2109
2109
2118
2118
2118
2113
2113
2113
2110
2110
2110
2115
2115
2115
2115
2108
2108
2108
2115
2115
2115
2117
2117
2117
2113
2113
2113
2116
2116
2116
2116
2110
2110
2110
2117
2117
2117
2112
2112
2112
2116
2116
2116
2122
2122
2122
2122
2112
2112
2112
2117
2117
2117
2116
2116
2116
2117
2117
2117
2117
2117
2117
2117
2118
2118
2118
2116
2116
2116
2113
2113
2113
2116
2116
2116
2114
2114
2114
2114
2115
2115
2115
2116
2116
2116
2117
2117
2117
2115
2115
2115
2117
2117
2117
2117
2114
2114
2114
2115
2115
2115
2111
2111
2111
2115
2115
2115
2111
2111
2111
2111
2114
2114
2114
2118
2118
2118
2111
2111
2111
2115
2115
2115
2117
2117
2117
2117
2116
2116
2116
2114
2114
2114
2114
2114
2114
2115
2115
2115
2112
2112
2112
2112
2112
2112
2112
2116
2116
2116
2115
2115
2115
2116
2116
2116
2117
2117
2117
2117
2118
2118
2118
2113
2113
2113
2113
2113
2113
2113
2113
2113
2110
2110
2110
2110
2116
2116
2116
2113
2113
2113
2116
2116
2116
2109
2109
2109
2115
2115
2115
2115
2116
2116
2116
2113
2113
2113
2113
2113
2113
2114
2114
2114
2116
2116
2116
2116
2113
2113
2113
2116
2116
2116
2116
2116
2116
2115
2115
2115
2114
2114
2114
2114
2114
2114
2114
2113
2113
2113
2114
2114
2114
2117
2117
2117
2114
2114
2114
2114
2114
2114
2114
2115
2115
2115
2120
2120
2120
2113
2113
2113
2114
2114
2114
2114
2115
2115
2115
2116
2116
2116
2116
2116
2116
2118
2118
2118
2113
2113
2113
2113
2114
2114
2114
2114
2114
2114
2109
2109
2109
2110
2110
2110
2112
2112
2112
2112
2116
2116
2116
2120
2120
2120
2112
2112
2112
2117
2117
2117
2114
2114
2114
2114
2115
2115
2115
2115
2115
2115
2109
2109
2109
2112
2112
2112
2113
2113
2113
2113
2115
2115
2115
2118
2118
2118
2108
2108
2108
2115
2115
2115
2115
2115
2115
2115
2114
2114
2114
2118
2118
2118
2114
2114
2114
2115
2115
2115
2114
2114
2114
2114
2115
2115
2115
2120
2120
2120
2111
2111
2111
2119
2119
2119
2117
2117
2117
2117
2114
2114
2114
2117
2117
2117
2111
2111
2111
2115
2115
2115
2116
2116
2116
2116
2114
2114
2114
2112
2112
2112
2113
2113
2113
2115
2115
2115
2115
2115
2115
2115
2113
2113
2113
2118
2118
2118
2114
2114
2114
2115
2115
2115
2112
2112
2112
2112
2111
2111
2111
2120
2120
2120
2117
2117
2117
2117
2117
2117
2113
2113
2113
2113
2112
2112
2112
2115
2115
2115
2116
2116
2116
2118
2118
2118
2115
2115
2115
2115
2113
2113
2113
2122
2122
2122
2116
2116
2116
2113
2113
2113
2113
2113
2113
2113
2115
2115
2115
2125
2125
2125
2110
2110
2110
2107
2107
2107
2114
2114
2114
2114
2116
2116
2116
2111
2111
2111
2114
2114
2114
2115
2115
2115
2115
2115
2115
2115
2116
2116
2116
2106
2106
2106
2121
2121
2121
2115
2115
2115
2114
2114
2114
2114
2115
2115
2115
2116
2116
2116
2116
2116
2116
2115
2115
2115
2114
2114
2114
2114
2113
2113
2113
2113
2113
2113
2118
2118
2118
2114
2114
2114
2113
2113
2113
2113
2113
2113
2113
2117
2117
2117
2110
2110
2110
2111
2111
2111
2119
2119
2119
2119
2115
2115
2115
2121
2121
2121
2110
2110
2110
2117
2117
2117
2113
2113
2113
2113
2113
2113
2113
2114
2114
2114
2113
2113
2113
2116
2116
2116
2117
2117
2117
2117
2114
2114
2114
2114
2114
2114
2113
2113
2113
2114
2114
2114
2115
2115
2115
2115
2105
2105
2105
2119
2119
2119
2119
2119
2119
2115
2115
2115
2115
2115
2115
2115
2112
2112
2112
2112
2112
2112
2111
2111
2111
2112
2112
2112
2113
2113
2113
2113
2115
2115
2115
2116
2116
2116
2111
2111
2111
2114
2114
2114
2113
2113
2113
2113
2114
2114
2114
2114
2114
2114
2112
2112
2112
2117
2117
2117
2112
2112
2112
2112
2114
2114
2114
2115
2115
2115
2116
2116
2116
2117
2117
2117
2115
2115
2115
2115
2115
2115
2115
2112
2112
2112
2115
2115
2115
2118
2118
2118
2114
2114
2114
2114
2119
2119
2119
2117
2117
2117
2113
2113
2113
2115
2115
2115
2116
2116
2116
2116
2118
2118
2118
2116
2116
2116
2118
2118
2118
2118
2118
2118
2115
2115
2115
2115
2112
2112
2112
2114
2114
2114
2113
2113
2113
2115
2115
2115
2117
2117
2117
2117
2116
2116
2116
2113
2113
2113
2113
2113
2113
2121
2121
2121
2113
2113
2113
2113
2115
2115
2115
2113
2113
2113
2115
2115
2115
2114
2114
2114
2115
2115
2115
2115
2114
2114
2114
2116
2116
2116
2114
2114
2114
2118
2118
2118
2115
2115
2115
2115
2116
2116
2116
2116
2116
2116
2111
2111
2111
2115
2115
2115
2115
2115
2115
2115
2116
2116
2116
2118
2118
2118
2113
2113
2113
2118
2118
2118
2113
2113
2113
2113
2110
2110
2110
2114
2114
2114
2115
2115
2115
2115
2115
2115
2115
2115
2115
2115
2113
2113
2113
2115
2115
2115
2116
2116
2116
2111
2111
2111
2122
2122
2122
2122
2116
2116
2116
2114
2114
2114
2106
2106
2106
2114
2114
2114
2117
2117
2117
2117
2115
2115
2115
2115
2115
2115
2113
2113
2113
2111
2111
2111
2118
2118
2118
2118
2112
2112
2112
2119
2119
2119
2116
2116
2116
2115
2115
2115
2118
2118
2118
2118
2113
2113
2113
2114
2114
2114
2114
2114
2114
2120
2120
2120
2113
2113
2113
2113
2113
2113
2113
2117
2117
2117
2116
2116
2116
2111
2111
2111
2115
2115
2115
2115
2114
2114
2114
2116
2116
2116
2108
2108
2108
2113
2113
2113
2110
2110
2110
2110
2112
2112
2112
2113
2113
2113
2109
2109
2109
2119
2119
2119
2113
2113
2113
2113
2103
2103
2103
2116
2116
2116
2116
2116
2116
2114
2114
2114
2116
2116
2116
2116
2114
2114
2114
2115
2115
2115
2114
2114
2114
2114
2114
2114
2113
2113
2113
2113
2113
2113
2113
2114
2114
2114
2105
2105
2105
2116
2116
2116
2121
2121
2121
2121
2114
2114
2114
2116
2116
2116
2117
2117
2117
2117
2117
2117
2113
2113
2113
2113
2115
2115
2115
2114
2114
2114
2116
2116
2116
2116
2116
2116
2113
2113
2113
2113
2112
2112
2112
2117
2117
2117
2111
2111
2111
2112
2112
2112
2114
2114
2114
2114
2113
2113
2113
2117
2117
2117
2115
2115
2115
2117
2117
2117
2117
2117
2117
2117
2114
2114
2114
2113
2113
2113
2110
2110
2110
2110
2110
2110
2116
2116
2116
2116
2116
2116
2116
2115
2115
2115
2119
2119
2119
2119
2119
2119
2114
2114
2114
2114
2111
2111
2111
2115
2115
2115
2117
2117
2117
2114
2114
2114
2114
2114
2114
2114
2115
2115
2115
2117
2117
2117
2116
2116
2116
2117
2117
2117
2112
2112
2112
2112
2113
2113
2113
2115
2115
2115
2119
2119
2119
2115
2115
2115
2114
2114
2114
2114
2108
2108
2108
2113
2113
2113
2118
2118
2118
2115
2115
2115
2114
2114
2114
2114
2114
2114
2114
2113
2113
2113
2109
2109
2109
2118
2118
2118
2116
2116
2116
2116
2111
2111
2111
2119
2119
2119
2114
2114
2114
2118
2118
2118
2116
2116
2116
2116
2118
2118
2118
2110
2110
2110
2120
2120
2120
2116
2116
2116
2114
2114
2114
2114
2119
2119
2119
2111
2111
2111
2112
2112
2112
2115
2115
2115
2116
2116
2116
2116
2114
2114
2114
2116
2116
2116
2113
2113
2113
2116
2116
2116
2113
2113
2113
2113
2112
2112
2112
2114
2114
2114
2114
2114
2114
2115
2115
2115
2111
2111
2111
2111
2112
2112
2112
2117
2117
2117
2115
2115
2115
2115
2115
2115
2112
2112
2112
2112
2116
2116
2116
2117
2117
2117
2116
2116
2116
2117
2117
2117
2112
2112
2112
2112
2115
2115
2115
2121
2121
2121
2114
2114
2114
2112
2112
2112
2114
2114
2114
2114
2107
2107
2107
2115
2115
2115
2114
2114
2114
2117
2117
2117
2115
2115
2115
2115
2113
2113
2113
2116
2116
2116
2114
2114
2114
2114
2114
2114
2111
2111
2111
2111
2116
2116
2116
2113
2113
2113
2115
2115
2115
2119
2119
2119
2110
2110
2110
2110
2117
2117
2117
2116
2116
2116
2115
2115
2115
2117
2117
2117
2110
2110
2110
2110
2119
2119
2119
2115
2115
2115
2114
2114
2114
2115
2115
2115
2115
2115
2115
2115
2114
2114
2114
2113
2113
2113
2113
2113
2113
2117
2117
2117
2113
2113
2113
2113
2114
2114
2114
2116
2116
2116
2115
2115
2115
2113
2113
2113
2114
2114
2114
2114
2114
2114
2114
2113
2113
2113
2115
2115
2115
2119
2119
2119
2112
2112
2112
2112
2111
2111
2111
2116
2116
2116
2113
2113
2113
2116
2116
2116
2111
2111
2111
2111
2110
2110
2110
2114
2114
2114
2115
2115
2115
2111
2111
2111
2116
2116
2116
2116
2114
2114
2114
2113
2113
2113
2112
2112
2112
2113
2113
2113
2111
2111
2111
2111
2114
2114
2114
2113
2113
2113
2115
2115
2115
2118
2118
2118
2111
2111
2111
2111
2111
2111
2111
2115
2115
2115
2118
2118
2118
2115
2115
2115
2117
2117
2117
2117
2111
2111
2111
2117
2117
2117
2112
2112
2112
2117
2117
2117
2110
2110
2110
2110
2114
2114
2114
2114
2114
2114
2112
2112
2112
2114
2114
2114
2114
2114
2114
2114
2117
2117
2117
2118
2118
2118
2117
2117
2117
2112
2112
2112
2111
2111
2111
2111
2113
2113
2113
2111
2111
2111
2115
2115
2115
2116
2116
2116
2114
2114
2114
2114
2117
2117
2117
2112
2112
2112
2107
2107
2107
2109
2109
2109
2113
2113
2113
2113
2115
2115
2115
2116
2116
2116
2114
2114
2114
2115
2115
2115
2112
2112
2112
2112
2113
2113
2113
2115
2115
2115
2112
2112
2112
2116
2116
2116
2113
2113
2113
2113
2113
2113
2113
2119
2119
2119
2112
2112
2112
2113
2113
2113
2115
2115
2115
2115
2112
2112
2112
2114
2114
2114
2117
2117
2117
2118
2118
2118
2116
2116
2116
2116
2115
2115
2115
2109
2109
2109
2113
2113
2113
2117
2117
2117
2113
2113
2113
2113
2114
2114
2114
2115
2115
2115
2112
2112
2112
2114
2114
2114
2113
2113
2113
2113
2114
2114
2114
2119
2119
2119
2113
2113
2113
2113
2113
2113
2110
2110
2110
2110
2111
2111
2111
2120
2120
2120
2113
2113
2113
2118
2118
2118
2112
2112
2112
2112
2112
2112
2112
2115
2115
2115
2116
2116
2116
2115
2115
2115
2118
2118
2118
2118
2116
2116
2116
2117
2117
2117
2113
2113
2113
2117
2117
2117
2111
2111
2111
2111
2114
2114
2114
2117
2117
2117
2116
2116
2116
2110
2110
2110
2113
2113
2113
2113
2116
2116
2116
2114
2114
2114
2115
2115
2115
2114
2114
2114
2111
2111
2111
2111
2108
2108
2108
2116
2116
2116
2116
2116
2116
2115
2115
2115
2113
2113
2113
2113
2114
2114
2114
2115
2115
2115
2114
2114
2114
2120
2120
2120
2119
2119
2119
2119
2111
2111
2111
2112
2112
2112
2113
2113
2113
2114
2114
2114
2116
2116
2116
2116
2117
2117
2117
2118
2118
2118
2115
2115
2115
2118
2118
2118
2120
2120
2120
2120
2117
2117
2117
2116
2116
2116
2115
2115
2115
2118
2118
2118
2114
2114
2114
2114
2113
2113
2113
2118
2118
2118
2113
2113
2113
2121
2121
2121
2113
2113
2113
2113
2112
2112
2112
2114
2114
2114
2116
2116
2116
2118
2118
2118
2113
2113
2113
2113
2113
2113
2113
2112
2112
2112
2115
2115
2115
2114
2114
2114
2112
2112
2112
2112
2117
2117
2117
2113
2113
2113
2118
2118
2118
2118
2118
2118
2113
2113
2113
2113
2113
2113
2113
2118
2118
2118
2116
2116
2116
2113
2113
2113
2115
2115
2115
2115
2122
2122
2122
2113
2113
2113
2109
2109
2109
2114
2114
2114
2112
2112
2112
2112
2114
2114
2114
2115
2115
2115
2116
2116
2116
2115
2115
2115
2113
2113
2113
2113
2111
2111
2111
2118
2118
2118
2111
2111
2111
2113
2113
2113
2115
2115
2115
2115
2114
2114
2114
2119
2119
2119
2113
2113
2113
2115
2115
2115
2113
2113
2113
2113
2115
2115
2115
2112
2112
2112
2115
2115
2115
2115
2115
2115
2114
2114
2114
2114
2115
2115
2115
2121
2121
2121
2111
2111
2111
2116
2116
2116
2117
2117
2117
2117
2118
2118
2118
2117
2117
2117
2113
2113
2113
2115
2115
2115
2114
2114
2114
2114
2114
2114
2114
2114
2114
2114
2121
2121
2121
2109
2109
2109
2111
2111
2111
2111
2110
2110
2110
2121
2121
2121
2115
2115
2115
2115
2115
2115
2115
2115
2115
2115
2115
2115
2115
2115
2115
2115
2116
2116
2116
2115
2115
2115
2114
2114
2114
2114
2111
2111
2111
2115
2115
2115
2115
2115
2115
2116
2116
2116
2113
2113
2113
2113
2117
2117
2117
2113
2113
2113
2118
2118
2118
2116
2116
2116
2114
2114
2114
2114
2113
2113
2113
2120
2120
2120
2113
2113
2113
2115
2115
2115
2112
2112
2112
2112
2112
2112
2112
2114
2114
2114
2115
2115
2115
2116
2116
2116
2115
2115
2115
2115
2113
2113
2113
2119
2119
2119
2111
2111
2111
2119
2119
2119
2111
2111
2111
2111
2112
2112
2112
2114
2114
2114
2112
2112
2112
2116
2116
2116
2116
2116
2116
2116
2116
2116
2116
2113
2113
2113
2115
2115
2115
2118
2118
2118
2115
2115
2115
2115
2114
2114
2114
2116
2116
2116
2117
2117
2117
2114
2114
2114
2114
2114
2114
2114
2113
2113
2113
2119
2119
2119
2116
2116
2116
2120
2120
2120
2111
2111
2111
2111
2111
2111
2111
2116
2116
2116
2116
2116
2116
2112
2112
2112
2115
2115
2115
2115
2114
2114
2114
2112
2112
2112
2112
2112
2112
2115
2115
2115
2115
2115
2115
2115
2108
2108
2108
2115
2115
2115
2112
2112
2112
2112
2112
2112
2116
2116
2116
2116
2116
2116
2116
2120
2120
2120
2110
2110
2110
2115
2115
2115
2114
2114
2114
2114
2116
2116
2116
2110
2110
2110
2117
2117
2117
2112
2112
2112
2116
2116
2116
2116
2113
2113
2113
2113
2113
2113
2115
2115
2115
2116
2116
2116
2115
2115
2115
2115
2107
2107
2107
2113
2113
2113
2115
2115
2115
2114
2114
2114
2115
2115
2115
2115
2113
2113
2113
2114
2114
2114
2118
2118
2118
2116
2116
2116
2106
2106
2106
2106
2115
2115
2115
2116
2116
2116
2116
2116
2116
2121
2121
2121
2115
2115
2115
2115
2115
2115
2115
2115
2115
2115
2119
2119
2119
2115
2115
2115
2107
2107
2107
2107
2117
2117
2117
2119
2119
2119
2113
2113
2113
2116
2116
2116
2117
2117
2117
2117
2113
2113
2113
2114
2114
2114
2119
2119
2119
2114
2114
2114
2115
2115
2115
2115
2114
2114
2114
2112
2112
2112
2114
2114
2114
2112
2112
2112
2112
2112
2112
2112
2115
2115
2115
2116
2116
2116
2113
2113
2113
2116
2116
2116
2114
2114
2114
2114
2111
2111
2111
2115
2115
2115
2114
2114
2114
2117
2117
2117
2118
2118
2118
2118
2113
2113
2113
2114
2114
2114
2117
2117
2117
2116
2116
2116
2108
2108
2108
2108
2114
2114
2114
2116
2116
2116
2114
2114
2114
2113
2113
2113
2118
2118
2118
2118
2113
2113
2113
2116
2116
2116
2121
2121
2121
2115
2115
2115
2113
2113
2113
2113
2113
2113
2113
2116
2116
2116
2114
2114
2114
2122
2122
2122
2112
2112
2112
2112
2115
2115
2115
2114
2114
2114
2111
2111
2111
2118
2118
2118
2113
2113
2113
2113
2115
2115
2115
2117
2117
2117
2115
2115
2115
2121
2121
2121
2115
2115
2115
2115
2112
2112
2112
2117
2117
2117
2103
2103
2103
2115
2115
2115
2118
2118
2118
2118
2115
2115
2115
2112
2112
2112
2113
2113
2113
2114
2114
2114
2111
2111
2111
2111
2111
2111
2111
2114
2114
2114
2107
2107
2107
2117
2117
2117
2113
2113
2113
2113
2111
2111
2111
2116
2116
2116
2116
2116
2116
2110
2110
2110
2119
2119
2119
2119
2115
2115
2115
2117
2117
2117
2125
2125
2125
2115
2115
2115
2112
2112
2112
2112
2116
2116
2116
2113
2113
2113
2115
2115
2115
2115
2115
2115
2114
2114
2114
2114
2114
2114
2114
2114
2114
2114
2117
2117
2117
2115
2115
2115
2112
2112
2112
2112
2114
2114
2114
2109
2109
2109
2115
2115
2115
2114
2114
2114
2113
2113
2113
2113
2107
2107
2107
2116
2116
2116
2117
2117
2117
2112
2112
2112
2116
2116
2116
2116
2112
2112
2112
2109
2109
2109
2113
2113
2113
2119
2119
2119
2113
2113
2113
2113
2120
2120
2120
2114
2114
2114
2114
2114
2114
2112
2112
2112
2111
2111
2111
2111
2117
2117
2117
2106
2106
2106
2117
2117
2117
2115
2115
2115
2115
2115
2115
2115
2116
2116
2116
2116
2116
2116
2110
2110
2110
2118
2118
2118
2116
2116
2116
2116
2112
2112
2112
2126
2126
2126
2112
2112
2112
2118
2118
2118
2114
2114
2114
2114
2111
2111
2111
2117
2117
2117
2109
2109
2109
2118
2118
2118
2125
2125
2125
2125
2113
2113
2113
2122
2122
2122
2113
2113
2113
2115
2115
2115
2116
2116
2116
2116
2113
2113
2113
2115
2115
2115
2115
2115
2115
2113
2113
2113
2114
2114
2114
2114
2113
2113
2113
2110
2110
2110
2116
2116
2116
2115
2115
2115
2112
2112
2112
2112
2120
2120
2120
2115
2115
2115
2119
2119
2119
2116
2116
2116
2113
2113
2113
2113
2113
2113
2113
2108
2108
2108
2115
2115
2115
2116
2116
2116
2115
2115
2115
2115
2109
2109
2109
2117
2117
2117
2113
2113
2113
2117
2117
2117
2113
2113
2113
2113
2115
2115
2115
2111
2111
2111
2114
2114
2114
2117
2117
2117
2111
2111
2111
2111
2108
2108
2108
2116
2116
2116
2109
2109
2109
2119
2119
2119
2116
2116
2116
2116
2114
2114
2114
2117
2117
2117
2115
2115
2115
2115
2115
2115
2116
2116
2116
2116
2115
2115
2115
2114
2114
2114
2117
2117
2117
2114
2114
2114
2115
2115
2115
2115
2113
2113
2113
2115
2115
2115
2118
2118
2118
2115
2115
2115
2111
2111
2111
2111
2111
2111
2111
2115
2115
2115
2116
2116
2116
2121
2121
2121
2112
2112
2112
2112
2113
2113
2113
2119
2119
2119
2113
2113
2113
2116
2116
2116
2119
2119
