2074
2074
2075
2075
2075
2075
2075
2075
2075
2078
2078
2078
2077
2077
2077
2077
2077
2077
2075
2075
2075
2075
2074
2074
2074
2076
2076
2076
2071
2071
2071
2076
2076
2076
2076
2076
2076
2076
2076
2076
2076
2076
2076
2076
2074
2074
2074
2078
2078
2078
2075
2075
2075
2075
2075
2075
2075
2077
2077
2077
2077
2077
2077
2079
2079
2079
2076
2076
2076
2076
2069
2069
2069
2076
2076
2076
2076
2076
2076
2078
2078
2078
2075
2077
2077
2077
2074
2074
2074
2074
2077
2077
2077
2078
2078
2078
2079
2079
2079
2077
2077
2077
2078
2078
2078
2078
2076
2076
2076
2075
2075
2075
2076
2076
2076
2077
2077
2077
2075
2075
2075
2075
2075
2075
2075
2075
2075
2075
2075
2075
2075
2076
2076
2076
2071
2071
2071
2071
2077
2077
2077
2077
2077
2077
2079
2079
2079
2077
2077
2077
2076
2076
2076
2076
2068
2068
2068
2077
2077
2077
2076
2076
2076
2076
2076
2076
2078
2078
2078
2078
2078
2078
2078
2077
2077
2077
2076
2076
2076
2076
2076
2076
2076
2076
2076
2076
2073
2073
2073
2079
2079
2079
2077
2077
2077
2076
2076
2076
2080
2080
2080
2080
2073
2073
2073
2077
2077
2077
2077
2077
2077
2077
2077
2077
2075
2075
2075
2075
2076
2076
2076
2076
2076
2076
2077
2077
2077
2075
2075
2075
2074
2074
2074
2074
2078
2078
2078
2078
2078
2078
2078
2078
2078
2077
2077
2077
2075
2075
2075
2075
2077
2077
2077
2077
2077
2077
2077
2077
2077
2074
2074
2074
2077
2077
2077
2077
2074
2074
2074
2075
2075
2075
2075
2075
2075
2076
2076
2076
2076
2076
2076
2076
2075
2075
2075
2076
2076
2076
2075
2075
2075
2077
2077
2077
2083
2083
2083
2083
2075
2075
2075
2078
2078
2078
2075
2075
2075
2076
2076
2076
2076
2076
2076
2076
2075
2075
2075
2080
2080
2080
2075
2075
2075
2077
2077
2077
2075
2075
2075
2075
2074
2074
2074
2076
2076
2076
2078
2078
2078
2077
2077
2077
2074
2074
2074
2074
2076
2076
2076
2075
2075
2075
2078
2078
2078
2077
2077
2077
2074
2074
2074
2074
2074
2074
2074
2074
2074
2074
2078
2078
2078
2077
2077
2077
2073
2073
2073
2073
2074
2074
2074
2075
2075
2075
2076
2076
2076
2078
2078
2078
2076
2076
2076
2076
2077
2077
2077
2078
2078
2078
2076
2076
2076
2076
2076
2076
2077
2077
2077
2077
2082
2082
2082
2073
2073
2073
2076
2076
2076
2077
2077
2077
2076
2076
2076
2076
2078
2078
2078
2075
2075
2075
2080
2080
2080
2077
2077
2077
2076
2076
2076
2076
2078
2078
2078
2074
2074
2074
2075
2075
2075
2078
2078
2078
2078
2078
2078
2078
2074
2074
2074
2075
2075
2075
2075
2075
2075
2076
2076
2076
2078
2078
2078
2078
2075
2075
2075
2075
2075
2075
2076
2076
2076
2079
2079
2079
2076
2076
2076
2076
2075
2075
2075
2077
2077
2077
2072
2072
2072
2075
2075
2075
2077
2077
2077
2077
2076
2076
2076
2078
2078
2078
2070
2070
2070
2078
2078
2078
2074
2074
2074
2074
2075
2075
2075
2075
2075
2075
2077
2077
2077
2078
2078
2078
2077
2077
2077
2077
2074
2074
2074
2081
2081
2081
2075
2075
2075
2073
2073
2073
2077
2077
2077
2077
2074
2074
2074
2074
2074
2074
2076
2076
2076
2076
2076
2076
2076
2076
2076
2076
2075
2075
2075
2076
2076
2076
2078
2078
2078
2076
2076
2076
2075
2075
2075
2075
2074
2074
2074
2078
2078
2078
2074
2074
2074
2078
2078
2078
2075
2075
2075
2075
2079
2079
2079
2076
2076
2076
2079
2079
2079
2073
2073
2073
2077
2077
2077
2077
2074
2074
2074
2077
2077
2077
2074
2074
2074
2070
2070
2070
2077
2077
2077
2077
2076
2076
2076
2074
2074
2074
2079
2079
2079
2077
2077
2077
2084
2084
2084
2084
2079
2079
2079
2078
2078
2078
2078
2078
2078
2081
2081
2081
2078
2078
2078
2078
2075
2075
2075
2076
2076
2076
2074
2074
2074
2077
2077
2077
2075
2075
2075
2075
2074
2074
2074
2075
2075
2075
2077
2077
2077
2075
2075
2075
2076
2076
2076
2076
2075
2075
2075
2076
2076
2076
2074
2074
2074
2080
2080
2080
2073
2073
2073
2073
2075
2075
2075
2079
2079
2079
2075
2075
2075
2075
2075
2075
2080
2080
2080
2080
2078
2078
2078
2077
2077
2077
2076
2076
2076
2077
2077
2077
2076
2076
2076
2076
2073
2073
2073
2077
2077
2077
2080
2080
2080
2076
2076
2076
2077
2077
2077
2077
2077
2077
2077
2077
2077
2077
2077
2077
2077
2075
2075
2075
2074
2074
2074
2074
2074
2074
2074
2077
2077
2077
2074
2074
2074
2079
2079
2079
2080
2080
2080
2080
2075
2075
2075
2078
2078
2078
2079
2079
2079
2076
2076
2076
2075
2075
2075
2075
2080
2080
2080
2077
2077
2077
2075
2075
2075
2077
2077
2077
2077
2077
2077
2077
2076
2076
2076
2077
2077
2077
2079
2079
2079
2076
2076
2076
2069
2069
2069
2069
2077
2077
2077
2075
2075
2075
2077
2077
2077
2075
2075
2075
2078
2078
2078
2078
2073
2073
2073
2076
2076
2076
2075
2075
2075
2076
2076
2076
2077
2077
2077
2077
2077
2077
2077
2078
2078
2078
2074
2074
2074
2076
2076
2076
2075
2075
2075
2075
2072
2072
2072
2076
2076
2076
2074
2074
2074
2076
2076
2076
2077
2077
2077
2077
2074
2074
2074
2077
2077
2077
2075
2075
2075
2075
2075
2075
2079
2079
2079
2079
2073
2073
2073
2077
2077
2077
2077
2077
2077
2076
2076
2076
2073
2073
2073
2073
2078
2078
2078
2077
2077
2077
2075
2075
2075
2072
2072
2072
2076
2076
2076
2076
2076
2076
2076
2077
2077
2077
2079
2079
2079
2071
2071
2071
2077
2077
2077
2077
2079
2079
2079
2075
2075
2075
2075
2075
2075
2076
2076
2076
2076
2076
2076
2076
2074
2074
2074
2077
2077
2077
2077
2077
2077
2078
2078
2078
2076
2076
