2065
2065
2065
2063
2063
2063
2063
2063
2063
2063
2063
2063
2063
2063
2063
2063
2063
2063
2063
2058
2058
2058
2060
2060
2060
2065
2065
2065
2059
2059
2059
2065
2065
2065
2065
2060
2060
2060
2067
2067
2067
2064
2064
2064
2064
2064
2064
2063
2063
2063
2063
2058
2058
2058
2063
2063
2063
2062
2062
2062
2061
2061
2061
2064
2064
2064
2064
2065
2065
2065
2063
2063
2063
2064
2064
2064
2063
2063
2063
2065
2065
2065
2065
2064
2064
2064
2064
2061
2061
2061
2063
2063
2063
2063
2063
2063
2064
2064
2064
2064
2064
2064
2064
2065
2065
2065
2064
2064
2064
2063
2063
2063
2064
2064
2064
2064
2064
2064
2064
2064
2064
2064
2064
2064
2064
2062
2062
2062
2064
2064
2064
2066
2066
2066
2066
2069
2069
2069
2063
2063
2063
2069
2069
2069
2063
2063
2063
2062
2062
2062
2062
2068
2068
2068
2062
2062
2062
2065
2065
2065
2062
2062
2062
2063
2063
2063
2063
2060
2060
2060
2064
2064
2064
2062
2062
2062
2063
2063
2063
2063
2063
2063
2063
2061
2061
2061
2063
2063
2063
2062
2062
2062
2062
2062
2062
2062
2062
2062
2062
2060
2060
2060
2063
2063
2063
2062
2062
2062
2064
2064
2064
2063
2063
2063
2063
2068
2068
2068
2063
2063
2063
2061
2061
2061
2063
2063
2063
2063
2063
2063
2063
2067
2067
2067
2062
2062
2062
2063
2063
2063
2065
2065
2065
2064
2064
2064
2064
2061
2061
2061
2065
2065
2065
2062
2062
2062
2065
2065
2065
2060
2060
2060
2060
2066
2066
2066
2068
2068
2068
2065
2065
2065
2064
2064
2064
2065
2065
2065
2065
2062
2062
2062
2063
2063
2063
2065
2065
2065
2063
2063
2063
2064
2064
2064
2064
2063
2063
2063
2064
2064
2064
2064
2064
2064
2068
2068
2068
2062
2062
2062
2062
2062
2062
2062
2059
2059
2059
2064
2064
2064
2065
2065
2065
2065
2065
2065
2065
2062
2062
2062
2066
2066
2066
2070
2070
2070
2064
2064
2064
2063
2063
2063
2063
2064
2064
2064
2068
2068
2068
2056
2056
2056
2065
2065
2065
2064
2064
2064
2064
2065
2065
2065
2062
2062
2062
2068
2068
2068
2063
2063
2063
2062
2062
2062
2062
2063
2063
2063
2064
2064
2064
2068
2068
2068
2050
2050
2050
2063
2063
2063
2063
2063
2063
2063
2066
2066
2066
2062
2062
2062
2063
2063
2063
2064
2064
2064
2064
2064
2064
2064
2062
2062
2062
2065
2065
2065
2063
2063
2063
2063
2063
2063
2063
2063
2063
2063
2062
2062
2062
2062
2062
2062
2068
2068
2068
2062
2062
2062
2062
2062
2062
2062
2066
2066
2066
2063
2063
2063
2059
2059
2059
2066
2066
2066
2066
2064
2064
2064
2064
2064
2064
2064
2064
2064
2067
2067
2067
2060
2060
2060
2060
2062
2062
2062
2065
2065
2065
2066
2066
2066
2066
2066
2066
2060
2060
2060
2060
2062
2062
2062
2064
2064
2064
2062
2062
2062
2062
2062
2062
2062
2062
2062
2062
2065
2065
2065
2065
2065
2065
2063
2063
2063
2066
2066
2066
2071
2071
2071
2071
2065
2065
2065
2066
2066
2066
2063
2063
2063
2071
2071
2071
2060
2060
2060
2060
2064
2064
2064
2063
2063
2063
2063
2063
2063
2057
2057
2057
2066
2066
2066
2066
2064
2064
2064
2067
2067
2067
2059
2059
2059
2068
2068
2068
2066
2066
2066
2066
2064
2064
2064
2062
2062
2062
2063
2063
2063
2064
2064
2064
2062
2062
2062
2062
2064
2064
2064
2065
2065
2065
2063
2063
2063
2063
2063
2063
2065
2065
2065
2065
2066
2066
2066
2067
2067
2067
2063
2063
2063
2065
2065
2065
2062
2062
2062
2062
2063
2063
2063
2061
2061
2061
2063
2063
2063
2063
2063
2063
2066
2066
2066
2066
2063
2063
2063
2065
2065
2065
2066
2066
2066
2064
2064
2064
2063
2063
2063
2063
2065
2065
2065
2063
2063
2063
2063
2063
2063
2064
2064
2064
2067
2067
2067
2067
2064
2064
2064
2065
2065
2065
2064
2064
2064
2064
2064
2064
2064
2064
2064
2064
2064
2064
2064
2065
2065
2065
2064
2064
2064
2063
2063
2063
2063
2063
2063
2063
2062
2062
2062
2064
2064
2064
2064
2064
2064
2064
2064
2064
2070
2070
2070
2070
2063
2063
2063
2064
2064
2064
2064
2064
2064
2064
2064
2064
2063
2063
2063
2063
2059
2059
2059
2065
2065
2065
2065
2065
2065
2065
2065
2065
2059
2059
2059
2059
2063
2063
2063
2062
2062
2062
2063
2063
2063
2066
2066
2066
2064
2064
2064
2064
2062
2062
2062
2065
2065
2065
2064
2064
2064
2065
2065
2065
2063
2063
2063
2063
2062
2062
2062
2064
2064
2064
2064
2064
2064
2062
2062
2062
2064
2064
2064
2064
2063
2063
2063
2062
2062
2062
2062
2062
2062
2063
2063
2063
2062
2062
2062
2062
2057
2057
2057
2063
2063
2063
2064
2064
2064
2065
2065
2065
2066
2066
2066
2066
2064
2064
2064
2069
2069
2069
2061
2061
2061
2065
2065
2065
2066
2066
2066
2066
2063
2063
2063
2064
2064
2064
2065
2065
2065
2065
2065
2065
2062
2062
2062
2062
2064
2064
2064
2061
2061
2061
2064
2064
2064
2065
2065
2065
2065
2065
2065
2065
2064
2064
2064
2065
2065
2065
2063
2063
2063
2061
2061
2061
2064
2064
2064
2064
2063
2063
2063
2062
2062
2062
2063
2063
2063
2063
2063
2063
2065
2065
2065
2065
2066
2066
2066
2064
2064
2064
2062
2062
2062
2066
2066
2066
2062
2062
2062
2062
2065
2065
2065
2058
2058
2058
2063
2063
2063
2064
2064
2064
2064
2064
2064
2064
2061
2061
2061
2062
2062
2062
2064
2064
2064
2063
2063
2063
2067
2067
2067
2067
2059
2059
2059
2067
2067
2067
2062
2062
2062
2058
2058
2058
2064
2064
2064
2064
2067
2067
2067
2056
2056
2056
2063
2063
2063
2066
2066
2066
2064
2064
2064
2064
2066
2066
2066
2069
2069
2069
2064
2064
2064
2065
2065
2065
2064
2064
2064
2064
2065
