2068
2065
2065
2065
2063
2063
2063
2068
2068
2068
2067
2067
2067
2067
2067
2067
2067
2071
2071
2071
2064
2064
2064
2078
2078
2078
2067
2067
2067
2070
2070
2070
2070
2069
2069
2069
2066
2066
2066
2070
2070
2070
2067
2067
2067
2067
2067
2067
2067
2071
2071
2071
2065
2065
2065
2071
2071
2071
2065
2065
2065
2072
2072
2072
2072
2070
2070
2070
2064
2064
2064
2068
2068
2068
2067
2067
2067
2068
2068
2068
2068
2072
2072
2070
2069
2069
2069
2066
2066
2066
2069
2069
2069
2067
2067
2067
2068
2068
2068
2068
2070
2070
2070
2066
2066
2066
2068
2068
2068
2068
2068
2068
2076
2076
2076
2076
2068
2068
2068
2072
2072
2072
2073
2073
2073
2070
2070
2070
2067
2067
2067
2067
2070
2070
2070
2069
2069
2069
2071
2071
2071
2067
2067
2067
2074
2074
2074
2074
2073
2073
2073
2067
2067
2067
2072
2072
2072
2068
2068
2068
2072
2072
2072
2072
2065
2065
2065
2070
2070
2070
2069
2069
2069
2066
2066
2066
2075
2075
2075
2075
2074
2074
2074
2063
2063
2063
2069
2069
2069
2066
2066
2066
2068
2068
2068
2068
2073
2073
2073
2063
2063
2063
2071
2071
2071
2067
2067
2067
2070
2070
2070
2070
2069
2069
2069
2067
2067
2067
2071
2071
2071
2059
2059
2059
2074
2074
2074
2074
2063
2063
2063
2064
2064
2064
2071
2071
2071
2069
2069
2069
2069
2069
2069
2069
2069
2069
2069
2066
2066
2066
2070
2070
2070
2066
2066
2066
2068
2068
2068
2068
2069
2069
2069
2062
2062
2062
2070
2070
2070
2065
2065
2065
2064
2064
2064
2064
2069
2069
2069
2066
2066
2066
2065
2065
2065
2062
2062
2062
2077
2077
2077
2077
2061
2061
2061
2065
2065
2065
2068
2068
2068
2065
2065
2065
2068
2068
2068
2068
2069
2069
2069
2067
2067
2067
2072
2072
2072
2065
2065
2065
2069
2069
2069
2069
2070
2070
2070
2064
2064
2064
2074
2074
2074
2064
2064
2064
2070
2070
2070
2070
2069
2069
2069
2068
2068
2068
2070
2070
2070
2065
2065
2065
2069
2069
2069
2069
2070
2070
2070
2066
2066
2066
2068
2068
2068
2068
2068
2068
2067
2067
2067
2067
2070
2070
2070
2063
2063
2063
2072
2072
2072
2064
2064
2064
2073
2073
2073
2073
2070
2070
2070
2077
2077
2077
2074
2074
2074
2066
2066
2066
2070
2070
2070
2070
2072
2072
2072
2066
2066
2066
2070
2070
2070
2068
2068
2068
2071
2071
2071
2071
2070
2070
2070
2065
2065
2065
2076
2076
2076
2065
2065
2065
2074
2074
2074
2074
2069
2069
2069
2062
2062
2062
2076
2076
2076
2070
2070
2070
2067
2067
2067
2067
2065
2065
2065
2067
2067
2067
2074
2074
2074
2067
2067
2067
2070
2070
2070
2070
2069
2069
2069
2063
2063
2063
2069
2069
2069
2065
2065
2065
2070
2070
2070
2070
2066
2066
2066
2066
2066
2066
2067
2067
2067
2069
2069
2069
2075
2075
2075
2075
2077
2077
2077
2060
2060
2060
2071
2071
2071
2065
2065
2065
2069
2069
2069
2069
2072
2072
2072
2066
2066
2066
2068
2068
2068
2065
2065
2065
2073
2073
2073
2073
2069
2069
2069
2065
2065
2065
2068
2068
2068
2067
2067
2067
2067
2067
2067
2067
2073
2073
2073
2071
2071
2071
2066
2066
2066
2065
2065
2065
2072
2072
2072
2072
2068
2068
2068
2066
2066
2066
2070
2070
2070
2071
2071
2071
2068
2068
2068
2068
2068
2068
2068
2065
2065
2065
2073
2073
2073
2058
2058
2058
2068
2068
2068
2068
2072
2072
2072
2065
2065
2065
2067
2067
2067
2072
2072
2072
2071
2071
2071
2071
2073
2073
2073
2057
2057
2057
2067
2067
2067
2066
2066
2066
2069
2069
2069
2069
2071
2071
2071
2058
2058
2058
2064
2064
2064
2066
2066
2066
2071
2071
2071
2071
2070
2070
2070
2069
2069
2069
2069
2069
2069
2068
2068
2068
2079
2079
2079
2079
2075
2075
2075
2068
2068
2068
2072
2072
2072
2064
2064
2064
2070
2070
2070
2070
2065
2065
2065
2068
2068
2068
2069
2069
2069
2066
2066
2066
2074
2074
2074
2074
2065
2065
2065
2064
2064
2064
2072
2072
2072
2067
2067
2067
2074
2074
2074
2074
2070
2070
2070
2069
2069
2069
2067
2067
2067
2066
2066
2066
2067
2067
2067
2067
2067
2067
2067
2067
2067
2067
2068
2068
2068
2066
2066
2066
2070
2070
2070
2070
2071
2071
2071
2066
2066
2066
2073
2073
2073
2066
2066
2066
2072
2072
2072
2072
2069
2069
2069
2067
2067
2067
2069
2069
2069
2064
2064
2064
2070
2070
2070
2070
2072
2072
2072
2067
2067
2067
2067
2067
2067
2066
2066
2066
2073
2073
2073
2073
2070
2070
2070
2066
2066
2066
2071
2071
2071
2067
2067
2067
2069
2069
2069
2069
2063
2063
2063
2062
2062
2062
2070
2070
2070
2065
2065
2065
2071
2071
2071
2071
2067
2067
2067
2063
2063
2063
2067
2067
2067
2069
2069
2069
2070
2070
2070
2070
2066
2066
2066
2065
2065
2065
2067
2067
2067
2065
2065
2065
2076
2076
2076
2076
2071
2071
2071
2065
2065
2065
2069
2069
2069
2068
2068
2068
2071
2071
2071
2071
2066
2066
2066
2065
2065
2065
2073
2073
2073
2060
2060
2060
2072
2072
2072
2072
2067
2067
2067
2065
2065
2065
2069
2069
2069
2069
2069
2069
2071
2071
2071
2071
2068
2068
2068
2067
2067
2067
2067
2067
2067
2056
2056
2056
2064
2064
2064
2064
2071
2071
2071
2063
2063
2063
2070
2070
2070
2061
2061
2061
2067
2067
2067
2067
2068
2068
2068
2062
2062
2062
2073
2073
2073
2064
2064
2064
2068
2068
2068
2068
2069
2069
2069
2067
2067
2067
2070
2070
2070
2067
2067
2067
2069
2069
2069
2069
2069
2069
2069
2069
2069
2069
2069
2069
2069
2062
2062
2062
2063
2063
2063
2063
2069
2069
2069
2058
2058
2058
2073
2073
2073
2067
2067
2067
2066
2066
2066
2066
2066
2066
2066
2070
