2218
2221
2221
2221
2221
2221
2221
2222
2222
2222
2221
2221
2221
2221
2223
2223
2223
2220
2220
2220
2218
2218
2218
2221
2221
2221
2220
2220
2220
2220
2220
2220
2220
2225
2225
2225
2214
2214
2214
2219
2219
2219
2222
2222
2222
2222
2220
2220
2220
2219
2219
2219
2222
2222
2222
2220
2220
2220
2222
2222
2222
2222
2216
2216
2216
2222
2222
2222
2216
2216
2216
2209
2209
2209
2219
2219
2219
2219
2222
2222
2222
2222
2222
2220
2217
2217
2217
2220
2220
2220
2220
2220
2220
2222
2222
2222
2222
2219
2219
2219
2223
2223
2223
2227
2227
2227
2223
2223
2223
2219
2219
2219
2219
2219
2219
2219
2224
2224
2224
2219
2219
2219
2220
2220
2220
2223
2223
2223
2223
2222
2222
2222
2222
2222
2222
2219
2219
2219
2216
2216
2216
2219
2219
2219
2219
2211
2211
2211
2210
2210
2210
2223
2223
2223
2225
2225
2225
2227
2227
2227
2227
2220
2220
2220
2219
2219
2219
2219
2219
2219
2220
2220
2220
2221
2221
2221
2221
2213
2213
2213
2219
2219
2219
2221
2221
2221
2222
2222
2222
2220
2220
2220
2220
2219
2219
2219
2219
2219
2219
2219
2219
2219
2218
2218
2218
2218
2218
2218
2218
2219
2219
2219
2218
2218
2218
2222
2222
2222
2221
2221
2221
2222
2222
2222
2222
2218
2218
2218
2224
2224
2224
2216
2216
2216
2209
2209
2209
2219
2219
2219
2219
2220
2220
2220
2222
2222
2222
2218
2218
2218
2219
2219
2219
2225
2225
2225
2225
2221
2221
2221
2221
2221
2221
2220
2220
2220
2219
2219
2219
2218
2218
2218
2218
2218
2218
2218
2220
2220
2220
2220
2220
2220
2223
2223
2223
2219
2219
2219
2219
2221
2221
2221
2223
2223
2223
2218
2218
2218
2221
2221
2221
2222
2222
2222
2222
2219
2219
2219
2224
2224
2224
2220
2220
2220
2224
2224
2224
2223
2223
2223
2223
2217
2217
2217
2221
2221
2221
2220
2220
2220
2217
2217
2217
2219
2219
2219
2219
2218
2218
2218
2223
2223
2223
2222
2222
2222
2217
2217
2217
2220
2220
2220
2220
2219
2219
2219
2219
2219
2219
2215
2215
2215
2222
2222
2222
2220
2220
2220
2220
2220
2220
2220
2222
2222
2222
2217
2217
2217
2223
2223
2223
2220
2220
2220
2220
2217
2217
2217
2222
2222
2222
2224
2224
2224
2217
2217
2217
2215
2215
2215
2215
2220
2220
2220
2221
2221
2221
2220
2220
2220
2220
2220
2220
2219
2219
2219
2219
2218
2218
2218
2219
2219
2219
2223
2223
2223
2220
2220
2220
2223
2223
2223
2223
2221
2221
2221
2222
2222
2222
2221
2221
2221
2218
2218
2218
2220
2220
2220
2220
2217
2217
2217
2223
2223
2223
2221
2221
2221
2221
2221
2221
2221
2221
2221
2221
2222
2222
2222
2219
2219
2219
2217
2217
2217
2222
2222
2222
2219
2219
2219
2219
2219
2219
2219
2221
2221
2221
2218
2218
2218
2218
2218
2218
2222
2222
2222
2222
2219
2219
2219
2221
2221
2221
2221
2221
2221
2222
2222
2222
2221
2221
2221
2221
2219
2219
2219
2221
2221
2221
2220
2220
2220
2219
2219
2219
2219
2219
2219
2219
2219
2219
2219
2222
2222
2222
2222
2222
2222
2221
2221
2221
2223
2223
2223
2223
2220
2220
2220
2219
2219
2219
2221
2221
2221
2218
2218
2218
2218
2218
2218
2218
2219
2219
2219
2221
2221
2221
2220
2220
2220
2220
2220
2220
2220
2220
2220
2220
2222
2222
2222
2220
2220
2220
2219
2219
2219
2221
2221
2221
2220
2220
2220
2220
2223
2223
2223
2217
2217
2217
2220
2220
2220
2221
2221
2221
2220
2220
2220
2220
2221
2221
2221
2226
2226
2226
2217
2217
2217
2220
2220
2220
2219
2219
2219
2219
2220
2220
2220
2219
2219
2219
2220
2220
2220
2228
2228
2228
2219
2219
2219
2219
2220
2220
2220
2222
2222
2222
2218
2218
2218
2221
2221
2221
2222
2222
2222
2222
2219
2219
2219
2221
2221
2221
2220
2220
2220
2216
2216
2216
2217
2217
2217
2217
2220
2220
2220
2219
2219
2219
2219
2219
2219
2219
2219
2219
2217
2217
2217
2217
2222
2222
2222
2221
2221
2221
2222
2222
2222
2221
2221
2221
2223
2223
2223
2223
2221
2221
2221
2219
2219
2219
2221
2221
2221
2221
2221
2221
2219
2219
2219
2219
2223
2223
2223
2221
2221
2221
2217
2217
2217
2220
2220
2220
2221
2221
2221
2221
2218
2218
2218
2222
2222
2222
2219
2219
2219
2223
2223
2223
2220
2220
2220
2220
2219
2219
2219
2224
2224
2224
2217
2217
2217
2222
2222
2222
2221
2221
2221
2221
2218
2218
2218
2219
2219
2219
2222
2222
2222
2223
2223
2223
2219
2219
2219
2219
2220
2220
2220
2220
2220
2220
2220
2220
2220
2218
2218
2218
2227
2227
2227
2227
2218
2218
2218
2222
2222
2222
2218
2218
2218
2220
2220
2220
2218
2218
2218
2218
2214
2214
2214
2221
2221
2221
2219
2219
2219
2220
2220
2220
2219
2219
2219
2219
2215
2215
2215
2220
2220
2220
2218
2218
2218
2220
2220
2220
2221
2221
2221
2221
2213
2213
2213
2221
2221
2221
2223
2223
2223
2220
2220
2220
2221
2221
2221
2221
2216
2216
2216
2217
2217
2217
2223
2223
2223
2220
2220
2220
2220
2220
2220
2220
2219
2219
2219
2223
2223
2223
2222
2222
2222
2220
2220
2220
2219
2219
2219
2219
2222
2222
2222
2218
2218
2218
2222
2222
2222
2220
2220
2220
2217
2217
2217
2217
2221
2221
2221
2221
2221
2221
2219
2219
2219
2220
2220
2220
2220
2220
2220
2220
2220
2220
2220
2214
2214
2214
2214
2214
2214
2227
2227
2227
2213
2213
2213
2213
2220
2220
2220
2221
2221
2221
2220
2220
2220
2220
2220
2220
2223
2223
2223
2223
2222
2222
2222
2221
2221
2221
2221
2221
2221
2223
2223
2223
2220
2220
2220
2220
2217
2217
2217
2221
2221
2221
2221
2221
2221
2225
2225
2225
2219
2219
2219
2219
2219
2219
2219
2224
2224
2224
2222
