2023
2022
2022
2022
2027
2027
2027
2027
2019
2019
2019
2022
2022
2022
2023
2023
2023
2024
2024
2024
2020
2020
2020
2020
2024
2024
2024
2016
2016
2016
2020
2020
2020
2021
2021
2021
2022
2022
2022
2022
2021
2021
2021
2023
2023
2023
2025
2025
2025
2022
2022
2022
2024
2024
2024
2024
2023
2023
2023
2018
2018
2018
2019
2019
2019
2020
2020
2020
2022
2022
2022
2022
2021
2021
2021
2021
2021
2021
2019
2019
2019
2021
2021
2021
2021
2021
2021
2025
2025
2025
2025
2022
2022
2022
2024
2024
2024
2021
2021
2021
2025
2025
2025
2022
2022
2022
2022
2020
2020
2020
2023
2023
2023
2021
2021
2021
2020
2020
2020
2022
2022
2022
2022
2022
2022
2022
2021
2021
2021
2022
2022
2022
2023
2023
2023
2018
2018
2018
2018
2021
2021
2021
2024
2024
2024
2022
2022
2022
2022
2022
2022
2024
2024
2024
2024
2023
2023
2023
2022
2022
2022
2024
2024
2024
2021
2021
2021
2020
2020
2020
2020
2023
2023
2023
2023
2023
2023
2023
2023
2023
2023
2023
2023
2021
2021
2021
2021
2027
2027
2027
2022
2022
2022
2016
2016
2016
2021
2021
2021
2025
2025
2025
2025
2021
2021
2021
2020
2020
2020
2025
2025
2025
2022
2022
2022
2024
2024
2024
2024
2027
2027
2027
2024
2024
2024
2025
2025
2025
2027
2027
2027
2021
2021
2021
2021
2020
2020
2020
2022
2022
2022
2023
2023
2023
2022
2022
2022
2024
2024
2024
2024
2021
2021
2021
2022
2022
2022
2021
2021
2021
2025
2025
2025
2024
2024
2024
2024
2021
2021
2021
2020
2020
2020
2020
2020
2020
2025
2025
2025
2021
2021
2021
2021
2024
2024
2024
2022
2022
2022
2022
2022
2022
2022
2022
2022
2023
2023
2023
2023
2026
2026
2026
2022
2022
2022
2023
2023
2023
2021
2021
2021
2021
2021
2021
2021
2022
2022
2022
2023
2023
2023
2022
2022
2022
2022
2022
2022
2025
2025
2025
2025
2023
2023
2023
2021
2021
2021
2023
2023
2023
2024
2024
2024
2020
2020
2020
2020
2020
2020
2020
2024
2024
2024
2020
2020
2020
2019
2019
2019
2019
2019
2019
2019
2022
2022
2022
2023
2023
2023
2023
2023
2023
2022
2022
2022
2021
2021
2021
2021
2023
2023
2023
2021
2021
2021
2026
2026
2026
2017
2017
2017
2028
2028
2028
2028
2023
2023
2023
2019
2019
2019
2022
2022
2022
2023
2023
2023
2023
2023
2023
2023
2020
2020
2020
2022
2022
2022
2022
2022
2022
2023
2023
2023
2022
2022
2022
2022
2021
2021
2021
2021
2021
2021
2021
2021
2021
2020
2020
2020
2026
2026
2026
2026
2020
2020
2020
2027
2027
2027
2022
2022
2022
2023
2023
2023
2023
2023
2023
2023
2020
2020
2020
2019
2019
2019
2025
2025
2025
2019
2019
2019
2022
2022
2022
2022
2024
2024
2024
2023
2023
2023
2021
2021
2021
2026
2026
2026
2022
2022
2022
2022
2022
2022
2022
2021
2021
2021
2021
2021
2021
2022
2022
2022
2020
2020
2020
2020
2019
2019
2019
2022
2022
2022
2027
2027
2027
2025
2025
2025
2023
2023
2023
2023
2021
2021
2021
2022
2022
2022
2023
2023
2023
2024
2024
2024
2021
2021
2021
2021
2022
2022
2022
2021
2021
2021
2025
2025
2025
2024
2024
2024
2019
2019
2019
2019
2018
2018
2018
2025
2025
2025
2023
2023
2023
2023
2023
2023
2023
2023
2023
2023
2020
2020
2020
2022
2022
2022
2023
2023
2023
2021
2021
2021
2024
2024
2024
2024
2022
2022
2022
2023
2023
2023
2022
2022
2022
2023
2023
2023
2022
2022
2022
2022
2022
2022
2022
2022
2022
2022
2020
2020
2020
2026
2026
2026
2019
2019
2019
2019
2024
2024
2024
2023
2023
2023
2019
2019
2019
2030
2030
2030
2025
2025
2025
2025
2021
2021
2021
2023
2023
2023
2019
2019
2019
2021
2021
2021
2026
2026
2026
2026
2022
2022
2022
2024
2024
2024
2021
2021
2021
2021
2021
2021
2022
2022
2022
2022
2020
2020
2020
2023
2023
2023
2020
2020
2020
2022
2022
2022
2022
2022
2022
2022
2026
2026
2026
2020
2020
2020
2021
2021
2021
2022
2022
2022
2023
2023
2023
2023
2023
2023
2023
2018
2018
2018
2023
2023
2023
2027
2027
2027
2023
2023
2023
2023
2018
2018
2018
2021
2021
2021
2024
2024
2024
2023
2023
2023
2019
2019
2019
2019
2020
2020
2020
2020
2020
2020
2024
2024
2024
2023
2023
2023
2023
2023
2023
2023
2021
2021
2021
2024
2024
2024
2027
2027
2027
2024
2024
2024
2021
2021
2021
2021
2024
2024
2024
2017
2017
2017
2020
2020
2020
2021
2021
2021
2021
2021
2021
2021
2023
2023
2023
2024
2024
2024
2018
2018
2018
2025
2025
2025
2014
2014
2014
2014
2020
2020
2020
2022
2022
2022
2022
2022
2022
2023
2023
2023
2023
2023
2023
2023
2022
2022
2022
2025
2025
2025
2023
2023
2023
2023
2023
2023
2022
2022
2022
2022
2020
2020
2020
2022
2022
2022
2020
2020
2020
2022
2022
2022
2022
2022
2022
2022
2022
2022
2022
2024
2024
2024
2022
2022
2022
2021
2021
2021
2022
2022
2022
2022
2021
2021
2021
2022
2022
2022
2018
2018
2018
2019
2019
2019
2022
2022
2022
2022
2020
2020
2020
2022
2022
2022
2021
2021
2021
2022
2022
2022
2022
2022
2022
2022
2021
2021
2021
2020
2020
2020
2020
2020
2020
2023
2023
2023
2020
2020
2020
2020
2020
2020
2020
2022
2022
2022
2021
2021
2021
2021
2021
2021
2020
2020
2020
2020
2019
2019
2019
2022
2022
2022
2021
2021
2021
2023
2023
2023
2020
2020
2020
2020
2021
2021
2021
2022
2022
2022
2022
2022
2022
2027
2027
2027
2019
2019
2019
2019
2021
2021
2021
2022
2022
2022
2022
2022
2022
2023
2023
2023
2022
2022
2022
2022
2028
2028
2028
2022
2022
2022
2022
2022
2022
2025
2025
2025
2024
2024
2024
2024
2020
2020
2020
2020
2020
2020
2020
2020
2020
2021
2021
2021
2022
