2026
2032
2032
2032
2032
2034
2034
2034
2034
2034
2034
2035
2035
2035
2030
2030
2030
2023
2023
2023
2023
2034
2034
2034
2032
2032
2032
2032
2032
2032
2033
2033
2033
2032
2032
2032
2032
2032
2032
2032
2039
2039
2039
2031
2031
2031
2032
2032
2032
2029
2029
2029
2029
2029
2029
2029
2022
2022
2022
2028
2028
2028
2034
2034
2034
2032
2032
2032
2032
2033
2033
2033
2035
2035
2035
2031
2031
2031
2031
2031
2031
2023
2023
2023
2030
2033
2033
2033
2033
2028
2028
2028
2029
2029
2029
2034
2034
2034
2032
2032
2032
2039
2039
2039
2039
2031
2031
2031
2034
2034
2034
2031
2031
2031
2038
2038
2038
2031
2031
2031
2031
2029
2029
2029
2031
2031
2031
2025
2025
2025
2033
2033
2033
2033
2033
2033
2033
2032
2032
2032
2034
2034
2034
2028
2028
2028
2037
2037
2037
2034
2034
2034
2034
2027
2027
2027
2035
2035
2035
2033
2033
2033
2041
2041
2041
2030
2030
2030
2030
2037
2037
2037
2032
2032
2032
2031
2031
2031
2033
2033
2033
2033
2033
2033
2033
2027
2027
2027
2038
2038
2038
2032
2032
2032
2035
2035
2035
2028
2028
2028
2028
2032
2032
2032
2029
2029
2029
2025
2025
2025
2033
2033
2033
2035
2035
2035
2035
2026
2026
2026
2034
2034
2034
2031
2031
2031
2033
2033
2033
2032
2032
2032
2032
2031
2031
2031
2031
2031
2031
2027
2027
2027
2037
2037
2037
2031
2031
2031
2031
2030
2030
2030
2034
2034
2034
2033
2033
2033
2027
2027
2027
2033
2033
2033
2033
2027
2027
2027
2030
2030
2030
2033
2033
2033
2040
2040
2040
2030
2030
2030
2030
2035
2035
2035
2032
2032
2032
2031
2031
2031
2033
2033
2033
2028
2028
2028
2028
2034
2034
2034
2032
2032
2032
2033
2033
2033
2034
2034
2034
2030
2030
2030
2030
2032
2032
2032
2032
2032
2032
2029
2029
2029
2036
2036
2036
2031
2031
2031
2031
2033
2033
2033
2030
2030
2030
2037
2037
2037
2032
2032
2032
2033
2033
2033
2033
2033
2033
2033
2034
2034
2034
2034
2034
2034
2034
2034
2034
2028
2028
2028
2028
2029
2029
2029
2031
2031
2031
2031
2031
2031
2032
2032
2032
2033
2033
2033
2033
2020
2020
2020
2032
2032
2032
2032
2032
2032
2032
2032
2032
2035
2035
2035
2035
2033
2033
2033
2026
2026
2026
2034
2034
2034
2032
2032
2032
2033
2033
2033
2033
2027
2027
2027
2033
2033
2033
2033
2033
2033
2033
2033
2033
2030
2030
2030
2030
2032
2032
2032
2031
2031
2031
2030
2030
2030
2032
2032
2032
2030
2030
2030
2030
2031
2031
2031
2033
2033
2033
2035
2035
2035
2030
2030
2030
2033
2033
2033
2033
2031
2031
2031
2028
2028
2028
2033
2033
2033
2029
2029
2029
2030
2030
2030
2030
2030
2030
2030
2033
2033
2033
2032
2032
2032
2034
2034
2034
2031
2031
2031
2031
2033
2033
2033
2031
2031
2031
2032
2032
2032
2033
2033
2033
2032
2032
2032
2032
2031
2031
2031
2036
2036
2036
2028
2028
2028
2035
2035
2035
2032
2032
2032
2032
2031
2031
2031
2029
2029
2029
2031
2031
2031
2030
2030
2030
2032
2032
2032
2032
2032
2032
2032
2032
2032
2032
2028
2028
2028
2034
2034
2034
2027
2027
2027
2027
2038
2038
2038
2034
2034
2034
2028
2028
2028
2033
2033
2033
2032
2032
2032
2032
2024
2024
2024
2034
2034
2034
2033
2033
2033
2030
2030
2030
2031
2031
2031
2031
2031
2031
2031
2030
2030
2030
2036
2036
2036
2031
2031
2031
2027
2027
2027
2027
2033
2033
2033
2031
2031
2031
2031
2031
2031
2032
2032
2032
2029
2029
2029
2029
2031
2031
2031
2029
2029
2029
2026
2026
2026
2035
2035
2035
2032
2032
2032
2032
2031
2031
2031
2034
2034
2034
2029
2029
2029
2033
2033
2033
2033
2033
2033
2033
2030
2030
2030
2040
2040
2040
2036
2036
2036
2028
2028
2028
2032
2032
2032
2032
2029
2029
2029
2034
2034
2034
2031
2031
2031
2033
2033
2033
2030
2030
2030
2030
2031
2031
2031
2033
2033
2033
2034
2034
2034
2029
2029
2029
2032
2032
2032
2032
2032
2032
2032
2031
2031
2031
2027
2027
2027
2032
2032
2032
2032
2032
2032
2032
2031
2031
2031
2034
2034
2034
2040
2040
2040
2034
2034
2034
2031
2031
2031
2031
2031
2031
2031
2029
2029
2029
2034
2034
2034
2029
2029
2029
2030
2030
2030
2030
2031
2031
2031
2031
2031
2031
2030
2030
2030
2034
2034
2034
2032
2032
2032
2032
2028
2028
2028
2035
2035
2035
2032
2032
2032
2032
2032
2032
2033
2033
2033
2033
2031
2031
2031
2043
2043
2043
2036
2036
2036
2033
2033
2033
2031
2031
2031
2031
2030
2030
2030
2032
2032
2032
2033
2033
2033
2034
2034
2034
2033
2033
2033
2033
2030
2030
2030
2029
2029
2029
2037
2037
2037
2033
2033
2033
2034
2034
2034
2034
2023
2023
2023
2035
2035
2035
2032
2032
2032
2032
2032
2032
2033
2033
2033
2033
2043
2043
2043
2026
2026
2026
2034
2034
2034
2032
2032
2032
2034
2034
2034
2034
2030
2030
2030
2030
2030
2030
2030
2030
2030
2034
2034
2034
2026
2026
2026
2026
2032
2032
2032
2034
2034
2034
2026
2026
2026
2032
2032
2032
2033
2033
2033
2033
2030
2030
2030
2034
2034
2034
2032
2032
2032
2034
2034
2034
2042
2042
2042
2042
2032
2032
2032
2031
2031
2031
2028
2028
2028
2032
2032
2032
2031
2031
2031
2031
2028
2028
2028
2034
2034
2034
2032
2032
2032
2029
2029
2029
2031
2031
2031
2031
2029
2029
2029
2038
2038
2038
2028
2028
2028
2032
2032
2032
2032
2032
2032
2032
2035
2035
2035
2044
2044
2044
2032
2032
2032
2033
2033
2033
2029
2029
2029
2029
2031
2031
2031
2028
2028
2028
2033
2033
2033
2033
2033
2033
2032
2032
2032
2032
2033
2033
2033
2035
2035
2035
2030
2030
2030
2029
2029
2029
2035
2035
2035
