2115
2120
2120
2120
2120
2119
2119
2119
2121
2121
2121
2121
2121
2121
2118
2118
2118
2121
2121
2121
2121
2120
2120
2120
2114
2114
2114
2121
2121
2121
2118
2118
2118
2120
2120
2120
2120
2120
2120
2120
2117
2117
2117
2119
2119
2119
2117
2117
2117
2118
2118
2118
2118
2121
2121
2121
2113
2113
2113
2119
2119
2119
2117
2117
2117
2122
2122
2122
2122
2120
2120
2120
2117
2117
2117
2120
2120
2120
2116
2116
2116
2118
2118
2120
2119
2119
2119
2119
2123
2123
2123
2124
2124
2124
2123
2123
2123
2117
2117
2117
2121
2121
2121
2121
2122
2122
2122
2119
2119
2119
2121
2121
2121
2117
2117
2117
2120
2120
2120
2120
2118
2118
2118
2117
2117
2117
2123
2123
2123
2118
2118
2118
2123
2123
2123
2123
2118
2118
2118
2119
2119
2119
2122
2122
2122
2117
2117
2117
2119
2119
2119
2119
2115
2115
2115
2116
2116
2116
2121
2121
2121
2116
2116
2116
2121
2121
2121
2121
2123
2123
2123
2122
2122
2122
2118
2118
2118
2120
2120
2120
2119
2119
2119
2119
2121
2121
2121
2121
2121
2121
2122
2122
2122
2111
2111
2111
2123
2123
2123
2123
2121
2121
2121
2113
2113
2113
2117
2117
2117
2119
2119
2119
2124
2124
2124
2124
2116
2116
2116
2119
2119
2119
2121
2121
2121
2118
2118
2118
2122
2122
2122
2122
2120
2120
2120
2120
2120
2120
2120
2120
2120
2116
2116
2116
2117
2117
2117
2117
2121
2121
2121
2114
2114
2114
2119
2119
2119
2116
2116
2116
2120
2120
2120
2120
2117
2117
2117
2112
2112
2112
2123
2123
2123
2120
2120
2120
2121
2121
2121
2121
2115
2115
2115
2111
2111
2111
2119
2119
2119
2117
2117
2117
2121
2121
2121
2121
2122
2122
2122
2116
2116
2116
2119
2119
2119
2116
2116
2116
2120
2120
2120
2120
2120
2120
2120
2115
2115
2115
2121
2121
2121
2117
2117
2117
2120
2120
2120
2120
2121
2121
2121
2119
2119
2119
2128
2128
2128
2118
2118
2118
2120
2120
2120
2120
2118
2118
2118
2116
2116
2116
2119
2119
2119
2115
2115
2115
2122
2122
2122
2122
2120
2120
2120
2116
2116
2116
2128
2128
2128
2116
2116
2116
2119
2119
2119
2119
2124
2124
2124
2115
2115
2115
2123
2123
2123
2124
2124
2124
2121
2121
2121
2121
2120
2120
2120
2119
2119
2119
2120
2120
2120
2117
2117
2117
2120
2120
2120
2120
2118
2118
2118
2118
2118
2118
2120
2120
2120
2116
2116
2116
2119
2119
2119
2119
2122
2122
2122
2116
2116
2116
2121
2121
2121
2116
2116
2116
2121
2121
2121
2121
2119
2119
2119
2117
2117
2117
2120
2120
2120
2118
2118
2118
2119
2119
2119
2119
2118
2118
2118
2115
2115
2115
2122
2122
2122
2117
2117
2117
2120
2120
2120
2120
2120
2120
2120
2116
2116
2116
2116
2116
2116
2114
2114
2114
2119
2119
2119
2119
2123
2123
2123
2116
2116
2116
2121
2121
2121
2125
2125
2125
2121
2121
2121
2121
2121
2121
2121
2118
2118
2118
2120
2120
2120
2116
2116
2116
2122
2122
2122
2122
2121
2121
2121
2115
2115
2115
2123
2123
2123
2118
2118
2118
2118
2118
2118
2118
2121
2121
2121
2117
2117
2117
2120
2120
2120
2111
2111
2111
2121
2121
2121
2121
2120
2120
2120
2118
2118
2118
2121
2121
2121
2115
2115
2115
2119
2119
2119
2119
2119
2119
2119
2117
2117
2117
2121
2121
2121
2117
2117
2117
2120
2120
2120
2120
2118
2118
2118
2118
2118
2118
2114
2114
2114
2117
2117
2117
2120
2120
2120
2120
2120
2120
2120
2117
2117
2117
2120
2120
2120
2122
2122
2122
2121
2121
2121
2121
2119
2119
2119
2116
2116
2116
2119
2119
2119
2115
2115
2115
2120
2120
2120
2120
2119
2119
2119
2117
2117
2117
2121
2121
2121
2113
2113
2113
2119
2119
2119
2119
2121
2121
2121
2116
2116
2116
2120
2120
2120
2119
2119
2119
2121
2121
2121
2121
2121
2121
2121
2119
2119
2119
2122
2122
2122
2118
2118
2118
2121
2121
2121
2121
2123
2123
2123
2117
2117
2117
2123
2123
2123
2110
2110
2110
2119
2119
2119
2119
2120
2120
2120
2117
2117
2117
2119
2119
2119
2118
2118
2118
2120
2120
2120
2120
2116
2116
2116
2116
2116
2116
2116
2116
2116
2115
2115
2115
2121
2121
2121
2121
2121
2121
2121
2121
2121
2121
2124
2124
2124
2114
2114
2114
2124
2124
2124
2124
2117
2117
2117
2118
2118
2118
2122
2122
2122
2119
2119
2119
2121
2121
2121
2121
2118
2118
2118
2115
2115
2115
2118
2118
2118
2115
2115
2115
2122
2122
2122
2122
2120
2120
2120
2117
2117
2117
2120
2120
2120
2115
2115
2115
2118
2118
2118
2118
2118
2118
2118
2117
2117
2117
2120
2120
2120
2123
2123
2123
2119
2119
2119
2119
2121
2121
2121
2118
2118
2118
2121
2121
2121
2117
2117
2117
2121
2121
2121
2121
2119
2119
2119
2117
2117
2117
2119
2119
2119
2108
2108
2108
2117
2117
2117
2117
2117
2117
2117
2117
2117
2117
2119
2119
2119
2118
2118
2118
2122
2122
2122
2122
2121
2121
2121
2118
2118
2118
2121
2121
2121
2116
2116
2116
2119
2119
2119
2119
2122
2122
2122
2117
2117
2117
2121
2121
2121
2116
2116
2116
2121
2121
2121
2121
2119
2119
2119
2117
2117
2117
2119
2119
2119
2117
2117
2117
2121
2121
2121
2121
2120
2120
2120
2113
2113
2113
2119
2119
2119
2117
2117
2117
2111
2111
2111
2111
2118
2118
2118
2116
2116
2116
2120
2120
2120
2118
2118
2118
2115
2115
2115
2115
2115
2115
2115
2116
2116
2116
2120
2120
2120
2115
2115
2115
2121
2121
2121
2121
2119
2119
2119
2121
2121
2121
2120
2120
2120
2118
2118
2118
2115
2115
2115
2115
2120
2120
2120
2117
2117
2117
2117
2117
2117
2117
2117
2117
2120
2120
2120
2120
2119
2119
2119
2116
2116
2116
2121
2121
2121
2120
2120
2120
2121
2121
2121
2121
