2135
2134
2134
2134
2134
2134
2134
2137
2137
2137
2131
2131
2131
2136
2136
2136
2136
2133
2133
2133
2131
2131
2131
2139
2139
2139
2133
2133
2133
2136
2136
2136
2136
2136
2136
2136
2134
2134
2134
2136
2136
2136
2131
2131
2131
2141
2141
2141
2141
2131
2131
2131
2134
2134
2134
2136
2136
2136
2129
2129
2129
2136
2136
2136
2136
2141
2141
2141
2132
2132
2132
2136
2136
2136
2135
2135
2135
2140
2140
2140
2140
2127
2127
2127
2131
2131
2131
2136
2136
2136
2130
2130
2130
2143
2143
2143
2143
2133
2133
2133
2136
2136
2136
2133
2133
2133
2135
2135
2135
2135
2135
2135
2135
2131
2131
2131
2121
2121
2121
2137
2137
2137
2134
2134
2134
2137
2137
2137
2137
2129
2129
2129
2131
2131
2131
2139
2139
2139
2133
2133
2133
2135
2135
2135
2135
2127
2127
2127
2134
2134
2134
2136
2136
2136
2133
2133
2133
2138
2138
2138
2138
2129
2129
2129
2139
2139
2139
2137
2137
2137
2133
2133
2133
2136
2136
2136
2136
2131
2131
2131
2130
2130
2130
2135
2135
2135
2132
2132
2132
2139
2139
2139
2139
2138
2138
2138
2128
2128
2128
2135
2135
2135
2136
2136
2136
2135
2135
2135
2135
2143
2143
2143
2131
2131
2131
2135
2135
2135
2135
2135
2135
2139
2139
2139
2139
2131
2131
2131
2126
2126
2126
2135
2135
2135
2135
2135
2135
2135
2135
2135
2135
2139
2139
2139
2138
2138
2138
2141
2141
2141
2133
2133
2133
2130
2130
2130
2130
2135
2135
2135
2129
2129
2129
2137
2137
2137
2140
2140
2140
2136
2136
2136
2136
2135
2135
2135
2129
2129
2129
2138
2138
2138
2136
2136
2136
2135
2135
2135
2135
2133
2133
2133
2141
2141
2141
2136
2136
2136
2136
2136
2136
2137
2137
2137
2137
2131
2131
2131
2137
2137
2137
2137
2137
2137
2133
2133
2133
2135
2135
2135
2135
2136
2136
2136
2139
2139
2139
2137
2137
2137
2135
2135
2135
2140
2140
2140
2140
2134
2134
2134
2139
2139
2139
2135
2135
2135
2132
2132
2132
2137
2137
2137
2137
2135
2135
2135
2139
2139
2139
2138
2138
2138
2134
2134
2134
2141
2141
2141
2141
2135
2135
2135
2132
2132
2132
2135
2135
2135
2136
2136
2136
2135
2135
2135
2135
2134
2134
2134
2136
2136
2136
2139
2139
2139
2133
2133
2133
2134
2134
2134
2134
2139
2139
2139
2135
2135
2135
2137
2137
2137
2129
2129
2129
2136
2136
2136
2136
2133
2133
2133
2134
2134
2134
2140
2140
2140
2129
2129
2129
2139
2139
2139
2139
2138
2138
2138
2137
2137
2137
2139
2139
2139
2134
2134
2134
2134
2134
2134
2134
2139
2139
2139
2135
2135
2135
2138
2138
2138
2134
2134
2134
2136
2136
2136
2136
2134
2134
2134
2139
2139
2139
2131
2131
2131
2132
2132
2132
2137
2137
2137
2137
2135
2135
2135
2129
2129
2129
2139
2139
2139
2133
2133
2133
2138
2138
2138
2138
2134
2134
2134
2126
2126
2126
2134
2134
2134
2134
2134
2134
2137
2137
2137
2137
2135
2135
2135
2136
2136
2136
2135
2135
2135
2134
2134
2134
2136
2136
2136
2136
2137
2137
2137
2137
2137
2137
2136
2136
2136
2134
2134
2134
2131
2131
2131
2131
2140
2140
2140
2137
2137
2137
2134
2134
2134
2135
2135
2135
2135
2135
2135
2135
2138
2138
2138
2133
2133
2133
2137
2137
2137
2133
2133
2133
2139
2139
2139
2139
2136
2136
2136
2133
2133
2133
2134
2134
2134
2133
2133
2133
2136
2136
2136
2136
2133
2133
2133
2135
2135
2135
2136
2136
2136
2133
2133
2133
2138
2138
2138
2138
2132
2132
2132
2134
2134
2134
2132
2132
2132
2130
2130
2130
2135
2135
2135
2135
2138
2138
2138
2132
2132
2132
2133
2133
2133
2131
2131
2131
2138
2138
2138
2138
2135
2135
2135
2137
2137
2137
2140
2140
2140
2129
2129
2129
2137
2137
2137
2137
2136
2136
2136
2133
2133
2133
2139
2139
2139
2132
2132
2132
2135
2135
2135
2135
2138
2138
2138
2137
2137
2137
2134
2134
2134
2135
2135
2135
2134
2134
2134
2134
2142
2142
2142
2132
2132
2132
2133
2133
2133
2136
2136
2136
2134
2134
2134
2134
2135
2135
2135
2138
2138
2138
2135
2135
2135
2132
2132
2132
2135
2135
2135
2135
2138
2138
2138
2136
2136
2136
2134
2134
2134
2130
2130
2130
2137
2137
2137
2137
2135
2135
2135
2128
2128
2128
2131
2131
2131
2131
2131
2131
2133
2133
2133
2133
2143
2143
2143
2133
2133
2133
2137
2137
2137
2135
2135
2135
2135
2135
2135
2135
2137
2137
2137
2132
2132
2132
2143
2143
2143
2126
2126
2126
2138
2138
2138
2138
2139
2139
2139
2132
2132
2132
2133
2133
2133
2132
2132
2132
2139
2139
2139
2139
2135
2135
2135
2133
2133
2133
2140
2140
2140
2133
2133
2133
2134
2134
2134
2134
2138
2138
2138
2130
2130
2130
2139
2139
2139
2137
2137
2137
2137
2137
2137
2137
2138
2138
2138
2132
2132
2132
2136
2136
2136
2133
2133
2133
2135
2135
2135
2135
2139
2139
2139
2130
2130
2130
2136
2136
2136
2139
2139
2139
2138
2138
2138
2138
2135
2135
2135
2134
2134
2134
2133
2133
2133
2132
2132
2132
2136
2136
2136
2136
2135
2135
2135
2132
2132
2132
2135
2135
2135
2138
2138
2138
2138
2138
2138
2138
2138
2138
2138
2134
2134
2134
2137
2137
2137
2134
2134
2134
2139
2139
2139
2139
2137
2137
2137
2139
2139
2139
2139
2139
2139
2134
2134
2134
2134
2134
2134
2134
2132
2132
2132
2135
2135
2135
2138
2138
2138
2132
2132
2132
2140
2140
2140
2140
2137
2137
2137
2132
2132
2132
2136
2136
2136
2133
2133
2133
2133
2133
2133
2133
2139
2139
2139
2132
2132
2132
2136
2136
2136
2140
2140
2140
2135
2135
2135
2135
2138
2138
2138
2131
2131
2131
2137
2137
2137
2134
2134
2134
2135
2135
2135
2135
2135
2135
2135
2134
2134
2134
2135
2135
2135
2127
2127
2127
2141
2141
2141
2141
2136
2136
2136
2131
2131
2131
2134
2134
2134
2136
2136
2136
2141
2141
2141
2141
2136
2136
2136
2133
2133
2133
2135
2135
2135
2134
2134
2134
2130
2130
2130
2130
2138
2138
2138
2136
2136
2136
2134
2134
2134
2137
2137
2137
2132
2132
2132
2132
2143
2143
2143
2133
2133
2133
2137
2137
2137
2135
2135
2135
2135
2135
2135
2135
2134
2134
2134
2134
2134
2134
2138
2138
2138
2134
2134
2134
2134
2134
2134
2134
2135
2135
2135
2136
2136
2136
2136
2136
2136
2133
2133
2133
2142
2142
2142
2142
2140
2140
2140
2130
2130
2130
2136
2136
2136
2134
2134
2134
2137
2137
2137
2137
2136
2136
2136
2135
2135
2135
2136
2136
2136
2132
2132
2132
2134
2134
2134
2134
2132
2132
2132
2134
2134
2134
2137
2137
2137
2135
2135
2135
2135
2135
2135
2135
2144
2144
2144
2134
2134
2134
2139
2139
2139
2135
2135
2135
2133
2133
2133
2133
2136
2136
2136
2133
2133
2133
2136
2136
2136
2134
2134
2134
2137
2137
2137
2137
2129
2129
2129
2130
2130
2130
2136
2136
2136
2136
2136
2136
2139
2139
2139
2139
2135
2135
2135
2130
2130
2130
2140
2140
2140
2134
2134
2134
2136
2136
2136
2136
2138
2138
2138
2136
2136
2136
2136
2136
2136
2135
2135
2135
2135
2135
2135
2135
2140
2140
2140
2133
2133
2133
2138
2138
2138
2137
2137
2137
2136
2136
2136
2136
2135
2135
2135
2134
2134
2134
2140
2140
2140
2133
2133
2133
2139
2139
2139
2139
2137
2137
2137
2134
2134
2134
2134
2134
2134
2129
2129
2129
2134
2134
2134
2134
2138
2138
2138
2134
2134
2134
2132
2132
2132
2134
2134
2134
2134
2134
2134
2134
2136
2136
2136
2127
2127
2127
2133
2133
2133
2134
2134
2134
2135
2135
2135
2135
2138
2138
2138
2132
2132
2132
2130
2130
2130
2130
2130
2130
2135
2135
2135
2135
2135
2135
2135
2128
2128
2128
2141
2141
2141
2133
2133
2133
2134
2134
2134
2134
2137
2137
2137
2130
2130
2130
2139
2139
2139
2135
2135
2135
2138
2138
2138
2138
2136
2136
2136
2129
2129
2129
2139
2139
2139
2136
2136
2136
2133
2133
2133
2133
2132
2132
2132
2134
2134
2134
2135
2135
2135
2135
2135
2135
2136
2136
2136
2136
2134
2134
2134
2133
2133
2133
2138
2138
2138
2133
2133
2133
2136
2136
2136
2136
2135
2135
2135
2129
2129
2129
2137
2137
2137
2135
2135
2135
2134
2134
2134
2134
2135
2135
2135
2134
2134
2134
2134
2134
2134
2134
2134
2134
2137
2137
2137
2137
2132
2132
2132
2134
2134
2134
2137
2137
2137
2130
2130
2130
2134
2134
2134
2134
2137
2137
2137
2133
2133
2133
2137
2137
2137
2135
2135
2135
2133
2133
2133
2133
2133
2133
2133
2134
2134
2134
2137
2137
2137
2130
2130
2130
2142
2142
2142
2142
2138
2138
2138
2133
2133
2133
2135
2135
2135
2134
2134
2134
2136
2136
2136
2136
2137
2137
2137
2133
2133
2133
2139
2139
2139
2138
2138
2138
2131
2131
2131
2131
2137
2137
2137
2132
2132
2132
2133
2133
2133
2137
2137
2137
2138
2138
2138
2138
2136
2136
2136
2134
2134
2134
2138
2138
2138
2133
2133
2133
2134
2134
2134
2134
2138
2138
2138
2133
2133
2133
2142
2142
2142
2135
2135
2135
2137
2137
2137
2137
2134
2134
2134
2138
2138
2138
2137
2137
2137
2130
2130
2130
2137
2137
2137
2137
2141
2141
2141
2130
2130
2130
2140
2140
2140
2134
2134
2134
2137
2137
2137
2137
2137
2137
2137
2130
2130
2130
2139
2139
2139
2130
2130
2130
2136
2136
2136
2136
2135
2135
2135
2132
2132
2132
2137
2137
2137
2133
2133
2133
2136
2136
2136
2136
2137
2137
2137
2130
2130
2130
2136
2136
2136
2135
2135
2135
2137
2137
2137
2137
2132
2132
2132
2133
2133
2133
2135
2135
2135
2136
2136
2136
2139
2139
2139
2139
2133
2133
2133
2127
2127
2127
2135
2135
2135
2135
2135
2135
2137
2137
2137
2137
2136
2136
2136
2130
2130
2130
2138
2138
2138
2134
2134
2134
2135
2135
2135
2135
2135
2135
2135
2138
2138
2138
2137
2137
2137
2134
2134
2134
2133
2133
2133
2133
2134
2134
2134
2134
2134
2134
2139
2139
2139
2137
2137
2137
2136
2136
2136
2136
2136
2136
2136
2138
2138
2138
2132
2132
2132
2134
2134
2134
2137
2137
2137
2137
2131
2131
2131
2133
2133
2133
2145
2145
2145
2130
2130
2130
2136
2136
2136
2136
2135
2135
2135
2129
2129
2129
2139
2139
2139
2134
2134
2134
2133
2133
2133
2133
2141
2141
2141
2131
2131
2131
2139
2139
2139
2134
2134
2134
2138
2138
2138
2138
2136
2136
2136
2138
2138
2138
2135
2135
2135
2128
2128
2128
2135
2135
2135
2135
2139
2139
2139
2131
2131
2131
2134
2134
2134
2135
2135
2135
2142
2142
2142
2142
2137
2137
2137
2131
2131
2131
2137
2137
2137
2135
2135
2135
2128
2128
2128
2128
2138
2138
2138
2133
2133
2133
2133
2133
2133
2137
2137
2137
2131
2131
2131
2131
2137
2137
2137
2129
2129
2129
2137
2137
2137
2131
2131
2131
2133
2133
2133
2133
2135
2135
2135
2134
2134
2134
2140
2140
2140
2135
2135
2135
2133
2133
2133
2133
2136
2136
2136
2129
2129
2129
2139
2139
2139
2132
2132
2132
2132
2132
2132
2132
2137
2137
2137
2133
2133
2133
2136
2136
2136
2132
2132
2132
2134
2134
2134
2134
2134
2134
2134
2140
2140
2140
2137
2137
2137
2133
2133
2133
2135
2135
2135
2135
2133
2133
2133
2132
2132
2132
2137
2137
2137
2133
2133
2133
2134
2134
2134
2134
2133
2133
2133
2128
2128
2128
2137
2137
2137
2133
2133
2133
2135
2135
2135
2135
2138
2138
2138
2129
2129
2129
2134
2134
2134
2136
2136
2136
2137
2137
2137
2137
2133
2133
2133
2127
2127
2127
2137
2137
2137
2133
2133
2133
2139
2139
2139
2139
2134
2134
2134
2132
2132
2132
2133
2133
2133
2136
2136
2136
2137
2137
2137
2137
2137
2137
2137
2135
2135
2135
2139
2139
2139
2134
2134
2134
2140
2140
2140
2140
2135
2135
2135
2134
2134
2134
2140
2140
2140
2137
2137
2137
2137
2137
2137
2137
2136
2136
2136
2136
2136
2136
2136
2136
2136
2141
2141
2141
2142
2142
2142
2142
2132
2132
2132
2134
2134
2134
2137
2137
2137
2134
2134
2134
2139
2139
2139
2139
2137
2137
2137
2132
2132
2132
2138
2138
2138
2129
2129
2129
2139
2139
2139
2139
2141
2141
2141
2133
2133
2133
2141
2141
2141
2129
2129
2129
2135
2135
2135
2135
2136
2136
2136
2128
2128
2128
2135
2135
2135
2140
2140
2140
2137
2137
2137
2137
2139
2139
2139
2131
2131
2131
2133
2133
2133
2138
2138
2138
2135
2135
2135
2135
2139
2139
2139
2136
2136
2136
2136
2136
2136
2132
2132
2132
2141
2141
2141
2141
2137
2137
2137
2132
2132
2132
2138
2138
2138
2135
2135
2135
2137
2137
2137
2137
2137
2137
2137
2133
2133
2133
2138
2138
2138
2135
2135
2135
2131
2131
2131
2131
2136
2136
2136
2133
2133
2133
2137
2137
2137
2134
2134
2134
2136
2136
2136
2136
2135
2135
2135
2134
2134
2134
2136
2136
2136
2134
2134
2134
2137
2137
2137
2137
2132
2132
2132
2132
2132
2132
2138
2138
2138
2133
2133
2133
2136
2136
2136
2136
2133
2133
2133
2131
2131
2131
2138
2138
2138
2135
2135
2135
2139
2139
2139
2139
2138
2138
2138
2137
2137
2137
2136
2136
2136
2135
2135
2135
2135
2135
2135
2135
2137
2137
2137
2142
2142
2142
2136
2136
2136
2134
2134
2134
2143
2143
2143
2143
2136
2136
2136
2133
2133
2133
2138
2138
2138
2135
2135
2135
2135
2135
2135
2135
2136
2136
2136
2128
2128
2128
2131
2131
2131
2133
2133
2133
2132
2132
2132
2132
2138
2138
2138
2135
2135
2135
2137
2137
2137
2135
2135
2135
2136
2136
2136
2136
2135
2135
2135
2134
2134
2134
2137
2137
2137
2125
2125
2125
2138
2138
2138
2138
2136
2136
2136
2133
2133
2133
2139
2139
2139
2130
2130
2130
2136
2136
2136
2136
2136
2136
2136
2138
2138
2138
2133
2133
2133
2133
2133
2133
2135
2135
2135
2135
2136
2136
2136
2133
2133
2133
2137
2137
2137
2138
2138
2138
2134
2134
2134
2134
2139
2139
2139
2139
2139
2139
2137
2137
2137
2132
2132
2132
2134
2134
2134
2134
2136
2136
2136
2132
2132
2132
2137
2137
2137
2134
2134
2134
2134
2134
2134
2134
2136
2136
2136
2139
2139
2139
2137
2137
2137
2132
2132
2132
2141
2141
2141
2141
2132
2132
2132
2133
2133
2133
2137
2137
2137
2132
2132
2132
2138
2138
2138
2138
2135
2135
2135
2131
2131
2131
2137
2137
2137
2134
2134
2134
2133
2133
2133
2133
2134
2134
2134
2131
2131
2131
2137
2137
2137
2136
2136
2136
2136
2136
2136
2136
2131
2131
2131
2129
2129
2129
2134
2134
2134
2134
2134
2134
2136
2136
2136
2136
2133
2133
2133
2138
2138
2138
2137
2137
2137
2133
2133
2133
2137
2137
2137
2137
2133
2133
2133
2126
2126
2126
2136
2136
2136
2134
2134
2134
2134
2134
2134
2134
2136
2136
2136
2133
2133
2133
2140
2140
2140
2132
2132
2132
2136
2136
2136
2136
2135
2135
2135
2130
2130
2130
2139
2139
2139
2136
2136
2136
2140
2140
2140
2140
2139
2139
2139
2131
2131
2131
2134
2134
2134
2131
2131
2131
2136
2136
2136
2136
2135
2135
2135
2135
2135
2135
2137
2137
2137
2136
2136
2136
2140
2140
2140
2140
2135
2135
2135
2134
2134
2134
2138
2138
2138
2129
2129
2129
2144
2144
2144
2144
2135
2135
2135
2128
2128
2128
2137
2137
2137
2140
2140
2140
2132
2132
2132
2132
2138
2138
2138
2132
2132
2132
2136
2136
2136
2129
2129
2129
2137
2137
2137
2137
2134
2134
2134
2135
2135
2135
2136
2136
2136
2137
2137
2137
2134
2134
2134
2134
2136
2136
2136
2130
2130
2130
2131
2131
2131
2133
2133
2133
2134
2134
2134
2134
2135
2135
2135
2132
2132
2132
2136
2136
2136
2134
2134
2134
2137
2137
2137
2137
2134
2134
2134
2132
2132
2132
2139
2139
2139
2133
2133
2133
2134
2134
2134
2134
2137
2137
2137
2131
2131
2131
2139
2139
2139
2134
2134
2134
2137
2137
2137
2137
2131
2131
2131
2131
2131
2131
2134
2134
2134
2135
2135
2135
2136
2136
2136
2136
2133
2133
2133
2130
2130
2130
2136
2136
2136
2134
2134
2134
2136
2136
2136
2136
2133
2133
2133
2137
2137
2137
2132
2132
2132
2136
2136
2136
2139
2139
2139
2139
2141
2141
2141
2133
2133
2133
2137
2137
2137
2129
2129
2129
2135
2135
2135
2135
2140
2140
2140
2133
2133
2133
2134
2134
2134
2132
2132
2132
2135
2135
2135
2135
2137
2137
2137
2133
2133
2133
2132
2132
2132
2130
2130
2130
2138
2138
2138
2138
2134
2134
2134
2133
2133
2133
2142
2142
2142
2132
2132
2132
2133
2133
2133
2133
2138
2138
2138
2131
2131
2131
2136
2136
2136
2132
2132
2132
2136
2136
2136
2136
2137
2137
2137
2134
2134
2134
2136
2136
2136
2134
2134
2134
2129
2129
2129
2129
2134
2134
2134
2135
2135
2135
2136
2136
2136
2130
2130
2130
2135
2135
2135
2135
2135
2135
2135
2132
2132
2132
2141
2141
2141
2133
2133
2133
2136
2136
2136
2136
2137
2137
2137
2132
2132
2132
2137
2137
2137
2129
2129
2129
2137
2137
2137
2137
2138
2138
2138
2136
2136
2136
2141
2141
2141
2134
2134
2134
2139
2139
2139
2139
2142
2142
2142
2134
2134
2134
2137
2137
2137
2130
2130
2130
2135
2135
2135
2135
2136
2136
2136
2133
2133
2133
2138
2138
2138
2134
2134
2134
2136
2136
2136
2136
2138
2138
2138
2127
2127
2127
2137
2137
2137
2135
2135
2135
2134
2134
2134
2134
2138
2138
2138
2138
2138
2138
2127
2127
2127
2133
2133
2133
2140
2140
2140
2140
2134
2134
2134
2130
2130
2130
2137
2137
2137
2130
2130
2130
2136
2136
2136
2136
2137
2137
2137
2134
2134
2134
2141
2141
2141
2131
2131
2131
2133
2133
2133
2133
2138
2138
2138
2133
2133
2133
2136
2136
2136
2133
2133
2133
2143
2143
2143
2143
2136
2136
2136
2129
2129
2129
2134
2134
2134
2137
2137
2137
2135
2135
2135
2135
2133
2133
2133
2134
2134
2134
2135
2135
2135
2138
2138
2138
2135
2135
2135
2135
2136
2136
2136
2133
2133
2133
2136
2136
2136
2132
2132
2132
2136
2136
2136
2136
2131
2131
2131
2132
2132
2132
2136
2136
2136
2129
2129
2129
2134
2134
2134
2134
2135
2135
2135
2127
2127
2127
2139
2139
2139
2133
2133
2133
2136
2136
2136
2136
2129
2129
2129
2132
2132
2132
2136
2136
2136
2134
2134
2134
2135
2135
2135
2135
2139
2139
2139
2128
2128
2128
2135
2135
2135
2133
2133
2133
2137
2137
2137
2137
2134
2134
2134
2134
2134
2134
2135
2135
2135
2135
2135
2135
2134
2134
2134
2134
2135
2135
2135
2135
2135
2135
2135
2135
2135
2132
2132
2132
2141
2141
2141
2141
2131
2131
2131
2139
2139
2139
2137
2137
2137
2131
2131
2131
2138
2138
2138
2138
2138
2138
2138
2136
2136
2136
2133
2133
2133
2133
2133
2133
2136
2136
2136
2136
2135
2135
2135
2129
2129
2129
2134
2134
2134
2130
2130
2130
2135
2135
2135
2135
2134
2134
2134
2129
2129
2129
2133
2133
2133
2135
2135
2135
2137
2137
2137
2137
2136
2136
2136
2133
2133
2133
2137
2137
2137
2131
2131
2131
2137
2137
2137
2137
2137
2137
2137
2125
2125
2125
2135
2135
2135
2132
2132
2132
2135
2135
2135
2135
2136
2136
2136
2134
2134
2134
2131
2131
2131
2132
2132
2132
2138
2138
2138
2138
2136
2136
2136
2136
2136
2136
2136
2136
2136
2135
2135
2135
2136
2136
2136
2136
2131
2131
2131
2133
2133
2133
2139
2139
2139
2132
2132
2132
2137
2137
2137
2137
2135
2135
2135
2128
2128
2128
2136
2136
2136
2137
2137
2137
2139
2139
2139
2139
2133
2133
2133
2133
2133
2133
2138
2138
2138
2132
2132
2132
2135
2135
2135
2135
2140
2140
2140
2133
2133
2133
2137
2137
2137
2133
2133
2133
2138
2138
2138
2138
2136
2136
2136
2135
2135
2135
2135
2135
2135
2134
2134
2134
2137
2137
2137
2137
2137
2137
2137
2137
2137
2137
2136
2136
2136
2128
2128
2128
2136
2136
2136
2136
2134
2134
2134
2133
2133
2133
2135
2135
2135
2135
2135
2135
2134
2134
2134
2134
2136
2136
2136
2137
2137
2137
2135
2135
2135
2136
2136
2136
2138
2138
2138
2138
2136
2136
2136
2134
2134
2134
2138
2138
2138
2130
2130
2130
2136
2136
2136
2136
2136
2136
2136
2132
2132
2132
2137
2137
2137
2137
2137
2137
2138
2138
2138
2138
2135
2135
2135
2130
2130
2130
2132
2132
2132
2131
2131
2131
2147
2147
2147
2147
2134
2134
2134
2131
2131
2131
2137
2137
2137
2141
2141
2141
2139
2139
2139
2139
2137
2137
2137
2134
2134
2134
2129
2129
2129
2132
2132
2132
2137
2137
2137
2137
2134
2134
2134
2135
2135
2135
2136
2136
2136
2139
2139
2139
2137
2137
2137
2137
2138
2138
2138
2134
2134
2134
2134
2134
2134
2139
2139
2139
2139
2139
2139
2139
2137
2137
2137
2132
2132
2132
2134
2134
2134
2137
2137
2137
2137
2137
2137
2137
2134
2134
2134
2133
2133
2133
2139
2139
2139
2134
2134
2134
2136
2136
2136
2136
2136
2136
2136
2134
2134
2134
2137
2137
2137
2138
2138
2138
2134
2134
2134
2134
2138
2138
2138
2139
2139
2139
2139
2139
2139
2134
2134
2134
2137
2137
2137
2137
2135
2135
2135
2133
2133
2133
2135
2135
2135
2135
2135
2135
2136
2136
2136
2136
2136
2136
2136
2131
2131
2131
2135
2135
2135
2128
2128
2128
2136
2136
2136
2136
2131
2131
2131
2133
2133
2133
2136
2136
2136
2137
2137
2137
2137
2137
2137
2137
2133
2133
2133
2131
2131
2131
2136
2136
2136
2134
2134
2134
2134
2134
2134
2134
2140
2140
2140
2133
2133
2133
2136
2136
2136
2138
2138
2138
2134
2134
2134
2134
2136
2136
2136
2137
2137
2137
2138
2138
2138
2133
2133
2133
2134
2134
2134
2134
2138
2138
2138
2132
2132
2132
2132
2132
2132
2135
2135
2135
2140
2140
2140
2140
2135
2135
2135
2131
2131
2131
2139
2139
2139
2133
2133
2133
2134
2134
2134
2134
2138
2138
2138
2133
2133
2133
2143
2143
2143
2134
2134
2134
2139
2139
2139
2139
2129
2129
2129
2133
2133
2133
2137
2137
2137
2133
2133
2133
2138
2138
2138
2138
2142
2142
2142
2132
2132
2132
2136
2136
2136
2135
2135
2135
2136
2136
2136
2136
2139
2139
2139
2139
2139
2139
2137
2137
2137
2135
2135
2135
2136
2136
2136
2136
2136
2136
2136
2133
2133
2133
2133
2133
2133
2134
2134
2134
2137
2137
2137
2137
2136
2136
2136
2128
2128
2128
2132
2132
2132
2138
2138
2138
2136
2136
2136
2136
2135
2135
2135
2134
2134
2134
2137
2137
2137
2133
2133
2133
2132
2132
2132
2132
2135
2135
2135
2134
2134
2134
2137
2137
2137
2136
2136
2136
2140
2140
2140
2140
2136
2136
2136
2133
2133
2133
2135
2135
2135
2133
2133
2133
2143
2143
2143
2143
2137
2137
2137
2136
2136
2136
2135
2135
2135
2134
2134
2134
2137
2137
2137
2137
2137
2137
2137
2133
2133
2133
2135
2135
2135
2133
2133
2133
2142
2142
2142
2142
2134
2134
2134
2133
2133
2133
2136
2136
2136
2128
2128
2128
2137
2137
2137
2137
2135
2135
2135
2130
2130
2130
2138
2138
2138
2134
2134
2134
2139
2139
2139
2139
2130
2130
2130
2136
2136
2136
2138
2138
2138
2130
2130
2130
2136
2136
2136
2136
2133
2133
2133
2135
2135
2135
2139
2139
2139
2131
2131
2131
2135
2135
2135
2135
2138
2138
2138
2131
2131
2131
2136
2136
2136
2135
2135
2135
2137
2137
2137
2137
2135
2135
2135
2134
2134
2134
2137
2137
2137
2135
2135
2135
2131
2131
2131
2131
2138
2138
2138
2133
2133
2133
2139
2139
2139
2134
2134
2134
2136
2136
2136
2136
2138
2138
2138
2133
2133
2133
2138
2138
2138
2138
2138
2138
2136
2136
2136
2136
2136
2136
2136
2132
2132
2132
2139
2139
2139
2131
2131
2131
2136
2136
2136
2136
2134
2134
2134
2132
2132
2132
2136
2136
2136
2136
2136
2136
2133
2133
2133
2133
2136
2136
2136
2133
2133
2133
2133
2133
2133
2133
2133
2133
2135
2135
2135
2135
2135
2135
2135
2135
2135
2135
2136
2136
2136
2135
2135
2135
2133
2133
2133
2133
2136
2136
2136
2132
2132
2132
2134
2134
2134
2135
2135
2135
2134
2134
2134
2134
2135
2135
2135
2128
2128
2128
2137
2137
2137
2138
2138
2138
2136
2136
2136
2136
2137
2137
2137
2136
2136
2136
2140
2140
2140
2134
2134
2134
2135
2135
2135
2135
2143
2143
2143
2133
2133
2133
2136
2136
2136
2137
2137
2137
2136
2136
2136
2136
2133
2133
2133
2133
2133
2133
2133
2133
2133
2132
2132
2132
2137
2137
2137
2137
2135
2135
2135
2135
2135
2135
2134
2134
2134
2136
2136
2136
2133
2133
2133
2133
2136
2136
2136
2132
2132
2132
2133
2133
2133
2133
2133
2133
2133
2133
2133
2133
2138
2138
2138
2130
2130
2130
2131
2131
2131
2133
2133
2133
2136
2136
2136
2136
2133
2133
2133
2135
2135
2135
2136
2136
2136
2134
2134
2134
2138
2138
2138
2138
2134
2134
2134
2133
2133
2133
2137
2137
2137
2138
2138
2138
2135
2135
2135
2135
2136
2136
2136
2136
2136
2136
2135
2135
2135
2136
2136
2136
2126
2126
2126
2126
2136
2136
2136
2131
2131
2131
2138
2138
2138
2139
2139
2139
2133
2133
2133
2133
2139
2139
2139
2132
2132
2132
2138
2138
2138
2134
2134
2134
2136
2136
2136
2136
2139
2139
2139
2133
2133
2133
2133
2133
2133
2134
2134
2134
2138
2138
2138
2138
2136
2136
2136
2132
2132
2132
2139
2139
2139
2132
2132
2132
2133
2133
2133
2133
2132
2132
2132
2132
2132
2132
2144
2144
2144
2135
2135
2135
2136
2136
2136
2136
2135
2135
2135
2132
2132
2132
2136
2136
2136
2133
2133
2133
2137
2137
2137
2137
2136
2136
2136
2132
2132
2132
2137
2137
2137
2133
2133
2133
2137
2137
2137
2137
2140
2140
2140
2131
2131
2131
2135
2135
2135
2132
2132
2132
2137
2137
2137
2137
2138
2138
2138
2133
2133
2133
2138
2138
2138
2134
2134
2134
2136
2136
2136
2136
2135
2135
2135
2132
2132
2132
2135
2135
2135
2131
2131
2131
2138
2138
2138
2138
2136
2136
2136
2135
2135
2135
2140
2140
2140
2135
2135
2135
2135
2135
2135
2135
2136
2136
2136
2133
2133
2133
2137
2137
2137
2128
2128
2128
2136
2136
2136
2136
2135
2135
2135
2136
2136
2136
2135
2135
2135
2133
2133
2133
2135
2135
2135
2135
2137
2137
2137
2133
2133
2133
2138
2138
2138
2139
2139
2139
2135
2135
2135
2135
2136
2136
2136
2134
2134
2134
2137
2137
2137
2131
2131
2131
2133
2133
2133
2133
2138
2138
2138
2133
2133
2133
2135
2135
2135
2135
2135
2135
2137
2137
2137
2137
2137
2137
2137
2133
2133
2133
2137
2137
2137
2133
2133
2133
2138
2138
2138
2138
2127
2127
2127
2133
2133
2133
2129
2129
2129
2134
2134
2134
2135
2135
2135
2135
2130
2130
2130
2137
2137
2137
2138
2138
2138
2133
2133
2133
2136
2136
2136
2136
2139
2139
2139
2131
2131
2131
2139
2139
2139
2133
2133
2133
2135
2135
2135
2135
2138
2138
2138
2136
2136
2136
2138
2138
2138
2131
2131
2131
2139
2139
2139
2139
2135
2135
2135
2130
2130
2130
2137
2137
2137
2132
2132
2132
2136
2136
2136
2136
2137
2137
2137
2130
2130
2130
2136
2136
2136
2132
2132
2132
2137
2137
2137
2137
2135
2135
2135
2132
2132
2132
2132
2132
2132
2136
2136
2136
2134
2134
2134
2134
2135
2135
2135
2133
2133
2133
2138
2138
2138
2131
2131
2131
2133
2133
2133
2133
2133
2133
2133
2133
2133
2133
2133
2133
2133
2133
2133
2133
2138
2138
2138
2138
2136
2136
2136
2132
2132
2132
2135
2135
2135
2134
2134
2134
2137
2137
2137
2137
2136
2136
2136
2136
2136
2136
2138
2138
2138
2133
2133
2133
2138
2138
2138
2138
2133
2133
2133
2137
2137
2137
2137
2137
2137
2136
2136
2136
2136
2136
2136
2136
2136
2136
2136
2135
2135
2135
2134
2134
2134
2137
2137
2137
2139
2139
2139
2139
2138
2138
2138
2133
2133
2133
2137
2137
2137
2135
2135
2135
2134
2134
2134
2134
2135
2135
2135
2140
2140
2140
2139
2139
2139
2133
2133
2133
2138
2138
2138
2138
2138
2138
2138
2134
2134
2134
2133
2133
2133
2132
2132
2132
2135
2135
2135
2135
2138
2138
2138
2133
2133
2133
2136
2136
2136
2132
2132
2132
2139
2139
2139
2139
2141
2141
2141
2131
2131
2131
2134
2134
2134
2139
2139
2139
2135
2135
2135
2135
2135
2135
2135
2134
2134
2134
2139
2139
2139
2134
2134
2134
2132
2132
2132
2132
2138
2138
2138
2132
2132
2132
2132
2132
2132
2129
2129
2129
2135
2135
2135
2135
2136
2136
2136
2131
2131
2131
2136
2136
2136
2133
2133
2133
2135
2135
2135
2135
2137
2137
2137
2134
2134
2134
2142
2142
2142
2133
2133
2133
2135
2135
2135
2135
2136
2136
2136
2130
2130
2130
2135
2135
2135
2133
2133
2133
2136
2136
2136
2136
2137
2137
2137
2133
2133
2133
2138
2138
2138
2132
2132
2132
2132
2132
2132
2132
2136
2136
2136
2132
2132
2132
2135
2135
2135
2134
2134
2134
2134
2134
2134
2134
2136
2136
2136
2131
2131
2131
2138
2138
2138
2135
2135
2135
2140
2140
2140
2140
2134
2134
2134
2133
2133
2133
2138
2138
2138
2135
2135
2135
2135
2135
2135
2135
2136
2136
2136
2135
2135
2135
2139
2139
2139
2130
2130
2130
2136
2136
2136
2136
2140
2140
2140
2133
2133
2133
2141
2141
2141
2137
2137
2137
2134
2134
2134
2134
2133
2133
2133
2130
2130
2130
2129
2129
2129
2132
2132
2132
2138
2138
2138
2138
2140
2140
2140
2134
2134
2134
2139
2139
2139
2134
2134
2134
2130
2130
2130
2130
2136
2136
2136
2128
2128
2128
2137
2137
2137
2134
2134
2134
2136
2136
2136
2136
2141
2141
2141
2133
2133
2133
2138
2138
2138
2134
2134
2134
2130
2130
2130
2130
2136
2136
2136
2127
2127
2127
2137
2137
2137
2135
2135
2135
2136
2136
2136
2136
2134
2134
2134
2132
2132
2132
2139
2139
2139
2133
2133
2133
2135
2135
2135
2135
2136
2136
2136
2133
2133
2133
2135
2135
2135
2129
2129
2129
2135
2135
2135
2135
2136
2136
2136
2134
2134
2134
2139
2139
2139
2134
2134
2134
2139
2139
2139
2139
2132
2132
2132
2131
2131
2131
2136
2136
2136
2130
2130
2130
2137
2137
2137
2137
2133
2133
2133
2137
2137
2137
2137
2137
2137
2136
2136
2136
2137
2137
2137
2137
2133
2133
2133
2132
2132
2132
2133
2133
2133
2132
2132
2132
2138
2138
2138
2138
2133
2133
2133
2131
2131
2131
2132
2132
2132
2141
2141
2141
2136
2136
2136
2136
2131
2131
2131
2136
2136
2136
2136
2136
2136
2137
2137
2137
2135
2135
2135
2135
2136
2136
2136
2139
2139
2139
2136
2136
2136
2133
2133
2133
2132
2132
2132
2132
2136
2136
2136
2132
2132
2132
2137
2137
2137
2137
2137
2137
2133
2133
2133
2133
2137
2137
2137
2132
2132
2132
2137
2137
2137
2132
2132
2132
2139
2139
2139
2139
2138
2138
2138
2133
2133
2133
2133
2133
2133
2130
2130
2130
2136
2136
2136
2136
2136
2136
2136
2128
2128
2128
2136
2136
2136
2137
2137
2137
2137
2137
2137
2137
2136
2136
2136
2132
2132
2132
2137
2137
2137
2133
2133
2133
2136
2136
2136
2136
2137
2137
2137
2136
2136
2136
2136
2136
2136
2132
2132
2132
2137
2137
2137
2137
2140
2140
2140
2133
2133
2133
2136
2136
2136
2135
2135
2135
2136
2136
2136
2136
2138
2138
2138
2137
2137
2137
2136
2136
2136
2134
2134
2134
2136
2136
2136
2136
2134
2134
2134
2126
2126
2126
2144
2144
2144
2134
2134
2134
2129
2129
2129
2129
2138
2138
2138
2129
2129
2129
2133
2133
2133
2133
2133
2133
2136
2136
2136
2136
2137
2137
2137
2131
2131
2131
2135
2135
2135
2131
2131
2131
2136
2136
2136
2136
2133
2133
2133
2133
2133
2133
2137
2137
2137
2136
2136
2136
2136
2136
2136
2136
2135
2135
2135
2139
2139
2139
2135
2135
2135
2134
2134
2134
2138
2138
2138
2138
2135
2135
2135
2133
2133
2133
2137
2137
2137
2133
2133
2133
2135
2135
2135
2135
2136
2136
2136
2131
2131
2131
2136
2136
2136
2138
2138
2138
2135
2135
2135
2135
2136
2136
2136
2134
2134
2134
2137
2137
2137
2132
2132
2132
2131
2131
2131
2131
2136
2136
2136
2133
2133
2133
2135
2135
2135
2136
2136
2136
2137
2137
2137
2137
2133
2133
2133
2132
2132
2132
2140
2140
2140
2134
2134
2134
2136
2136
2136
2136
2129
2129
2129
2140
2140
2140
2139
2139
2139
2133
2133
2133
2137
2137
2137
2137
2135
2135
2135
2133
2133
2133
2142
2142
2142
2134
2134
2134
2135
2135
2135
2135
2135
2135
2135
2133
2133
2133
2133
2133
2133
2134
2134
2134
2136
2136
2136
2136
2137
2137
2137
2128
2128
2128
2135
2135
2135
2133
2133
2133
2139
2139
2139
2139
2135
2135
2135
2133
2133
2133
2135
2135
2135
2134
2134
2134
2141
2141
2141
2141
2134
2134
2134
2131
2131
2131
2135
2135
2135
2135
2135
2135
2136
2136
2136
2136
2135
2135
2135
2133
2133
2133
2141
2141
2141
2136
2136
2136
2144
2144
2144
2144
2135
2135
2135
2132
2132
2132
2138
2138
2138
2134
2134
2134
2137
2137
2137
2137
2137
2137
2137
2131
2131
2131
2141
2141
2141
2132
2132
2132
2140
2140
2140
2140
2138
2138
2138
2133
2133
2133
2137
2137
2137
2128
2128
2128
2138
2138
2138
2138
2140
2140
2140
2134
2134
2134
2137
2137
2137
2135
2135
2135
2140
2140
2140
2140
2127
2127
2127
2132
2132
2132
2136
2136
2136
2133
2133
2133
2135
2135
2135
2135
2140
2140
2140
2128
2128
2128
2138
2138
2138
2133
2133
2133
2135
2135
2135
2135
2139
2139
2139
2129
2129
2129
2141
2141
2141
2133
2133
2133
2135
2135
2135
2135
2139
2139
2139
2135
2135
2135
2137
2137
2137
2132
2132
2132
2137
2137
2137
2137
2135
2135
2135
2124
2124
2124
2127
2127
2127
2133
2133
2133
2137
2137
2137
2137
2134
2134
2134
2131
2131
2131
2138
2138
2138
2135
2135
2135
2137
2137
2137
2137
2135
2135
2135
2131
2131
2131
2138
2138
2138
2131
2131
2131
2136
2136
2136
2136
2133
2133
2133
2135
2135
2135
2137
2137
2137
2140
2140
2140
2141
2141
2141
2141
2136
2136
2136
2133
2133
2133
2138
2138
2138
2136
2136
2136
2129
2129
2129
2129
2134
2134
2134
2133
2133
2133
2136
2136
2136
2138
2138
2138
2136
2136
2136
2136
2137
2137
2137
2134
2134
2134
2134
2134
2134
2134
2134
2134
2141
2141
2141
2141
2134
2134
2134
2132
2132
2132
2139
2139
2139
2136
2136
2136
2137
2137
2137
2137
2135
2135
2135
2135
2135
2135
2138
2138
2138
2131
2131
2131
2131
2131
2131
2131
2136
2136
2136
2132
2132
2132
2130
2130
2130
2133
2133
2133
2136
2136
2136
2136
2135
2135
2135
2130
2130
2130
2135
2135
2135
2136
2136
2136
2138
2138
2138
2138
2132
2132
2132
2133
2133
2133
2133
2133
2133
2132
2132
2132
2135
2135
2135
2135
2135
2135
2135
2129
2129
2129
2137
2137
2137
2134
2134
2134
2135
2135
2135
2135
2135
2135
2135
2127
2127
2127
2139
2139
2139
2133
2133
2133
2138
2138
2138
2138
2139
2139
2139
2125
2125
2125
2136
2136
2136
2131
2131
2131
2138
2138
2138
2138
2137
2137
2137
2134
2134
2134
2140
2140
2140
2135
2135
2135
2136
2136
2136
2136
2137
2137
2137
2133
2133
2133
2130
2130
2130
2135
2135
2135
2134
2134
2134
2134
2139
2139
2139
2133
2133
2133
2132
2132
2132
2133
2133
2133
2143
2143
2143
2143
2138
2138
2138
2132
2132
2132
2139
2139
2139
2129
2129
2129
2135
2135
2135
2135
2137
2137
2137
2133
2133
2133
2135
2135
2135
2132
2132
2132
2141
2141
2141
2141
2136
2136
2136
2130
2130
2130
2137
2137
2137
2137
2137
2137
2137
2137
2137
2137
2138
2138
2138
2135
2135
2135
2137
2137
2137
2129
2129
2129
2135
2135
2135
2135
2140
2140
2140
2134
2134
2134
2137
2137
2137
2141
2141
2141
2134
2134
2134
2134
2137
2137
2137
2135
2135
2135
2133
2133
2133
2134
2134
2134
2133
2133
2133
2133
2136
2136
2136
2134
2134
2134
2139
2139
2139
2130
2130
2130
2139
2139
2139
2139
2136
2136
2136
2136
2136
2136
2135
2135
2135
2134
2134
2134
2138
2138
2138
2138
2131
2131
2131
2132
2132
2132
2136
2136
2136
2131
2131
2131
2139
2139
2139
2139
2135
2135
2135
2135
2135
2135
2134
2134
2134
2130
2130
2130
2137
2137
2137
2137
2136
2136
2136
2132
2132
2132
2139
2139
2139
2132
2132
2132
2138
2138
2138
2138
2138
2138
2138
2136
2136
2136
2136
2136
2136
2132
2132
2132
2139
2139
2139
2139
2133
2133
2133
2140
2140
2140
2144
2144
2144
2134
2134
2134
2136
2136
2136
2136
2134
2134
2134
2131
2131
2131
2140
2140
2140
2133
2133
2133
2135
2135
2135
2135
2136
2136
2136
2131
2131
2131
2135
2135
2135
2129
2129
2129
2137
2137
2137
2137
2137
2137
2137
2134
2134
2134
2135
2135
2135
2129
2129
2129
2135
2135
2135
2135
2136
2136
2136
2133
2133
2133
2137
2137
2137
2129
2129
2129
2137
2137
2137
2137
2134
2134
2134
2133
2133
2133
2135
2135
2135
2139
2139
2139
2135
2135
2135
2135
2137
2137
2137
2131
2131
2131
2132
2132
2132
2134
2134
2134
2138
2138
2138
2138
2133
2133
2133
2131
2131
2131
2135
2135
2135
2133
2133
2133
2137
2137
2137
2137
2137
2137
2137
2132
2132
2132
2135
2135
2135
2135
2135
2135
2141
2141
2141
2141
2133
2133
2133
2129
2129
2129
2137
2137
2137
2131
2131
2131
2138
2138
2138
2138
2136
2136
2136
2131
2131
2131
2139
2139
2139
2134
2134
2134
2136
2136
2136
2136
2139
2139
2139
2132
2132
2132
2138
2138
2138
2134
2134
2134
2136
2136
2136
2136
2133
2133
2133
2136
2136
2136
2137
2137
2137
2132
2132
2132
2142
2142
2142
2142
2141
2141
2141
2133
2133
2133
2136
2136
2136
2132
2132
2132
2138
2138
2138
2138
2137
2137
2137
2131
2131
2131
2134
2134
2134
2133
2133
2133
2140
2140
2140
2140
2134
2134
2134
2130
2130
2130
2135
2135
2135
2134
2134
2134
2136
2136
2136
2136
2136
2136
2136
2129
2129
2129
2138
2138
2138
2133
2133
2133
2132
2132
2132
2132
2137
2137
2137
2135
2135
2135
2139
2139
2139
2135
2135
2135
2136
2136
2136
2136
2135
2135
2135
2133
2133
2133
2136
2136
2136
2128
2128
2128
2136
2136
2136
2136
2137
2137
2137
2133
2133
2133
2146
2146
2146
2134
2134
2134
2134
2134
2134
2134
2138
2138
2138
2135
2135
2135
2131
2131
2131
2129
2129
2129
2137
2137
2137
2137
2137
2137
2137
2134
2134
2134
2134
2134
2134
2133
2133
2133
2135
2135
2135
2135
2137
2137
2137
2133
2133
2133
2138
2138
2138
2129
2129
2129
2131
2131
2131
2131
2136
2136
2136
2133
2133
2133
2133
2133
2133
2134
2134
2134
2135
2135
2135
2135
2138
2138
2138
2133
2133
2133
2136
2136
2136
2137
2137
2137
2136
2136
2136
2136
2135
2135
2135
2135
2135
2135
2139
2139
2139
2134
2134
2134
2133
2133
2133
2133
2140
2140
2140
2133
2133
2133
2136
2136
2136
2133
2133
2133
2135
2135
2135
2135
2137
2137
2137
2129
2129
2129
2135
2135
2135
2133
2133
2133
2137
2137
2137
2137
2137
2137
2137
2136
2136
2136
2136
2136
2136
2133
2133
2133
2135
2135
2135
2135
2138
2138
2138
2134
2134
2134
2136
2136
2136
2133
2133
2133
2139
2139
2139
2139
2140
2140
2140
2133
2133
2133
2135
2135
2135
2133
2133
2133
2139
2139
2139
2139
2136
2136
2136
2132
2132
2132
2137
2137
2137
2139
2139
2139
2135
2135
2135
2135
2136
2136
2136
2136
2136
2136
2136
2136
2136
2131
2131
2131
2132
2132
2132
2132
2138
2138
2138
2133
2133
2133
2140
2140
2140
2131
2131
2131
2138
2138
2138
2138
2137
2137
2137
2130
2130
2130
2136
2136
2136
2138
2138
2138
2136
2136
2136
2136
2135
2135
2135
2133
2133
2133
2137
2137
2137
2138
2138
2138
2138
2138
2138
2138
2135
2135
2135
2126
2126
2126
2135
2135
2135
2132
2132
2132
2134
2134
2134
2134
2137
2137
2137
2133
2133
2133
2137
2137
2137
2133
2133
2133
2133
2133
2133
2133
2135
2135
2135
2131
2131
2131
2135
2135
2135
2137
2137
2137
2136
2136
2136
2136
2133
2133
2133
2132
2132
2132
2133
2133
2133
2134
2134
2134
2134
2134
2134
2134
2136
2136
2136
2135
2135
2135
2136
2136
2136
2135
2135
2135
2137
2137
2137
2137
2135
2135
2135
2136
2136
2136
2133
2133
2133
2135
2135
2135
2136
2136
2136
2136
2133
2133
2133
2134
2134
2134
2135
2135
2135
2132
2132
2132
2136
2136
2136
2136
2138
2138
2138
2131
2131
2131
2141
2141
2141
2136
2136
2136
2131
2131
2131
2131
2136
2136
2136
2137
2137
2137
2137
2137
2137
2135
2135
2135
2135
2135
2135
2135
2136
2136
2136
2137
2137
2137
2135
2135
2135
2130
2130
2130
2132
2132
2132
2132
2139
2139
2139
2132
2132
2132
2131
2131
2131
2127
2127
2127
2136
2136
2136
2136
2138
2138
2138
2130
2130
2130
2137
2137
2137
2139
2139
2139
2133
2133
2133
2133
2133
2133
2133
2134
2134
2134
2134
2134
2134
2135
2135
2135
2135
2135
2135
2135
2136
2136
2136
2131
2131
2131
2137
2137
2137
2136
2136
2136
2134
2134
2134
2134
2135
2135
2135
2134
2134
2134
2139
2139
2139
2133
2133
2133
2134
2134
2134
2134
2138
2138
2138
2134
2134
2134
2136
2136
2136
2138
2138
2138
2136
2136
2136
2136
2136
2136
2136
2133
2133
2133
2138
2138
2138
2133
2133
2133
2132
2132
2132
2132
2143
2143
2143
2135
2135
2135
2136
2136
2136
2138
2138
2138
2136
2136
2136
2136
2135
2135
2135
2133
2133
2133
2135
2135
2135
2132
2132
2132
2137
2137
2137
2137
2139
2139
2139
2129
2129
2129
2137
2137
2137
2132
2132
2132
2137
2137
2137
2137
2135
2135
2135
2127
2127
2127
2144
2144
2144
2132
2132
2132
2138
2138
2138
2138
2137
2137
2137
2126
2126
2126
2134
2134
2134
2133
2133
2133
2137
2137
2137
2137
2135
2135
2135
2133
2133
2133
2134
2134
2134
2135
2135
2135
2136
2136
2136
2136
2139
2139
2139
2133
2133
2133
2137
2137
2137
2134
2134
2134
2139
2139
2139
2139
2139
2139
2139
2135
2135
2135
2138
2138
2138
2134
2134
2134
2137
2137
2137
2137
2138
2138
2138
2134
2134
2134
2137
2137
2137
2134
2134
2134
2135
2135
2135
2135
2131
2131
2131
2134
2134
2134
2136
2136
2136
2131
2131
2131
2136
2136
2136
2136
2137
2137
2137
2127
2127
2127
2137
2137
2137
2135
2135
2135
2138
2138
2138
2138
2140
2140
2140
2133
2133
2133
2139
2139
2139
2134
2134
2134
2136
2136
2136
2136
2133
2133
2133
2137
2137
2137
2136
2136
2136
2132
2132
2132
2138
2138
2138
2138
2133
2133
2133
2131
2131
2131
2136
2136
2136
2133
2133
2133
2137
2137
2137
2137
2142
2142
2142
2131
2131
2131
2138
2138
2138
2130
2130
2130
2136
2136
2136
2136
2129
2129
2129
2131
2131
2131
2133
2133
2133
2130
2130
2130
2139
2139
2139
2139
2129
2129
2129
2134
2134
2134
2137
2137
2137
2131
2131
2131
2136
2136
2136
2136
2133
2133
2133
2130
2130
2130
2139
2139
2139
2135
2135
2135
2135
2135
2135
2135
2137
2137
2137
2131
2131
2131
2134
2134
2134
2134
2134
2134
2138
2138
2138
2138
2135
2135
2135
2135
2135
2135
2133
2133
2133
2132
2132
2132
2133
2133
2133
2133
2133
2133
2133
2133
2133
2133
2136
2136
2136
2132
2132
2132
2138
2138
2138
2138
2136
2136
2136
2136
2136
2136
2138
2138
2138
2133
2133
2133
2137
2137
2137
2137
2136
2136
2136
2123
2123
2123
2133
2133
2133
2134
2134
2134
2142
2142
2142
2142
2136
2136
2136
2132
2132
2132
2136
2136
2136
2137
2137
2137
2134
2134
2134
2134
2135
2135
2135
2133
2133
2133
2138
2138
2138
2133
2133
2133
2132
2132
2132
2132
2138
2138
2138
2132
2132
2132
2137
2137
2137
2133
2133
2133
2136
2136
2136
2136
2141
2141
2141
2133
2133
2133
2134
2134
2134
2134
2134
2134
2136
2136
2136
2136
2139
2139
2139
2136
2136
2136
2138
2138
2138
2130
2130
2130
2137
2137
2137
2137
2136
2136
2136
2138
2138
2138
2133
2133
2133
2132
2132
2132
2140
2140
2140
2140
2135
2135
2135
2132
2132
2132
2137
2137
2137
2134
2134
2134
2138
2138
2138
2138
2135
2135
2135
2134
2134
2134
2141
2141
2141
2128
2128
2128
2136
2136
2136
2136
2137
2137
2137
2131
2131
2131
2141
2141
2141
2138
2138
2138
2135
2135
2135
2135
2138
2138
2138
2132
2132
2132
2138
2138
2138
2134
2134
2134
2137
2137
2137
2137
2138
2138
2138
2132
2132
2132
2133
2133
2133
2128
2128
2128
2136
2136
2136
2136
2141
2141
2141
2133
2133
2133
2135
2135
2135
2132
2132
2132
2137
2137
2137
2137
2135
2135
2135
2132
2132
2132
2136
2136
2136
2135
2135
2135
2142
2142
2142
2142
2133
2133
2133
2131
2131
2131
2135
2135
2135
2134
2134
2134
2136
2136
2136
2136
2137
2137
2137
2133
2133
2133
2137
2137
2137
2136
2136
2136
2138
2138
2138
2138
2138
2138
2138
2134
2134
2134
2139
2139
2139
2134
2134
2134
2136
2136
2136
2136
2135
2135
2135
2138
2138
2138
2136
2136
2136
2140
2140
2140
2137
2137
2137
2137
2136
2136
2136
2134
2134
2134
2137
2137
2137
2134
2134
2134
2140
2140
2140
2140
2138
2138
2138
2134
2134
2134
2136
2136
2136
2134
2134
2134
2136
2136
2136
2136
2135
2135
2135
2133
2133
2133
2136
2136
2136
2133
2133
2133
2133
2133
2133
2133
2137
2137
2137
2131
2131
2131
2138
2138
2138
2135
2135
2135
2133
2133
2133
2133
2135
2135
2135
2132
2132
2132
2138
2138
2138
2133
2133
2133
2135
2135
2135
2135
2133
2133
2133
2133
2133
2133
2137
2137
2137
2136
2136
2136
2131
2131
2131
2131
2135
2135
2135
2128
2128
2128
2136
2136
2136
2139
2139
2139
2135
2135
2135
2135
2136
2136
2136
2130
2130
2130
2142
2142
2142
2132
2132
2132
2133
2133
2133
2133
2141
2141
2141
2131
2131
2131
2137
2137
2137
2129
2129
2129
2134
2134
2134
2134
2132
2132
2132
2129
2129
2129
2137
2137
2137
2133
2133
2133
2130
2130
2130
2130
2137
2137
2137
2136
2136
2136
2128
2128
2128
2138
2138
2138
2137
2137
2137
2137
2135
2135
2135
2129
2129
2129
2135
2135
2135
2134
2134
2134
2139
2139
2139
2139
2137
2137
2137
2131
2131
2131
2129
2129
2129
2135
2135
2135
2136
2136
2136
2136
2135
2135
2135
2130
2130
2130
2136
2136
2136
2126
2126
2126
2135
2135
2135
2135
2139
2139
2139
2131
2131
2131
2141
2141
2141
2132
2132
2132
2138
2138
2138
2138
2137
2137
2137
2134
2134
2134
2138
2138
2138
2132
2132
2132
2138
2138
2138
2138
2136
2136
2136
2132
2132
2132
2133
2133
2133
2133
2133
2133
2132
2132
2132
2132
2138
2138
2138
2133
2133
2133
2136
2136
2136
2133
2133
2133
2136
2136
2136
2136
2136
2136
2136
2131
2131
2131
2136
2136
2136
2132
2132
2132
2142
2142
2142
2142
2135
2135
2135
2135
2135
2135
2137
2137
2137
2132
2132
2132
2136
2136
2136
2136
2137
2137
2137
2130
2130
2130
2136
2136
2136
2133
2133
2133
2137
2137
2137
2137
2138
2138
2138
2132
2132
2132
2142
2142
2142
2133
2133
2133
2135
2135
2135
2135
2136
2136
2136
2133
2133
2133
2134
2134
2134
2119
2119
2119
2136
2136
2136
2136
2136
2136
2136
2133
2133
2133
2131
2131
2131
2134
2134
2134
2133
2133
2133
2133
2135
2135
2135
2135
2135
2135
2139
2139
2139
2133
2133
2133
2132
2132
2132
2132
2136
2136
2136
2129
2129
2129
2141
2141
2141
2134
2134
2134
2140
2140
2140
2140
2140
2140
2140
2133
2133
2133
2138
2138
2138
2133
2133
2133
2138
2138
2138
2138
2138
2138
2138
2133
2133
2133
2137
2137
2137
2134
2134
2134
2134
2134
2134
2134
2151
2151
2151
2136
2136
2136
2136
2136
2136
2134
2134
2134
2138
2138
2138
2138
2133
2133
2133
2133
2133
2133
2135
2135
2135
2129
2129
2129
2137
2137
2137
2137
2140
2140
2140
2138
2138
2138
2143
2143
2143
2134
2134
2134
2134
2134
2134
2134
2138
2138
2138
2136
2136
2136
2137
2137
2137
2131
2131
2131
2137
2137
2137
2137
2138
2138
2138
2134
2134
2134
2139
2139
2139
2133
2133
2133
2142
2142
2142
2142
2133
2133
2133
2133
2133
2133
2135
2135
2135
2130
2130
2130
2135
2135
2135
2135
2138
2138
2138
2137
2137
2137
2135
2135
2135
2133
2133
2133
2135
2135
2135
2135
2140
2140
2140
2132
2132
2132
2136
2136
2136
2138
2138
2138
2138
2138
2138
2138
2136
2136
2136
2130
2130
2130
2136
2136
2136
2131
2131
2131
2138
2138
2138
2138
2134
2134
2134
2134
2134
2134
2135
2135
2135
2132
2132
2132
2134
2134
2134
2134
2137
2137
2137
2134
2134
2134
2137
2137
2137
2131
2131
2131
2138
2138
2138
2138
2134
2134
2134
2139
2139
2139
2142
2142
2142
2134
2134
2134
2139
2139
2139
2139
2137
2137
2137
2130
2130
2130
2134
2134
2134
2134
2134
2134
2134
2134
2134
2134
2134
2134
2134
2136
2136
2136
2134
2134
2134
2130
2130
2130
2134
2134
2134
2134
2133
2133
2133
2134
2134
2134
2141
2141
2141
2137
2137
2137
2135
2135
2135
2135
2138
2138
2138
2131
2131
2131
2135
2135
2135
2133
2133
2133
2136
2136
2136
2136
2135
2135
2135
2133
2133
2133
2135
2135
2135
2136
2136
2136
2130
2130
2130
2130
2136
2136
2136
2132
2132
2132
2139
2139
2139
2132
2132
2132
2140
2140
2140
2140
2134
2134
2134
2134
2134
2134
2137
2137
2137
2130
2130
2130
2132
2132
2132
2132
2135
2135
2135
2132
2132
2132
2137
2137
2137
2133
2133
2133
2135
2135
2135
2135
2139
2139
2139
2130
2130
2130
2138
2138
2138
2135
2135
2135
2134
2134
2134
2134
2132
2132
2132
2135
2135
2135
2137
2137
2137
2135
2135
2135
2136
2136
2136
2136
2134
2134
2134
2130
2130
2130
2139
2139
2139
2132
2132
2132
2138
2138
2138
2138
2132
2132
2132
2134
2134
2134
2139
2139
2139
2132
2132
2132
2137
2137
2137
2137
2136
2136
2136
2138
2138
2138
2134
2134
2134
2134
2134
2134
2133
2133
2133
2133
2135
2135
2135
2133
2133
2133
2136
2136
2136
2133
2133
2133
2134
2134
2134
2134
2135
2135
2135
2134
2134
2134
2135
2135
2135
2130
2130
2130
2133
2133
2133
2133
2133
2133
2133
2133
2133
2133
2138
2138
2138
2133
2133
2133
2133
2133
2133
2133
2132
2132
2132
2133
2133
2133
2137
2137
2137
2135
2135
2135
2136
2136
2136
2136
2137
2137
2137
2137
2137
2137
2136
2136
2136
2132
2132
2132
2135
2135
2135
2135
2134
2134
2134
2132
2132
2132
2134
2134
2134
2132
2132
2132
2136
2136
2136
2136
2137
2137
2137
2133
2133
2133
2137
2137
2137
2134
2134
2134
2134
2134
2134
2134
2141
2141
2141
2129
2129
2129
2134
2134
2134
2131
2131
2131
2137
2137
2137
2137
2140
2140
2140
2134
2134
2134
2129
2129
2129
2137
2137
2137
2137
2137
2137
2137
2134
2134
2134
2135
2135
2135
2139
2139
2139
2133
2133
2133
2135
2135
2135
2135
2137
2137
2137
2132
2132
2132
2139
2139
2139
2135
2135
2135
2136
2136
2136
2136
2138
2138
2138
2135
2135
2135
2135
2135
2135
2132
2132
2132
2133
2133
2133
2133
2141
2141
2141
2134
2134
2134
2137
2137
2137
2133
2133
2133
2134
2134
2134
2134
2135
2135
2135
2134
2134
2134
2136
2136
2136
2134
2134
2134
2137
2137
2137
2137
2137
2137
2137
2131
2131
2131
2133
2133
2133
2132
2132
2132
2134
2134
2134
2134
2137
2137
2137
2135
2135
2135
2135
2135
2135
2134
2134
2134
2135
2135
2135
2135
2138
2138
2138
2139
2139
2139
2129
2129
2129
2133
2133
2133
2133
2133
2133
2133
2137
2137
2137
2126
2126
2126
2134
2134
2134
2129
2129
2129
2137
2137
2137
2137
2132
2132
2132
2130
2130
2130
2134
2134
2134
2136
2136
2136
2137
2137
2137
2137
2131
2131
2131
2135
2135
2135
2129
2129
2129
2133
2133
2133
2139
2139
2139
2139
2137
2137
2137
2127
2127
2127
2138
2138
2138
2130
2130
2130
2137
2137
2137
2137
2135
2135
2135
2129
2129
2129
2131
2131
2131
2135
2135
2135
2133
2133
2133
2133
2138
2138
2138
2134
2134
2134
2136
2136
2136
2129
2129
2129
2138
2138
2138
2138
2135
2135
2135
2132
2132
2132
2139
2139
2139
2134
2134
2134
2136
2136
2136
2136
2133
2133
2133
2135
2135
2135
2136
2136
2136
2134
2134
2134
2135
2135
2135
2135
2138
2138
2138
2131
2131
2131
2135
2135
2135
2132
2132
2132
2136
2136
2136
2136
2135
2135
2135
2130
2130
2130
2138
2138
2138
2134
2134
2134
2135
2135
2135
2135
2138
2138
2138
2136
2136
2136
2143
2143
2143
2127
2127
2127
2139
2139
2139
2139
2134
2134
2134
2134
2134
2134
2137
2137
2137
2130
2130
2130
2139
2139
2139
2139
2135
2135
2135
2134
2134
2134
2135
2135
2135
2135
2135
2135
2140
2140
2140
2140
2137
2137
2137
2136
2136
2136
2136
2136
2136
2132
2132
2132
2129
2129
2129
2129
2130
2130
2130
2134
2134
2134
2135
2135
2135
2133
2133
2133
2135
2135
2135
2135
2136
2136
2136
2136
2136
2136
2135
2135
2135
2132
2132
2132
2135
2135
2135
2135
2144
2144
2144
2132
2132
2132
2142
2142
2142
2132
2132
2132
2134
2134
2134
2134
2132
2132
2132
2135
2135
2135
2137
2137
2137
2138
2138
2138
2139
2139
2139
2139
2134
2134
2134
2136
2136
2136
2138
2138
2138
2135
2135
2135
2137
2137
2137
2137
2136
2136
2136
2135
2135
2135
2143
2143
2143
2132
2132
2132
2137
2137
2137
2137
2138
2138
2138
2133
2133
2133
2131
2131
2131
2132
2132
2132
2139
2139
2139
2139
2141
2141
2141
2133
2133
2133
2138
2138
2138
2139
2139
2139
2144
2144
2144
2144
2135
2135
2135
2135
2135
2135
2138
2138
2138
2131
2131
2131
2142
2142
2142
2142
2139
2139
2139
2133
2133
2133
2141
2141
2141
2135
2135
2135
2134
2134
2134
2134
2137
2137
2137
2133
2133
2133
2137
2137
2137
2136
2136
2136
2137
2137
2137
2137
2137
2137
2137
2133
2133
2133
2132
2132
2132
2132
2132
2132
2134
2134
2134
2134
2138
2138
2138
2133
2133
2133
2135
2135
2135
2129
2129
2129
2135
2135
2135
2135
2135
2135
2135
2133
2133
2133
2137
2137
2137
2130
2130
2130
2135
2135
2135
2135
2136
2136
2136
2131
2131
2131
2136
2136
2136
2132
2132
2132
2138
2138
2138
2138
2136
2136
2136
2135
2135
2135
2142
2142
2142
2134
2134
2134
2136
2136
2136
2136
2136
2136
2136
2135
2135
2135
2139
2139
2139
2134
2134
2134
2134
2134
2134
2134
2136
2136
2136
2133
2133
2133
2137
2137
2137
2128
2128
2128
2141
2141
2141
2141
2134
2134
2134
2132
2132
2132
2137
2137
2137
2132
2132
2132
2132
2132
2132
2132
2144
2144
2144
2133
2133
2133
2136
2136
2136
2130
2130
2130
2138
2138
2138
2138
2138
2138
2138
2139
2139
2139
2137
2137
2137
2130
2130
2130
2137
2137
2137
2137
2137
2137
2137
2135
2135
2135
2140
2140
2140
2133
2133
2133
2135
2135
2135
2135
2136
2136
2136
2133
2133
2133
2136
2136
2136
2133
2133
2133
2137
2137
2137
2137
2136
2136
2136
2138
2138
2138
2141
2141
2141
2131
2131
2131
2136
2136
2136
2136
2138
2138
2138
2133
2133
2133
2134
2134
2134
2133
2133
2133
2138
2138
2138
2138
2135
2135
2135
2134
2134
2134
2137
2137
2137
2135
2135
2135
2143
2143
2143
2143
2134
2134
2134
2131
2131
2131
2137
2137
2137
2132
2132
2132
2139
2139
2139
2139
2135
2135
2135
2134
2134
2134
2135
2135
2135
2135
2135
2135
2137
2137
2137
2137
2135
2135
2135
2133
2133
2133
2134
2134
2134
2133
2133
2133
2135
2135
2135
2135
2135
2135
2135
2133
2133
2133
2136
2136
2136
2133
2133
2133
2136
2136
2136
2136
2138
2138
2138
2133
2133
2133
2139
2139
2139
2136
2136
2136
2139
2139
2139
2139
2132
2132
2132
2137
2137
2137
2136
2136
2136
2137
2137
2137
2137
2137
2137
2137
2133
2133
2133
2134
2134
2134
2132
2132
2132
2132
2132
2132
2139
2139
2139
2139
2134
2134
2134
2133
2133
2133
2133
2133
2133
2126
2126
2126
2136
2136
2136
2136
2139
2139
2139
2128
2128
2128
2134
2134
2134
2133
2133
2133
2135
2135
2135
2135
2135
2135
2135
2134
2134
2134
2131
2131
2131
2132
2132
2132
2140
2140
2140
2140
2135
2135
2135
2133
2133
2133
2138
2138
2138
2140
2140
2140
2136
2136
2136
2136
2135
2135
2135
2132
2132
2132
2139
2139
2139
2133
2133
2133
2136
2136
2136
2136
2126
2126
2126
2133
2133
2133
2137
2137
2137
2135
2135
2135
2136
2136
2136
2136
2134
2134
2134
2132
2132
2132
2134
2134
2134
2133
2133
2133
2134
2134
2134
2134
2137
2137
2137
2135
2135
2135
2131
2131
2131
2130
2130
2130
2138
2138
2138
2138
2135
2135
2135
2138
2138
2138
2136
2136
2136
2129
2129
2129
2136
2136
2136
2136
2139
2139
2139
2130
2130
2130
2136
2136
2136
2132
2132
2132
2135
2135
2135
2135
2137
2137
2137
2139
2139
2139
2137
2137
2137
2140
2140
2140
2138
2138
2138
2138
2137
2137
2137
2134
2134
2134
2136
2136
2136
2135
2135
2135
2136
2136
2136
2136
2131
2131
2131
2134
2134
2134
2139
2139
2139
2133
2133
2133
2134
2134
2134
2134
2136
2136
2136
2128
2128
2128
2139
2139
2139
2134
2134
2134
2137
2137
2137
2137
2136
2136
2136
2132
2132
2132
2132
2132
2132
2134
2134
2134
2136
2136
2136
2136
2136
2136
2136
2134
2134
2134
2134
2134
2134
2134
2134
2134
2135
2135
2135
2135
2135
2135
2135
2136
2136
2136
2127
2127
2127
2132
2132
2132
2138
2138
2138
2138
2140
2140
2140
2132
2132
2132
2130
2130
2130
2128
2128
2128
2134
2134
2134
2134
2136
2136
2136
2133
2133
2133
2137
2137
2137
2133
2133
2133
2134
2134
2134
2134
2132
2132
2132
2134
2134
2134
2139
2139
2139
2134
2134
2134
2134
2134
2134
2134
2136
2136
2136
2131
2131
2131
2136
2136
2136
2134
2134
2134
2136
2136
2136
2136
2143
2143
2143
2132
2132
2132
2135
2135
2135
2133
2133
2133
2138
2138
2138
2138
2138
2138
2138
2136
2136
2136
2136
2136
2136
2141
2141
2141
2135
2135
2135
