2201
2201
2201
2199
2199
2199
2199
2198
2198
2198
2198
2198
2198
2202
2202
2202
2201
2201
2201
2199
2199
2199
2199
2194
2194
2194
2201
2201
2201
2204
2204
2204
2200
2200
2200
2201
2201
2201
2201
2198
2198
2198
2201
2201
2201
2199
2199
2199
2203
2203
2203
2201
2201
2201
2201
2203
2203
2203
2200
2200
2200
2196
2196
2196
2205
2205
2205
2200
2200
2200
2200
2195
2195
2195
2200
2200
2200
2201
2201
2201
2200
2200
2200
2201
2201
2201
2201
2201
2201
2201
2201
2201
2201
2201
2201
2201
2198
2198
2198
2205
2205
2205
2200
2200
2200
2200
2194
2194
2194
2196
2196
2196
2200
2200
2200
2211
2211
2211
2200
2200
2200
2200
2201
2201
2201
2197
2197
2197
2200
2200
2200
2201
2201
2201
2202
2202
2202
2202
2199
2199
2199
2196
2196
2196
2201
2201
2201
2201
2201
2201
2200
2200
2200
2200
2206
2206
2206
2199
2199
2199
2200
2200
2200
2202
2202
2202
2199
2199
2199
2199
2199
2199
2199
2202
2202
2202
2197
2197
2197
2202
2202
2202
2200
2200
2200
2200
2199
2199
2199
2199
2199
2199
2195
2195
2195
2201
2201
2201
2202
2202
2202
2202
2197
2197
2197
2199
2199
2199
2200
2200
2200
2202
2202
2202
2201
2201
2201
2201
2198
2198
2198
2198
2198
2198
2199
2199
2199
2198
2198
2198
2200
2200
2200
2200
2200
2200
2200
2206
2206
2206
2199
2199
2199
2193
2193
2193
2197
2197
2197
2197
2196
2196
2196
2203
2203
2203
2200
2200
2200
2202
2202
2202
2201
2201
2201
2201
2200
2200
2200
2204
2204
2204
2201
2201
2201
2200
2200
2200
2206
2206
2206
2206
2201
2201
2201
2202
2202
2202
2197
2197
2197
2197
2197
2197
2201
2201
2201
2201
2206
2206
2206
2201
2201
2201
2201
2201
2201
2205
2205
2205
2200
2200
2200
2200
2197
2197
2197
2202
2202
2202
2196
2196
2196
2200
2200
2200
2200
2200
2200
2200
2199
2199
2199
2202
2202
2202
2196
2196
2196
2201
2201
2201
2199
2199
2199
2199
2199
2199
2199
2198
2198
2198
2197
2197
2197
2204
2204
2204
2199
2199
2199
2199
2197
2197
2197
2204
2204
2204
2198
2198
2198
2201
2201
2201
2201
2201
2201
2201
2201
2201
2201
2201
2201
2201
2199
2199
2199
2202
2202
2202
2203
2203
2203
2203
2199
2199
2199
2198
2198
2198
2198
2198
2198
2199
2199
2199
2200
2200
2200
2200
2200
2200
2200
2200
2200
2200
2200
2200
2200
2199
2199
2199
2201
2201
2201
2201
2198
2198
2198
2200
2200
2200
2197
2197
2197
2198
2198
2198
2200
2200
2200
2200
2199
2199
2199
2199
2199
2199
2199
2199
2199
2205
2205
2205
2195
2195
2195
2195
2200
2200
2200
2201
2201
2201
2198
2198
2198
2205
2205
2205
2198
2198
2198
2198
2200
2200
2200
2200
2200
2200
2199
2199
2199
2203
2203
2203
2204
2204
2204
2204
2198
2198
2198
2201
2201
2201
2202
2202
2202
2200
2200
2200
2199
2199
2199
2199
2201
2201
2201
2197
2197
2197
2197
2197
2197
2201
2201
2201
2199
2199
2199
2199
2204
2204
2204
2200
2200
2200
2198
2198
2198
2200
2200
2200
2199
2199
2199
2199
2203
2203
2203
2200
2200
2200
2197
2197
2197
2205
2205
2205
2201
2201
2201
2201
2198
2198
2198
2199
2199
2199
2199
2199
2199
2203
2203
2203
2201
2201
2201
2201
2198
2198
2198
2200
2200
2200
2201
2201
2201
2203
2203
2203
2205
2205
2205
2205
2203
2203
2203
2197
2197
2197
2201
2201
2201
2201
2201
2201
2198
2198
2198
2198
2199
2199
2199
2205
2205
2205
2201
2201
2201
2203
2203
2203
2199
2199
2199
2199
2197
2197
2197
2196
2196
2196
2204
2204
2204
2202
2202
2202
2198
2198
2198
2198
2196
2196
2196
2201
2201
2201
2200
2200
2200
2198
2198
2198
2198
2198
2198
2198
2198
2198
2198
2201
2201
2201
2199
2199
2199
2203
2203
2203
2199
2199
2199
2199
2196
2196
2196
2200
2200
2200
2199
2199
2199
2201
2201
2201
2198
2198
2198
2198
2193
2193
2193
2200
2200
2200
2201
2201
2201
2203
2203
2203
2196
2196
2196
2196
2203
2203
2203
2205
2205
2205
2200
2200
2200
2203
2203
2203
2198
2198
2198
2198
2201
2201
2201
2200
2200
2200
2197
2197
2197
2201
2201
2201
2199
2199
2199
2199
2199
2199
2199
2198
2198
2198
2199
2199
2199
2203
2203
2203
2196
2196
2196
2196
2201
2201
2201
2204
2204
2204
2201
2201
2201
2201
2201
2201
2199
2199
2199
2199
2197
2197
2197
2200
2200
2200
2202
2202
2202
2204
2204
2204
2201
2201
2201
2201
2203
2203
2203
2202
2202
2202
2201
2201
2201
2199
2199
2199
2200
2200
2200
2200
2196
2196
2196
2198
2198
2198
2196
2196
2196
2203
2203
2203
2201
2201
2201
2201
2195
2195
2195
2199
2199
2199
2199
2199
2199
2202
2202
2202
2197
2197
2197
2197
2202
2202
2202
2204
2204
2204
2198
2198
2198
2201
2201
2201
2196
2196
2196
2196
2198
2198
2198
2204
2204
2204
2197
2197
2197
2203
2203
2203
2198
2198
2198
2198
2200
2200
2200
2201
2201
2201
2199
2199
2199
2201
2201
2201
2200
2200
2200
2200
2200
2200
2200
2210
2210
2210
2200
2200
2200
2206
2206
2206
2195
2195
2195
2195
2199
2199
2199
2202
2202
2202
2198
2198
2198
2202
2202
2202
2199
2199
2199
2199
2196
2196
2196
2199
2199
2199
2195
2195
2195
2202
2202
2202
2197
2197
2197
2197
2201
2201
2201
2200
2200
2200
2199
2199
2199
2200
2200
2200
2201
2201
2201
2201
2197
2197
2197
2200
2200
2200
2200
2200
2200
2203
2203
2203
2199
2199
2199
2199
2197
2197
2197
2195
2195
2195
2202
2202
2202
2199
2199
2199
2199
2199
2199
2199
2199
2199
2199
2199
2199
2199
2198
2198
2198
2201
2201
2201
2200
2200
2200
2200
2199
2199
2199
2203
2203
2203
2194
2194
2194
2199
2199
2199
2201
2201
