2097
2101
2101
2101
2099
2099
2099
2099
2100
2100
2100
2101
2101
2101
2097
2097
2097
2099
2099
2099
2100
2100
2100
2100
2101
2101
2101
2100
2100
2100
2100
2100
2100
2096
2096
2096
2100
2100
2100
2100
2098
2098
2098
2101
2101
2101
2103
2103
2103
2094
2094
2094
2111
2111
2111
2111
2094
2094
2094
2096
2096
2096
2101
2101
2101
2102
2102
2102
2101
2101
2101
2101
2097
2097
2097
2098
2098
2098
2100
2100
2100
2097
2097
2097
2103
2103
2103
2103
2097
2097
2097
2104
2104
2104
2098
2098
2098
2100
2100
2100
2105
2105
2105
2105
2100
2100
2100
2101
2101
2101
2106
2106
2106
2100
2100
2100
2101
2101
2101
2101
2101
2101
2101
2099
2099
2099
2106
2106
2106
2102
2102
2102
2104
2104
2104
2104
2101
2101
2101
2102
2102
2102
2101
2101
2101
2095
2095
2095
2104
2104
2104
2104
2101
2101
2101
2099
2099
2099
2102
2102
2102
2102
2102
2102
2105
2105
2105
2105
2101
2101
2101
2101
2101
2101
2103
2103
2103
2101
2101
2101
2102
2102
2102
2102
2096
2096
2096
2105
2105
2105
2101
2101
2101
2109
2109
2109
2106
2106
2106
2106
2099
2099
2099
2097
2097
2097
2101
2101
2101
2105
2105
2105
2098
2098
2098
2098
2099
2099
2099
2106
2106
2106
2099
2099
2099
2099
2099
2099
2101
2101
2101
2101
2099
2099
2099
2099
2099
2099
2107
2107
2107
2104
2104
2104
2101
2101
2101
2101
2097
2097
2097
2101
2101
2101
2098
2098
2098
2104
2104
2104
2106
2106
2106
2106
2101
2101
2101
2105
2105
2105
2100
2100
2100
2099
2099
2099
2105
2105
2105
2105
2096
2096
2096
2103
2103
2103
2101
2101
2101
2100
2100
2100
2102
2102
2102
2102
2093
2093
2093
2099
2099
2099
2101
2101
2101
2102
2102
2102
2102
2102
2102
2102
2101
2101
2101
2108
2108
2108
2102
2102
2102
2102
2102
2102
2102
2102
2102
2102
2099
2099
2099
2104
2104
2104
2104
2104
2104
2102
2102
2102
2102
2102
2102
2102
2098
2098
2098
2104
2104
2104
2097
2097
2097
2100
2100
2100
2104
2104
2104
2104
2095
2095
2095
2102
2102
2102
2098
2098
2098
2100
2100
2100
2104
2104
2104
2104
2095
2095
2095
2095
2095
2095
2102
2102
2102
2097
2097
2097
2101
2101
2101
2101
2103
2103
2103
2101
2101
2101
2100
2100
2100
2104
2104
2104
2101
2101
2101
2101
2097
2097
2097
2106
2106
2106
2101
2101
2101
2103
2103
2103
2102
2102
2102
2102
2100
2100
2100
2097
2097
2097
2102
2102
2102
2101
2101
2101
2100
2100
2100
2100
2101
2101
2101
2101
2101
2101
2095
2095
2095
2102
2102
2102
2103
2103
2103
2103
2100
2100
2100
2104
2104
2104
2100
2100
2100
2099
2099
2099
2099
2099
2099
2099
2102
2102
2102
2102
2102
2102
2101
2101
2101
2103
2103
2103
2102
2102
2102
2102
2099
2099
2099
2101
2101
2101
2101
2101
2101
2100
2100
2100
2106
2106
2106
2106
2097
2097
2097
2103
2103
2103
2100
2100
2100
2100
2100
2100
2103
2103
2103
2103
2096
2096
2096
2103
2103
2103
2100
2100
2100
2100
2100
2100
2095
2095
2095
2095
2098
2098
2098
2101
2101
2101
2100
2100
2100
2101
2101
2101
2103
2103
2103
2103
2101
2101
2101
2102
2102
2102
2097
2097
2097
2102
2102
2102
2101
2101
2101
2101
2089
2089
2089
2101
2101
2101
2098
2098
2098
2106
2106
2106
2101
2101
2101
2101
2099
2099
2099
2100
2100
2100
2099
2099
2099
2103
2103
2103
2105
2105
2105
2105
2099
2099
2099
2109
2109
2109
2099
2099
2099
2104
2104
2104
2108
2108
2108
2108
2097
2097
2097
2101
2101
2101
2100
2100
2100
2102
2102
2102
2105
2105
2105
2105
2104
2104
2104
2102
2102
2102
2100
2100
2100
2103
2103
2103
2101
2101
2101
2101
2097
2097
2097
2104
2104
2104
2100
2100
2100
2100
2100
2100
2100
2100
2100
2100
2102
2102
2102
2101
2101
2101
2097
2097
2097
2103
2103
2103
2103
2103
2103
2103
2098
2098
2098
2102
2102
2102
2100
2100
2100
2108
2108
2108
2103
2103
2103
2103
2106
2106
2106
2102
2102
2102
2099
2099
2099
2100
2100
2100
2104
2104
2104
2104
2097
2097
2097
2102
2102
2102
2098
2098
2098
2102
2102
2102
2099
2099
2099
2099
2100
2100
2100
2101
2101
2101
2102
2102
2102
2106
2106
2106
2103
2103
2103
2103
2098
2098
2098
2103
2103
2103
2100
2100
2100
2102
2102
2102
2103
2103
2103
2103
2099
2099
2099
2099
2099
2099
2100
2100
2100
2103
2103
2103
2103
2103
2103
2103
2101
2101
2101
2102
2102
2102
2106
2106
2106
2101
2101
2101
2101
2101
2101
2101
2099
2099
2099
2103
2103
2103
2099
2099
2099
2103
2103
2103
2109
2109
2109
2109
2101
2101
2101
2101
2101
2101
2099
2099
2099
2105
2105
2105
2106
2106
2106
2106
2094
2094
2094
2101
2101
2101
2103
2103
2103
2101
2101
2101
2097
2097
2097
2097
2098
2098
2098
2104
2104
2104
2101
2101
2101
2097
2097
2097
2103
2103
2103
2103
2103
2103
2103
2106
2106
2106
2101
2101
2101
2099
2099
2099
2103
2103
2103
2103
2098
2098
2098
2109
2109
2109
2102
2102
2102
2102
2102
2102
2100
2100
2100
2100
2100
2100
2100
2101
2101
2101
2096
2096
2096
2108
2108
2108
2101
2101
2101
2101
2096
2096
2096
2102
2102
2102
2104
2104
2104
2094
2094
2094
2102
2102
2102
2102
2101
2101
2101
2101
2101
2101
2098
2098
2098
2102
2102
2102
2102
2102
2102
2102
2097
2097
2097
2102
2102
2102
2105
2105
2105
2100
2100
2100
2103
2103
2103
2103
2102
2102
2102
2106
2106
2106
2100
2100
2100
2099
2099
2099
2103
2103
2103
2103
2092
2092
2092
2104
2104
2104
2102
2102
2102
2102
2102
2102
2102
2102
2102
2102
2098
2098
2098
2102
2102
2102
2098
2098
2098
2101
2101
2101
2102
2102
2102
2102
2101
2101
2101
2103
2103
2103
2095
2095
2095
2101
2101
2101
2101
2101
2101
2101
2101
2101
2101
2101
2101
2101
2098
2098
2098
2105
2105
2105
2097
2097
2097
2097
2096
2096
2096
2102
2102
2102
2101
2101
2101
2101
2101
2101
2096
2096
2096
2096
2095
2095
2095
2103
2103
2103
2100
2100
2100
2101
2101
2101
2102
2102
2102
2102
2098
2098
2098
2106
2106
2106
2102
2102
2102
2096
2096
2096
2099
2099
2099
2099
2101
2101
2101
2101
2101
2101
2103
2103
2103
2101
2101
2101
2090
2090
2090
2090
2101
2101
2101
2100
2100
2100
2098
2098
2098
2102
2102
2102
2100
2100
2100
2100
2097
2097
2097
2102
2102
2102
2104
2104
2104
2090
2090
2090
2102
2102
2102
2102
2101
2101
2101
2101
2101
2101
2101
2101
2101
2101
2101
2101
2108
2108
2108
2108
2097
2097
2097
2102
2102
2102
2105
2105
2105
2101
2101
2101
2106
2106
2106
2106
2103
2103
2103
2104
2104
2104
2097
2097
2097
2101
2101
2101
2102
2102
2102
2102
2099
2099
2099
2108
2108
2108
2101
2101
2101
2092
2092
2092
2102
2102
2102
2102
2107
2107
2107
2101
2101
2101
2097
2097
2097
2102
2102
2102
2103
2103
2103
2103
2099
2099
2099
2100
2100
2100
2104
2104
2104
2101
2101
2101
2101
2101
2101
2101
2101
2101
2101
2103
2103
2103
2100
2100
2100
2098
2098
2098
2099
2099
2099
2099
2102
2102
2102
2101
2101
2101
2100
2100
2100
2100
2100
2100
2103
2103
2103
2103
2100
2100
2100
2100
2100
2100
2100
2100
2100
2100
2100
2100
2103
2103
2103
2103
2100
2100
2100
2098
2098
2098
2105
2105
2105
2101
2101
2101
2102
2102
2102
2102
2101
2101
2101
2101
2101
2101
2100
2100
2100
2098
2098
2098
2100
2100
2100
2100
2099
2099
2099
2098
2098
2098
2098
2098
2098
2104
2104
2104
2102
2102
2102
2102
2098
2098
2098
2099
2099
2099
2102
2102
2102
2104
2104
2104
2095
2095
2095
2095
2104
2104
2104
2099
2099
2099
2102
2102
2102
2105
2105
2105
2101
2101
2101
2101
2099
2099
2099
2098
2098
2098
2102
2102
2102
2102
2102
2102
2100
2100
2100
2100
2098
2098
2098
2100
2100
2100
2101
2101
2101
2100
2100
2100
2100
2100
2100
2100
2102
2102
2102
2102
2102
2102
2105
2105
2105
2097
2097
2097
2103
2103
2103
2103
2098
2098
2098
2100
2100
2100
2103
2103
2103
2101
2101
2101
2102
2102
2102
2102
2095
2095
2095
2104
2104
2104
2097
2097
2097
2103
2103
2103
2100
2100
2100
2100
2102
2102
2102
2101
2101
2101
2101
2101
2101
2104
2104
2104
2097
2097
2097
2097
2101
2101
2101
2096
2096
2096
2099
2099
2099
2105
2105
2105
2103
2103
2103
2103
2101
2101
2101
2102
2102
2102
2101
2101
2101
2101
2101
2101
2103
2103
2103
2103
2100
2100
2100
2096
2096
2096
2104
2104
2104
2101
2101
2101
2101
2101
2101
2101
2100
2100
2100
2102
2102
2102
2096
2096
2096
2099
2099
2099
2101
2101
2101
2101
2101
2101
2101
2101
2101
2101
2104
2104
2104
2110
2110
2110
2099
2099
2099
2099
2099
2099
2099
2099
2099
2099
2100
2100
2100
2103
2103
2103
2087
2087
2087
2087
2099
2099
2099
2095
2095
2095
2100
2100
2100
2102
2102
2102
2105
2105
2105
2105
2100
2100
2100
2097
2097
2097
2097
2097
2097
2103
2103
2103
2101
2101
2101
2101
2107
2107
2107
2096
2096
2096
2101
2101
2101
2102
2102
2102
2101
2101
2101
2101
2100
2100
2100
2100
2100
2100
2103
2103
2103
2101
2101
2101
2102
2102
2102
2102
2097
2097
2097
2104
2104
2104
2103
2103
2103
2097
2097
2097
2103
2103
2103
2103
2101
2101
2101
2099
2099
2099
2098
2098
2098
2101
2101
2101
2098
2098
2098
2098
2098
2098
2098
2105
2105
2105
2100
2100
2100
2100
2100
2100
2105
2105
2105
2105
2101
2101
2101
2101
2101
2101
2094
2094
2094
2102
2102
2102
2103
2103
2103
2103
2100
2100
2100
2105
2105
2105
2101
2101
2101
2101
2101
2101
2103
2103
2103
2103
2098
2098
2098
2101
2101
2101
2096
2096
2096
2100
2100
2100
2111
2111
2111
2111
2099
2099
2099
2100
2100
2100
2100
2100
2100
2102
2102
2102
2106
2106
2106
2106
2097
2097
2097
2098
2098
2098
2103
2103
2103
2105
2105
2105
2101
2101
2101
2101
2099
2099
2099
2098
2098
2098
2101
2101
2101
2102
2102
2102
2102
2102
2102
2102
2100
2100
2100
2104
2104
2104
2098
2098
2098
2100
2100
2100
2102
2102
2102
2102
2102
2102
2102
2104
2104
2104
2097
2097
2097
2101
2101
2101
2103
2103
2103
2103
2101
2101
2101
2101
2101
2101
2100
2100
2100
2096
2096
2096
2100
2100
2100
2100
2105
2105
2105
2101
2101
2101
2097
2097
2097
2103
2103
2103
2105
2105
2105
2105
2102
2102
2102
2098
2098
2098
2097
2097
2097
2102
2102
2102
2103
2103
2103
2103
2098
2098
2098
2104
2104
2104
2097
2097
2097
2100
2100
2100
2104
2104
2104
2104
2099
2099
2099
2101
2101
2101
2095
2095
2095
2102
2102
2102
2102
2102
2102
2102
2098
2098
2098
2104
2104
2104
2103
2103
2103
2102
2102
2102
2099
2099
2099
2099
2103
2103
2103
2100
2100
2100
2099
2099
2099
2100
2100
2100
2106
2106
2106
2106
2096
2096
2096
2101
2101
2101
2101
2101
2101
2099
2099
2099
2103
2103
2103
2103
2098
2098
2098
2103
2103
2103
2099
2099
2099
2102
2102
2102
2101
2101
2101
2101
2100
2100
2100
2101
2101
2101
2102
2102
2102
2101
2101
2101
2102
2102
2102
2102
2099
2099
2099
2102
2102
2102
2100
2100
2100
2097
2097
2097
2101
2101
2101
2101
2095
2095
2095
2104
2104
2104
2101
2101
2101
2101
2101
2101
2102
2102
2102
2102
2096
2096
2096
2094
2094
2094
2102
2102
2102
2104
2104
2104
2100
2100
2100
2100
2102
2102
2102
2102
2102
2102
2100
2100
2100
2101
2101
2101
2104
2104
2104
2104
2099
2099
2099
2102
2102
2102
2102
2102
2102
2106
2106
2106
2100
2100
2100
2100
2105
2105
2105
2099
2099
2099
2099
2099
2099
2105
2105
2105
2096
2096
2096
2096
2101
2101
2101
2103
2103
2103
2098
2098
2098
2100
2100
2100
2101
2101
2101
2101
2103
2103
2103
2104
2104
2104
2105
2105
2105
2100
2100
2100
2101
2101
2101
2101
2101
2101
2101
2100
2100
2100
2101
2101
2101
2102
2102
2102
2104
2104
2104
2104
2098
2098
2098
2100
2100
2100
2104
2104
2104
2101
2101
2101
2109
2109
2109
2109
2099
2099
2099
2109
2109
2109
2096
2096
2096
2102
2102
2102
2102
2102
2102
2102
2099
2099
2099
2100
2100
2100
2099
2099
2099
2103
2103
2103
2099
2099
2099
2099
2092
2092
2092
2101
2101
2101
2102
2102
2102
2099
2099
2099
2109
2109
2109
2109
2103
2103
2103
2099
2099
2099
2101
2101
2101
2102
2102
2102
2099
2099
2099
2099
2101
2101
2101
2102
2102
2102
2101
2101
2101
2101
2101
2101
2100
2100
2100
2100
2101
2101
2101
2102
2102
2102
2094
2094
2094
2102
2102
2102
2102
2102
2102
2102
2099
2099
2099
2100
2100
2100
2100
2100
2100
2096
2096
2096
2103
2103
2103
2103
2104
2104
2104
2103
2103
2103
2101
2101
2101
2101
2101
2101
2098
2098
2098
2098
2096
2096
2096
2101
2101
2101
2099
2099
2099
2100
2100
2100
2099
2099
2099
2099
2099
2099
2099
2099
2099
2099
2097
2097
2097
2102
2102
2102
2103
2103
2103
2103
2100
2100
2100
2100
2100
2100
2104
2104
2104
2109
2109
2109
2102
2102
2102
2102
2093
2093
2093
2101
2101
2101
2105
2105
2105
2100
2100
2100
2105
2105
2105
2105
2099
2099
2099
2106
2106
2106
2099
2099
2099
2101
2101
2101
2105
2105
2105
2105
2099
2099
2099
2103
2103
2103
2099
2099
2099
2104
2104
2104
2097
2097
2097
2097
2101
2101
2101
2102
2102
2102
2102
2102
2102
2100
2100
2100
2103
2103
2103
2103
2102
2102
2102
2100
2100
2100
2105
2105
2105
2101
2101
2101
2097
2097
2097
2097
2099
2099
2099
2100
2100
2100
2103
2103
2103
2101
2101
2101
2101
2101
2101
2101
2099
2099
2099
2102
2102
2102
2105
2105
2105
2104
2104
2104
2104
2104
2104
2104
2094
2094
2094
2104
2104
2104
2098
2098
2098
2104
2104
2104
2104
2104
2104
2104
2101
2101
2101
2096
2096
2096
2101
2101
2101
2101
2101
2101
2100
2100
2100
2100
2104
2104
2104
2109
2109
2109
2106
2106
2106
2101
2101
2101
2101
2101
2101
2101
2098
2098
2098
2105
2105
2105
2102
2102
2102
2100
2100
2100
2103
2103
2103
2103
2100
2100
2100
2101
2101
2101
2100
2100
2100
2093
2093
2093
2097
2097
2097
2097
2094
2094
2094
2102
2102
2102
2101
2101
2101
2100
2100
2100
2101
2101
2101
2101
2099
2099
2099
2096
2096
2096
2101
2101
2101
2101
2101
2101
2102
2102
2102
2102
2100
2100
2100
2101
2101
2101
2103
2103
2103
2103
2103
2103
2100
2100
2100
2100
2100
2100
2100
2102
2102
2102
2097
2097
2097
2099
2099
2099
2102
2102
2102
2102
2101
2101
2101
2099
2099
2099
2102
2102
2102
2099
2099
2099
2097
2097
2097
2097
2104
2104
2104
2100
2100
2100
2101
2101
2101
2101
2101
2101
2104
2104
2104
2104
2096
2096
2096
2097
2097
2097
2105
2105
2105
2101
2101
2101
2099
2099
2099
2099
2099
2099
2099
2105
2105
2105
2101
2101
2101
2098
2098
2098
2103
2103
2103
2103
2097
2097
2097
2103
2103
2103
2097
2097
2097
2096
2096
2096
2099
2099
2099
2099
2101
2101
2101
2100
2100
2100
2101
2101
2101
2101
2101
2101
2103
2103
2103
2103
2100
2100
2100
2104
2104
2104
2103
2103
2103
2103
2103
2103
2099
2099
2099
2099
2099
2099
2099
2098
2098
2098
2101
2101
2101
2101
2101
2101
2103
2103
2103
2103
2096
2096
2096
2106
2106
2106
2101
2101
2101
2103
2103
2103
2100
2100
2100
2100
2099
2099
2099
2098
2098
2098
2100
2100
2100
2101
2101
2101
2105
2105
2105
2105
2099
2099
2099
2099
2099
2099
2100
2100
2100
2105
2105
2105
2104
2104
2104
2104
2100
2100
2100
2102
2102
2102
2098
2098
2098
2101
2101
2101
2098
2098
2098
2098
2094
2094
2094
2099
2099
2099
2102
2102
2102
2106
2106
2106
2104
2104
2104
2104
2099
2099
2099
2103
2103
2103
2101
2101
2101
2101
2101
2101
2100
2100
2100
2100
2098
2098
2098
2095
2095
2095
2100
2100
2100
2103
2103
2103
2101
2101
2101
2101
2100
2100
2100
2098
2098
2098
2103
2103
2103
2100
2100
2100
2103
2103
2103
2103
2098
2098
2098
2101
2101
2101
2101
2101
2101
2100
2100
2100
2104
2104
2104
2104
2103
2103
2103
2104
2104
2104
2100
2100
2100
2105
2105
2105
2099
2099
2099
2099
2097
2097
2097
2101
2101
2101
2101
2101
2101
2102
2102
2102
2102
2102
2102
2102
2098
2098
2098
2104
2104
2104
2099
2099
2099
2099
2099
2099
2105
2105
2105
2105
2101
2101
2101
2103
2103
2103
2100
2100
2100
2094
2094
2094
2101
2101
2101
2101
2105
2105
2105
2100
2100
2100
2102
2102
2102
2094
2094
2094
2103
2103
2103
2103
2101
2101
2101
2100
2100
2100
2102
2102
2102
2106
2106
2106
2103
2103
2103
2103
2098
2098
2098
2101
2101
2101
2103
2103
2103
2101
2101
2101
2106
2106
2106
2106
2103
2103
2103
2099
2099
2099
2100
2100
2100
2098
2098
2098
2099
2099
2099
2099
2101
2101
2101
2098
2098
2098
2105
2105
2105
2097
2097
2097
2101
2101
2101
2101
2098
2098
2098
2099
2099
2099
2098
2098
2098
2102
2102
2102
2100
2100
2100
2100
2100
2100
2100
2100
2100
2100
2097
2097
2097
2103
2103
2103
2104
2104
2104
2104
2094
2094
2094
2104
2104
2104
2099
2099
2099
2101
2101
2101
2097
2097
2097
2097
2101
2101
2101
2103
2103
2103
2101
2101
2101
2101
2101
2101
2102
2102
2102
2102
2098
2098
2098
2102
2102
2102
2103
2103
2103
2100
2100
2100
2102
2102
2102
2102
2099
2099
2099
2102
2102
2102
2089
2089
2089
2102
2102
2102
2101
2101
2101
2101
2102
2102
2102
2099
2099
2099
2098
2098
2098
2103
2103
2103
2104
2104
2104
2104
2103
2103
2103
2102
2102
2102
2100
2100
2100
2103
2103
2103
2098
2098
2098
2098
2105
2105
2105
2096
2096
2096
2099
2099
2099
2100
2100
2100
2104
2104
2104
2104
2097
2097
2097
2101
2101
2101
2101
2101
2101
2103
2103
2103
2102
2102
2102
2102
2102
2102
2102
2102
2102
2102
2099
2099
2099
2101
2101
2101
2101
2101
2101
2101
2098
2098
2098
2101
2101
2101
2101
2101
2101
2105
2105
2105
2096
2096
2096
2096
2097
2097
2097
2097
2097
2097
2101
2101
2101
2102
2102
2102
2106
2106
2106
2106
2098
2098
2098
2099
2099
2099
2102
2102
2102
2102
2102
2102
2096
2096
2096
2096
2100
2100
2100
2099
2099
2099
2098
2098
2098
2095
2095
2095
2102
2102
2102
2102
2095
2095
2095
2105
2105
2105
2093
2093
2093
2101
2101
2101
2099
2099
2099
2099
2098
2098
2098
2101
2101
2101
2098
2098
2098
2107
2107
2107
2103
2103
2103
2103
2100
2100
2100
2103
2103
2103
2098
2098
2098
2098
2098
2098
2102
2102
2102
2102
2097
2097
2097
2103
2103
2103
2101
2101
2101
2104
2104
2104
2102
2102
2102
2102
2103
2103
2103
2101
2101
2101
2099
2099
2099
2101
2101
2101
2101
2101
2101
2101
2103
2103
2103
2098
2098
2098
2097
2097
2097
2102
2102
2102
2102
2102
2102
2102
2100
2100
2100
2099
2099
2099
2101
2101
2101
2101
2101
2101
2101
2101
2101
2101
2098
2098
2098
2101
2101
2101
2100
2100
2100
2106
2106
2106
2098
2098
2098
2098
2108
2108
2108
2100
2100
2100
2100
2100
2100
2103
2103
2103
2099
2099
2099
2099
2099
2099
2099
2107
2107
2107
2098
2098
2098
2101
2101
2101
2102
2102
2102
2102
2102
2102
2102
2099
2099
2099
2102
2102
2102
2102
2102
2102
2104
2104
2104
2104
2100
2100
2100
2102
2102
2102
2088
2088
2088
2107
2107
2107
2107
2107
2107
2107
2101
2101
2101
2100
2100
2100
2101
2101
2101
2099
2099
2099
2105
2105
2105
2105
2096
2096
2096
2105
2105
2105
2103
2103
2103
2104
2104
2104
2104
2104
2104
2104
2101
2101
2101
2108
2108
2108
2100
2100
2100
2102
2102
2102
2101
2101
2101
2101
2099
2099
2099
2107
2107
2107
2102
2102
2102
2099
2099
2099
2100
2100
2100
2100
2099
2099
2099
2101
2101
2101
2104
2104
2104
2099
2099
2099
2101
2101
2101
2101
2099
2099
2099
2103
2103
2103
2099
2099
2099
2098
2098
2098
2108
2108
2108
2108
2100
2100
2100
2101
2101
2101
2097
2097
2097
2105
2105
2105
2098
2098
2098
2098
2096
2096
2096
2099
2099
2099
2103
2103
2103
2103
2103
2103
2099
2099
2099
2099
2101
2101
2101
2104
2104
2104
2101
2101
2101
2100
2100
2100
2101
2101
2101
2101
2099
2099
2099
2104
2104
2104
2103
2103
2103
2099
2099
2099
2097
2097
2097
2097
2099
2099
2099
2104
2104
2104
2101
2101
2101
2107
2107
2107
2101
2101
2101
2101
2099
2099
2099
2101
2101
2101
2099
2099
2099
2102
2102
2102
2098
2098
2098
2098
2099
2099
2099
2099
2099
2099
2102
2102
2102
2104
2104
2104
2101
2101
2101
2101
2099
2099
2099
2100
2100
2100
2100
2100
2100
2098
2098
2098
2098
2098
2098
2098
2100
2100
2100
2102
2102
2102
2101
2101
2101
2102
2102
2102
2102
2102
2102
2102
2099
2099
2099
2104
2104
2104
2100
2100
2100
2107
2107
2107
2101
2101
2101
2101
2099
2099
2099
2101
2101
2101
2102
2102
2102
2099
2099
2099
2104
2104
2104
2104
2104
2104
2104
2103
2103
2103
2100
2100
2100
2100
2100
2100
2101
2101
2101
2101
2107
2107
2107
2097
2097
2097
2100
2100
2100
2102
2102
2102
2100
2100
2100
2100
2099
2099
2099
2101
2101
2101
2093
2093
2093
2103
2103
2103
2101
2101
2101
2101
2099
2099
2099
2102
2102
2102
2100
2100
2100
2103
2103
2103
2105
2105
2105
2105
2100
2100
2100
2102
2102
2102
2100
2100
2100
2098
2098
2098
2103
2103
2103
2103
2100
2100
2100
2104
2104
2104
2099
2099
2099
2102
2102
2102
2096
2096
2096
2096
2101
2101
2101
2104
2104
2104
2099
2099
2099
2101
2101
2101
2099
2099
2099
2099
2102
2102
2102
2101
2101
2101
2103
2103
2103
2102
2102
2102
2102
2102
2102
2102
2101
2101
2101
2104
2104
2104
2095
2095
2095
2101
2101
2101
2103
2103
2103
2103
2099
2099
2099
2100
2100
2100
2101
2101
2101
2104
2104
2104
2104
2104
2104
2104
2102
2102
2102
2100
2100
2100
2101
2101
2101
2102
2102
2102
2095
2095
2095
2095
2099
2099
2099
2104
2104
2104
2097
2097
2097
2101
2101
2101
2100
2100
2100
2100
2099
2099
2099
2101
2101
2101
2099
2099
2099
2100
2100
2100
2101
2101
2101
2101
2097
2097
2097
2101
2101
2101
2097
2097
2097
2100
2100
2100
2102
2102
2102
2102
2103
2103
2103
2102
2102
2102
2101
2101
2101
2103
2103
2103
2102
2102
2102
2102
2097
2097
2097
2100
2100
2100
2098
2098
2098
2099
2099
2099
2101
2101
2101
2101
2106
2106
2106
2107
2107
2107
2099
2099
2099
2100
2100
2100
2101
2101
2101
2101
2100
2100
2100
2098
2098
2098
2100
2100
2100
2103
2103
2103
2103
2103
2103
2103
2096
2096
2096
2102
2102
2102
2094
2094
2094
2096
2096
2096
2101
2101
2101
2101
2101
2101
2101
2101
2101
2101
2102
2102
2102
2103
2103
2103
2098
2098
2098
2098
2093
2093
2093
2101
2101
2101
2093
2093
2093
2101
2101
2101
2103
2103
2103
2103
2101
2101
2101
2104
2104
2104
2104
2104
2104
2100
2100
2100
2101
2101
2101
2101
2100
2100
2100
2104
2104
2104
2099
2099
2099
2100
2100
2100
2098
2098
2098
2098
2098
2098
2098
2100
2100
2100
2097
2097
2097
2104
2104
2104
2103
2103
2103
2103
2099
2099
2099
2102
2102
2102
2103
2103
2103
2101
2101
2101
2102
2102
2102
2102
2099
2099
2099
2102
2102
2102
2098
2098
2098
2100
2100
2100
2104
2104
2104
2104
2101
2101
2101
2101
2101
2101
2097
2097
2097
2096
2096
2096
2100
2100
2100
2100
2102
2102
2102
2098
2098
2098
2100
2100
2100
2102
2102
2102
2104
2104
2104
2104
2099
2099
2099
2099
2099
2099
2100
2100
2100
2101
2101
2101
2102
2102
2102
2102
2101
2101
2101
2102
2102
2102
2100
2100
2100
2105
2105
2105
2101
2101
2101
2101
2098
2098
2098
2102
2102
2102
2100
2100
2100
2103
2103
2103
2108
2108
2108
2108
2099
2099
2099
2098
2098
2098
2102
2102
2102
2100
2100
2100
2100
2100
2100
2100
2101
2101
2101
2105
2105
2105
2097
2097
2097
2100
2100
2100
2100
2100
2100
2100
2100
2100
2100
2102
2102
2102
2100
2100
2100
2100
2100
2100
2102
2102
2102
2102
2098
2098
2098
2103
2103
2103
2099
2099
2099
2104
2104
2104
2100
2100
2100
2100
2099
2099
2099
2106
2106
2106
2100
2100
2100
2105
2105
2105
2107
2107
2107
2107
2092
2092
2092
2102
2102
2102
2099
2099
2099
2100
2100
2100
2104
2104
2104
2104
2103
2103
2103
2099
2099
2099
2100
2100
2100
2101
2101
2101
2102
2102
2102
2102
2098
2098
2098
2104
2104
2104
2102
2102
2102
2100
2100
2100
2101
2101
2101
2101
2101
2101
2101
2100
2100
2100
2096
2096
2096
2094
2094
2094
2104
2104
2104
2104
2096
2096
2096
2104
2104
2104
2098
2098
2098
2110
2110
2110
2099
2099
2099
2099
2101
2101
2101
2101
2101
2101
2103
2103
2103
2101
2101
2101
2099
2099
2099
2099
2096
2096
2096
2104
2104
2104
2101
2101
2101
2103
2103
2103
2102
2102
2102
2102
2098
2098
2098
2102
2102
2102
2100
2100
2100
2098
2098
2098
2101
2101
2101
2101
2096
2096
2096
2101
2101
2101
2105
2105
2105
2095
2095
2095
2101
2101
2101
2101
2104
2104
2104
2100
2100
2100
2100
2100
2100
2097
2097
2097
2108
2108
2108
2108
2104
2104
2104
2110
2110
2110
2099
2099
2099
2101
2101
2101
2106
2106
2106
2106
2096
2096
2096
2104
2104
2104
2102
2102
2102
2100
2100
2100
2103
2103
2103
2103
2101
2101
2101
2097
2097
2097
2101
2101
2101
2101
2101
2101
2103
2103
2103
2103
2095
2095
2095
2100
2100
2100
2096
2096
2096
2101
2101
2101
2099
2099
2099
2099
2097
2097
2097
2100
2100
2100
2099
2099
2099
2097
2097
2097
2101
2101
2101
2101
2096
2096
2096
2101
2101
2101
2103
2103
2103
2099
2099
2099
2103
2103
2103
2103
2097
2097
2097
2102
2102
2102
2098
2098
2098
2101
2101
2101
2104
2104
2104
2104
2100
2100
2100
2100
2100
2100
2101
2101
2101
2095
2095
2095
2101
2101
2101
2101
2104
2104
2104
2100
2100
2100
2098
2098
2098
2098
2098
2098
2101
2101
2101
2101
2099
2099
2099
2100
2100
2100
2099
2099
2099
2094
2094
2094
2100
2100
2100
2100
2102
2102
2102
2102
2102
2102
2095
2095
2095
2099
2099
2099
2102
2102
2102
2102
2099
2099
2099
2102
2102
2102
2100
2100
2100
2105
2105
2105
2100
2100
2100
2100
2101
2101
2101
2108
2108
2108
2104
2104
2104
2100
2100
2100
2103
2103
2103
2103
2098
2098
2098
2100
2100
2100
2100
2100
2100
2102
2102
2102
2102
2102
2102
2102
2100
2100
2100
2099
2099
2099
2100
2100
2100
2102
2102
2102
2102
2102
2102
2102
2104
2104
2104
2103
2103
2103
2096
2096
2096
2099
2099
2099
2099
2099
2099
2099
2101
2101
2101
2104
2104
2104
2101
2101
2101
2105
2105
2105
2102
2102
2102
2102
2097
2097
2097
2103
2103
2103
2100
2100
2100
2099
2099
2099
2104
2104
2104
2104
2099
2099
2099
2101
2101
2101
2106
2106
2106
2101
2101
2101
2099
2099
2099
2099
2100
2100
2100
2102
2102
2102
2103
2103
2103
2104
2104
2104
2106
2106
2106
2106
2099
2099
2099
2103
2103
2103
2096
2096
2096
2101
2101
2101
2100
2100
2100
2100
2101
2101
2101
2102
2102
2102
2099
2099
2099
2102
2102
2102
2102
2102
2102
2102
2096
2096
2096
2107
2107
2107
2100
2100
2100
2100
2100
2100
2094
2094
2094
2094
2100
2100
2100
2099
2099
2099
2106
2106
2106
2103
2103
2103
2102
2102
2102
2102
2099
2099
2099
2101
2101
2101
2099
2099
2099
2097
2097
2097
2103
2103
2103
2103
2106
2106
2106
2103
2103
2103
2101
2101
2101
2107
2107
2107
2100
2100
2100
2100
2103
2103
2103
2102
2102
2102
2100
2100
2100
2095
2095
2095
2103
2103
2103
2103
2102
2102
2102
2100
2100
2100
2102
2102
2102
2100
2100
2100
2099
2099
2099
2099
2100
2100
2100
2109
2109
2109
2097
2097
2097
2102
2102
2102
2101
2101
2101
2101
2100
2100
2100
2103
2103
2103
2095
2095
2095
2099
2099
2099
2103
2103
2103
2103
2096
2096
2096
2101
2101
2101
2098
2098
2098
2103
2103
2103
2104
2104
2104
2104
2100
2100
2100
2104
2104
2104
2099
2099
2099
2102
2102
2102
2098
2098
2098
2098
2098
2098
2098
2097
2097
2097
2096
2096
2096
2103
2103
2103
2102
2102
2102
2102
2098
2098
2098
2101
2101
2101
2094
2094
2094
2097
2097
2097
2103
2103
2103
2103
2098
2098
2098
2102
2102
2102
2101
2101
2101
2104
2104
2104
2100
2100
2100
2100
2102
2102
2102
2100
2100
2100
2101
2101
2101
2098
2098
2098
2099
2099
2099
2099
2095
2095
2095
2104
2104
2104
2100
2100
2100
2101
2101
2101
2097
2097
2097
2097
2100
2100
2100
2108
2108
2108
2105
2105
2105
2100
2100
2100
2102
2102
2102
2102
2101
2101
2101
2103
2103
2103
2098
2098
2098
2102
2102
2102
2100
2100
2100
2100
2099
2099
2099
2101
2101
2101
2100
2100
2100
2101
2101
2101
2100
2100
2100
2100
2100
2100
2100
2101
2101
2101
2099
2099
2099
2099
2099
2099
2104
2104
2104
2104
2104
2104
2104
2099
2099
2099
2101
2101
2101
2100
2100
2100
2095
2095
2095
2095
2098
2098
2098
2107
2107
2107
2098
2098
2098
2104
2104
2104
2102
2102
2102
2102
2100
2100
2100
2102
2102
2102
2106
2106
2106
2100
2100
2100
2101
2101
2101
2101
2101
2101
2101
2102
2102
2102
2101
2101
2101
2097
2097
2097
2098
2098
2098
2098
2102
2102
2102
2103
2103
2103
2101
2101
2101
2103
2103
2103
2106
2106
2106
2106
2102
2102
2102
2099
2099
2099
2097
2097
2097
2100
2100
2100
2102
2102
2102
2102
2099
2099
2099
2105
2105
2105
2099
2099
2099
2101
2101
2101
2102
2102
2102
2102
2100
2100
2100
2101
2101
2101
2102
2102
2102
2101
2101
2101
2103
2103
2103
2103
2104
2104
2104
2098
2098
2098
2100
2100
2100
2099
2099
2099
2095
2095
2095
2095
2105
2105
2105
2098
2098
2098
2099
2099
2099
2101
2101
2101
2101
2101
2101
2101
2099
2099
2099
2107
2107
2107
2099
2099
2099
2102
2102
2102
2103
2103
2103
2103
2099
2099
2099
2102
2102
2102
2100
2100
2100
2104
2104
2104
2102
2102
2102
2102
2100
2100
2100
2102
2102
2102
2102
2102
2102
2096
2096
2096
2102
2102
2102
2102
2103
2103
2103
2107
2107
2107
2101
2101
2101
2101
2101
2101
2098
2098
2098
2098
2104
2104
2104
2099
2099
2099
2100
2100
2100
2102
2102
2102
2099
2099
2099
2099
2099
2099
2099
2109
2109
2109
2105
2105
2105
2100
2100
2100
2103
2103
2103
2103
2099
2099
2099
2101
2101
2101
2091
2091
2091
2101
2101
2101
2102
2102
2102
2102
2098
2098
2098
2101
2101
2101
2102
2102
2102
2099
2099
2099
2100
2100
2100
2100
2103
2103
2103
2100
2100
2100
2101
2101
2101
2103
2103
2103
2101
2101
2101
2101
2100
2100
2100
2097
2097
2097
2101
2101
2101
2103
2103
2103
2104
2104
2104
2104
2098
2098
2098
2108
2108
2108
2104
2104
2104
2102
2102
2102
2101
2101
2101
2101
2102
2102
2102
2101
2101
2101
2100
2100
2100
2105
2105
2105
2102
2102
2102
2102
2100
2100
2100
2101
2101
2101
2099
2099
2099
2097
2097
2097
2105
2105
2105
2105
2102
2102
2102
2103
2103
2103
2098
2098
2098
2101
2101
2101
2084
2084
2084
2084
2103
2103
2103
2110
2110
2110
2100
2100
2100
2101
2101
2101
2103
2103
2103
2103
2098
2098
2098
2104
2104
2104
2104
2104
2104
2103
2103
2103
2101
2101
2101
2101
2101
2101
2101
2101
2101
2101
2102
2102
2102
2098
2098
2098
2102
2102
2102
2102
2097
2097
2097
2102
2102
2102
2101
2101
2101
2101
2101
2101
2099
2099
2099
2099
2094
2094
2094
2097
2097
2097
2102
2102
2102
2101
2101
2101
2101
2101
2101
2101
2102
2102
2102
2105
2105
2105
2098
2098
2098
2104
2104
2104
2101
2101
2101
2101
2099
2099
2099
2101
2101
2101
2103
2103
2103
2099
2099
2099
2102
2102
2102
2102
2099
2099
2099
2101
2101
2101
2099
2099
2099
2112
2112
2112
2101
2101
2101
2101
2096
2096
2096
2101
2101
2101
2103
2103
2103
2101
2101
2101
2112
2112
2112
2112
2098
2098
2098
2106
2106
2106
2099
2099
2099
2102
2102
2102
2100
2100
2100
2100
2100
2100
2100
2103
2103
2103
2104
2104
2104
2100
2100
2100
2101
2101
2101
2101
2100
2100
2100
2103
2103
2103
2108
2108
2108
2105
2105
2105
2099
2099
2099
2099
2099
2099
2099
2102
2102
2102
2099
2099
2099
2109
2109
2109
2101
2101
2101
2101
2101
2101
2101
2102
2102
2102
2099
2099
2099
2100
2100
2100
2099
2099
2099
2099
2095
2095
2095
2103
2103
2103
2102
2102
2102
2102
2102
2102
2101
2101
2101
2101
2101
2101
2101
2105
2105
2105
2104
2104
2104
2100
2100
2100
2101
2101
2101
2101
2099
2099
2099
2103
2103
2103
2103
2103
2103
2104
2104
2104
2103
2103
2103
2103
2096
2096
2096
2103
2103
2103
2097
2097
2097
2101
2101
2101
2098
2098
2098
2098
2103
2103
2103
2102
2102
2102
2098
2098
2098
2101
2101
2101
2098
2098
2098
2098
2101
2101
2101
2105
2105
2105
2100
2100
2100
2100
2100
2100
2101
2101
2101
2101
2099
2099
2099
2100
2100
2100
2102
2102
2102
2104
2104
2104
2102
2102
2102
2102
2094
2094
2094
2102
2102
2102
2100
2100
2100
2099
2099
2099
2103
2103
2103
2103
2100
2100
2100
2102
2102
2102
2102
2102
2102
2097
2097
2097
2104
2104
2104
2104
2103
2103
2103
2109
2109
2109
2098
2098
2098
2101
2101
2101
2105
2105
2105
2105
2100
2100
2100
2106
2106
2106
2098
2098
2098
2102
2102
2102
2103
2103
2103
2103
2102
2102
2102
2099
2099
2099
2103
2103
2103
2096
2096
2096
2103
2103
2103
2103
2095
2095
2095
2104
2104
2104
2099
2099
2099
2106
2106
2106
2101
2101
2101
2101
2100
2100
2100
2103
2103
2103
2100
2100
2100
2097
2097
2097
2101
2101
2101
2101
2095
2095
2095
2100
2100
2100
2104
2104
2104
2100
2100
2100
2104
2104
2104
2104
2093
2093
2093
2102
2102
2102
2097
2097
2097
2101
2101
2101
2100
2100
2100
2100
2098
2098
2098
2100
2100
2100
2097
2097
2097
2101
2101
2101
2101
2101
2101
2101
2099
2099
2099
2102
2102
2102
2098
2098
2098
2105
2105
2105
2103
2103
2103
2103
2099
2099
2099
2102
2102
2102
2099
2099
2099
2101
2101
2101
2106
2106
2106
2106
2100
2100
2100
2100
2100
2100
2094
2094
2094
2102
2102
2102
2102
2102
2102
2102
2102
2102
2102
2095
2095
2095
2100
2100
2100
2103
2103
2103
2101
2101
2101
2101
2096
2096
2096
2102
2102
2102
2102
2102
2102
2099
2099
2099
2097
2097
2097
2097
2098
2098
2098
2103
2103
2103
2101
2101
2101
2109
2109
2109
2100
2100
2100
2100
2100
2100
2100
2101
2101
2101
2099
2099
2099
2102
2102
2102
2105
2105
2105
2105
2103
2103
2103
2102
2102
2102
2098
2098
2098
2103
2103
2103
2102
2102
2102
2102
2098
2098
2098
2102
2102
2102
2102
2102
2102
2102
2102
2102
2104
2104
2104
2104
2100
2100
2100
2097
2097
2097
2098
2098
2098
2101
2101
2101
2102
2102
2102
2102
2099
2099
2099
2102
2102
2102
2097
2097
2097
2100
2100
2100
2103
2103
2103
2103
2101
2101
2101
2101
2101
2101
2099
2099
2099
2102
2102
2102
2097
2097
2097
2097
2103
2103
2103
2100
2100
2100
2100
2100
2100
2102
2102
2102
2099
2099
2099
2099
2099
2099
2099
2104
2104
2104
2100
2100
2100
2100
2100
2100
2101
2101
2101
2101
2101
2101
2101
2097
2097
2097
2100
2100
2100
2100
2100
2100
2102
2102
2102
2102
2100
2100
2100
2101
2101
2101
2096
2096
2096
2098
2098
2098
2102
2102
2102
2102
2099
2099
2099
2100
2100
2100
2099
2099
2099
2103
2103
2103
2097
2097
2097
2097
2101
2101
2101
2095
2095
2095
2100
2100
2100
2100
2100
2100
2101
2101
2101
2101
2100
2100
2100
2098
2098
2098
2096
2096
2096
2101
2101
2101
2099
2099
2099
2099
2099
2099
2099
2103
2103
2103
2094
2094
2094
2097
2097
2097
2101
2101
2101
2101
2099
2099
2099
2099
2099
2099
2099
2099
2099
2099
2099
2099
2100
2100
2100
2100
2101
2101
2101
2102
2102
2102
2102
2102
2102
2100
2100
2100
2105
2105
2105
2105
2099
2099
2099
2101
2101
2101
2098
2098
2098
2100
2100
2100
2103
2103
2103
2103
2100
2100
2100
2105
2105
2105
2101
2101
2101
2101
2101
2101
2102
2102
2102
2102
2100
2100
2100
2102
2102
2102
2105
2105
2105
2105
2105
2105
2102
2102
2102
2102
2098
2098
2098
2103
2103
2103
2099
2099
2099
2105
2105
2105
2103
2103
2103
2103
2100
2100
2100
2099
2099
2099
2101
2101
2101
2101
2101
2101
2109
2109
2109
2109
2100
2100
2100
2097
2097
2097
2100
2100
2100
2102
2102
2102
2100
2100
2100
2100
2099
2099
2099
2103
2103
2103
2107
2107
2107
2102
2102
2102
2103
2103
2103
2103
2099
2099
2099
2102
2102
2102
2103
2103
2103
2105
2105
2105
2102
2102
2102
2102
2100
2100
2100
2101
2101
2101
2101
2101
2101
2106
2106
2106
2104
2104
2104
2104
2101
2101
2101
2103
2103
2103
2101
2101
2101
2102
2102
2102
2105
2105
2105
2105
2100
2100
2100
2102
2102
2102
2100
2100
2100
2103
2103
2103
2102
2102
2102
2102
2100
2100
2100
2100
2100
2100
2106
2106
2106
2103
2103
2103
2102
2102
2102
2102
2100
2100
2100
2100
2100
2100
2102
2102
2102
2115
2115
2115
2099
2099
2099
2099
2092
2092
2092
2101
2101
2101
2102
2102
2102
2102
2102
2102
2103
2103
2103
2103
2095
2095
2095
2103
2103
2103
2101
2101
2101
2101
2101
2101
2101
2101
2101
2101
2099
2099
2099
2099
2099
2099
2096
2096
2096
2102
2102
2102
2104
2104
2104
2104
2101
2101
2101
2101
2101
2101
2105
2105
2105
2104
2104
2104
2095
2095
2095
2095
2098
2098
2098
2099
2099
2099
2101
2101
2101
2096
2096
2096
2100
2100
2100
2100
2099
2099
2099
2102
2102
2102
2101
2101
2101
2100
2100
2100
2110
2110
2110
2110
2095
2095
2095
2093
2093
2093
2098
2098
2098
2101
2101
2101
2104
2104
2104
2104
2100
2100
2100
2101
2101
2101
2100
2100
2100
2101
2101
2101
2100
2100
2100
2100
2102
2102
2102
2101
2101
2101
2103
2103
2103
2099
2099
2099
2101
2101
2101
2101
2100
2100
2100
2103
2103
2103
2099
2099
2099
2101
2101
2101
2101
2101
2101
2101
2103
2103
2103
2099
2099
2099
2101
2101
2101
2100
2100
2100
2094
2094
2094
2094
2099
2099
2099
2109
2109
2109
2099
2099
2099
2101
2101
2101
2101
2101
2101
2101
2100
2100
2100
2102
2102
2102
2107
2107
2107
2100
2100
2100
2100
2100
2100
2100
2100
2100
2100
2102
2102
2102
2102
2102
2102
2099
2099
2099
2102
2102
2102
2102
2096
2096
2096
2099
2099
2099
2101
2101
2101
2098
2098
2098
2097
2097
2097
2097
2099
2099
2099
2094
2094
2094
2101
2101
2101
2100
2100
2100
2100
2100
2100
2100
2099
2099
2099
2103
2103
2103
2100
2100
2100
2101
2101
2101
2102
2102
2102
2102
2100
2100
2100
2101
2101
2101
2102
2102
2102
2098
2098
2098
2101
2101
2101
2101
2103
2103
2103
2101
2101
2101
2098
2098
2098
2095
2095
2095
2100
2100
2100
2100
2105
2105
2105
2102
2102
2102
2099
2099
2099
2099
2099
2099
2098
2098
2098
2098
2098
2098
2098
2102
2102
2102
2101
2101
2101
2102
2102
2102
2101
2101
2101
2101
2100
2100
2100
2098
2098
2098
2098
2098
2098
2102
2102
2102
2104
2104
2104
2104
2101
2101
2101
2102
2102
2102
2099
2099
2099
2098
2098
2098
2102
2102
2102
2102
2100
2100
2100
2099
2099
2099
2098
2098
2098
2095
2095
2095
2105
2105
2105
2105
2107
2107
2107
2099
2099
2099
2100
2100
2100
2101
2101
2101
2099
2099
2099
2099
2099
2099
2099
2100
2100
2100
2098
2098
2098
2100
2100
2100
2101
2101
2101
2101
2101
2101
2101
2099
2099
2099
2100
2100
2100
2100
2100
2100
2102
2102
2102
2102
2100
2100
2100
2101
2101
2101
2098
2098
2098
2099
2099
2099
2101
2101
2101
2101
2097
2097
2097
2102
2102
2102
2101
2101
2101
2100
2100
2100
2100
2100
2100
2100
2095
2095
2095
2099
2099
2099
2099
2099
2099
2100
2100
2100
2096
2096
2096
2096
2100
2100
2100
2094
2094
2094
2103
2103
2103
2103
2103
2103
2101
2101
2101
2101
2101
2101
2101
2102
2102
2102
2109
2109
2109
2103
2103
2103
2103
2103
2103
2103
2099
2099
2099
2103
2103
2103
2102
2102
2102
2097
2097
2097
2103
2103
2103
2103
2100
2100
2100
2103
2103
2103
2101
2101
2101
2101
2101
2101
2100
2100
2100
2100
2099
2099
2099
2097
2097
2097
2100
2100
2100
2102
2102
2102
2104
2104
2104
2104
2099
2099
2099
2101
2101
2101
2097
2097
2097
2100
2100
2100
2100
2100
2100
2100
2101
2101
2101
2101
2101
2101
2092
2092
2092
2099
2099
2099
2101
2101
2101
2101
2103
2103
2103
2101
2101
2101
2099
2099
2099
2100
2100
2100
2101
2101
2101
2101
2098
2098
2098
2100
2100
2100
2099
2099
2099
2100
2100
2100
2100
2100
2100
2100
2099
2099
2099
2106
2106
2106
2100
2100
2100
2102
2102
2102
2101
2101
2101
2101
2101
2101
2101
2101
2101
2101
2100
2100
2100
2097
2097
2097
2102
2102
2102
2102
2102
2102
2102
2103
2103
2103
2102
2102
2102
2103
2103
2103
2103
2103
2103
2103
2101
2101
2101
2101
2101
2101
2098
2098
2098
2103
2103
2103
2103
2103
2103
2103
2104
2104
2104
2106
2106
2106
2098
2098
2098
2101
2101
2101
2107
2107
2107
2107
2104
2104
2104
2098
2098
2098
2106
2106
2106
2101
2101
2101
2101
2101
2101
2101
2099
2099
2099
2102
2102
2102
2099
2099
2099
2107
2107
2107
2099
2099
2099
2099
2100
2100
2100
2102
2102
2102
2102
2102
2102
2103
2103
2103
2106
2106
2106
2106
2100
2100
2100
2101
2101
2101
2099
2099
2099
2105
2105
2105
2106
2106
2106
2106
2099
2099
2099
2097
2097
2097
2098
2098
2098
2102
2102
2102
2104
2104
2104
2104
2099
2099
2099
2105
2105
2105
2101
2101
2101
2101
2101
2101
2102
2102
2102
2102
2103
2103
2103
2100
2100
2100
2099
2099
2099
2104
2104
2104
2102
2102
2102
2102
2097
2097
2097
2102
2102
2102
2102
2102
2102
2104
2104
2104
2098
2098
2098
2098
2097
2097
2097
2100
2100
2100
2099
2099
2099
2104
2104
2104
2092
2092
2092
2092
2099
2099
2099
2105
2105
2105
2099
2099
2099
2101
2101
2101
2102
2102
2102
2102
2099
2099
2099
2101
2101
2101
2096
2096
2096
2095
2095
2095
2103
2103
2103
2103
2100
2100
2100
2103
2103
2103
2095
2095
2095
2103
2103
2103
2102
2102
2102
2102
2094
2094
2094
2101
2101
2101
2101
2101
2101
2100
2100
2100
2103
2103
2103
2103
2098
2098
2098
2094
2094
2094
2098
2098
2098
2102
2102
2102
2099
2099
2099
2099
2100
2100
2100
2097
2097
2097
2097
2097
2097
2102
2102
2102
2101
2101
2101
2101
2100
2100
2100
2101
2101
2101
2104
2104
2104
2098
2098
2098
2100
2100
2100
2100
2102
2102
2102
2100
2100
2100
2106
2106
2106
2100
2100
2100
2102
2102
2102
2102
2100
2100
2100
2101
2101
2101
2101
2101
2101
2097
2097
2097
2099
2099
2099
2099
2099
2099
2099
2102
2102
2102
2099
2099
2099
2100
2100
2100
2096
2096
2096
2096
2100
2100
2100
2100
2100
2100
2100
2100
2100
2100
2100
2100
2102
2102
2102
2102
2101
2101
2101
2099
2099
2099
2103
2103
2103
2097
2097
2097
2103
2103
2103
2103
2102
2102
2102
2103
2103
2103
2100
2100
2100
2099
2099
2099
2098
2098
2098
2098
2104
2104
2104
2106
2106
2106
2101
2101
2101
2097
2097
2097
2103
2103
2103
2103
2100
2100
2100
2099
2099
2099
2096
2096
2096
2101
2101
2101
2100
2100
2100
2100
2100
2100
2100
2099
2099
2099
2098
2098
2098
2103
2103
2103
2103
2103
2103
2103
2100
2100
2100
2097
2097
2097
2103
2103
2103
2104
2104
2104
2107
2107
2107
2107
2097
2097
2097
2101
2101
2101
2109
2109
2109
2104
2104
2104
2105
2105
2105
2105
2101
2101
2101
2096
2096
2096
2100
2100
2100
2103
2103
2103
2100
2100
2100
2100
2100
2100
2100
2100
2100
2100
2099
2099
2099
2102
2102
2102
2102
2102
2102
2102
2098
2098
2098
2100
2100
2100
2101
2101
2101
2100
2100
2100
2102
2102
2102
2102
2102
2102
2102
2110
2110
2110
2095
2095
2095
2104
2104
2104
2100
2100
2100
2100
2098
2098
2098
2101
2101
2101
2103
2103
2103
2098
2098
2098
2102
2102
2102
2102
2099
2099
2099
2103
2103
2103
2102
2102
2102
2103
2103
2103
2101
2101
2101
2101
2097
2097
2097
2103
2103
2103
2096
2096
2096
2101
2101
2101
2093
2093
2093
2093
2101
2101
2101
2103
2103
2103
2097
2097
2097
2104
2104
2104
2101
2101
2101
2101
2099
2099
2099
2098
2098
2098
2100
2100
2100
2100
2100
2100
2101
2101
2101
2101
2096
2096
2096
2105
2105
2105
2107
2107
2107
2098
2098
2098
2104
2104
2104
2104
2097
2097
2097
2103
2103
2103
2097
2097
2097
2097
2097
2097
2105
2105
2105
2105
2096
2096
2096
2101
2101
2101
2100
2100
2100
2093
2093
2093
2101
2101
2101
2101
2101
2101
2101
2106
2106
2106
2098
2098
2098
2100
2100
2100
2099
2099
2099
2099
2098
2098
2098
2107
2107
2107
2095
2095
2095
2101
2101
2101
2101
2101
2101
2101
2099
2099
2099
2100
2100
2100
2095
2095
2095
2102
2102
2102
2103
2103
2103
2103
2099
2099
2099
2099
2099
2099
2100
2100
2100
2101
2101
2101
2102
2102
2102
2102
2101
2101
2101
2100
2100
2100
2099
2099
2099
2102
2102
2102
2109
2109
2109
2109
2104
2104
2104
2105
2105
2105
2099
2099
2099
2100
2100
2100
2092
2092
2092
2092
2101
2101
2101
2108
2108
2108
2098
2098
2098
2097
2097
2097
2102
2102
2102
2102
2098
2098
2098
2100
2100
2100
2101
2101
2101
2100
2100
2100
2101
2101
2101
2101
2101
2101
2101
2102
2102
2102
2096
2096
2096
2100
2100
2100
2100
2100
2100
2100
2098
2098
2098
2106
2106
2106
2099
2099
2099
2100
2100
2100
2100
2100
2100
2100
2098
2098
2098
2106
2106
2106
2101
2101
2101
2100
2100
2100
2103
2103
2103
2103
2101
2101
2101
2101
2101
2101
2103
2103
2103
2101
2101
2101
2100
2100
2100
2100
2100
2100
2100
2101
2101
2101
2101
2101
2101
2104
2104
2104
2103
2103
2103
2103
2100
2100
2100
2103
2103
2103
2099
2099
2099
2096
2096
2096
2098
2098
2098
2098
2100
2100
2100
2105
2105
2105
2100
2100
2100
2102
2102
2102
2103
2103
2103
2103
2102
2102
2102
2103
2103
2103
2101
2101
2101
2101
2101
2101
2096
2096
2096
2096
2100
2100
2100
2101
2101
2101
2100
2100
2100
2103
2103
2103
2102
2102
2102
2102
2099
2099
2099
2102
2102
2102
2092
2092
2092
2101
2101
2101
2101
2101
2101
2101
2098
2098
2098
2101
2101
2101
2100
2100
2100
2100
2100
2100
2103
2103
2103
2103
2107
2107
2107
2100
2100
2100
2100
2100
2100
2099
2099
2099
2100
2100
2100
2100
2108
2108
2108
2099
2099
2099
2102
2102
2102
2102
2102
2102
2099
2099
2099
2099
2098
2098
2098
2100
2100
2100
2097
2097
2097
2098
2098
2098
2102
2102
2102
2102
2097
2097
2097
2102
2102
2102
2103
2103
2103
2101
2101
2101
2098
2098
2098
2098
2102
2102
2102
2101
2101
2101
2103
2103
2103
2100
2100
2100
2100
2100
2100
2100
2098
2098
2098
2106
2106
2106
2103
2103
2103
2103
2103
2103
2102
2102
2102
2102
2099
2099
2099
2102
2102
2102
2101
2101
2101
2099
2099
2099
2101
2101
2101
2101
2099
2099
2099
2101
2101
2101
2099
2099
2099
2099
2099
2099
2098
2098
2098
2098
2101
2101
2101
2101
2101
2101
2099
2099
2099
2102
2102
2102
2097
2097
2097
2097
2099
2099
2099
2105
2105
2105
2102
2102
2102
2100
2100
2100
2100
2100
2100
2100
2099
2099
2099
2105
2105
2105
2104
2104
2104
2096
2096
2096
2103
2103
2103
2103
2094
2094
2094
2102
2102
2102
2101
2101
2101
2106
2106
2106
2100
2100
2100
2100
2096
2096
2096
2102
2102
2102
2101
2101
2101
2101
2101
2101
2103
2103
2103
2103
2097
2097
2097
2104
2104
2104
2099
2099
2099
2101
2101
2101
2103
2103
2103
2103
2101
2101
2101
2100
2100
2100
2102
2102
2102
2102
2102
2102
2102
2102
2102
2102
2100
2100
2100
2100
2100
2100
2102
2102
2102
2101
2101
2101
2101
2101
2101
2101
2103
2103
2103
2103
2103
2103
2101
2101
2101
2089
2089
2089
2100
2100
2100
2100
2102
2102
2102
2102
2102
2102
2100
2100
2100
2103
2103
2103
2093
2093
2093
2093
2100
2100
2100
2094
2094
2094
2102
2102
2102
2100
2100
2100
2104
2104
2104
2104
2098
2098
2098
2105
2105
2105
2099
2099
2099
2103
2103
2103
2100
2100
2100
2100
2098
2098
2098
2102
2102
2102
2098
2098
2098
2096
2096
2096
2096
2096
2096
2096
2097
2097
2097
2102
2102
2102
2103
2103
2103
2101
2101
2101
2103
2103
2103
2103
2101
2101
2101
2099
2099
2099
2100
2100
2100
2104
2104
2104
2102
2102
2102
2102
2101
2101
2101
2100
2100
2100
2103
2103
2103
2101
2101
2101
2093
2093
2093
2093
2100
2100
2100
2101
2101
2101
2101
2101
2101
2098
2098
2098
2103
2103
2103
2103
2100
2100
2100
2101
2101
2101
2093
2093
2093
2102
2102
2102
2101
2101
2101
2101
2098
2098
2098
2104
2104
2104
2102
2102
2102
2101
2101
2101
2101
2101
2101
2101
2099
2099
2099
2100
2100
2100
2103
2103
2103
2103
2103
2103
2104
2104
2104
2104
2104
2104
2104
2103
2103
2103
2098
2098
2098
2106
2106
2106
2104
2104
2104
2104
2097
2097
2097
2103
2103
2103
2099
2099
2099
2097
2097
2097
2101
2101
2101
2101
2099
2099
2099
2101
2101
2101
2102
2102
2102
2104
2104
2104
2100
2100
2100
2100
2101
2101
2101
2104
2104
2104
2106
2106
2106
2103
2103
2103
2103
2103
2103
2103
2100
2100
2100
2102
2102
2102
2106
2106
2106
2098
2098
2098
2100
2100
2100
2100
2102
2102
2102
2102
2102
2102
2099
2099
2099
2107
2107
2107
2099
2099
2099
2099
2093
2093
2093
2103
2103
2103
2101
2101
2101
2103
2103
2103
2111
2111
2111
2111
2100
2100
2100
2100
2100
2100
2099
2099
2099
2100
2100
2100
2102
2102
2102
2102
2101
2101
2101
2100
2100
2100
2102
2102
2102
2101
2101
2101
2102
2102
2102
2102
2101
2101
2101
2100
2100
2100
2099
2099
2099
2101
2101
2101
2101
2101
2101
2101
2099
2099
2099
2101
2101
2101
2101
2101
2101
2101
2101
2101
2098
2098
2098
2098
2099
2099
2099
2098
2098
2098
2100
2100
2100
2099
2099
2099
2097
2097
2097
2097
2100
2100
2100
2106
2106
2106
2101
2101
2101
2101
2101
2101
2098
2098
2098
2098
2101
2101
2101
2095
2095
2095
2103
2103
2103
2100
2100
2100
2099
2099
2099
2099
2098
2098
2098
2102
2102
2102
2102
2102
2102
2102
2102
2102
2097
2097
2097
2097
2103
2103
2103
2100
2100
2100
2100
2100
2100
2100
2100
2100
2097
2097
2097
2097
2100
2100
2100
2101
2101
2101
2100
2100
2100
2101
2101
2101
2100
2100
2100
2100
2098
2098
2098
2098
2098
2098
2102
2102
2102
2099
2099
2099
2104
2104
2104
2104
2099
2099
2099
2102
2102
2102
2101
2101
2101
2104
2104
2104
2099
2099
2099
2099
2095
2095
2095
2100
2100
2100
2099
2099
2099
2101
2101
2101
2106
2106
2106
2106
2100
2100
2100
2106
2106
2106
2103
2103
2103
2101
2101
2101
2101
2101
2101
2101
2099
2099
2099
2101
2101
2101
2104
2104
2104
2098
2098
2098
2102
2102
2102
2102
2096
2096
2096
2101
2101
2101
2101
2101
2101
2101
2101
2101
2100
2100
2100
2100
2100
2100
2100
2102
2102
2102
2099
2099
2099
2101
2101
2101
2095
2095
2095
2095
2103
2103
2103
2112
2112
2112
2102
2102
2102
2102
2102
2102
2099
2099
2099
2099
2096
2096
2096
2097
2097
2097
2100
2100
2100
2103
2103
2103
2102
2102
2102
2102
2097
2097
2097
2103
2103
2103
2102
2102
2102
2108
2108
2108
2101
2101
2101
2101
2099
2099
2099
2102
2102
2102
2098
2098
2098
2105
2105
2105
2107
2107
2107
2107
2102
2102
2102
2101
2101
2101
2101
2101
2101
2101
2101
2101
2102
2102
2102
2102
2101
2101
2101
2104
2104
2104
2101
2101
2101
2099
2099
2099
2102
2102
2102
2102
2099
2099
2099
2107
2107
2107
2097
2097
2097
2097
2097
2097
2102
2102
2102
2102
2102
2102
2102
2102
2102
2102
2101
2101
2101
2098
2098
2098
2099
2099
2099
2099
2099
2099
2099
2100
2100
2100
2098
2098
2098
2101
2101
2101
2099
2099
2099
2099
2096
2096
2096
2107
2107
2107
2099
2099
2099
2100
2100
2100
2103
2103
2103
2103
2099
2099
2099
2097
2097
2097
2101
2101
2101
2103
2103
2103
2097
2097
2097
2097
2099
2099
2099
2101
2101
2101
2104
2104
2104
2105
2105
2105
2102
2102
2102
2102
2105
2105
2105
2099
2099
2099
2103
2103
2103
2100
2100
2100
2102
2102
2102
2102
2101
2101
2101
2101
2101
2101
2095
2095
2095
2102
2102
2102
2101
2101
2101
2101
2099
2099
2099
2103
2103
2103
2099
2099
2099
2099
2099
2099
2101
2101
2101
2101
2102
2102
2102
2102
2102
2102
2103
2103
2103
2099
2099
2099
2101
2101
2101
2101
2099
2099
2099
2101
2101
2101
2099
2099
2099
2102
2102
2102
2092
2092
2092
2092
2100
2100
2100
2104
2104
2104
2102
2102
2102
2109
2109
2109
2101
2101
2101
2101
2098
2098
2098
2099
2099
2099
2093
2093
2093
2099
2099
2099
2101
2101
2101
2101
2099
2099
2099
2100
2100
2100
2097
2097
2097
2097
2097
2097
2100
2100
2100
2100
2097
2097
2097
2099
2099
2099
2099
2099
2099
2105
2105
2105
2096
2096
2096
2096
2105
2105
2105
2102
2102
2102
2100
2100
2100
2100
2100
2100
2095
2095
2095
2095
2095
2095
2095
2105
2105
2105
2099
2099
2099
2101
2101
2101
2098
2098
2098
2098
2099
2099
2099
2103
2103
2103
2104
2104
2104
2100
2100
2100
2100
2100
2100
2100
2098
2098
2098
2101
2101
2101
2097
2097
2097
2097
2097
2097
2101
2101
2101
2101
2098
2098
2098
2102
2102
2102
2101
2101
2101
2104
2104
2104
2103
2103
2103
2103
2099
2099
2099
2101
2101
2101
2101
2101
2101
2100
2100
2100
2099
2099
2099
2099
2107
2107
2107
2098
2098
2098
2103
2103
2103
2104
2104
2104
2102
2102
2102
2102
2099
2099
2099
2103
2103
2103
2099
2099
2099
2103
2103
2103
2105
2105
2105
2105
2101
2101
2101
2100
2100
2100
2096
2096
2096
2103
2103
2103
2102
2102
2102
2102
2101
2101
2101
2099
2099
2099
2103
2103
2103
2103
2103
2103
2103
2103
2103
2103
2097
2097
2097
2101
2101
2101
2099
2099
2099
2106
2106
2106
2101
2101
2101
2101
2101
2101
2101
2102
2102
2102
2097
2097
2097
2108
2108
2108
2099
2099
2099
2099
2110
2110
2110
2100
2100
2100
2099
2099
2099
2100
2100
2100
2100
2100
2100
2100
2095
2095
2095
2108
2108
2108
2103
2103
2103
2102
2102
2102
2102
2102
2102
2102
2103
2103
2103
2100
2100
2100
2095
2095
2095
2102
2102
2102
2102
2102
2102
2102
2099
2099
2099
2101
2101
2101
2097
2097
2097
2100
2100
2100
2102
2102
2102
2102
2102
2102
2102
2102
2102
2102
2099
2099
2099
2101
2101
2101
2102
2102
2102
2102
2094
2094
2094
2102
2102
2102
2099
2099
2099
2101
2101
2101
2099
2099
2099
2099
2097
2097
2097
2106
2106
2106
2101
2101
2101
2101
2101
2101
2103
2103
2103
2103
2100
2100
2100
2103
2103
2103
2097
2097
2097
2099
2099
2099
2102
2102
2102
2102
2101
2101
2101
2100
2100
2100
2103
2103
2103
2093
2093
2093
2105
2105
2105
2105
2100
2100
2100
2100
2100
2100
2102
2102
2102
2102
2102
2102
2102
2102
2102
2102
2103
2103
2103
2104
2104
2104
2101
2101
2101
2103
2103
2103
2100
2100
2100
2100
2100
2100
2100
2102
2102
2102
2103
2103
2103
2099
2099
2099
2102
2102
2102
2102
2104
2104
2104
2102
2102
2102
2099
2099
2099
2102
2102
2102
2101
2101
2101
2101
2097
2097
2097
2100
2100
2100
2099
2099
2099
2098
2098
2098
2100
2100
2100
2100
2100
2100
2100
2101
2101
2101
2099
2099
2099
2102
2102
2102
2102
2102
2102
2102
2099
2099
2099
2101
2101
2101
2092
2092
2092
2100
2100
2100
2102
2102
2102
2102
2100
2100
2100
2103
2103
2103
2102
2102
2102
2097
2097
2097
2100
2100
2100
2100
2101
2101
2101
2099
2099
2099
2101
2101
2101
2098
2098
2098
2100
2100
2100
2100
2098
2098
2098
2104
2104
2104
2099
2099
2099
2102
2102
2102
2102
2102
2102
2102
2098
2098
2098
2106
2106
2106
2101
2101
2101
2102
2102
2102
2102
2102
2102
2102
2100
2100
2100
2101
2101
2101
2100
2100
2100
2098
2098
2098
2103
2103
2103
2103
2102
2102
2102
2100
2100
2100
2103
2103
2103
2100
2100
2100
2097
2097
2097
2097
2102
2102
2102
2098
2098
2098
2099
2099
2099
2103
2103
2103
2102
2102
2102
2102
2101
2101
2101
2102
2102
2102
2095
2095
2095
2100
2100
2100
2104
2104
2104
2104
2093
2093
2093
2099
2099
2099
2097
2097
2097
2101
2101
2101
2099
2099
2099
2099
2103
2103
2103
2099
2099
2099
2099
2099
2099
2102
2102
2102
2102
2102
2102
2102
2096
2096
2096
2102
2102
2102
2101
2101
2101
2100
2100
2100
2100
2100
2100
2100
2100
2100
2100
2099
2099
2099
2095
2095
2095
2101
2101
2101
2102
2102
2102
2102
2100
2100
2100
2100
2100
2100
2100
2100
2100
2108
2108
2108
2101
2101
2101
2101
2090
2090
2090
2102
2102
2102
2103
2103
2103
2100
2100
2100
2104
2104
2104
2104
2096
2096
2096
2104
2104
2104
2100
2100
2100
2100
2100
2100
2108
2108
2108
2108
2103
2103
2103
2097
2097
2097
2100
2100
2100
2100
2100
2100
2101
2101
2101
2101
2098
2098
2098
2103
2103
2103
2098
2098
