2219
2219
2219
2218
2218
2218
2217
2217
2217
2217
2217
2217
2214
2214
2214
2220
2220
2220
2220
2222
2222
2222
2218
2218
2218
2222
2222
2222
2217
2217
2217
2222
2222
2222
2222
2219
2219
2219
2215
2215
2215
2221
2221
2221
2219
2219
2219
2222
2222
2222
2222
2222
2222
2222
2219
2219
2219
2222
2222
2222
2219
2219
2219
2222
2222
2222
2222
2221
2221
2221
2220
2220
2220
2217
2217
2217
2223
2223
2223
2221
2221
2221
2221
2222
2222
2222
2224
2224
2224
2227
2227
2227
2222
2222
2222
2217
2217
2217
2220
2220
2220
2220
2222
2222
2222
2219
2219
2219
2223
2223
2223
2215
2215
2215
2222
2222
2222
2222
2223
2223
2223
2217
2217
2217
2221
2221
2221
2219
2219
2219
2221
2221
2221
2221
2223
2223
2223
2219
2219
2219
2226
2226
2226
2214
2214
2214
2215
2215
2215
2215
2225
2225
2225
2216
2216
2216
2222
2222
2222
2218
2218
2218
2218
2218
2218
2218
2224
2224
2224
2218
2218
2218
2217
2217
2217
2219
2219
2219
2224
2224
2224
2224
2223
2223
2223
2221
2221
2221
2223
2223
2223
2217
2217
2217
2223
2223
2223
2223
2219
2219
2219
2211
2211
2211
2222
2222
2222
2218
2218
2218
2215
2215
2215
2215
2224
2224
2224
2217
2217
2217
2221
2221
2221
2217
2217
2217
2221
2221
2221
2221
2222
2222
2222
2221
2221
2221
2222
2222
2222
2215
2215
2215
2223
2223
2223
2223
2221
2221
2221
2218
2218
2218
2221
2221
2221
2217
2217
2217
2222
2222
2222
2222
2222
2222
2222
2219
2219
2219
2223
2223
2223
2223
2223
2223
2223
2223
2223
2223
2221
2221
2221
2225
2225
2225
2221
2221
2221
2218
2218
2218
2222
2222
2222
2222
2222
2222
2222
2215
2215
2215
2223
2223
2223
2223
2223
2223
2226
2226
2226
2226
2220
2220
2220
2215
2215
2215
2224
2224
2224
2219
2219
2219
2220
2220
2220
2220
2221
2221
2221
2217
2217
2217
2223
2223
2223
2221
2221
2221
2230
2230
2230
2230
2222
2222
2222
2217
2217
2217
2217
2217
2217
2218
2218
2218
2221
2221
2221
2221
2220
2220
2220
2220
2220
2220
2223
2223
2223
2220
2220
2220
2221
2221
2221
2221
2221
2221
2221
2219
2219
2219
2222
2222
2222
2217
2217
2217
2220
2220
2220
2220
2221
2221
2221
2218
2218
2218
2222
2222
2222
2215
2215
2215
2224
2224
2224
2224
2220
2220
2220
2228
2228
2228
2218
2218
2218
2217
2217
2217
2223
2223
2223
2223
2218
2218
2218
2216
2216
2216
2221
2221
2221
2222
2222
2222
2224
2224
2224
2224
2225
2225
2225
2219
2219
2219
2221
2221
2221
2221
2221
2221
2223
2223
2223
2223
2220
2220
2220
2224
2224
2224
2224
2224
2224
2217
2217
2217
2217
2217
2217
2217
2222
2222
2222
2218
2218
2218
2220
2220
2220
2218
2218
2218
2222
2222
2222
2222
2221
2221
2221
2217
2217
2217
2224
2224
2224
2221
2221
2221
2223
2223
2223
2223
2220
2220
2220
2210
2210
2210
2222
2222
2222
2217
2217
2217
2211
2211
2211
2211
2220
2220
2220
2221
2221
2221
2223
2223
2223
2218
2218
2218
2230
2230
2230
2230
2220
2220
2220
2220
2220
2220
2221
2221
2221
2219
2219
2219
2221
2221
2221
2221
2221
2221
2221
2216
2216
2216
2222
2222
2222
2217
2217
2217
2222
2222
2222
2222
2220
2220
2220
2217
2217
2217
2219
2219
2219
2220
2220
2220
2222
2222
2222
2222
2223
2223
2223
2219
2219
2219
2221
2221
2221
2221
2221
2221
2225
2225
2225
2225
2224
2224
2224
2213
2213
2213
2223
2223
2223
2219
2219
2219
2220
2220
2220
2220
2222
2222
2222
2220
2220
2220
2217
2217
2217
2219
2219
2219
2227
2227
2227
2227
2223
2223
2223
2218
2218
2218
2221
2221
2221
2213
2213
2213
2221
2221
2221
2221
2225
2225
2225
2219
2219
2219
2223
2223
2223
2217
2217
2217
2221
2221
2221
2221
2222
2222
2222
2215
2215
2215
2226
2226
2226
2217
2217
2217
2223
2223
2223
2223
2224
2224
2224
2219
2219
2219
2215
2215
2215
2219
2219
2219
2226
2226
2226
2226
2225
2225
2225
2218
2218
2218
2224
2224
2224
2219
2219
2219
2227
2227
2227
2227
2225
2225
2225
2217
2217
2217
2219
2219
2219
2216
2216
2216
2221
2221
2221
2221
2220
2220
2220
2218
2218
2218
2223
2223
2223
2218
2218
2218
2222
2222
2222
2222
2219
2219
2219
2221
2221
2221
2221
2221
2221
2211
2211
2211
2221
2221
2221
2221
2222
2222
2222
2220
2220
2220
2222
2222
2222
2217
2217
2217
2225
2225
2225
2225
2222
2222
2222
2221
2221
2221
2219
2219
2219
2218
2218
2218
2222
2222
2222
2222
2220
2220
2220
2217
2217
2217
2220
2220
2220
2224
2224
2224
2221
2221
2221
2221
2221
2221
2221
2212
2212
2212
2221
2221
2221
2217
2217
2217
2220
2220
2220
2220
2223
2223
2223
2217
2217
2217
2222
2222
2222
2220
2220
2220
2221
2221
2221
2221
2229
2229
2229
2217
2217
2217
2223
2223
2223
2211
2211
2211
2220
2220
2220
2220
2218
2218
2218
2219
2219
2219
2221
2221
2221
2217
2217
2217
2222
2222
2222
2222
2224
2224
2224
2214
2214
2214
2218
2218
2218
2217
2217
2217
2223
2223
2223
2223
2221
2221
2221
2218
2218
2218
2222
2222
2222
2218
2218
2218
2218
2218
2218
2218
2219
2219
2219
2220
2220
2220
2221
2221
2221
2218
2218
2218
2220
2220
2220
2220
2222
2222
2222
2221
2221
2221
2223
2223
2223
2218
2218
2218
2224
2224
2224
2224
2223
2223
2223
2219
2219
2219
2220
2220
2220
2217
2217
2217
2223
2223
2223
2223
2219
2219
2219
2217
2217
2217
2222
2222
2222
2215
2215
2215
2219
2219
2219
2219
2222
2222
2222
2212
2212
2212
2223
2223
2223
2218
2218
2218
2222
2222
2222
2222
2220
2220
2220
2217
2217
2217
2225
2225
2225
2216
2216
2216
2216
2216
2216
2216
2219
2219
