2004
2004
2006
2006
2006
2003
2003
2003
2005
2005
2005
2007
2007
2007
2002
2002
2002
2002
2004
2004
2004
2007
2007
2007
2005
2005
2005
2005
2005
2005
2005
2005
2005
2005
2003
2003
2003
2004
2004
2004
1999
1999
1999
2006
2006
2006
1999
1999
1999
1999
2011
2011
2011
2003
2003
2003
2009
2009
2009
2010
2010
2010
2002
2002
2002
2002
2004
2004
2004
2003
2003
2003
2004
2004
2004
2006
2006
2006
2009
2009
2009
2009
2003
2006
2006
2003
2003
2003
2001
2001
2001
2005
2005
2005
2003
2003
2003
2003
2003
2003
2003
2003
2003
2003
2004
2004
2004
2008
2008
2008
2004
2004
2004
2007
2007
2007
2007
2002
2002
2002
2008
2008
2008
2003
2003
2003
2003
2003
2003
2002
2002
2002
2002
2015
2015
2015
2003
2003
2003
2003
2003
2003
2006
2006
2006
2011
2011
2011
2011
2002
2002
2002
2004
2004
2004
1998
1998
1998
2004
2004
2004
2002
2002
2002
2002
2005
2005
2005
2004
2004
2004
2002
2002
2002
2005
2005
2005
2008
2008
2008
2008
2000
2000
2000
2003
2003
2003
2004
2004
2004
2005
2005
2005
2005
2005
2005
2005
2002
2002
2002
2007
2007
2007
2003
2003
2003
2004
2004
2004
2001
2001
2001
2001
2002
2002
2002
1998
1998
1998
2006
2006
2006
2005
2005
2005
2002
2002
2002
2002
2002
2002
2002
2002
2002
2002
2006
2006
2006
2003
2003
2003
2004
2004
2004
2004
2006
2006
2006
1999
1999
1999
2001
2001
2001
2009
2009
2009
2006
2006
2006
2006
2004
2004
2004
2007
2007
2007
2005
2005
2005
2004
2004
2004
2008
2008
2008
2008
2004
2004
2004
2005
2005
2005
1996
1996
1996
2004
2004
2004
1998
1998
1998
1998
2004
2004
2004
2008
2008
2008
2001
2001
2001
2001
2001
2001
2001
2001
2001
2001
2007
2007
2007
2005
2005
2005
2004
2004
2004
2004
2004
2004
2011
2011
2011
2011
2002
2002
2002
2006
2006
2006
2001
2001
2001
2003
2003
2003
2007
2007
2007
2007
2011
2011
2011
2004
2004
2004
2002
2002
2002
2006
2006
2006
2002
2002
2002
2002
2005
2005
2005
2003
2003
2003
2005
2005
2005
2005
2005
2005
2003
2003
2003
2003
2004
2004
2004
2003
2003
2003
2005
2005
2005
2012
2012
2012
2004
2004
2004
2004
1999
1999
1999
2007
2007
2007
2003
2003
2003
2010
2010
2010
2005
2005
2005
2005
2005
2005
2005
2006
2006
2006
2004
2004
2004
2005
2005
2005
2005
2005
2005
2005
2006
2006
2006
2005
2005
2005
2005
2005
2005
2007
2007
2007
2003
2003
2003
2003
2004
2004
2004
2005
2005
2005
2005
2005
2005
2001
2001
2001
2008
2008
2008
2008
2012
2012
2012
2005
2005
2005
1999
1999
1999
2005
2005
2005
2003
2003
2003
2003
2001
2001
2001
2005
2005
2005
2002
2002
2002
2010
2010
2010
1999
1999
1999
1999
2006
2006
2006
2005
2005
2005
2004
2004
2004
2005
2005
2005
2005
2005
2005
2005
2000
2000
2000
2011
2011
2011
2006
2006
2006
2007
2007
2007
1999
1999
1999
1999
2003
2003
2003
2004
2004
2004
2008
2008
2008
2005
2005
2005
2004
2004
2004
2004
2004
2004
2004
2006
2006
2006
2003
2003
2003
2011
2011
2011
2005
2005
2005
2005
2002
2002
2002
2009
2009
2009
2001
2001
2001
2003
2003
2003
2004
2004
2004
2004
2002
2002
2002
2009
2009
2009
2003
2003
2003
2001
2001
2001
2004
2004
2004
2004
2002
2002
2002
1996
1996
1996
2003
2003
2003
2004
2004
2004
2001
2001
2001
2001
2004
2004
2004
2011
2011
2011
2003
2003
2003
2003
2003
2003
2002
2002
2002
2002
2002
2002
2002
2005
2005
2005
2004
2004
2004
2010
2010
2010
2001
2001
2001
2001
2004
2004
2004
2005
2005
2005
2005
2005
2005
2005
2005
2005
2003
2003
2003
2003
2002
2002
2002
2003
2003
2003
2005
2005
2005
2005
2005
2005
2004
2004
2004
2004
2002
2002
2002
2005
2005
2005
2004
2004
2004
2003
2003
2003
2003
2003
2003
2003
2003
2003
2003
2002
2002
2002
2001
2001
2001
2000
2000
2000
2004
2004
2004
2004
2006
2006
2006
2003
2003
2003
2007
2007
2007
2007
2007
2007
2005
2005
2005
2005
2005
2005
2005
2006
2006
2006
2001
2001
2001
2009
2009
2009
1998
1998
1998
1998
2010
2010
2010
2005
2005
2005
2006
2006
2006
2005
2005
2005
2009
2009
2009
2009
2006
2006
2006
2009
2009
2009
2004
2004
2004
2001
2001
2001
2004
2004
2004
2004
2003
2003
2003
2006
2006
2006
2005
2005
2005
2010
2010
2010
2002
2002
2002
2002
2004
2004
2004
2007
2007
2007
2003
2003
2003
2006
2006
2006
2003
2003
2003
2003
2002
2002
2002
2002
2002
2002
2002
2002
2002
2001
2001
2001
2002
2002
2002
2002
2000
2000
2000
2006
2006
2006
2005
2005
2005
2008
2008
2008
2003
2003
2003
2003
2004
2004
2004
2007
2007
2007
2001
2001
2001
2005
2005
2005
2005
2005
2005
2005
2004
2004
2004
2004
2004
2004
2007
2007
2007
2005
2005
2005
2002
2002
2002
2002
2006
2006
2006
2006
2006
2006
2007
2007
2007
2003
2003
2003
2009
2009
2009
2009
2004
2004
2004
2005
2005
2005
2004
2004
2004
2004
2004
2004
2018
2018
2018
2018
2004
2004
2004
2002
2002
2002
2000
2000
2000
1998
1998
1998
2000
2000
2000
2000
2011
2011
2011
2004
2004
2004
2005
2005
2005
2005
2005
2005
2003
2003
2003
2003
2007
2007
2007
2011
2011
2011
2007
2007
2007
2007
2007
2007
2003
2003
2003
2003
2003
2003
2003
2004
2004
2004
2008
2008
2008
2004
2004
2004
2006
2006
2006
2006
2002
2002
2002
2006
2006
2006
2003
2003
2003
2005
2005
2005
2004
2004
2004
2004
2004
2004
2004
2010
2010
2010
2004
2004
2004
2005
2005
2005
2007
2007
2007
2007
2003
2003
2003
2005
2005
2005
2004
2004
2004
2004
2004
2004
2005
2005
2005
2005
2005
2005
2005
