2096
2096
2091
2091
2091
2097
2097
2097
2096
2096
2096
2100
2100
2100
2090
2090
2090
2090
2098
2098
2098
2098
2098
2098
2096
2096
2096
2098
2098
2098
2094
2094
2094
2094
2087
2087
2087
2097
2097
2097
2096
2096
2096
2097
2097
2097
2097
2097
2097
2097
2101
2101
2101
2098
2098
2098
2096
2096
2096
2098
2098
2098
2094
2094
2094
2094
2096
2096
2096
2096
2096
2096
2093
2093
2093
2098
2098
2098
2094
2094
2094
2094
2094
2094
2094
2098
2098
2098
2095
2095
2095
2097
2097
2097
2094
2094
2094
2094
2099
2099
2099
2098
2098
2098
2095
2095
2095
2098
2098
2098
2093
2093
2093
2093
2098
2098
2098
2096
2096
2096
2097
2097
2097
2100
2100
2100
2095
2095
2095
2095
2094
2094
2094
2097
2097
2097
2096
2096
2096
2099
2099
2099
2094
2094
2094
2094
2096
2096
2096
2101
2101
2101
2095
2095
2095
2098
2098
2098
2095
2095
2095
2095
2093
2093
2093
2096
2096
2096
2097
2097
2097
2100
2100
2100
2093
2093
2093
2093
2097
2097
2097
2087
2087
2087
2096
2096
2096
2098
2098
2098
2092
2092
2092
2092
2095
2095
2095
2096
2096
2096
2093
2093
2093
2099
2099
2099
2093
2093
2093
2093
2096
2096
2096
2097
2097
2097
2097
2097
2097
2100
2100
2100
2093
2093
2093
2093
2095
2095
2095
2095
2095
2095
2097
2097
2097
2098
2098
2098
2095
2095
2095
2095
2092
2092
2092
2098
2098
2098
2095
2095
2095
2095
2095
2095
2093
2093
2093
2093
2094
2094
2094
2098
2098
2098
2098
2098
2098
2103
2103
2103
2093
2093
2093
2093
2096
2096
2096
2097
2097
2097
2096
2096
2096
2102
2102
2102
2093
2093
2093
2093
2095
2095
2095
2096
2096
2096
2095
2095
2095
2100
2100
2100
2096
2096
2096
2096
2094
2094
2094
2095
2095
2095
2099
2099
2099
2098
2098
2098
2095
2095
2095
2095
2097
2097
2097
2094
2094
2094
2099
2099
2099
2100
2100
2100
2094
2094
2094
2094
2097
2097
2097
2097
2097
2097
2098
2098
2098
2099
2099
2099
2093
2093
2093
2093
2096
2096
2096
2096
2096
2096
2095
2095
2095
2097
2097
2097
2094
2094
2094
2094
2094
2094
2094
2096
2096
2096
2097
2097
2097
2099
2099
2099
2095
2095
2095
2095
2096
2096
2096
2100
2100
2100
2096
2096
2096
2099
2099
2099
2095
2095
2095
2095
2095
2095
2095
2093
2093
2093
2095
2095
2095
2099
2099
2099
2091
2091
2091
2091
2096
2096
2096
2095
2095
2095
2085
2085
2085
2102
2102
2102
2089
2089
2089
2089
2096
2096
2096
2099
2099
2099
2096
2096
2096
2100
2100
2100
2093
2093
2093
2093
2100
2100
2100
2095
2095
2095
2097
2097
2097
2093
2093
2093
2095
2095
2095
2095
2098
2098
2098
2095
2095
2095
2095
2095
2095
2100
2100
2100
2093
2093
2093
2093
2096
2096
2096
2099
2099
2099
2099
2099
2099
2101
2101
2101
2092
2092
2092
2092
2095
2095
2095
2096
2096
2096
2098
2098
2098
2101
2101
2101
2095
2095
2095
2095
2094
2094
2094
2098
2098
2098
2096
2096
2096
2097
2097
2097
2095
2095
2095
2095
2093
2093
2093
2094
2094
2094
2099
2099
2099
2099
2099
2099
2094
2094
2094
2094
2096
2096
2096
2097
2097
2097
2093
2093
2093
2099
2099
2099
2094
2094
2094
2094
2101
2101
2101
2093
2093
2093
2095
2095
2095
2098
2098
2098
2092
2092
2092
2092
2096
2096
2096
2098
2098
2098
2096
2096
2096
2097
2097
2097
2094
2094
2094
2094
2099
2099
2099
2098
2098
2098
2097
2097
2097
2098
2098
2098
2096
2096
2096
2096
2095
2095
2095
2096
2096
2096
2096
2096
2096
2100
2100
2100
2095
2095
2095
2095
2095
2095
2095
2094
2094
2094
2095
2095
2095
2100
2100
2100
2096
2096
2096
2096
2096
2096
2096
2095
2095
2095
2097
2097
2097
2099
2099
2099
2092
2092
2092
2092
2097
2097
2097
2097
2097
2097
2098
2098
2098
2105
2105
2105
2095
2095
2095
2095
2094
2094
2094
2096
2096
2096
2096
2096
2096
2096
2096
2096
2097
2097
2097
2097
2101
2101
2101
2094
2094
2094
2094
2094
2094
2099
2099
2099
2096
2096
2096
2096
2091
2091
2091
2095
2095
2095
2098
2098
2098
2098
2098
2098
2093
2093
2093
2093
2096
2096
2096
2098
2098
2098
2098
2098
2098
2099
2099
2099
2094
2094
2094
2094
2095
2095
2095
2097
2097
2097
2099
2099
2099
2100
2100
2100
2092
2092
2092
2092
2096
2096
2096
2095
2095
2095
2096
2096
2096
2100
2100
2100
2092
2092
2092
2092
2097
2097
2097
2095
2095
2095
2090
2090
2090
2099
2099
2099
2093
2093
2093
2093
2098
2098
2098
2097
2097
2097
2096
2096
2096
2095
2095
2095
2094
2094
2094
2094
2099
2099
2099
2097
2097
2097
2096
2096
2096
2097
2097
2097
2094
2094
2094
2094
2095
2095
2095
2093
2093
2093
2097
2097
2097
2098
2098
2098
2092
2092
2092
2092
2095
2095
2095
2097
2097
2097
2094
2094
2094
2099
2099
2099
2093
2093
2093
2093
2095
2095
2095
2099
2099
2099
2097
2097
2097
2099
2099
2099
2094
2094
2094
2094
2095
2095
2095
2097
2097
2097
2097
2097
2097
2097
2097
2097
2092
2092
2092
2092
2096
2096
2096
2097
2097
2097
2098
2098
2098
2098
2098
2098
2093
2093
2093
2093
2103
2103
2103
2098
2098
2098
2098
2098
2098
2098
2098
2098
2094
2094
2094
2094
2095
2095
2095
2099
2099
2099
2100
2100
2100
2101
2101
2101
2094
2094
2094
2094
2095
2095
2095
2099
2099
2099
2098
2098
2098
2096
2096
2096
2094
2094
2094
2094
2097
2097
2097
2100
2100
2100
2098
2098
2098
2100
2100
2100
2093
2093
2093
2093
2096
2096
2096
2097
2097
2097
2094
2094
2094
2100
2100
2100
2093
2093
2093
2093
2096
2096
2096
2097
2097
2097
2096
2096
2096
2100
2100
2100
2096
2096
2096
2096
2094
2094
2094
2090
2090
2090
2097
2097
2097
2101
2101
2101
2094
2094
2094
2094
2100
2100
2100
2097
2097
2097
2095
2095
2095
2097
2097
2097
2094
2094
2094
2094
2096
2096
2096
2096
2096
2096
2095
2095
2095
2098
2098
2098
2097
2097
2097
2097
2097
2097
2097
2098
2098
2098
2097
2097
2097
2099
2099
2099
2093
2093
2093
2093
2098
2098
2098
2100
2100
2100
2098
2098
2098
2097
2097
2097
2097
2097
2097
2097
2096
2096
2096
2101
2101
2101
2096
2096
2096
2100
2100
2100
2094
2094
2094
2094
2096
2096
2096
2096
2096
2096
2097
2097
2097
2098
2098
2098
2093
2093
2093
2093
2097
2097
2097
2096
2096
2096
2098
2098
2098
2099
2099
2099
2094
2094
2094
2094
2099
2099
2099
2098
2098
2098
2097
2097
2097
2102
2102
2102
2098
2098
2098
2098
2096
2096
2096
2096
2096
2096
2097
2097
2097
2092
2092
2092
2093
2093
2093
2093
2097
2097
2097
2097
2097
2097
2097
2097
2097
2098
2098
2098
2096
2096
2096
2096
2092
2092
2092
2095
2095
2095
2096
2096
2096
2100
2100
2100
2095
2095
2095
2095
2094
2094
2094
2096
2096
2096
2092
2092
2092
2097
2097
2097
2093
2093
2093
2093
2096
2096
2096
2096
2096
2096
2099
2099
2099
2100
2100
2100
2094
2094
2094
2094
2095
2095
2095
2097
2097
2097
2094
2094
2094
2097
2097
2097
2095
2095
2095
2095
2096
2096
2096
2096
2096
2096
2094
2094
2094
2100
2100
2100
2094
2094
2094
2094
2096
2096
2096
2097
2097
2097
2098
2098
2098
2099
2099
2099
2094
2094
2094
2094
2097
2097
2097
2097
2097
2097
2099
2099
2099
2099
2099
2099
2092
2092
2092
2092
2096
2096
2096
2095
2095
2095
2096
2096
2096
2097
2097
2097
2093
2093
2093
2093
2095
2095
2095
2097
2097
2097
2097
2097
2097
2098
2098
2098
2095
2095
2095
2095
2094
2094
2094
2096
2096
2096
2095
2095
2095
2100
2100
2100
2093
2093
2093
2093
2096
2096
2096
2095
2095
2095
2094
2094
2094
2102
2102
2102
2094
2094
2094
2094
2098
2098
2098
2097
2097
2097
2100
2100
2100
2103
2103
2103
2093
2093
2093
2093
2102
2102
2102
2098
2098
2098
2096
2096
2096
2100
2100
2100
2094
2094
2094
2094
2097
2097
2097
2097
2097
2097
2097
2097
2097
2100
2100
2100
2093
2093
2093
2093
2097
2097
2097
2097
2097
2097
2097
2097
2097
2098
2098
2098
2095
2095
2095
2095
2097
2097
2097
2097
2097
2097
2096
2096
2096
2097
2097
2097
2096
2096
2096
2096
2096
2096
2096
2095
2095
2095
2098
2098
2098
2100
2100
2100
2095
2095
2095
2095
2101
2101
2101
2102
2102
2102
2097
2097
2097
2101
2101
2101
2093
2093
2093
2093
2097
2097
2097
2102
2102
2102
2095
2095
2095
2099
2099
2099
2089
2089
2089
2089
2096
2096
2096
2093
2093
2093
2096
2096
2096
2101
2101
2101
2095
2095
2095
2095
2098
2098
2098
2098
2098
2098
2096
2096
2096
2096
2096
2096
2094
2094
2094
2094
2098
2098
2098
2098
2098
2098
2093
2093
2093
2098
2098
2098
2091
2091
2091
2091
2099
2099
2099
2101
2101
2101
2098
2098
2098
2102
2102
2102
2092
2092
2092
2092
2093
2093
2093
2095
2095
2095
2095
2095
2095
2098
2098
2098
2096
2096
2096
2096
2095
2095
2095
2096
2096
2096
2097
2097
2097
2101
2101
2101
2097
2097
2097
2097
2095
2095
2095
2093
2093
2093
2098
2098
2098
2100
2100
2100
2096
2096
2096
2096
2096
2096
2096
2097
2097
2097
2097
2097
2097
2099
2099
2099
2097
2097
2097
2097
2096
2096
2096
2096
2096
2096
2100
2100
2100
2100
2100
2100
2094
2094
2094
2094
2095
2095
2095
2095
2095
2095
2095
2095
2095
2097
2097
2097
2097
2097
2097
2097
2099
2099
2099
2097
2097
2097
2096
2096
2096
2100
2100
2100
2092
2092
2092
2092
2093
2093
2093
2101
2101
2101
2098
2098
2098
2097
2097
2097
2086
2086
2086
2086
2097
2097
2097
2097
2097
2097
2097
2097
2097
2099
2099
2099
2095
2095
2095
2095
2099
2099
2099
2094
2094
2094
2096
2096
2096
2101
2101
2101
2093
2093
2093
2093
2096
2096
2096
2095
2095
2095
2097
2097
2097
2097
2097
2097
2095
2095
2095
2095
2100
2100
2100
2097
2097
2097
2094
2094
2094
2097
2097
2097
2095
2095
2095
2095
2096
2096
2096
2097
2097
2097
2098
2098
2098
2100
2100
2100
2096
2096
2096
2096
2095
2095
2095
2097
2097
2097
2101
2101
2101
2101
2101
2101
2096
2096
2096
2096
2094
2094
2094
2097
2097
2097
2095
2095
2095
2099
2099
2099
2095
2095
2095
2095
2096
2096
2096
2095
2095
2095
2097
2097
2097
2098
2098
2098
2093
2093
2093
2093
2093
2093
2093
2094
2094
2094
2097
2097
2097
2099
2099
2099
2092
2092
2092
2092
2096
2096
2096
2095
2095
2095
2096
2096
2096
2099
2099
2099
2092
2092
2092
2092
2094
2094
2094
2092
2092
2092
2099
2099
2099
2098
2098
2098
2094
2094
2094
2094
2095
2095
2095
2099
2099
2099
2095
2095
2095
2101
2101
2101
2089
2089
2089
2089
2097
2097
2097
2096
2096
2096
2097
2097
2097
2101
2101
2101
2091
2091
2091
2091
2092
2092
2092
2094
2094
2094
2096
2096
2096
2098
2098
2098
2095
2095
2095
2095
2096
2096
2096
2093
2093
2093
2096
2096
2096
2102
2102
2102
2096
2096
2096
2096
2095
2095
2095
2097
2097
2097
2096
2096
2096
2100
2100
2100
2094
2094
2094
2094
2098
2098
2098
2095
2095
2095
2095
2095
2095
2097
2097
2097
2093
2093
2093
2093
2098
2098
2098
2097
2097
2097
2097
2097
2097
2099
2099
2099
2094
2094
2094
2094
2094
2094
2094
2097
2097
2097
2098
2098
2098
2098
2098
2098
2094
2094
2094
2094
2095
2095
2095
2095
2095
2095
2097
2097
2097
2099
2099
2099
2093
2093
2093
2093
2095
2095
2095
2096
2096
2096
2099
2099
2099
2100
2100
2100
2095
2095
2095
2095
2096
2096
2096
2100
2100
2100
2098
2098
2098
2099
2099
2099
2099
2099
2099
2099
2093
2093
2093
2097
2097
2097
2099
2099
2099
2100
2100
2100
2093
2093
2093
2093
2097
2097
2097
2097
2097
2097
2097
2097
2097
2099
2099
2099
2093
2093
2093
2093
2097
2097
2097
2098
2098
2098
2095
2095
2095
2100
2100
2100
2092
2092
2092
2092
2096
2096
2096
2097
2097
2097
2096
2096
2096
2099
2099
2099
2093
2093
2093
2093
2101
2101
2101
2094
2094
2094
2097
2097
2097
2097
2097
2097
2097
2097
2097
2097
2093
2093
2093
2099
2099
2099
2096
2096
2096
2099
2099
2099
2093
2093
2093
2093
2094
2094
2094
2098
2098
2098
2095
2095
2095
2097
2097
2097
2096
2096
2096
2096
2096
2096
2096
2097
2097
2097
2095
2095
2095
2097
2097
2097
2095
2095
2095
2095
2094
2094
2094
2096
2096
2096
2099
2099
2099
2099
2099
2099
2096
2096
2096
2096
2096
2096
2096
2098
2098
2098
2097
2097
2097
2097
2097
2097
2095
2095
2095
2095
2095
2095
2095
2097
2097
2097
2096
2096
2096
2101
2101
2101
2092
2092
2092
2092
2095
2095
2095
2098
2098
2098
2099
2099
2099
2098
2098
2098
2093
2093
2093
2093
2091
2091
2091
2100
2100
2100
2096
2096
2096
2097
2097
2097
2097
2097
2097
2097
2098
2098
2098
2094
2094
2094
2095
2095
2095
2097
2097
2097
2091
2091
2091
2091
2096
2096
2096
2098
2098
2098
2098
2098
2098
2099
2099
2099
2097
2097
2097
2097
2100
2100
2100
2096
2096
2096
2096
2096
2096
2091
2091
2091
2094
2094
2094
2094
2096
2096
2096
2096
2096
2096
2097
2097
2097
2099
2099
2099
2093
2093
2093
2093
2097
2097
2097
2097
2097
2097
2097
2097
2097
2096
2096
2096
2095
2095
2095
2095
2093
2093
2093
2096
2096
2096
2097
2097
2097
2101
2101
2101
2094
2094
2094
2094
2095
2095
2095
2093
2093
2093
2098
2098
2098
2102
2102
2102
2093
2093
2093
2093
2097
2097
2097
2097
2097
2097
2094
2094
2094
2097
2097
2097
2093
2093
2093
2093
2093
2093
2093
2097
2097
2097
2095
2095
2095
2097
2097
2097
2094
2094
2094
2094
2098
2098
2098
2085
2085
2085
2095
2095
2095
2099
2099
2099
2091
2091
2091
2091
2096
2096
2096
2096
2096
2096
2098
2098
2098
2098
2098
2098
2096
2096
2096
2096
2096
2096
2096
2097
2097
2097
2098
2098
2098
2098
2098
2098
2092
2092
2092
2092
2097
2097
2097
2095
2095
2095
2092
2092
2092
2098
2098
2098
2090
2090
2090
2090
2093
2093
2093
2096
2096
2096
2098
2098
2098
2100
2100
2100
2096
2096
2096
2096
2096
2096
2096
2097
2097
2097
2097
2097
2097
2100
2100
2100
2093
2093
2093
2093
2097
2097
2097
2098
2098
2098
2097
2097
2097
2097
2097
2097
2092
2092
2092
2092
2097
2097
2097
2094
2094
2094
2100
2100
2100
2098
2098
2098
2094
2094
2094
2094
2099
2099
2099
2097
2097
2097
2097
2097
2097
2099
2099
2099
2093
2093
2093
2093
2099
2099
2099
2097
2097
2097
2097
2097
2097
2104
2104
2104
2094
2094
2094
2094
2099
2099
2099
2097
2097
2097
2096
2096
2096
2098
2098
2098
2092
2092
2092
2092
2096
2096
2096
2095
2095
2095
2099
2099
2099
2099
2099
2099
2094
2094
2094
2094
2096
2096
2096
2095
2095
2095
2099
2099
2099
2098
2098
2098
2097
2097
2097
2097
2096
2096
2096
2096
2096
2096
2096
2096
2096
2098
2098
2098
2096
2096
2096
2096
2098
2098
2098
2096
2096
2096
2096
2096
2096
2099
2099
2099
2096
2096
2096
2096
2096
2096
2096
2099
2099
2099
2096
2096
2096
2101
2101
2101
2093
2093
2093
2093
2097
2097
2097
2101
2101
2101
2095
2095
2095
2098
2098
2098
2095
2095
2095
2095
2096
2096
2096
2096
2096
2096
2096
2096
2096
2100
2100
2100
2097
2097
2097
2097
2097
2097
2097
2092
2092
2092
2097
2097
2097
2097
2097
2097
2095
2095
2095
2095
2095
2095
2095
2095
2095
2095
2094
2094
2094
2096
2096
2096
2094
2094
2094
2094
2098
2098
2098
2096
2096
2096
2098
2098
2098
2096
2096
2096
2096
2096
2096
2096
2099
2099
2099
2095
2095
2095
2097
2097
2097
2093
2093
2093
2093
2093
2093
2093
2098
2098
2098
2095
2095
2095
2096
2096
2096
2102
2102
2102
2093
2093
2093
2093
2097
2097
2097
2096
2096
2096
2093
2093
2093
2101
2101
2101
2094
2094
2094
2094
2094
2094
2094
2097
2097
2097
2095
2095
2095
2097
2097
2097
2096
2096
2096
2096
2093
2093
2093
2100
2100
2100
2095
2095
2095
2102
2102
2102
2091
2091
2091
2091
2094
2094
2094
2095
2095
2095
2097
2097
2097
2099
2099
2099
2092
2092
2092
2092
2096
2096
2096
2098
2098
2098
2092
2092
2092
2099
2099
2099
2095
2095
2095
2095
2096
2096
2096
2098
2098
2098
2097
2097
2097
2101
2101
2101
2095
2095
2095
2095
2094
2094
2094
2096
2096
2096
2098
2098
2098
2098
2098
2098
2092
2092
2092
2092
2097
2097
2097
2097
2097
2097
2097
2097
2097
2097
2097
2097
2095
2095
2095
2095
2095
2095
2095
2098
2098
2098
2096
2096
2096
2099
2099
2099
2098
2098
2098
2098
2096
2096
2096
2097
2097
2097
2098
2098
2098
2098
2098
2098
2091
2091
2091
2091
2098
2098
2098
2096
2096
2096
2096
2096
2096
2100
2100
2100
2094
2094
2094
2094
2100
2100
2100
2096
2096
2096
2096
2096
2096
2095
2095
2095
2091
2091
2091
2091
2096
2096
2096
2099
2099
2099
2096
2096
2096
2096
2096
2096
2093
2093
2093
2093
2098
2098
2098
2096
2096
2096
2097
2097
2097
2102
2102
2102
2094
2094
2094
2094
2098
2098
2098
2096
2096
2096
2097
2097
2097
2100
2100
2100
2094
2094
2094
2094
2096
2096
2096
2096
2096
2096
2095
2095
2095
2098
2098
2098
2092
2092
2092
2092
2096
2096
2096
2096
2096
2096
2095
2095
2095
2100
2100
2100
2093
2093
2093
2093
2095
2095
2095
2094
2094
2094
2098
2098
2098
2100
2100
2100
2095
2095
2095
2095
2096
2096
2096
2095
2095
2095
2095
2095
2095
2097
2097
2097
2095
2095
2095
2095
2097
2097
2097
2097
2097
2097
2100
2100
2100
2099
2099
2099
2095
2095
2095
2095
2094
2094
2094
2094
2094
2094
2097
2097
2097
2100
2100
2100
2095
2095
2095
2095
2097
2097
2097
2098
2098
2098
2098
2098
2098
2098
2098
2098
2095
2095
2095
2095
2096
2096
2096
2095
2095
2095
2101
2101
2101
2101
2101
2101
2095
2095
2095
2095
2096
2096
2096
2094
2094
2094
2099
2099
2099
2099
2099
2099
2094
2094
2094
2094
2095
2095
2095
2094
2094
2094
2099
2099
2099
2097
2097
2097
2093
2093
2093
2093
2095
2095
2095
2096
2096
2096
2096
2096
2096
2099
2099
2099
2094
2094
2094
2094
2101
2101
2101
2098
2098
2098
2098
2098
2098
2092
2092
2092
2094
2094
2094
2094
2097
2097
2097
2098
2098
2098
2096
2096
2096
2096
2096
2096
2094
2094
2094
2094
2098
2098
2098
2098
2098
2098
2095
2095
2095
2100
2100
2100
2094
2094
2094
2094
2093
2093
2093
2096
2096
2096
2094
2094
2094
2100
2100
2100
2094
2094
2094
2094
2096
2096
2096
2097
2097
2097
2096
2096
2096
2098
2098
2098
2095
2095
2095
2095
2097
2097
2097
2096
2096
2096
2099
2099
2099
2096
2096
2096
2093
2093
2093
2093
2095
2095
2095
2096
2096
2096
2096
2096
2096
2098
2098
2098
2094
2094
2094
2094
2097
2097
2097
2096
2096
2096
2095
2095
2095
2097
2097
2097
2092
2092
2092
2092
2095
2095
2095
2095
2095
2095
2096
2096
2096
2099
2099
2099
2090
2090
2090
2090
2096
2096
2096
2099
2099
2099
2099
2099
2099
2098
2098
2098
2093
2093
2093
2093
2096
2096
2096
2096
2096
2096
2098
2098
2098
2102
2102
2102
2094
2094
2094
2094
2095
2095
2095
2095
2095
2095
2097
2097
2097
2101
2101
2101
2093
2093
2093
2093
2095
2095
2095
2099
2099
2099
2097
2097
2097
2099
2099
2099
2089
2089
2089
2089
2097
2097
2097
2097
2097
2097
2097
2097
2097
2101
2101
2101
2095
2095
2095
2095
2095
2095
2095
2095
2095
2095
2095
2095
2095
2098
2098
2098
2095
2095
2095
2095
2093
2093
2093
2096
2096
2096
2095
2095
2095
2100
2100
2100
2092
2092
2092
2092
2097
2097
2097
2098
2098
2098
2094
2094
2094
2102
2102
2102
2095
2095
2095
2095
2095
2095
2095
2093
2093
2093
2096
2096
2096
2101
2101
2101
2092
2092
2092
2092
2100
2100
2100
2094
2094
2094
2084
2084
2084
2103
2103
2103
2093
2093
2093
2093
2094
2094
2094
2095
2095
2095
2092
2092
2092
2097
2097
2097
2093
2093
2093
2093
2094
2094
2094
2098
2098
2098
2100
2100
2100
2096
2096
2096
2092
2092
2092
2092
2095
2095
2095
2096
2096
2096
2099
2099
2099
2097
2097
2097
2094
2094
2094
2094
2096
2096
2096
2097
2097
2097
2097
2097
2097
2098
2098
2098
2093
2093
2093
2093
2097
2097
2097
2097
2097
2097
2101
2101
2101
2099
2099
2099
2093
2093
2093
2093
2095
2095
2095
2097
2097
2097
2098
2098
2098
2100
2100
2100
2095
2095
2095
2095
2098
2098
2098
2096
2096
2096
2097
2097
2097
2098
2098
2098
2094
2094
2094
2094
2092
2092
2092
2097
2097
2097
2097
2097
2097
2099
2099
2099
2095
2095
2095
2095
2096
2096
2096
2089
2089
2089
2095
2095
2095
2098
2098
2098
2097
2097
2097
2097
2096
2096
2096
2097
2097
2097
2091
2091
2091
2100
2100
2100
2095
2095
2095
2095
2097
2097
2097
2094
2094
2094
2097
2097
2097
2098
2098
2098
2095
2095
2095
2095
2092
2092
2092
2093
2093
2093
2096
2096
2096
2099
2099
2099
2097
2097
2097
2097
2095
2095
2095
2096
2096
2096
2096
2096
2096
2100
2100
2100
2095
2095
2095
2095
2095
2095
2095
2095
2095
2095
2096
2096
2096
2100
2100
2100
2093
2093
2093
2093
2094
2094
2094
2096
2096
2096
2099
2099
2099
2100
2100
2100
2093
2093
2093
2093
2094
2094
2094
2096
2096
2096
2098
2098
2098
2098
2098
2098
2095
2095
2095
2095
2097
2097
2097
2094
2094
2094
2097
2097
2097
2099
2099
2099
2095
2095
2095
2095
2095
2095
2095
2097
2097
2097
2094
2094
2094
2099
2099
2099
2094
2094
2094
2094
2096
2096
2096
2096
2096
2096
2095
2095
2095
2097
2097
2097
2094
2094
2094
2094
2098
2098
2098
2098
2098
2098
2097
2097
2097
2100
2100
2100
2093
2093
2093
2093
2098
2098
2098
2098
2098
2098
2096
2096
2096
2100
2100
2100
2094
2094
2094
2094
2096
2096
2096
2097
2097
2097
2095
2095
2095
2098
2098
2098
2094
2094
2094
2094
2096
2096
2096
2096
2096
2096
2102
2102
2102
2095
2095
2095
2093
2093
2093
2093
2097
2097
2097
2094
2094
2094
2096
2096
2096
2100
2100
2100
2093
2093
2093
2093
2098
2098
2098
2096
2096
2096
2096
2096
2096
2100
2100
2100
2093
2093
2093
2093
2095
2095
2095
2097
2097
2097
2096
2096
2096
2097
2097
2097
2096
2096
2096
2096
2095
2095
2095
2094
2094
2094
2100
2100
2100
2098
2098
2098
2097
2097
2097
2097
2097
2097
2097
2098
2098
2098
2097
2097
2097
2101
2101
2101
2095
2095
2095
2095
2098
2098
2098
2094
2094
2094
2096
2096
2096
2097
2097
2097
2089
2089
2089
2089
2097
2097
2097
2097
2097
2097
2097
2097
2097
2098
2098
2098
2094
2094
2094
2094
2092
2092
2092
2095
2095
2095
2096
2096
2096
2094
2094
2094
2094
2094
2094
2094
2101
2101
2101
2097
2097
2097
2095
2095
2095
2100
2100
2100
2092
2092
2092
2092
2093
2093
2093
2097
2097
2097
2097
2097
2097
2089
2089
2089
2093
2093
2093
2093
2099
2099
2099
2099
2099
2099
2096
2096
2096
2100
2100
2100
2094
2094
2094
2094
2096
2096
2096
2097
2097
2097
2098
2098
2098
2097
2097
2097
2095
2095
2095
2095
2097
2097
2097
2095
2095
2095
2094
2094
2094
2098
2098
2098
2097
2097
2097
2097
2098
2098
2098
2096
2096
2096
2098
2098
2098
2099
2099
2099
2089
2089
2089
2089
2097
2097
2097
2098
2098
2098
2101
2101
2101
2098
2098
2098
2092
2092
2092
2092
2095
2095
2095
2097
2097
2097
2095
2095
2095
2099
2099
2099
2093
2093
2093
2093
2096
2096
2096
2095
2095
2095
2097
2097
2097
2100
2100
2100
2095
2095
2095
2095
2096
2096
2096
2098
2098
2098
2097
2097
2097
2099
2099
2099
2093
2093
2093
2093
2093
2093
2093
2097
2097
2097
2095
2095
2095
2098
2098
2098
2096
2096
2096
2096
2096
2096
2096
2096
2096
2096
2099
2099
2099
2099
2099
2099
2099
2099
2099
2099
2097
2097
2097
2096
2096
2096
2099
2099
2099
2101
2101
2101
2089
2089
2089
2089
2099
2099
2099
2098
2098
2098
2095
2095
2095
2098
2098
2098
2093
2093
2093
2093
2093
2093
2093
2096
2096
2096
2096
2096
2096
2100
2100
2100
2095
2095
2095
2095
2096
2096
2096
2096
2096
2096
2096
2096
2096
2100
2100
2100
2094
2094
2094
2094
2091
2091
2091
2096
2096
2096
2097
2097
2097
2093
2093
2093
2096
2096
2096
2096
2098
2098
2098
2098
2098
2098
2097
2097
2097
2099
2099
2099
2094
2094
2094
2094
2094
2094
2094
2095
2095
2095
2095
2095
2095
2100
2100
2100
2093
2093
2093
2093
2096
2096
2096
2093
2093
2093
2095
2095
2095
2097
2097
2097
2092
2092
2092
2092
2096
2096
2096
2098
2098
2098
2098
2098
2098
2098
2098
2098
2093
2093
2093
2093
2096
2096
2096
2096
2096
2096
2099
2099
2099
2098
2098
2098
2095
2095
2095
2095
2096
2096
2096
2098
2098
2098
2095
2095
2095
2093
2093
2093
2092
2092
2092
2092
2100
2100
2100
2096
2096
2096
2100
2100
2100
2098
2098
2098
2091
2091
2091
2091
2097
2097
2097
2096
2096
2096
2096
2096
2096
2100
2100
2100
2094
2094
2094
2094
2095
2095
2095
2095
2095
2095
2094
2094
2094
2096
2096
2096
2095
2095
2095
2095
2095
2095
2095
2097
2097
2097
2097
2097
2097
2098
2098
2098
2091
2091
2091
2091
2097
2097
2097
2098
2098
2098
2095
2095
2095
2097
2097
2097
2092
2092
2092
2092
2096
2096
2096
2095
2095
2095
2096
2096
2096
2097
2097
2097
2097
2097
2097
2097
2094
2094
2094
2098
2098
2098
2095
2095
2095
2097
2097
2097
2098
2098
2098
2098
2097
2097
2097
2095
2095
2095
2096
2096
2096
2102
2102
2102
2087
2087
2087
2087
2096
2096
2096
2098
2098
2098
2098
2098
2098
2097
2097
2097
2089
2089
2089
2089
2097
2097
2097
2096
2096
2096
2096
2096
2096
2099
2099
2099
2092
2092
2092
2092
2095
2095
2095
2098
2098
2098
2094
2094
2094
2100
2100
2100
2094
2094
2094
2094
2095
2095
2095
2098
2098
2098
2100
2100
2100
2102
2102
2102
2092
2092
2092
2092
2095
2095
2095
2095
2095
2095
2096
2096
2096
2100
2100
2100
2092
2092
2092
2092
2097
2097
2097
2097
2097
2097
2099
2099
2099
2101
2101
2101
2094
2094
2094
2094
2093
2093
2093
2093
2093
2093
2094
2094
2094
2098
2098
2098
2091
2091
2091
2091
2090
2090
2090
2097
2097
2097
2094
2094
2094
2099
2099
2099
2093
2093
2093
2093
2096
2096
2096
2097
2097
2097
2097
2097
2097
2096
2096
2096
2093
2093
2093
2093
2099
2099
2099
2097
2097
2097
2098
2098
2098
2100
2100
2100
2094
2094
2094
2094
2096
2096
2096
2098
2098
2098
2097
2097
2097
2098
2098
2098
2094
2094
2094
2094
2098
2098
2098
2096
2096
2096
2096
2096
2096
2097
2097
2097
2096
2096
2096
2096
2095
2095
2095
2098
2098
2098
2094
2094
2094
2096
2096
2096
2096
2096
2096
2096
2089
2089
2089
2096
2096
2096
2095
2095
2095
2098
2098
2098
2094
2094
2094
2094
2096
2096
2096
2095
2095
2095
2099
2099
2099
2098
2098
2098
2094
2094
2094
2094
2095
2095
2095
2099
2099
2099
2099
2099
2099
2099
2099
2099
2094
2094
2094
2094
2098
2098
2098
2097
2097
2097
2095
2095
2095
2098
2098
2098
2092
2092
2092
2092
2098
2098
2098
2097
2097
2097
2097
2097
2097
2098
2098
2098
2096
2096
2096
2096
2096
2096
2096
2090
2090
2090
2098
2098
2098
2099
2099
2099
2099
2099
2099
2099
2094
2094
2094
2101
2101
2101
2096
2096
2096
2098
2098
2098
2093
2093
2093
2093
2099
2099
2099
2095
2095
2095
2097
2097
2097
2099
2099
2099
2095
2095
2095
2095
2094
2094
2094
2100
2100
2100
2097
2097
2097
2099
2099
2099
2096
2096
2096
2096
2094
2094
2094
2097
2097
2097
2095
2095
2095
2100
2100
2100
2093
2093
2093
2093
2100
2100
2100
2097
2097
2097
2097
2097
2097
2103
2103
2103
2092
2092
2092
2092
2094
2094
2094
2096
2096
2096
2100
2100
2100
2095
2095
2095
2094
2094
2094
2094
2094
2094
2094
2097
2097
2097
2096
2096
2096
2098
2098
2098
2092
2092
2092
2092
2097
2097
2097
2099
2099
2099
2100
2100
2100
2100
2100
2100
2094
2094
2094
2094
2095
2095
2095
2097
2097
2097
2098
2098
2098
2096
2096
2096
2094
2094
2094
2094
2095
2095
2095
2097
2097
2097
2094
2094
2094
2095
2095
2095
2093
2093
2093
2093
2098
2098
2098
2098
2098
2098
2096
2096
2096
2096
2096
2096
2093
2093
2093
2093
2097
2097
2097
2095
2095
2095
2095
2095
2095
2097
2097
2097
2091
2091
2091
2091
2097
2097
2097
2094
2094
2094
2103
2103
2103
2099
2099
2099
2094
2094
2094
2094
2097
2097
2097
2097
2097
2097
2094
2094
2094
2098
2098
2098
2094
2094
2094
2094
2100
2100
2100
2095
2095
2095
2098
2098
2098
2098
2098
2098
2097
2097
2097
2097
2095
2095
2095
2095
2095
2095
2096
2096
2096
2099
2099
2099
2098
2098
2098
2098
2096
2096
2096
2096
2096
2096
2092
2092
2092
2100
2100
2100
2092
2092
2092
2092
2095
2095
2095
2098
2098
2098
2096
2096
2096
2101
2101
2101
2095
2095
2095
2095
2095
2095
2095
2096
2096
2096
2097
2097
2097
2101
2101
2101
2096
2096
2096
2096
2098
2098
2098
2099
2099
2099
2095
2095
2095
2096
2096
2096
2095
2095
2095
2095
2096
2096
2096
2103
2103
2103
2096
2096
2096
2097
2097
2097
2093
2093
2093
2093
2096
2096
2096
2089
2089
2089
2100
2100
2100
2100
2100
2100
2089
2089
2089
2089
2093
2093
2093
2096
2096
2096
2098
2098
2098
2097
2097
2097
2092
2092
2092
2092
2095
2095
2095
2095
2095
2095
2097
2097
2097
2097
2097
2097
2089
2089
2089
2089
2096
2096
2096
2097
2097
2097
2097
2097
2097
2096
2096
2096
2092
2092
2092
2092
2100
2100
2100
2097
2097
2097
2094
2094
2094
2099
2099
2099
2095
2095
2095
2095
2095
2095
2095
2097
2097
2097
2098
2098
2098
2097
2097
2097
2095
2095
2095
2095
2096
2096
2096
2096
2096
2096
2098
2098
2098
2101
2101
2101
2093
2093
2093
2093
2096
2096
2096
2095
2095
2095
2098
2098
2098
2102
2102
2102
2095
2095
2095
2095
2096
2096
2096
2097
2097
2097
2096
2096
2096
2097
2097
2097
2092
2092
2092
2092
2096
2096
2096
2099
2099
2099
2095
2095
2095
2097
2097
2097
2094
2094
2094
2094
2097
2097
2097
2096
2096
2096
2095
2095
2095
2099
2099
2099
2091
2091
2091
2091
2097
2097
2097
2097
2097
2097
2096
2096
2096
2100
2100
2100
2096
2096
2096
2096
2094
2094
2094
2097
2097
2097
2097
2097
2097
2100
2100
2100
2094
2094
2094
2094
2096
2096
2096
2095
2095
2095
2092
2092
2092
2099
2099
2099
2096
2096
2096
2096
2093
2093
2093
2098
2098
2098
2096
2096
2096
2098
2098
2098
2093
2093
2093
2093
2095
2095
2095
2096
2096
2096
2099
2099
2099
2097
2097
2097
2097
2097
2097
2097
2095
2095
2095
2098
2098
2098
2097
2097
2097
2098
2098
2098
2093
2093
2093
2093
2096
2096
2096
2099
2099
2099
2095
2095
2095
2102
2102
2102
2093
2093
2093
2093
2095
2095
2095
2093
2093
2093
2097
2097
2097
2099
2099
2099
2093
2093
2093
2093
2097
2097
2097
2094
2094
2094
2097
2097
2097
2094
2094
2094
2097
2097
2097
2097
2098
2098
2098
2098
2098
2098
2097
2097
2097
2097
2097
2097
2093
2093
2093
2093
2094
2094
2094
2099
2099
2099
2093
2093
2093
2097
2097
2097
2093
2093
2093
2093
2098
2098
2098
2098
2098
2098
2095
2095
2095
2099
2099
2099
2097
2097
2097
2097
2097
2097
2097
2095
2095
2095
2098
2098
2098
2099
2099
2099
2096
2096
2096
2096
2099
2099
2099
2100
2100
2100
2095
2095
2095
2093
2093
2093
2093
2093
2093
2093
2098
2098
2098
2097
2097
2097
2094
2094
2094
2100
2100
2100
2095
2095
2095
2095
2093
2093
2093
2098
2098
2098
2097
2097
2097
2097
2097
2097
2093
2093
2093
2093
2096
2096
2096
2098
2098
2098
2095
2095
2095
2096
2096
2096
2093
2093
2093
2093
2096
2096
2096
2093
2093
2093
2096
2096
2096
2097
2097
2097
2091
2091
2091
2091
2095
2095
2095
2094
2094
2094
2098
2098
2098
2099
2099
2099
2090
2090
2090
2090
2095
2095
2095
2097
2097
2097
2096
2096
2096
2098
2098
2098
2086
2086
2086
2086
2096
2096
2096
2095
2095
2095
2094
2094
2094
2098
2098
2098
2097
2097
2097
2097
2098
2098
2098
2096
2096
2096
2099
2099
2099
2097
2097
2097
2091
2091
2091
2091
2095
2095
2095
2095
2095
2095
2097
2097
2097
2097
2097
2097
2093
2093
2093
2093
2095
2095
2095
2095
2095
2095
2098
2098
2098
2096
2096
2096
2093
2093
2093
2093
2094
2094
2094
2095
2095
2095
2097
2097
2097
2097
2097
2097
2096
2096
2096
2096
2097
2097
2097
2095
2095
2095
2097
2097
2097
2100
2100
2100
2095
2095
2095
2095
2096
2096
2096
2100
2100
2100
2099
2099
2099
2098
2098
2098
2093
2093
2093
2093
2097
2097
2097
2097
2097
2097
2094
2094
2094
2098
2098
2098
2095
2095
2095
2095
2097
2097
2097
2098
2098
2098
2096
2096
2096
2100
2100
2100
2094
2094
2094
2094
2097
2097
2097
2096
2096
2096
2098
2098
2098
2096
2096
2096
2094
2094
2094
2094
2095
2095
2095
2091
2091
2091
2094
2094
2094
2099
2099
2099
2093
2093
2093
2093
2095
2095
2095
2095
2095
2095
2098
2098
2098
2099
2099
2099
2095
2095
2095
2095
2095
2095
2095
2095
2095
2095
2095
2095
2095
2098
2098
2098
2092
2092
2092
2092
2097
2097
2097
2097
2097
2097
2097
2097
2097
2097
2097
2097
2096
2096
2096
2096
2098
2098
2098
2094
2094
2094
2100
2100
2100
2099
2099
2099
2093
2093
2093
2093
2097
2097
2097
2096
2096
2096
2099
2099
2099
2097
2097
2097
2092
2092
2092
2092
2096
2096
2096
2096
2096
2096
2093
2093
2093
2101
2101
2101
2093
2093
2093
2093
2097
2097
2097
2098
2098
2098
2098
2098
2098
2099
2099
2099
2091
2091
2091
2091
2094
2094
2094
2097
2097
2097
2096
2096
2096
2100
2100
2100
2094
2094
2094
2094
2095
2095
2095
2096
2096
2096
2102
2102
2102
2096
2096
2096
2094
2094
2094
2094
2099
2099
2099
2096
2096
2096
2099
2099
2099
2099
2099
2099
2094
2094
2094
2094
2098
2098
2098
2098
2098
2098
2094
2094
2094
2099
2099
2099
2094
2094
2094
2094
2093
2093
2093
2095
2095
2095
2098
2098
2098
2099
2099
2099
2096
2096
2096
2096
2096
2096
2096
2096
2096
2096
2095
2095
2095
2097
2097
2097
2095
2095
2095
2095
2096
2096
2096
2096
2096
2096
2094
2094
2094
2092
2092
2092
2091
2091
2091
2091
2096
2096
2096
2097
2097
2097
2102
2102
2102
2096
2096
2096
2094
2094
2094
2094
2095
2095
2095
2095
2095
2095
2097
2097
2097
2099
2099
2099
2095
2095
2095
2095
2099
2099
2099
2095
2095
2095
2101
2101
2101
2098
2098
2098
2092
2092
2092
2092
2099
2099
2099
2098
2098
2098
2097
2097
2097
2102
2102
2102
2093
2093
2093
2093
2095
2095
2095
2095
2095
2095
2093
2093
2093
2100
2100
2100
2094
2094
2094
2094
2095
2095
2095
2095
2095
2095
2098
2098
2098
2100
2100
2100
2092
2092
2092
2092
2098
2098
2098
2096
2096
2096
2096
2096
2096
2098
2098
2098
2094
2094
2094
2094
2096
2096
2096
2094
2094
2094
2097
2097
2097
2101
2101
2101
2093
2093
2093
2093
2097
2097
2097
2097
2097
2097
2096
2096
2096
2098
2098
2098
2094
2094
2094
2094
2093
2093
2093
2098
2098
2098
2094
2094
2094
2096
2096
2096
2093
2093
2093
2093
2099
2099
2099
2096
2096
2096
2095
2095
2095
2100
2100
2100
2094
2094
2094
2094
2093
2093
2093
2095
2095
2095
2099
2099
2099
2100
2100
2100
2096
2096
2096
2096
2094
2094
2094
2095
2095
2095
2097
2097
2097
2097
2097
2097
2095
2095
2095
2095
2100
2100
2100
2098
2098
2098
2096
2096
2096
2100
2100
2100
2093
2093
2093
2093
2096
2096
2096
2098
2098
2098
2092
2092
2092
2100
2100
2100
2093
2093
2093
2093
2096
2096
2096
2090
2090
2090
2096
2096
2096
2099
2099
2099
2091
2091
2091
2091
2095
2095
2095
2099
2099
2099
2096
2096
2096
2099
2099
2099
2101
2101
2101
2101
2095
2095
2095
2100
2100
2100
2100
2100
2100
2098
2098
2098
2097
2097
2097
2097
2095
2095
2095
2099
2099
2099
2097
2097
2097
2098
2098
2098
2088
2088
2088
2088
2096
2096
2096
2097
2097
2097
2096
2096
2096
2098
2098
2098
2094
2094
2094
2094
2096
2096
2096
2093
2093
2093
2098
2098
2098
2099
2099
2099
2102
2102
2102
2102
2095
2095
2095
2096
2096
2096
2099
2099
2099
2097
2097
2097
2094
2094
2094
2094
2098
2098
2098
2096
2096
2096
2095
2095
2095
2101
2101
2101
2094
2094
2094
2094
2095
2095
2095
2096
2096
2096
2100
2100
2100
2097
2097
2097
2092
2092
2092
2092
2095
2095
2095
2096
2096
2096
2100
2100
2100
2098
2098
2098
2096
2096
2096
2096
2101
2101
2101
2095
2095
2095
2096
2096
2096
2096
2096
2096
2094
2094
2094
2094
2095
2095
2095
2100
2100
2100
2098
2098
2098
2100
2100
2100
2095
2095
2095
2095
2095
2095
2095
2097
2097
2097
2097
2097
2097
2098
2098
2098
2093
2093
2093
2093
2094
2094
2094
2096
2096
2096
2094
2094
2094
2098
2098
2098
2094
2094
2094
2094
2096
2096
2096
2097
2097
2097
2103
2103
2103
2097
2097
2097
2095
2095
2095
2095
2097
2097
2097
2096
2096
2096
2097
2097
2097
2098
2098
2098
2095
2095
2095
2095
2099
2099
2099
2098
2098
2098
2095
2095
2095
2097
2097
2097
2094
2094
2094
2094
2095
2095
2095
2096
2096
2096
2097
2097
2097
2100
2100
2100
2095
2095
2095
2095
2095
2095
2095
2097
2097
2097
2100
2100
2100
2097
2097
2097
2093
2093
2093
2093
2095
2095
2095
2096
2096
2096
2097
2097
2097
2101
2101
2101
2091
2091
2091
2091
2100
2100
2100
2097
2097
2097
2098
2098
2098
2098
2098
2098
2095
2095
2095
2095
2095
2095
2095
2096
2096
2096
2098
2098
2098
2095
2095
2095
2094
2094
2094
2094
2098
2098
2098
2097
2097
2097
2096
2096
2096
2098
2098
2098
2094
2094
2094
2094
2089
2089
2089
2100
2100
2100
2097
2097
2097
2103
2103
2103
2092
2092
2092
2092
2096
2096
2096
2096
2096
2096
2096
2096
2096
2097
2097
2097
2092
2092
2092
2092
2096
2096
2096
2098
2098
2098
2098
2098
2098
2099
2099
2099
2090
2090
2090
2090
2095
2095
2095
2097
2097
2097
2098
2098
2098
2100
2100
2100
2097
2097
2097
2097
2095
2095
2095
2099
2099
2099
2089
2089
2089
2099
2099
2099
2094
2094
2094
2094
2099
2099
2099
2099
2099
2099
2097
2097
2097
2097
2097
2097
2089
2089
2089
2089
2093
2093
2093
2099
2099
2099
2098
2098
2098
2097
2097
2097
2095
2095
2095
2095
2096
2096
2096
2100
2100
2100
2097
2097
2097
2097
2097
2097
2091
2091
2091
2091
2095
2095
2095
2096
2096
2096
2095
2095
2095
2098
2098
2098
2093
2093
2093
2093
2097
2097
2097
2096
2096
2096
2097
2097
2097
2101
2101
2101
2093
2093
2093
2093
2095
2095
2095
2096
2096
2096
2097
2097
2097
2101
2101
2101
2092
2092
2092
2092
2096
2096
2096
2095
2095
2095
2099
2099
2099
2100
2100
2100
2096
2096
2096
2096
2096
2096
2096
2100
2100
2100
2099
2099
2099
2100
2100
2100
2093
2093
2093
2093
2094
2094
2094
2096
2096
2096
2100
2100
2100
2096
2096
2096
2091
2091
2091
2091
2095
2095
2095
2096
2096
2096
2095
2095
2095
2097
2097
2097
2094
2094
2094
2094
2099
2099
2099
2096
2096
2096
2096
2096
2096
2098
2098
2098
2094
2094
2094
2094
2092
2092
2092
2097
2097
2097
2096
2096
2096
2096
2096
2096
2092
2092
2092
2092
2092
2092
2092
2096
2096
2096
2098
2098
2098
2098
2098
2098
2092
2092
2092
2092
2098
2098
2098
2100
2100
2100
2094
2094
2094
2100
2100
2100
2093
2093
2093
2093
2097
2097
2097
2095
2095
2095
2097
2097
2097
2095
2095
2095
2094
2094
2094
2094
2100
2100
2100
2095
2095
2095
2095
2095
2095
2100
2100
2100
2092
2092
2092
2092
2093
2093
2093
2098
2098
2098
2098
2098
2098
2097
2097
2097
2093
2093
2093
2093
2096
2096
2096
2095
2095
2095
2097
2097
2097
2097
2097
2097
2091
2091
2091
2091
2092
2092
2092
2097
2097
2097
2097
2097
2097
2096
2096
2096
2094
2094
2094
2094
2096
2096
2096
2102
2102
2102
2095
2095
2095
2101
2101
2101
2095
2095
2095
2095
2097
2097
2097
2095
2095
2095
2098
2098
2098
2097
2097
2097
2087
2087
2087
2087
2095
2095
2095
2098
2098
2098
2097
2097
2097
2095
2095
2095
2094
2094
2094
2094
2094
2094
2094
2099
2099
2099
2100
2100
2100
2098
2098
2098
2095
2095
2095
2095
2095
2095
2095
2097
2097
2097
2096
2096
2096
2099
2099
2099
2089
2089
2089
2089
2096
2096
2096
2098
2098
2098
2096
2096
2096
2099
2099
2099
2096
2096
2096
2096
2095
2095
2095
2098
2098
2098
2094
2094
2094
2098
2098
2098
2093
2093
2093
2093
2096
2096
2096
2096
2096
2096
2098
2098
2098
2098
2098
2098
2094
2094
2094
2094
2096
2096
2096
2095
2095
2095
2099
2099
2099
2098
2098
2098
2093
2093
2093
2093
2096
2096
2096
2094
2094
2094
2096
2096
2096
2099
2099
2099
2090
2090
2090
2090
2095
2095
2095
2097
2097
2097
2098
2098
2098
2099
2099
2099
2093
2093
2093
2093
2095
2095
2095
2097
2097
2097
2098
2098
2098
2098
2098
2098
2093
2093
2093
2093
2095
2095
2095
2097
2097
2097
2099
2099
2099
2100
2100
2100
2094
2094
2094
2094
2098
2098
2098
2095
2095
2095
2097
2097
2097
2098
2098
2098
2094
2094
2094
2094
2094
2094
2094
2097
2097
2097
2098
2098
2098
2101
2101
2101
2090
2090
2090
2090
2095
2095
2095
2093
2093
2093
2099
2099
2099
2098
2098
2098
2093
2093
2093
2093
2096
2096
2096
2097
2097
2097
2099
2099
2099
2098
2098
2098
2095
2095
2095
2095
2096
2096
2096
2096
2096
2096
2097
2097
2097
2093
2093
2093
2092
2092
2092
2092
2092
2092
2092
2099
2099
2099
2098
2098
2098
2099
2099
2099
2096
2096
2096
2096
2098
2098
2098
2097
2097
2097
2097
2097
2097
2093
2093
2093
2094
2094
2094
2094
2097
2097
2097
2095
2095
2095
2095
2095
2095
2095
2095
2095
2091
2091
2091
2091
2092
2092
2092
2096
2096
2096
2094
2094
2094
2098
2098
2098
2095
2095
2095
2095
2089
2089
2089
2097
2097
2097
2095
2095
2095
2101
2101
2101
2093
2093
2093
2093
2098
2098
2098
2096
2096
2096
2098
2098
2098
2098
2098
2098
2095
2095
2095
2095
2094
2094
2094
2099
2099
2099
2096
2096
2096
2097
2097
2097
2091
2091
2091
2091
2095
2095
2095
2095
2095
2095
2099
2099
2099
2095
2095
2095
2098
2098
2098
2098
2097
2097
2097
2090
2090
2090
2096
2096
2096
2100
2100
2100
2096
2096
2096
2096
2096
2096
2096
2095
2095
2095
2094
2094
2094
2098
2098
2098
2093
2093
2093
2093
2097
2097
2097
2095
2095
2095
2097
2097
2097
2101
2101
2101
2096
2096
2096
2096
2098
2098
2098
2097
2097
2097
2098
2098
2098
2099
2099
2099
2092
2092
2092
2092
2095
2095
2095
2098
2098
2098
2096
2096
2096
2100
2100
2100
2095
2095
2095
2095
2096
2096
2096
2096
2096
2096
2102
2102
2102
2097
2097
2097
2093
2093
2093
2093
2099
2099
2099
2096
2096
2096
2094
2094
2094
2099
2099
2099
2095
2095
2095
2095
2097
2097
2097
2098
2098
2098
2091
2091
2091
2098
2098
2098
2094
2094
2094
2094
2096
2096
2096
2097
2097
2097
2097
2097
2097
2096
2096
2096
2096
2096
2096
2096
2100
2100
2100
2096
2096
2096
2097
2097
2097
2100
2100
2100
2093
2093
2093
2093
2097
2097
2097
2099
2099
2099
2093
2093
2093
2099
2099
2099
2093
2093
2093
2093
2096
2096
2096
2095
2095
2095
2096
2096
2096
2095
2095
2095
2091
2091
2091
2091
2096
2096
2096
2095
2095
2095
2099
2099
2099
2097
2097
2097
2094
2094
2094
2094
2094
2094
2094
2098
2098
2098
2092
2092
2092
2102
2102
2102
2094
2094
2094
2094
2100
2100
2100
2095
2095
2095
2099
2099
2099
2101
2101
2101
2093
2093
2093
2093
2097
2097
2097
2097
2097
2097
2097
2097
2097
2097
2097
2097
2092
2092
2092
2092
2097
2097
2097
2090
2090
2090
2097
2097
2097
2101
2101
2101
2095
2095
2095
2095
2097
2097
2097
2094
2094
2094
2099
2099
2099
2095
2095
2095
2094
2094
2094
2094
2094
2094
2094
2093
2093
2093
2096
2096
2096
2099
2099
2099
2093
2093
2093
2093
2097
2097
2097
2098
2098
2098
2097
2097
2097
2101
2101
2101
2092
2092
2092
2092
2095
2095
2095
2097
2097
2097
2095
2095
2095
2100
2100
2100
2094
2094
2094
2094
2099
2099
2099
2096
2096
2096
2096
2096
2096
2100
2100
2100
2094
2094
2094
2094
2096
2096
2096
2092
2092
2092
2098
2098
2098
2098
2098
2098
2093
2093
2093
2093
2096
2096
2096
2094
2094
2094
2095
2095
2095
2099
2099
2099
2093
2093
2093
2093
2095
2095
2095
2097
2097
2097
2093
2093
2093
2100
2100
2100
2094
2094
2094
2094
2096
2096
2096
2097
2097
2097
2094
2094
2094
2099
2099
2099
2094
2094
2094
2094
2095
2095
2095
2096
2096
2096
2096
2096
2096
2098
2098
2098
2091
2091
2091
2091
2096
2096
2096
2097
2097
2097
2094
2094
2094
2098
2098
2098
2093
2093
2093
2093
2096
2096
2096
2097
2097
2097
2097
2097
2097
2095
2095
2095
2092
2092
2092
2092
2099
2099
2099
2095
2095
2095
2096
2096
2096
2096
2096
2096
2094
2094
2094
2094
2099
2099
2099
2096
2096
2096
2096
2096
2096
2096
2096
2096
2094
2094
2094
2094
2099
2099
2099
2096
2096
2096
2096
2096
2096
2096
2096
2096
2094
2094
2094
2094
2102
2102
2102
2096
2096
2096
2096
2096
2096
2103
2103
2103
2093
2093
2093
2093
2097
2097
2097
2098
2098
2098
2097
2097
2097
2097
2097
2097
2094
2094
2094
2094
2095
2095
2095
2097
2097
2097
2095
2095
2095
2103
2103
2103
2092
2092
2092
2092
2098
2098
2098
2095
2095
2095
2097
2097
2097
2096
2096
2096
2096
2096
2096
2096
2091
2091
2091
2095
2095
2095
2096
2096
2096
2101
2101
2101
2092
2092
2092
2092
2095
2095
2095
2097
2097
2097
2098
2098
2098
2100
2100
2100
2095
2095
2095
2095
2095
2095
2095
2089
2089
2089
2094
2094
2094
2099
2099
2099
2095
2095
2095
2095
2098
2098
2098
2098
2098
2098
2097
2097
2097
2100
2100
2100
2090
2090
2090
2090
2095
2095
2095
2095
2095
2095
2095
2095
2095
2098
2098
2098
2094
2094
2094
2094
2096
2096
2096
2098
2098
2098
2096
2096
2096
2099
2099
2099
2093
2093
2093
2093
2100
2100
2100
2096
2096
2096
2095
2095
2095
2099
2099
2099
2093
2093
2093
2093
2097
2097
2097
2095
2095
2095
2101
2101
2101
2098
2098
2098
2095
2095
2095
2095
2096
2096
2096
2096
2096
2096
2098
2098
2098
2099
2099
2099
2092
2092
2092
2092
2100
2100
2100
2094
2094
2094
2095
2095
2095
2096
2096
2096
2095
2095
2095
2095
2098
2098
2098
2096
2096
2096
2097
2097
2097
2097
2097
2097
2094
2094
2094
2094
2097
2097
2097
2097
2097
2097
2098
2098
2098
2102
2102
2102
2092
2092
2092
2092
2095
2095
2095
2097
2097
2097
2100
2100
2100
2101
2101
2101
2094
2094
2094
2094
2097
2097
2097
2096
2096
2096
2098
2098
2098
2095
2095
2095
2094
2094
2094
2094
2099
2099
2099
2096
2096
2096
2095
2095
2095
2099
2099
2099
2093
2093
2093
2093
2088
2088
2088
2099
2099
2099
2096
2096
2096
2103
2103
2103
2095
2095
2095
2095
2095
2095
2095
2096
2096
2096
2100
2100
2100
2098
2098
2098
2093
2093
2093
2093
2098
2098
2098
2099
2099
2099
2097
2097
2097
2096
2096
2096
2095
2095
2095
2095
2094
2094
2094
2094
2094
2094
2096
2096
2096
2096
2096
2096
2094
2094
2094
2094
2097
2097
2097
2096
2096
2096
2099
2099
2099
2103
2103
2103
2096
2096
2096
2096
2098
2098
2098
2095
2095
2095
2094
2094
2094
2096
2096
2096
2097
2097
2097
2097
2097
2097
2097
2096
2096
2096
2097
2097
2097
2098
2098
2098
2091
2091
2091
2091
2098
2098
2098
2099
2099
2099
2094
2094
2094
2099
2099
2099
2095
2095
2095
2095
2095
2095
2095
2098
2098
2098
2096
2096
2096
2098
2098
2098
2097
2097
2097
2097
2098
2098
2098
2096
2096
2096
2096
2096
2096
2097
2097
2097
2093
2093
2093
2093
2094
2094
2094
2095
2095
2095
2096
2096
2096
2096
2096
2096
2092
2092
2092
2092
2093
2093
2093
2097
2097
2097
2100
2100
2100
2098
2098
2098
2090
2090
2090
2090
2096
2096
2096
2095
2095
2095
2098
2098
2098
2099
2099
2099
2094
2094
2094
2094
2097
2097
2097
2094
2094
2094
2094
2094
2094
2095
2095
2095
2093
2093
2093
2093
2097
2097
2097
2086
2086
2086
2099
2099
2099
2100
2100
2100
2093
2093
2093
2093
2095
2095
2095
2097
2097
2097
2096
2096
2096
2099
2099
2099
2098
2098
2098
2098
2094
2094
2094
2097
2097
2097
2095
2095
2095
2097
2097
2097
2093
2093
2093
2093
2098
2098
2098
2096
2096
2096
2094
2094
2094
2099
2099
2099
2093
2093
2093
2093
2097
2097
2097
2096
2096
2096
2097
2097
2097
2096
2096
2096
2095
2095
2095
2095
2098
2098
2098
2095
2095
2095
2099
2099
2099
2097
2097
2097
2092
2092
2092
2092
2092
2092
2092
2096
2096
2096
2097
2097
2097
2098
2098
2098
2093
2093
2093
2093
2093
2093
2093
2099
2099
2099
2097
2097
2097
2096
2096
2096
2091
2091
2091
2091
2097
2097
2097
2094
2094
2094
2097
2097
2097
2099
2099
2099
2096
2096
2096
2096
2098
2098
2098
2097
2097
2097
2097
2097
2097
2099
2099
2099
2088
2088
2088
2088
2094
2094
2094
2099
2099
2099
2093
2093
2093
2097
2097
2097
2094
2094
2094
2094
2095
2095
2095
2098
2098
2098
2096
2096
2096
2099
2099
2099
2094
2094
2094
2094
2097
2097
2097
2098
2098
2098
2098
2098
2098
2099
2099
2099
2096
2096
2096
2096
2095
2095
2095
2095
2095
2095
2094
2094
2094
2098
2098
2098
2093
2093
2093
2093
2094
2094
2094
2097
2097
2097
2096
2096
2096
2098
2098
2098
2094
2094
2094
2094
2092
2092
2092
2095
2095
2095
2093
2093
2093
2100
2100
2100
2094
2094
2094
2094
2095
2095
2095
2093
2093
2093
2102
2102
2102
2097
2097
2097
2094
2094
2094
2094
2096
2096
2096
2096
2096
2096
2101
2101
2101
2099
2099
2099
2095
2095
2095
2095
2096
2096
2096
2095
2095
2095
2096
2096
2096
2098
2098
2098
2093
2093
2093
2093
2099
2099
2099
2098
2098
2098
2099
2099
2099
2103
2103
2103
2096
2096
2096
2096
2091
2091
2091
2095
2095
2095
2098
2098
2098
2101
2101
2101
2092
2092
2092
2092
2096
2096
2096
2099
2099
2099
2095
2095
2095
2100
2100
2100
2093
2093
2093
2093
2095
2095
2095
2098
2098
2098
2093
2093
2093
2092
2092
2092
2093
2093
2093
2093
2095
2095
2095
2097
2097
2097
2095
2095
2095
2098
2098
2098
2091
2091
2091
2091
2096
2096
2096
2099
2099
2099
2096
2096
2096
2096
2096
2096
2091
2091
2091
2091
2096
2096
2096
2093
2093
2093
2095
2095
2095
2102
2102
2102
2090
2090
2090
2090
2097
2097
2097
2099
2099
2099
2095
2095
2095
2098
2098
2098
2095
2095
2095
2095
2097
2097
2097
2094
2094
2094
2096
2096
2096
2098
2098
2098
2096
2096
2096
2096
2096
2096
2096
2096
2096
2096
2099
2099
2099
2095
2095
2095
2095
2095
2095
2095
2096
2096
2096
2098
2098
2098
2097
2097
2097
2097
2097
2097
2091
2091
2091
2091
2097
2097
2097
2094
2094
2094
2095
2095
2095
2099
2099
2099
2096
2096
2096
2096
2093
2093
2093
2096
2096
2096
2096
2096
2096
2097
2097
2097
2093
2093
2093
2093
2098
2098
2098
2096
2096
2096
2098
2098
2098
2098
2098
2098
2095
2095
2095
2095
2095
2095
2095
2097
2097
2097
2098
2098
2098
2100
2100
2100
2094
2094
2094
2094
2097
2097
2097
2097
2097
2097
2095
2095
2095
2096
2096
2096
2095
2095
2095
2095
2095
2095
2095
2096
2096
2096
2099
2099
2099
2100
2100
2100
2094
2094
2094
2094
2099
2099
2099
2095
2095
2095
2100
2100
2100
2099
2099
2099
2095
2095
2095
2095
2099
2099
2099
2095
2095
2095
2103
2103
2103
2091
2091
2091
2092
2092
2092
2092
2098
2098
2098
2096
2096
2096
2096
2096
2096
2099
2099
2099
2091
2091
2091
2091
2103
2103
2103
2098
2098
2098
2093
2093
2093
2100
2100
2100
2093
2093
2093
2093
2099
2099
2099
2097
2097
2097
2095
2095
2095
2101
2101
2101
2093
2093
2093
2093
2097
2097
2097
2091
2091
2091
2096
2096
2096
2098
2098
2098
2099
2099
2099
2099
2095
2095
2095
2095
2095
2095
2094
2094
2094
2095
2095
2095
2098
2098
2098
2098
2095
2095
2095
2095
2095
2095
2097
2097
2097
2101
2101
2101
2094
2094
2094
2094
2093
2093
2093
2091
2091
2091
2095
2095
2095
2097
2097
2097
2089
2089
2089
2089
2093
2093
2093
2097
2097
2097
2100
2100
2100
2098
2098
2098
2093
2093
2093
2093
2096
2096
2096
2095
2095
2095
2098
2098
2098
2098
2098
2098
2091
2091
2091
2091
2094
2094
2094
2098
2098
2098
2095
2095
2095
2099
2099
2099
2094
2094
2094
2094
2094
2094
2094
2096
2096
2096
2095
2095
2095
2102
2102
2102
2093
2093
2093
2093
2097
2097
2097
2098
2098
2098
2095
2095
2095
2100
2100
2100
2095
2095
2095
2095
2095
2095
2095
2094
2094
2094
2092
2092
2092
2100
2100
2100
2094
2094
2094
2094
2094
2094
2094
2099
2099
2099
2099
2099
2099
2102
2102
2102
2095
2095
2095
2095
2095
2095
2095
2095
2095
2095
2096
2096
2096
2101
2101
2101
2097
2097
2097
2097
2099
2099
2099
2098
2098
2098
2095
2095
2095
2098
2098
2098
2092
2092
2092
2092
2094
2094
2094
2096
2096
2096
2097
2097
2097
2102
2102
2102
2095
2095
2095
2095
2100
2100
2100
2098
2098
2098
2099
2099
2099
2101
2101
2101
2095
2095
2095
2095
2095
2095
2095
2100
2100
2100
2094
2094
2094
2101
2101
2101
2094
2094
2094
2094
2095
2095
2095
2093
2093
2093
2097
2097
2097
2101
2101
2101
2087
2087
2087
2087
2095
2095
2095
2094
2094
2094
2096
2096
2096
2100
2100
2100
2095
2095
2095
2095
2090
2090
2090
2098
2098
2098
2093
2093
2093
2099
2099
2099
2095
2095
2095
2095
2094
2094
2094
2098
2098
2098
2094
2094
2094
2098
2098
2098
2093
2093
2093
2093
2095
2095
2095
2097
2097
2097
2095
2095
2095
2097
2097
2097
2094
2094
2094
2094
2095
2095
2095
2099
2099
2099
2098
2098
2098
2096
2096
2096
2094
2094
2094
2094
2097
2097
2097
2096
2096
2096
2097
2097
2097
2096
2096
2096
2097
2097
2097
2097
2098
2098
2098
2093
2093
2093
2096
2096
2096
2094
2094
2094
2100
2100
2100
2100
2095
2095
2095
2099
2099
2099
2095
2095
2095
2099
2099
2099
2096
2096
2096
2096
2097
2097
2097
2096
2096
2096
2103
2103
2103
2099
2099
2099
2095
2095
2095
2095
2095
2095
2095
2098
2098
2098
2096
2096
2096
2100
2100
2100
2094
2094
2094
2094
2095
2095
2095
2092
2092
2092
2096
2096
2096
2095
2095
2095
2097
2097
2097
2097
2098
2098
2098
2096
2096
2096
2096
2096
2096
2100
2100
2100
2095
2095
2095
2095
2097
2097
2097
2096
2096
2096
2098
2098
2098
2102
2102
2102
2092
2092
2092
2092
2093
2093
2093
2094
2094
2094
2097
2097
2097
2100
2100
2100
2094
2094
2094
2094
2099
2099
2099
2097
2097
2097
2096
2096
2096
2100
2100
2100
2091
2091
2091
2091
2097
2097
2097
2094
2094
2094
2097
2097
2097
2097
2097
2097
2095
2095
2095
2095
2096
2096
2096
2095
2095
2095
2094
2094
2094
2098
2098
2098
2092
2092
2092
2092
2097
2097
2097
2102
2102
2102
2095
2095
2095
2102
2102
2102
2096
2096
2096
2096
2097
2097
2097
2098
2098
2098
2094
2094
2094
2099
2099
2099
2095
2095
2095
2095
2097
2097
2097
2094
2094
2094
2093
2093
2093
2097
2097
2097
2094
2094
2094
2094
2095
2095
2095
2097
2097
2097
2097
2097
2097
2097
2097
2097
2094
2094
2094
2094
2094
2094
2094
2094
2094
2094
2092
2092
2092
2102
2102
2102
2094
2094
2094
2094
2095
2095
2095
2096
2096
2096
2100
2100
2100
2098
2098
2098
2098
2098
2098
2098
2097
2097
2097
2096
2096
2096
2097
2097
2097
2097
2097
2097
2097
2097
2097
2097
2095
2095
2095
2096
2096
2096
2094
2094
2094
2100
2100
2100
2094
2094
2094
2094
2094
2094
2094
2096
2096
2096
2095
2095
2095
2100
2100
2100
2093
2093
2093
2093
2097
2097
2097
2098
2098
2098
2096
2096
2096
2101
2101
2101
2096
2096
2096
2096
2096
2096
2096
2097
2097
2097
2097
2097
2097
2100
2100
2100
2095
2095
2095
2095
2096
2096
2096
2097
2097
2097
2096
2096
2096
2097
2097
2097
2095
2095
2095
2095
2090
2090
2090
2097
2097
2097
2097
2097
2097
2101
2101
2101
2095
2095
2095
2095
2097
2097
2097
2097
2097
2097
2095
2095
2095
2100
2100
2100
2092
2092
2092
2092
2096
2096
2096
2093
2093
2093
2096
2096
2096
2096
2096
2096
2095
2095
2095
2095
2098
2098
2098
2094
2094
2094
2095
2095
2095
2100
2100
2100
2094
2094
2094
2094
2093
2093
2093
2090
2090
2090
2094
2094
2094
2101
2101
2101
2087
2087
2087
2087
2096
2096
2096
2097
2097
2097
2099
2099
2099
2098
2098
2098
2090
2090
2090
2090
2097
2097
2097
2097
2097
2097
2098
2098
2098
2102
2102
2102
2095
2095
2095
2095
2094
2094
2094
2092
2092
2092
2097
2097
2097
2099
2099
2099
2093
2093
2093
2093
2095
2095
2095
2095
2095
2095
2094
2094
2094
2101
2101
2101
2097
2097
2097
2097
2096
2096
2096
2097
2097
2097
2096
2096
2096
2101
2101
2101
2095
2095
2095
2095
2097
2097
2097
2098
2098
2098
2102
2102
2102
2100
2100
2100
2092
2092
