2054
2054
2057
2057
2057
2057
2056
2056
2056
2060
2060
2060
2059
2059
2059
2060
2060
2060
2057
2057
2057
2057
2059
2059
2059
2058
2058
2058
2059
2059
2059
2061
2061
2061
2057
2057
2057
2057
2061
2061
2061
2058
2058
2058
2059
2059
2059
2064
2064
2064
2059
2059
2059
2059
2059
2059
2059
2059
2059
2059
2059
2059
2059
2061
2061
2061
2059
2059
2059
2059
2060
2060
2060
2056
2056
2056
2060
2060
2060
2059
2059
2059
2059
2057
2057
2058
2058
2058
2058
2060
2060
2060
2059
2059
2059
2060
2060
2060
2059
2059
2059
2060
2060
2060
2060
2059
2059
2059
2059
2059
2059
2058
2058
2058
2057
2057
2057
2059
2059
2059
2059
2058
2058
2058
2059
2059
2059
2060
2060
2060
2058
2058
2058
2058
2058
2058
2058
2058
2058
2058
2060
2060
2060
2062
2062
2062
2061
2061
2061
2059
2059
2059
2059
2061
2061
2061
2060
2060
2060
2060
2060
2060
2060
2060
2060
2059
2059
2059
2059
2059
2059
2059
2059
2059
2059
2059
2059
2059
2059
2059
2059
2058
2058
2058
2058
2059
2059
2059
2061
2061
2061
2059
2059
2059
2059
2059
2059
2056
2056
2056
2056
2058
2058
2058
2060
2060
2060
2059
2059
2059
2058
2058
2058
2057
2057
2057
2057
2059
2059
2059
2059
2059
2059
2059
2059
2059
2059
2059
2059
2061
2061
2061
2061
2059
2059
2059
2059
2059
2059
2060
2060
2060
2061
2061
2061
2073
2073
2073
2073
2056
2056
2056
2059
2059
2059
2058
2058
2058
2059
2059
2059
2058
2058
2058
2058
2058
2058
2058
2063
2063
2063
2053
2053
2053
2060
2060
2060
2059
2059
2059
2059
2060
2060
2060
2062
2062
2062
2060
2060
2060
2055
2055
2055
2060
2060
2060
2060
2058
2058
2058
2059
2059
2059
2059
2059
2059
2060
2060
2060
2057
2057
2057
2057
2061
2061
2061
2059
2059
2059
2057
2057
2057
2060
2060
2060
2060
2060
2060
2060
2059
2059
2059
2061
2061
2061
2059
2059
2059
2061
2061
2061
2053
2053
2053
2053
2060
2060
2060
2061
2061
2061
2060
2060
2060
2061
2061
2061
2059
2059
2059
2059
2060
2060
2060
2057
2057
2057
2058
2058
2058
2060
2060
2060
2059
2059
2059
2059
2059
2059
2059
2060
2060
2060
2060
2060
2060
2058
2058
2058
2061
2061
2061
2061
2058
2058
2058
2061
2061
2061
2059
2059
2059
2060
2060
2060
2056
2056
2056
2056
2058
2058
2058
2058
2058
2058
2057
2057
2057
2059
2059
2059
2061
2061
2061
2061
2059
2059
2059
2059
2059
2059
2058
2058
2058
2060
2060
2060
2064
2064
2064
2064
2056
2056
2056
2060
2060
2060
2060
2060
2060
2058
2058
2058
2058
2058
2058
2058
2060
2060
2060
2055
2055
2055
2057
2057
2057
2062
2062
2062
2058
2058
2058
2058
2059
2059
2059
2060
2060
2060
2058
2058
2058
2052
2052
2052
2061
2061
2061
2061
2057
2057
2057
2061
2061
2061
2059
2059
2059
2058
2058
2058
2056
2056
2056
2056
2059
2059
2059
2060
2060
2060
2056
2056
2056
2058
2058
2058
2058
2058
2058
2058
2058
2058
2058
2058
2058
2058
2058
2058
2058
2060
2060
2060
2059
2059
2059
2059
2058
2058
2058
2058
2058
2058
2058
2058
2058
2064
2064
2064
2059
2059
2059
2059
2063
2063
2063
2060
2060
2060
2057
2057
2057
2059
2059
2059
2057
2057
2057
2057
2059
2059
2059
2064
2064
2064
2060
2060
2060
2060
2060
2060
2059
2059
2059
2059
2058
2058
2058
2060
2060
2060
2061
2061
2061
2059
2059
2059
2058
2058
2058
2058
2058
2058
2058
2061
2061
2061
2062
2062
2062
2058
2058
2058
2063
2063
2063
2063
2057
2057
2057
2062
2062
2062
2059
2059
2059
2061
2061
2061
2056
2056
2056
2056
2057
2057
2057
2058
2058
2058
2058
2058
2058
2065
2065
2065
2059
2059
2059
2059
2056
2056
2056
2059
2059
2059
2056
2056
2056
2058
2058
2058
2061
2061
2061
2061
2054
2054
2054
2063
2063
2063
2058
2058
2058
2060
2060
2060
2061
2061
2061
2061
2059
2059
2059
2057
2057
2057
2062
2062
2062
2067
2067
2067
2058
2058
2058
2058
2059
2059
2059
2061
2061
2061
2057
2057
2057
2057
2057
2057
2056
2056
2056
2056
2058
2058
2058
2058
2058
2058
2058
2058
2058
2059
2059
2059
2059
2059
2059
2059
2058
2058
2058
2061
2061
2061
2060
2060
2060
2059
2059
2059
2058
2058
2058
2058
2063
2063
2063
2060
2060
2060
2060
2060
2060
2059
2059
2059
2061
2061
2061
2061
2058
2058
2058
2058
2058
2058
2058
2058
2058
2057
2057
2057
2056
2056
2056
2056
2059
2059
2059
2056
2056
2056
2059
2059
2059
2062
2062
2062
2059
2059
2059
2059
2059
2059
2059
2062
2062
2062
2057
2057
2057
2059
2059
2059
2063
2063
2063
2063
2057
2057
2057
2059
2059
2059
2061
2061
2061
2060
2060
2060
2062
2062
2062
2062
2058
2058
2058
2057
2057
2057
2060
2060
2060
2061
2061
2061
2059
2059
2059
2059
2058
2058
2058
2060
2060
2060
2059
2059
2059
2061
2061
2061
2057
2057
2057
2057
2060
2060
2060
2062
2062
2062
2059
2059
2059
2060
2060
2060
2062
2062
2062
2062
2059
2059
2059
2061
2061
2061
2062
2062
2062
2061
2061
2061
2061
2061
2061
2061
2059
2059
2059
2060
2060
2060
2057
2057
2057
2056
2056
2056
2061
2061
2061
2061
2057
2057
2057
2059
2059
2059
2059
2059
2059
2058
2058
2058
2058
2058
2058
2058
2059
2059
2059
2060
2060
2060
2061
2061
2061
2061
2061
2061
2057
2057
2057
2057
2056
2056
2056
2064
2064
2064
2062
2062
2062
2060
2060
2060
2059
2059
2059
2059
2060
2060
2060
2059
2059
2059
2058
2058
2058
2060
2060
2060
2063
2063
2063
2063
2062
2062
2062
2058
2058
2058
2059
2059
2059
2058
2058
2058
2059
2059
2059
2059
2057
2057
2057
2060
2060
2060
2061
2061
2061
2059
2059
2059
2058
2058
2058
