2179
2179
2179
2175
2175
2175
2173
2173
2173
2173
2173
2173
2173
2175
2175
2175
2176
2176
2176
2173
2173
2173
2173
2173
2173
2173
2172
2172
2172
2173
2173
2173
2173
2173
2173
2174
2174
2174
2174
2174
2174
2174
2173
2173
2173
2173
2173
2173
2175
2175
2175
2174
2174
2174
2174
2174
2174
2174
2173
2173
2173
2175
2175
2175
2174
2174
2174
2175
2175
2175
2173
2173
2173
2173
2173
2173
2173
2173
2173
2173
2175
2175
2175
2175
2176
2176
2176
2172
2172
2172
2175
2175
2175
2175
2170
2170
2170
2175
2175
2175
2171
2171
2171
2174
2174
2174
2170
2170
2170
2170
2172
2172
2172
2173
2173
2173
2174
2174
2174
2174
2174
2174
2172
2172
2172
2172
2173
2173
2173
2175
2175
2175
2172
2172
2172
2173
2173
2173
2174
2174
2174
2174
2174
2174
2174
2172
2172
2172
2174
2174
2174
2175
2175
2175
2180
2180
2180
2180
2170
2170
2170
2175
2175
2175
2174
2174
2174
2187
2187
2187
2175
2175
2175
2175
2173
2173
2173
2174
2174
2174
2168
2168
2168
2176
2176
2176
2174
2174
2174
2174
2175
2175
2175
2174
2174
2174
2174
2174
2174
2176
2176
2176
2176
2176
2176
2176
2173
2173
2173
2173
2173
2173
2174
2174
2174
2169
2169
2169
2175
2175
2175
2175
2173
2173
2173
2176
2176
2176
2180
2180
2180
2173
2173
2173
2173
2173
2173
2173
2173
2173
2173
2172
2172
2172
2175
2175
2175
2173
2173
2173
2176
2176
2176
2176
2173
2173
2173
2174
2174
2174
2170
2170
2170
2169
2169
2169
2174
2174
2174
2174
2175
2175
2175
2175
2175
2175
2174
2174
2174
2172
2172
2172
2174
2174
2174
2174
2173
2173
2173
2175
2175
2175
2170
2170
2170
2173
2173
2173
2174
2174
2174
2174
2175
2175
2175
2174
2174
2174
2175
2175
2175
2174
2174
2174
2179
2179
2179
2179
2172
2172
2172
2175
2175
2175
2176
2176
2176
2172
2172
2172
2173
2173
2173
2173
2174
2174
2174
2173
2173
2173
2179
2179
2179
2172
2172
2172
2172
2172
2172
2172
2168
2168
2168
2170
2170
2170
2174
2174
2174
2173
2173
2173
2170
2170
2170
2170
2174
2174
2174
2174
2174
2174
2171
2171
2171
2172
2172
2172
2176
2176
2176
2176
2173
2173
2173
2176
2176
2176
2170
2170
2170
2176
2176
2176
2177
2177
2177
2177
2173
2173
2173
2173
2173
2173
2174
2174
2174
2174
2174
2174
2177
2177
2177
2177
2170
2170
2170
2173
2173
2173
2173
2173
2173
2174
2174
2174
2171
2171
2171
2171
2174
2174
2174
2174
2174
2174
2174
2174
2174
2176
2176
2176
2168
2168
2168
2168
2173
2173
2173
2174
2174
2174
2173
2173
2173
2172
2172
2172
2173
2173
2173
2173
2174
2174
2174
2174
2174
2174
2173
2173
2173
2173
2173
2173
2175
2175
2175
2175
2172
2172
2172
2174
2174
2174
2171
2171
2171
2175
2175
2175
2174
2174
2174
2174
2178
2178
2178
2175
2175
2175
2175
2175
2175
2170
2170
2170
2174
2174
2174
2174
2174
2174
2174
2173
2173
2173
2172
2172
2172
2173
2173
2173
2170
2170
2170
2170
2174
2174
2174
2173
2173
2173
2170
2170
2170
2178
2178
2178
2173
2173
2173
2173
2175
2175
2175
2174
2174
2174
2173
2173
2173
2174
2174
2174
2172
2172
2172
2172
2173
2173
2173
2173
2173
2173
2172
2172
2172
2176
2176
2176
2169
2169
2169
2169
2173
2173
2173
2174
2174
2174
2176
2176
2176
2179
2179
2179
2172
2172
2172
2172
2172
2172
2172
2175
2175
2175
2177
2177
2177
2175
2175
2175
2173
2173
2173
2173
2172
2172
2172
2176
2176
2176
2174
2174
2174
2174
2174
2174
2175
2175
2175
2175
2177
2177
2177
2169
2169
2169
2174
2174
2174
2173
2173
2173
2175
2175
2175
2175
2175
2175
2175
2177
2177
2177
2173
2173
2173
2171
2171
2171
2173
2173
2173
2173
2173
2173
2173
2176
2176
2176
2176
2176
2176
2174
2174
2174
2173
2173
2173
2173
2170
2170
2170
2171
2171
2171
2175
2175
2175
2172
2172
2172
2174
2174
2174
2174
2172
2172
2172
2173
2173
2173
2175
2175
2175
2174
2174
2174
2173
2173
2173
2173
2173
2173
2173
2177
2177
2177
2176
2176
2176
2172
2172
2172
2175
2175
2175
2175
2181
2181
2181
2170
2170
2170
2174
2174
2174
2174
2174
2174
2173
2173
2173
2173
2169
2169
2169
2172
2172
2172
2173
2173
2173
2176
2176
2176
2173
2173
2173
2173
2170
2170
2170
2173
2173
2173
2174
2174
2174
2173
2173
2173
2173
2173
2173
2173
2179
2179
2179
2170
2170
2170
2174
2174
2174
2173
2173
2173
2170
2170
2170
2170
2175
2175
2175
2173
2173
2173
2176
2176
2176
2173
2173
2173
2175
2175
2175
2175
2169
2169
2169
2173
2173
2173
2176
2176
2176
2175
2175
2175
2173
2173
2173
2173
2173
2173
2173
2174
2174
2174
2175
2175
2175
2174
2174
2174
2176
2176
2176
2176
2175
2175
2175
2175
2175
2175
2173
2173
2173
2174
2174
2174
2180
2180
2180
2180
2173
2173
2173
2176
2176
2176
2172
2172
2172
2170
2170
2170
2172
2172
2172
2172
2171
2171
2171
2175
2175
2175
2173
2173
2173
2179
2179
2179
2173
2173
2173
2173
2173
2173
2173
2172
2172
2172
2175
2175
2175
2175
2175
2175
2170
2170
2170
2170
2172
2172
2172
2173
2173
2173
2175
2175
2175
2172
2172
2172
2174
2174
2174
2174
2171
2171
2171
2174
2174
2174
2180
2180
2180
2171
2171
2171
2173
2173
2173
2173
2172
2172
2172
2174
2174
2174
2173
2173
2173
2174
2174
2174
2171
2171
2171
2171
2173
2173
2173
2173
2173
2173
2179
2179
2179
2176
2176
2176
2170
2170
2170
2170
2173
2173
2173
2175
2175
2175
2175
2175
2175
2176
2176
2176
2173
2173
2173
2173
2173
2173
2173
2178
2178
2178
2176
2176
2176
2174
2174
2174
2175
2175
2175
2175
2172
2172
2172
2175
2175
2175
2173
2173
2173
2173
