31748
31748
31855
31855
31855
31855
31791
31791
31791
31769
31769
31769
31834
31834
31834
31726
31726
31726
31769
31769
31769
31769
31791
31791
31791
31683
31683
31683
31834
31834
31834
31705
31705
31705
31769
31769
31769
31769
31834
31834
31834
31748
31748
31748
31812
31812
31812
31705
31705
31705
31769
31769
31769
31769
31748
31748
31748
31791
31791
31791
31748
31748
31748
31877
31877
31877
31812
31812
31812
31812
31791
31791
31791
31705
31705
31705
31769
31769
31769
31726
31726
31726
31748
31748
31748
31748
31812
31812
31812
31748
31748
31748
31791
31791
31791
31705
31705
31705
31769
31769
31769
31769
31791
31791
31791
31705
31705
31705
31769
31769
31769
31705
31705
31705
31834
31834
31834
31834
31791
31791
31791
31726
31726
31726
31812
31812
31812
31705
31705
31705
31834
31834
31834
31834
31834
31834
31834
31683
31683
31683
31812
31812
31812
31705
31705
31705
31748
31748
31748
31748
31748
31748
31748
31791
31791
31791
31769
31769
31769
31705
31705
31705
31812
31812
31812
31812
31791
31791
31791
31748
31748
31748
31748
31748
31748
31705
31705
31705
31791
31791
31791
31791
31791
31791
31791
31726
31726
31726
31791
31791
31791
31662
31662
31662
31855
31855
31855
31855
31791
31791
31791
31726
31726
31726
31855
31855
31855
31726
31726
31726
31812
31812
31812
31812
31791
31791
31791
31683
31683
31683
31812
31812
31812
31769
31769
31769
31791
31791
31791
31791
31769
31769
31769
31726
31726
31726
31791
31791
31791
31705
31705
31705
31791
31791
31791
31791
31812
31812
31812
31726
31726
31726
31877
31877
31877
31705
31705
31705
31812
31812
31812
31812
31791
31791
31791
31705
31705
31705
31834
31834
31834
31683
31683
31683
31834
31834
31834
31834
31834
31834
31834
31726
31726
31726
31834
31834
31834
31726
31726
31726
31834
31834
31834
31834
31812
31812
31812
31705
31705
31705
31855
31855
31855
31705
31705
31705
31769
31769
31769
31769
31834
31834
31834
31705
31705
31705
31812
31812
31812
31705
31705
31705
31834
31834
31834
31834
31769
31769
31769
31662
31662
31662
31877
31877
31877
31726
31726
31726
31834
31834
31834
31834
31812
31812
31812
31748
31748
31748
31748
31748
31748
31726
31726
31726
31855
31855
31855
31855
31791
31791
31791
31748
31748
31748
31834
31834
31834
31769
31769
31769
31812
31812
31812
31812
31898
31898
31898
31726
31726
31726
31748
31748
31748
31726
31726
31726
31791
31791
31791
31791
31812
31812
31812
31769
31769
31769
31812
31812
31812
31748
31748
31748
31855
31855
31855
31855
31877
31877
31877
31726
31726
31726
31791
31791
31791
31726
31726
31726
31812
31812
31812
31812
31812
31812
31812
31748
31748
31748
31791
31791
31791
31683
31683
31683
31812
31812
31812
31812
31769
31769
31769
31640
31640
31640
31855
31855
31855
31705
31705
31705
31791
31791
31791
31791
31769
31769
31769
31748
31748
31748
31791
31791
31791
31683
31683
31683
31834
31834
31834
31834
31791
31791
31791
31705
31705
31705
31834
31834
31834
31748
31748
31748
31812
31812
31812
31812
31834
31834
31834
31748
31748
31748
31791
31791
31791
31705
31705
31705
31812
31812
31812
31812
31769
31769
31769
31705
31705
31705
31855
31855
31855
31662
31662
31662
31812
31812
31812
31812
31769
31769
31769
31748
31748
31748
31769
31769
31769
31705
31705
31705
31834
31834
31834
31834
31769
31769
31769
31812
31812
31812
31855
31855
31855
31705
31705
31705
31812
31812
31812
31812
31748
31748
31748
31683
31683
31683
31791
31791
31791
31705
31705
31705
31834
31834
31834
31834
31748
31748
31748
31705
31705
31705
31791
31791
31791
31705
31705
31705
31812
31812
31812
31812
31812
31812
31812
31705
31705
31705
31812
31812
31812
31619
31619
31619
31855
31855
31855
31855
31812
31812
31812
31683
31683
31683
31812
31812
31812
31683
31683
31683
31812
31812
31812
31812
31812
31812
31812
31726
31726
31726
31855
31855
31855
31726
31726
31726
31898
31898
31898
31898
31791
31791
31791
31726
31726
31726
31855
31855
31855
31683
31683
31683
31812
31812
31812
31812
31726
31726
31726
31748
31748
31748
31748
31748
31748
31683
31683
31683
31726
31726
31726
31726
31791
31791
31791
31597
31597
31597
31812
31812
31812
31705
31705
31705
31726
31726
31726
31726
31898
31898
31898
31705
31705
31705
31812
31812
31812
31683
31683
31683
31769
31769
31769
31769
31877
31877
31877
31705
31705
31705
31748
31748
31748
31683
31683
31683
31791
31791
31791
31791
31791
31791
31791
31705
31705
31705
31791
31791
31791
31726
31726
31726
31748
31748
31748
31748
31791
31791
31791
31726
31726
31726
31855
31855
31855
31726
31726
31726
31812
31812
31812
31812
31791
31791
31791
31748
31748
31748
31855
31855
31855
31726
31726
31726
31748
31748
31748
31748
31855
31855
31855
31683
31683
31683
31812
31812
31812
31726
31726
31726
31812
31812
31812
31812
31726
31726
31726
31662
31662
31662
31812
31812
31812
31662
31662
31662
31855
31855
31855
31855
31812
31812
31812
31748
31748
31748
31834
31834
31834
31726
31726
31726
31748
31748
31748
31748
31812
31812
31812
31726
31726
31726
31812
31812
31812
31683
31683
31683
31791
31791
31791
31791
31812
31812
31812
31726
31726
31726
31683
31683
31683
31705
31705
31705
31812
31812
31812
31812
31812
31812
31812
31769
31769
31769
31812
31812
31812
31683
31683
31683
31812
31812
31812
31812
31812
31812
31812
31769
31769
31769
31812
31812
31812
31726
31726
31726
31812
31812
31812
31812
31791
31791
31791
31705
31705
31705
31855
31855
31855
31726
31726
31726
31812
31812
31812
31812
31812
31812
31812
31705
31705
31705
31834
31834
31834
31748
31748
31748
31769
31769
31769
31769
31769
31769
31769
31726
31726
31726
31769
31769
31769
31769
31769
31769
31812
31812
31812
31812
31726
31726
31726
31683
31683
31683
31855
31855
31855
31705
31705
31705
31812
31812
31812
31812
31791
31791
31791
31683
31683
31683
31791
31791
31791
31726
31726
31726
31834
31834
31834
31834
31877
31877
31877
31705
31705
31705
31812
31812
31812
31748
31748
31748
31812
31812
31812
31812
31812
31812
31812
31726
31726
31726
31791
31791
31791
31726
31726
31726
31791
31791
31791
31791
31748
31748
31748
31619
31619
31619
31748
31748
31748
31662
31662
31662
31855
31855
31855
31855
31748
31748
31748
31705
31705
31705
31769
31769
31769
31683
31683
31683
31855
31855
31855
31855
31791
31791
31791
31748
31748
31748
31812
31812
31812
31769
31769
31769
31812
31812
31812
31812
31877
31877
31877
31726
31726
31726
31791
31791
31791
31748
31748
31748
31855
31855
31855
31855
31834
31834
31834
31662
31662
31662
31898
31898
31898
31683
31683
31683
31812
31812
31812
31812
31834
31834
31834
31791
31791
31791
31834
31834
31834
31726
31726
31726
31748
31748
31748
31748
31812
31812
31812
31726
31726
31726
31791
31791
31791
31812
31812
31812
31769
31769
31769
31769
31791
31791
31791
31748
31748
31748
31769
31769
31769
31705
31705
31705
31834
31834
31834
31834
31791
31791
31791
31640
31640
31640
31791
31791
31791
31726
31726
31726
31791
31791
31791
31791
31769
31769
31769
31726
31726
31726
31812
31812
31812
31683
31683
31683
31812
31812
31812
31812
31791
31791
31791
31683
31683
31683
31791
31791
31791
31726
31726
31726
31791
31791
31791
31791
31834
31834
31834
31769
31769
31769
31855
31855
31855
31683
31683
31683
31769
31769
31769
31769
31812
31812
31812
31705
31705
31705
31812
31812
31812
31705
31705
31705
31812
31812
31812
31812
31834
31834
31834
31705
31705
31705
31769
31769
31769
31748
31748
31748
31791
31791
31791
31791
31791
31791
31791
31683
31683
31683
31834
31834
31834
31683
31683
31683
31812
31812
31812
31812
31812
31812
31812
31705
31705
31705
31834
31834
31834
31726
31726
31726
31920
31920
31920
31920
31769
31769
31769
31683
31683
31683
31834
31834
31834
31705
31705
31705
31769
31769
31769
31769
31855
31855
31855
31683
31683
31683
31812
31812
31812
31662
31662
31662
31855
31855
31855
31855
31769
31769
31769
31705
31705
31705
31834
31834
31834
31726
31726
31726
31812
31812
31812
31812
31791
31791
31791
31726
31726
31726
31748
31748
31748
31683
31683
31683
31791
31791
31791
31791
31812
31812
31812
31748
31748
31748
31812
31812
31812
31705
31705
31705
31834
31834
31834
31834
31769
31769
31769
31705
31705
31705
31855
31855
31855
31748
31748
31748
31834
31834
31834
31834
31769
31769
31769
31726
31726
31726
31812
31812
31812
31748
31748
31748
31791
31791
31791
31791
31748
31748
31748
31705
31705
31705
31791
31791
31791
31705
31705
31705
31834
31834
31834
31834
31791
31791
31791
31619
31619
31619
31748
31748
31748
31726
31726
31726
31791
31791
31791
31791
31812
31812
31812
31683
31683
31683
31812
31812
31812
31791
31791
31791
31855
31855
31855
31855
31769
31769
31769
31748
31748
31748
31769
31769
31769
31748
31748
31748
31812
31812
31812
31812
31748
31748
31748
31726
31726
31726
31791
31791
31791
31726
31726
31726
31619
31619
31619
31619
31726
31726
31726
31705
31705
31705
31812
31812
31812
31726
31726
31726
31834
31834
31834
31834
31855
31855
31855
31662
31662
31662
31877
31877
31877
31662
31662
31662
31769
31769
31769
31769
31769
31769
31769
31726
31726
31726
31791
31791
31791
31726
31726
31726
31769
31769
31769
31769
31769
31769
31769
31705
31705
31705
31855
31855
31855
31576
31576
31576
31877
31877
31877
31877
31791
31791
31791
31705
31705
31705
31791
31791
31791
31748
31748
31748
31791
31791
31791
31791
31834
31834
31834
31812
31812
31812
31834
31834
31834
31662
31662
31662
31834
31834
31834
31834
31812
31812
31812
31705
31705
31705
31877
31877
31877
31662
31662
31662
31791
31791
31791
31791
31834
31834
31834
31705
31705
31705
31812
31812
31812
31748
31748
31748
31877
31877
31877
31877
31834
31834
31834
31791
31791
31791
31855
31855
31855
31726
31726
31726
31791
31791
31791
31791
31791
31791
31791
31705
31705
31705
31640
31640
31640
31748
31748
31748
31855
31855
31855
31855
31812
31812
31812
31769
31769
31769
31834
31834
31834
31726
31726
31726
31834
31834
31834
31834
31855
31855
31855
31726
31726
31726
31769
31769
31769
31619
31619
31619
31748
31748
31748
31748
31791
31791
31791
31705
31705
31705
31791
31791
31791
31726
31726
31726
31812
31812
31812
31812
31812
31812
31812
31726
31726
31726
31791
31791
31791
31748
31748
31748
31812
31812
31812
31812
31769
31769
31769
31726
31726
31726
31855
31855
31855
31769
31769
31769
31812
31812
31812
31812
31748
31748
31748
31683
31683
31683
31791
31791
31791
31726
31726
31726
31834
31834
31834
31834
31748
31748
31748
31726
31726
31726
31834
31834
31834
31726
31726
31726
31769
31769
31769
31769
31748
31748
31748
31748
31748
31748
31769
31769
31769
31769
31769
31769
31812
31812
31812
31812
31748
31748
31748
31855
31855
31855
31791
31791
31791
31705
31705
31705
31791
31791
31791
31791
31769
31769
31769
31769
31769
31769
31812
31812
31812
31726
31726
31726
31812
31812
31812
31812
31834
31834
31834
31640
31640
31640
31791
31791
31791
31726
31726
31726
31834
31834
31834
31834
31877
31877
31877
31791
31791
31791
31812
31812
31812
31662
31662
31662
31834
31834
31834
31834
31791
31791
31791
31705
31705
31705
31769
31769
31769
31726
31726
31726
31834
31834
31834
31834
31769
31769
31769
31726
31726
31726
31748
31748
31748
31705
31705
31705
31834
31834
31834
31834
31791
31791
31791
31683
31683
31683
31920
31920
31920
31662
31662
31662
31791
31791
31791
31791
31855
31855
31855
31726
31726
31726
31769
31769
31769
31705
31705
31705
31855
31855
31855
31855
31791
31791
31791
31769
31769
31769
31769
31769
31769
31769
31769
31769
31769
31769
31769
31769
31812
31812
31812
31726
31726
31726
31834
31834
31834
31640
31640
31640
31877
31877
31877
31877
31769
31769
31769
31662
31662
31662
31812
31812
31812
31705
31705
31705
31855
31855
31855
31855
31791
31791
31791
31769
31769
31769
31791
31791
31791
31726
31726
31726
31812
31812
31812
31812
31855
31855
31855
31748
31748
31748
31834
31834
31834
31726
31726
31726
31834
31834
31834
31834
31791
31791
31791
31726
31726
31726
31812
31812
31812
31748
31748
31748
31834
31834
31834
31834
31834
31834
31834
31748
31748
31748
31834
31834
31834
31683
31683
31683
31855
31855
31855
31855
31769
31769
31769
31748
31748
31748
31812
31812
31812
31726
31726
31726
31898
31898
31898
31898
31791
31791
31791
31726
31726
31726
31941
31941
31941
31726
31726
31726
31877
31877
31877
31877
31619
31619
31619
31748
31748
31748
31812
31812
31812
31791
31791
31791
31791
31791
31791
31791
31769
31769
31769
31705
31705
31705
31877
31877
31877
31705
31705
31705
31769
31769
31769
31769
31791
31791
31791
31662
31662
31662
31834
31834
31834
31726
31726
31726
31791
31791
31791
31791
31877
31877
31877
31705
31705
31705
31791
31791
31791
31726
31726
31726
31791
31791
31791
31791
31791
31791
31791
31705
31705
31705
31748
31748
31748
31726
31726
31726
31834
31834
31834
31834
31791
31791
31791
31726
31726
31726
31791
31791
31791
31748
31748
31748
31748
31748
31748
31748
31920
31920
31920
31705
31705
31705
31812
31812
31812
31705
31705
31705
31812
31812
31812
31812
31812
31812
31812
31726
31726
31726
31791
31791
31791
31705
31705
31705
31726
31726
31726
31726
31855
31855
31855
31705
31705
31705
31834
31834
31834
31640
31640
31640
31791
31791
31791
31791
31748
31748
31748
31726
31726
31726
31812
31812
31812
31726
31726
31726
31834
31834
31834
31834
31748
31748
31748
31726
31726
31726
31705
31705
31705
31705
31705
31705
31898
31898
31898
31898
31812
31812
31812
31726
31726
31726
31834
31834
31834
31791
31791
31791
31834
31834
31834
31834
31834
31834
31834
31619
31619
31619
31791
31791
31791
31683
31683
31683
31877
31877
31877
31877
31855
31855
31855
31769
31769
31769
31834
31834
31834
31748
31748
31748
31791
31791
31791
31791
31640
31640
31640
31748
31748
31748
31791
31791
31791
31640
31640
31640
31769
31769
31769
31769
31769
31769
31769
31705
31705
31705
31769
31769
31769
31748
31748
31748
31769
31769
31769
31769
31834
31834
31834
31705
31705
31705
31791
31791
31791
31726
31726
31726
31812
31812
31812
31812
31834
31834
31834
31705
31705
31705
31791
31791
31791
31748
31748
31748
31834
31834
31834
31834
31834
31834
31834
31726
31726
31726
31877
31877
31877
31705
31705
31705
31834
31834
31834
31834
31791
31791
31791
31726
31726
31726
31791
31791
31791
31726
31726
31726
31791
31791
31791
31791
31791
31791
31791
31705
31705
31705
31791
31791
31791
31705
31705
31705
31769
31769
31769
31769
31834
31834
31834
31726
31726
31726
31791
31791
31791
31705
31705
31705
31855
31855
31855
31855
31834
31834
31834
31726
31726
31726
31812
31812
31812
31705
31705
31705
31834
31834
31834
31834
31791
31791
31791
31726
31726
31726
31769
31769
31769
31726
31726
31726
31791
31791
31791
31791
31769
31769
31769
31683
31683
31683
31812
31812
31812
31705
31705
31705
31834
31834
31834
31834
31855
31855
31855
31705
31705
31705
31769
31769
31769
31640
31640
31640
31834
31834
31834
31834
31769
31769
31769
31705
31705
31705
31769
31769
31769
31726
31726
31726
31748
31748
31748
31748
31748
31748
31748
31748
31748
31748
32027
32027
32027
31705
31705
31705
31791
31791
31791
31791
31769
31769
31769
31683
31683
31683
31834
31834
31834
31640
31640
31640
31791
31791
31791
31791
31812
31812
31812
31662
31662
31662
31769
31769
31769
31726
31726
31726
31812
31812
31812
31812
31812
31812
31812
31683
31683
31683
31769
31769
31769
31726
31726
31726
31812
31812
31812
31812
31855
31855
31855
31705
31705
31705
31812
31812
31812
31748
31748
31748
31812
31812
31812
31812
31812
31812
31812
31748
31748
31748
31748
31748
31748
31769
31769
31769
31791
31791
31791
31791
31812
31812
31812
31683
31683
31683
31834
31834
31834
31748
31748
31748
31812
31812
31812
31812
31812
31812
31812
31705
31705
31705
31769
31769
31769
31726
31726
31726
31855
31855
31855
31855
31812
31812
31812
31748
31748
31748
31812
31812
31812
31726
31726
31726
31748
31748
31748
31748
31877
31877
31877
31705
31705
31705
31791
31791
31791
31662
31662
31662
31791
31791
31791
31791
31855
31855
31855
31705
31705
31705
31898
31898
31898
31705
31705
31705
31855
31855
31855
31855
31748
31748
31748
31683
31683
31683
31791
31791
31791
31705
31705
31705
31812
31812
31812
31812
31855
31855
31855
31683
31683
31683
31834
31834
31834
31726
31726
31726
31834
31834
31834
31834
31855
31855
31855
31726
31726
31726
31834
31834
31834
31726
31726
31726
31791
31791
31791
31791
31791
31791
31791
31619
31619
31619
31812
31812
31812
31726
31726
31726
31769
31769
31769
31769
31791
31791
31791
31705
31705
31705
31791
31791
31791
31683
31683
31683
31812
31812
31812
31812
31834
31834
31834
31748
31748
31748
31834
31834
31834
31748
31748
31748
31769
31769
31769
31769
31769
31769
31769
31726
31726
31726
31791
31791
31791
31705
31705
31705
31812
31812
31812
31812
31812
31812
31812
31769
31769
31769
31791
31791
31791
31705
31705
31705
31834
31834
31834
31834
31812
31812
31812
31769
31769
31769
31812
31812
31812
31726
31726
31726
31855
31855
31855
31855
31769
31769
31769
31748
31748
31748
31812
31812
31812
31812
31812
31812
31855
31855
31855
31855
31791
31791
31791
31683
31683
31683
31834
31834
31834
31726
31726
31726
31791
31791
31791
31791
31769
31769
31769
31705
31705
31705
31791
31791
31791
31662
31662
31662
31705
31705
31705
31705
31834
31834
31834
31748
31748
31748
31812
31812
31812
31791
31791
31791
31791
31791
31791
31791
31812
31812
31812
31726
31726
31726
31769
31769
31769
31662
31662
31662
31834
31834
31834
31834
31726
31726
31726
31769
31769
31769
31791
31791
31791
31769
31769
31769
31769
31769
31769
31769
31769
31769
31769
31748
31748
31748
31855
31855
31855
31683
31683
31683
31791
31791
31791
31791
31812
31812
31812
31640
31640
31640
31834
31834
31834
31705
31705
31705
31877
31877
31877
31877
31812
31812
31812
31705
31705
31705
31834
31834
31834
31726
31726
31726
31812
31812
31812
31812
31769
31769
31769
31705
31705
31705
31812
31812
31812
31662
31662
31662
31834
31834
31834
31834
31791
31791
31791
31705
31705
31705
31791
31791
31791
31726
31726
31726
31834
31834
31834
31834
31812
31812
31812
31748
31748
31748
31812
31812
31812
31683
31683
31683
31812
31812
31812
31812
31812
31812
31812
31705
31705
31705
31705
31705
31705
31705
31705
31705
31791
31791
31791
31791
31834
31834
31834
31683
31683
31683
31812
31812
31812
31705
31705
31705
31748
31748
31748
31748
31705
31705
31705
31726
31726
31726
31834
31834
31834
31705
31705
31705
31855
31855
31855
31855
31834
31834
31834
31705
31705
31705
31855
31855
31855
31683
31683
31683
31812
31812
31812
31812
31834
31834
31834
31705
31705
31705
31812
31812
31812
31769
31769
31769
31769
31769
31769
31769
31877
31877
31877
31683
31683
31683
31834
31834
31834
31748
31748
31748
31834
31834
31834
31834
31748
31748
31748
31726
31726
31726
31812
31812
31812
31726
31726
31726
31812
31812
31812
31812
31812
31812
31812
31662
31662
31662
31769
31769
31769
31769
31769
31769
31834
31834
31834
31834
31812
31812
31812
31705
31705
31705
31834
31834
31834
31769
31769
31769
31855
31855
31855
31855
31791
31791
31791
31748
31748
31748
31812
31812
31812
31705
31705
31705
31877
31877
31877
31877
31791
31791
31791
31662
31662
31662
31855
31855
31855
31726
31726
31726
31791
31791
31791
31791
31877
31877
31877
31769
31769
31769
31877
31877
31877
31748
31748
31748
31791
31791
31791
31791
31812
31812
31812
31662
31662
31662
31812
31812
31812
31683
31683
31683
31705
31705
31705
31705
31834
31834
31834
31769
31769
31769
31812
31812
31812
31769
31769
31769
31769
31769
31769
31769
31812
31812
31812
31748
31748
31748
31705
31705
31705
31726
31726
31726
31726
31726
31726
31726
31812
31812
31812
31834
31834
31834
31898
31898
31898
31748
31748
31748
31834
31834
31834
31834
31812
31812
31812
31748
31748
31748
31834
31834
31834
31683
31683
31683
31834
31834
31834
31834
31769
31769
31769
31705
31705
31705
31812
31812
31812
31705
31705
31705
31812
31812
31812
31812
31812
31812
31812
31662
31662
31662
31812
31812
31812
31683
31683
31683
31791
31791
31791
31791
31791
31791
31791
31726
31726
31726
31748
31748
31748
31705
31705
31705
31812
31812
31812
31812
31791
31791
31791
31726
31726
31726
31791
31791
31791
31726
31726
31726
31791
31791
31791
31791
31834
31834
31834
31791
31791
31791
31769
31769
31769
31683
31683
31683
31855
31855
31855
31855
31855
31855
31855
31705
31705
31705
31834
31834
31834
31726
31726
31726
31812
31812
31812
31812
31769
31769
31769
31683
31683
31683
31812
31812
31812
31726
31726
31726
31812
31812
31812
31812
31834
31834
31834
31640
31640
31640
31769
31769
31769
31683
31683
31683
31769
31769
31769
31769
31748
31748
31748
31705
31705
31705
31812
31812
31812
31726
31726
31726
31834
31834
31834
31834
31791
31791
31791
31748
31748
31748
31834
31834
31834
31726
31726
31726
31791
31791
31791
31791
31812
31812
31812
31683
31683
31683
31812
31812
31812
31683
31683
31683
31812
31812
31812
31812
31834
31834
31834
31726
31726
31726
31920
31920
31920
31748
31748
31748
31791
31791
31791
31791
31855
31855
31855
31640
31640
31640
31812
31812
31812
31640
31640
31640
31855
31855
31855
31855
31812
31812
31812
31748
31748
31748
31877
31877
31877
31705
31705
31705
31834
31834
31834
31834
31877
31877
31877
31683
31683
31683
31769
31769
31769
31748
31748
31748
31877
31877
31877
31877
31748
31748
31748
31662
31662
31662
31834
31834
31834
31683
31683
31683
31791
31791
31791
31791
31791
31791
31791
31748
31748
31748
31812
31812
31812
31662
31662
31662
31898
31898
31898
31898
31812
31812
31812
31748
31748
31748
31834
31834
31834
31748
31748
31748
31812
31812
31812
31812
31791
31791
31791
31748
31748
31748
31748
31748
31748
31726
31726
31726
31812
31812
31812
31812
31769
31769
31769
31748
31748
31748
31769
31769
31769
31726
31726
31726
31748
31748
31748
31748
31877
31877
31877
31705
31705
31705
31791
31791
31791
31705
31705
31705
31769
31769
31769
31769
31791
31791
31791
31726
31726
31726
31683
31683
31683
31640
31640
31640
31812
31812
31812
31812
31791
31791
31791
31683
31683
31683
31834
31834
31834
31748
31748
31748
31834
31834
31834
31834
31748
31748
31748
31705
31705
31705
31791
31791
31791
31726
31726
31726
31834
31834
31834
31834
31791
31791
31791
31748
31748
31748
31812
31812
31812
31748
31748
31748
31834
31834
31834
31834
31812
31812
31812
31683
31683
31683
31812
31812
31812
31726
31726
31726
31748
31748
31748
31748
31812
31812
31812
31748
31748
31748
31791
31791
31791
31726
31726
31726
31791
31791
31791
31791
31812
31812
31812
31683
31683
31683
31726
31726
31726
31705
31705
31705
31855
31855
31855
31855
31812
31812
31812
31748
31748
31748
31769
31769
31769
31511
31511
31511
31791
31791
31791
31791
31791
31791
31791
31748
31748
31748
31769
31769
31769
31769
31769
31769
31812
31812
31812
31812
31748
31748
31748
31812
31812
31812
31812
31812
31812
31705
31705
31705
31855
31855
31855
31855
31726
31726
31726
31812
31812
31812
31769
31769
31769
31662
31662
31662
31791
31791
31791
31791
31791
31791
31791
31705
31705
31705
31726
31726
31726
31769
31769
31769
31769
31769
31769
31769
31834
31834
31834
31705
31705
31705
31726
31726
31726
31683
31683
31683
31834
31834
31834
31834
31812
31812
31812
31748
31748
31748
31812
31812
31812
31683
31683
31683
31791
31791
31791
31791
31769
31769
31769
31705
31705
31705
31769
31769
31769
31683
31683
31683
31791
31791
31791
31791
31791
31791
31791
31705
31705
31705
31834
31834
31834
31726
31726
31726
31812
31812
31812
31812
31748
31748
31748
31683
31683
31683
31769
31769
31769
31726
31726
31726
31812
31812
31812
31812
31791
31791
31791
31726
31726
31726
31834
31834
31834
31705
31705
31705
31855
31855
31855
31855
31834
31834
31834
31748
31748
31748
31812
31812
31812
31726
31726
31726
31791
31791
31791
31791
31812
31812
31812
31705
31705
31705
31834
31834
31834
31683
31683
31683
31855
31855
31855
31855
31812
31812
31812
31705
31705
31705
31812
31812
31812
31748
31748
31748
31834
31834
31834
31834
31877
31877
31877
31748
31748
31748
31812
31812
31812
31769
31769
31769
31855
31855
31855
31855
31748
31748
31748
31705
31705
31705
31812
31812
31812
31748
31748
31748
31855
31855
31855
31855
31812
31812
31812
31769
31769
31769
31834
31834
31834
31640
31640
31640
31855
31855
31855
31855
31769
31769
31769
31769
31769
31769
31855
31855
31855
31705
31705
31705
31812
31812
31812
31812
31791
31791
31791
31705
31705
31705
31769
31769
31769
31748
31748
31748
31834
31834
31834
31834
31791
31791
31791
31726
31726
31726
31834
31834
31834
31705
31705
31705
31791
31791
31791
31791
31791
31791
31791
31726
31726
31726
31855
31855
31855
31769
31769
31769
31812
31812
31812
31812
31791
31791
31791
31726
31726
31726
31769
31769
31769
31748
31748
31748
31812
31812
31812
31812
31791
31791
31791
31705
31705
31705
31834
31834
31834
31726
31726
31726
31812
31812
31812
31812
31748
31748
31748
31705
31705
31705
31898
31898
31898
31705
31705
31705
31812
31812
31812
31812
31812
31812
31812
31791
31791
31791
31769
31769
31769
31791
31791
31791
31812
31812
31812
31812
31791
31791
31791
31705
31705
31705
31812
31812
31812
31683
31683
31683
31855
31855
31855
31855
31834
31834
31834
31705
31705
31705
31855
31855
31855
31683
31683
31683
31941
31941
31941
31941
31769
31769
31769
31705
31705
31705
31791
31791
31791
31683
31683
31683
31834
31834
31834
31834
31812
31812
31812
31726
31726
31726
31877
31877
31877
31683
31683
31683
31855
31855
31855
31855
31855
31855
31855
31705
31705
31705
31834
31834
31834
31705
31705
31705
31855
31855
31855
31855
31834
31834
31834
31705
31705
31705
31812
31812
31812
31748
31748
31748
31576
31576
31576
31576
31812
31812
31812
31705
31705
31705
31791
31791
31791
31726
31726
31726
31769
31769
31769
31769
31576
31576
31576
31748
31748
31748
31791
31791
31791
31705
31705
31705
31834
31834
31834
31834
31726
31726
31726
31705
31705
31705
31769
31769
31769
31683
31683
31683
31791
31791
31791
31791
31726
31726
31726
31748
31748
31748
31791
31791
31791
31769
31769
31769
31834
31834
31834
31834
31812
31812
31812
31748
31748
31748
31812
31812
31812
31748
31748
31748
31791
31791
31791
31791
31769
31769
31769
31748
31748
31748
31834
31834
31834
31726
31726
31726
31812
31812
31812
31812
31834
31834
31834
31705
31705
31705
31834
31834
31834
31769
31769
31769
31748
31748
31748
31748
31812
31812
31812
31705
31705
31705
31834
31834
31834
31705
31705
31705
31812
31812
31812
31812
31812
31812
31812
31769
31769
31769
31769
31769
31769
31683
31683
31683
31812
31812
31812
31812
31834
31834
31834
31812
31812
31812
31791
31791
31791
31726
31726
31726
31877
31877
31877
31877
31748
31748
31748
31683
31683
31683
31834
31834
31834
31705
31705
31705
31812
31812
31812
31812
31812
31812
31812
31705
31705
31705
31791
31791
31791
31726
31726
31726
31791
31791
31791
31791
31834
31834
31834
31748
31748
31748
31791
31791
31791
31726
31726
31726
31834
31834
31834
31834
31812
31812
31812
31726
31726
31726
31812
31812
31812
31748
31748
31748
31705
31705
31705
31705
31769
31769
31769
31791
31791
31791
31769
31769
31769
31769
31769
31769
31812
31812
31812
31812
31812
31812
31812
31726
31726
31726
31834
31834
31834
31726
31726
31726
31834
31834
31834
31834
31877
31877
31877
31791
31791
31791
31791
31791
31791
31791
31791
31791
31791
31791
31791
31791
31812
31812
31812
31705
31705
31705
31812
31812
31812
31748
31748
31748
31898
31898
31898
31898
31898
31898
31898
31683
31683
31683
31834
31834
31834
31705
31705
31705
31855
31855
31855
31855
31791
31791
31791
31726
31726
31726
31791
31791
31791
31769
31769
31769
31812
31812
31812
31812
31834
31834
31834
31769
31769
31769
31769
31769
31769
31748
31748
31748
31834
31834
31834
31834
31748
31748
31748
31769
31769
31769
31812
31812
31812
31705
31705
31705
31834
31834
31834
31834
31726
31726
31726
31748
31748
31748
31791
31791
31791
31726
31726
31726
31812
31812
31812
31812
31791
31791
31791
31769
31769
31769
31834
31834
31834
31705
31705
31705
31791
31791
31791
31791
31791
31791
31791
31726
31726
31726
31812
31812
31812
31726
31726
31726
31812
31812
31812
31812
31812
31812
31812
31726
31726
31726
31834
31834
31834
31683
31683
31683
31834
31834
31834
31834
31812
31812
31812
31683
31683
31683
31791
31791
31791
31748
31748
31748
31812
31812
31812
31812
31834
31834
31834
31683
31683
31683
31834
31834
31834
31705
31705
31705
31855
31855
31855
31855
31834
31834
31834
31726
31726
31726
31855
31855
31855
31683
31683
31683
31791
31791
31791
31791
31812
31812
31812
31705
31705
31705
31855
31855
31855
31748
31748
31748
31855
31855
31855
31855
31812
31812
31812
31726
31726
31726
31834
31834
31834
31683
31683
31683
31769
31769
31769
31769
31812
31812
31812
31705
31705
31705
31812
31812
31812
31726
31726
31726
31877
31877
31877
31877
31855
31855
31855
31705
31705
31705
31834
31834
31834
31748
31748
31748
31769
31769
31769
31769
31855
31855
31855
31662
31662
31662
31877
31877
31877
31705
31705
31705
31855
31855
31855
31855
31920
31920
31920
31683
31683
31683
31834
31834
31834
31726
31726
31726
31812
31812
31812
31812
31920
31920
31920
31683
31683
31683
31834
31834
31834
31683
31683
31683
31855
31855
31855
31855
31812
31812
31812
31705
31705
31705
31791
31791
31791
31683
31683
31683
31705
31705
31705
31705
31834
31834
31834
31726
31726
31726
31791
31791
31791
31726
31726
31726
31791
31791
31791
31791
31834
31834
31834
31726
31726
31726
31834
31834
31834
31726
31726
31726
31791
31791
31791
31791
31855
31855
31855
31748
31748
31748
31791
31791
31791
31726
31726
31726
31769
31769
31769
31769
31898
31898
31898
31748
31748
31748
31812
31812
31812
31683
31683
31683
31812
31812
31812
31812
31834
31834
31834
31705
31705
31705
31769
31769
31769
31726
31726
31726
31834
31834
31834
31834
31791
31791
31791
31683
31683
31683
31791
31791
31791
31726
31726
31726
31812
31812
31812
31812
31834
31834
31834
31748
31748
31748
31834
31834
31834
31726
31726
31726
31812
31812
31812
31812
31812
31812
31812
31769
31769
31769
31812
31812
31812
31726
31726
31726
31726
31726
31726
31726
31812
31812
31812
31726
31726
31726
31812
31812
31812
31748
31748
31748
31834
31834
31834
31834
31812
31812
31812
31769
31769
31769
31812
31812
31812
31748
31748
31748
31812
31812
31812
31812
31769
31769
31769
31791
31791
31791
31812
31812
31812
31769
31769
31769
31791
31791
31791
31791
31769
31769
31769
31726
31726
31726
31769
31769
31769
31683
31683
31683
31791
31791
31791
31791
31769
31769
31769
31748
31748
31748
31812
31812
31812
31683
31683
31683
31769
31769
31769
31769
31812
31812
31812
31791
31791
31791
31791
31791
31791
31726
31726
31726
31855
31855
31855
31855
31791
31791
31791
31705
31705
31705
31812
31812
31812
31705
31705
31705
31812
31812
31812
31812
31834
31834
31834
31726
31726
31726
31834
31834
31834
31705
31705
31705
31791
31791
31791
31791
31791
31791
31791
31748
31748
31748
31855
31855
31855
31705
31705
31705
31834
31834
31834
31834
31791
31791
31791
31748
31748
31748
31855
31855
31855
31855
31855
31855
31812
31812
31812
31812
31791
31791
31791
31748
31748
31748
31769
31769
31769
31748
31748
31748
31855
31855
31855
31855
31877
31877
31877
31683
31683
31683
31834
31834
31834
31683
31683
31683
31791
31791
31791
31791
31834
31834
31834
31726
31726
31726
31769
31769
31769
31748
31748
31748
31812
31812
31812
31812
31748
31748
31748
31791
31791
31791
31791
31791
31791
31791
31791
31791
31812
31812
31812
31812
31769
31769
31769
31726
31726
31726
31769
31769
31769
31640
31640
31640
31834
31834
31834
31834
31812
31812
31812
31662
31662
31662
31769
31662
31662
31662
31877
31877
31877
31769
31769
31769
31877
31877
31877
31877
31812
31812
31812
31726
31726
31726
31855
31855
31855
31705
31705
31705
31834
31834
31834
31834
31812
31812
31812
31705
31705
31705
31877
31877
31877
31705
31705
31705
31812
31812
31812
31812
31812
31812
31812
31769
31769
31769
31748
31748
31748
31705
31705
31705
31748
31748
31748
31748
31683
31683
31683
31769
31769
31769
31791
31791
31791
31855
31855
31855
31812
31812
31812
31812
31791
31791
31791
31726
31726
31726
31855
31855
31855
31662
31662
31662
31748
31748
31748
31748
31834
31834
31834
31554
31554
31554
31834
31834
31834
31662
31662
31662
31877
31877
31877
31877
31834
31834
31834
31812
31812
31812
31748
31748
31748
31748
31748
31748
31748
31748
31748
31834
31834
31834
31834
31834
31834
31834
31640
31640
31640
31791
31791
31791
31683
31683
31683
31812
31812
31812
31812
31769
31769
31769
31726
31726
31726
31769
31769
31769
31748
31748
31748
31877
31877
31877
31877
31769
31769
31769
31748
31748
31748
31791
31791
31791
31705
31705
31705
31791
31791
31791
31791
31834
31834
31834
31748
31748
31748
31855
31855
31855
31640
31640
31640
31855
31855
31855
31855
31834
31834
31834
31705
31705
31705
31834
31834
31834
31683
31683
31683
31877
31877
31877
31877
31791
31791
31791
31662
31662
31662
31812
31812
31812
31748
31748
31812
31662
31662
31662
31769
31769
31769
31769
31834
31834
31834
31748
31748
31748
31726
31726
31726
31769
31769
31769
31791
31791
31791
31791
31812
31812
31812
31726
31726
31726
31791
31791
31791
31769
31769
31769
31791
31791
31791
31791
31726
31726
31726
31748
31748
31748
31791
31791
31791
31748
31748
31748
31812
31812
31812
31812
31791
31791
31791
31705
31705
31705
31877
31877
31877
31726
31726
31726
31748
31748
31748
31748
31834
31834
31834
31662
31662
31662
31812
31812
31812
31726
31726
31726
31834
31834
31834
31834
31769
31769
31769
31705
31705
31705
31791
31791
31791
31769
31769
31769
31812
31812
31812
31812
31791
31791
31791
31748
31748
31812
31769
31769
31769
31812
31812
31812
31769
31769
31769
31920
31920
31920
31920
31812
31812
31812
31705
31705
31705
31855
31855
31855
31640
31640
31640
31791
31791
31791
31791
31855
31855
31855
31683
31683
31683
31855
31855
31855
31705
31705
31705
31877
31877
31877
31877
31812
31812
31812
31769
31769
31769
31812
31812
31812
31705
31705
31705
31812
31812
31812
31812
31769
31769
31769
31683
31683
31683
31877
31877
31877
31597
31597
31597
31834
31834
31834
31834
31791
31791
31791
31748
31748
31748
31812
31812
31812
31726
31726
31726
31748
31748
31748
31748
31791
31791
31791
31705
31705
31705
31769
31769
31769
31748
31748
31748
31748
31748
31748
31748
31834
31834
31834
31812
31812
31812
31705
31705
31705
31855
31855
31855
31769
31769
31769
31791
31791
31791
31791
31769
31769
31769
31662
31662
31662
31791
31791
31791
31705
31705
31705
31791
31791
31791
31791
31855
31855
31855
31726
31726
31726
31834
31834
31834
31726
31726
31726
31898
31898
31898
31898
31791
31791
31791
31748
31748
31748
31877
31877
31877
31748
31748
31748
31791
31791
31791
31791
31812
31812
31812
31748
31748
31748
31855
31855
31855
31726
31726
31726
31812
31812
31812
31812
31769
31769
31769
31683
31683
31683
31791
31791
31791
31748
31748
31748
31877
31877
31877
31877
31791
31791
31791
31748
31748
31748
31812
31812
31812
31748
31748
31834
31834
31726
31726
31726
31834
31834
31834
31834
31705
31705
31705
31726
31726
31726
31855
31855
31855
31683
31683
31683
31834
31834
31834
31834
31834
31834
31834
31726
31726
31726
31791
31791
31791
31726
31726
31726
31769
31769
31769
31769
31791
31791
31791
31812
31812
31812
31769
31769
31769
31769
31769
31769
31769
31769
31769
31769
31834
31834
31834
31769
31769
31769
31812
31812
31812
31748
31748
31748
31812
31812
31812
31812
31791
31791
31791
31748
31748
31748
31812
31812
31812
31726
31726
31726
31855
31855
31855
31855
31791
31791
31791
31769
31769
31769
31769
31769
31769
31683
31683
31683
31834
31834
31834
31834
31748
31748
31748
31726
31726
31812
31662
31662
31662
31834
31834
31834
31791
31791
31791
31834
31834
31834
31834
31791
31791
31791
31705
31705
31705
31812
31812
31812
31726
31726
31726
31812
31812
31812
31812
31769
31769
31769
31705
31705
31705
31812
31812
31812
31683
31683
31683
31812
31812
31812
31812
31791
31791
31791
31726
31726
31726
31748
31748
31748
31705
31705
31705
31769
31769
31769
31769
31963
31963
31963
31748
31748
31748
31834
31834
31834
31662
31662
31662
31855
31855
31855
31855
31920
31920
31920
31748
31748
31748
31855
31855
31855
31726
31726
31726
31812
31812
31812
31812
31812
31812
31812
31791
31791
31791
31791
31791
31791
31748
31748
31748
31705
31705
31705
31705
31898
31898
31898
31791
31791
31791
31705
31705
31705
31834
31834
31834
31640
31640
31640
31812
31812
31812
31812
31791
31791
31791
31726
31726
31726
31791
31791
31791
31791
31791
31791
31812
31812
31812
31812
31791
31791
31791
31769
31769
31769
31812
31812
31812
31748
31748
31748
31834
31834
31834
31834
31705
31705
31705
31748
31748
31748
31834
31834
31834
31683
31683
31683
31877
31877
31877
31877
31791
31791
31791
31726
31726
31726
31855
31855
31855
31683
31683
31683
31791
31791
31791
31791
31791
31791
31791
31748
31748
31748
31812
31812
31812
31726
31726
31726
31812
31812
31812
31812
31812
31812
31812
31726
31726
31726
31812
31812
31812
31726
31791
31791
31683
31683
31683
31769
31769
31769
31769
31791
31791
31791
31683
31683
31683
31855
31855
31855
31683
31683
31683
31898
31898
31898
31898
31834
31834
31834
31748
31748
31748
31812
31812
31812
31683
31683
31683
31791
31791
31791
31791
31834
31834
31834
31748
31748
31748
31791
31791
31791
31748
31748
31748
31834
31834
31834
31834
31769
31769
31769
31683
31683
31683
31834
31834
31834
31726
31726
31726
31855
31855
31855
31855
31791
31791
31791
31748
31748
31748
31769
31769
31769
31726
31726
31726
31812
31812
31812
31812
31791
31791
31791
31726
31726
31726
31834
31834
31834
31726
31726
31726
31812
31812
31812
31812
31855
31855
31855
31705
31705
31834
31705
31705
31705
31812
31812
31812
31748
31748
31748
31812
31812
31812
31812
31834
31834
31834
31705
31705
31705
31812
31812
31812
31683
31683
31683
31877
31877
31877
31877
31812
31812
31812
31619
31619
31619
31769
31769
31769
31683
31683
31683
31769
31769
31769
31769
31769
31769
31769
31726
31726
31726
31791
31791
31791
31705
31705
31705
31834
31834
31834
31834
31791
31791
31791
31683
31683
31683
31812
31812
31812
31705
31705
31705
31769
31769
31769
31769
31791
31791
31791
31726
31726
31726
31855
31855
31855
31748
31748
31748
31834
31834
31834
31834
31791
31791
31791
31726
31726
31726
31855
31855
31855
31705
31705
31705
31812
31812
31812
31812
31812
31812
31812
31705
31705
31705
31791
31791
31791
31769
31769
31769
31726
31726
31726
31726
31834
31834
31834
31705
31705
31705
31791
31791
31791
31748
31748
31748
31812
31812
31812
31812
31769
31769
31769
31705
31705
31705
31769
31769
31769
31748
31748
31748
31812
31812
31812
31812
31791
31791
31791
31748
31748
31748
31855
31855
31855
31748
31748
31748
31834
31834
31834
31834
31791
31791
31791
31726
31726
31726
31791
31791
31791
31748
31748
31748
31791
31791
31791
31791
31748
31748
31748
31705
31705
31705
31834
31834
31834
31726
31726
31726
31834
31834
31834
31834
31769
31769
31769
31769
31769
31769
31812
31812
31812
31662
31662
31662
31877
31877
31877
31877
31769
31769
31769
31705
31705
31705
31791
31791
31791
31683
31683
31683
31834
31834
31834
31834
31834
31834
31834
31791
31791
31791
31834
31834
31834
31683
31683
31683
31877
31877
31877
31877
31791
31791
31791
31726
31726
31726
31855
31855
31855
31597
31597
31597
31812
31812
31812
31812
31791
31791
31791
31769
31769
31769
31855
31855
31855
31705
31705
31705
31812
31812
31812
31812
31855
31855
31855
31554
31554
31554
31812
31812
31812
31726
31726
31726
31791
31791
31791
31791
31812
31812
31812
31662
31662
31662
31855
31855
31855
31726
31726
31726
31769
31769
31769
31769
31769
31769
31769
31726
31726
31726
31834
31834
31834
31705
31705
31705
31834
31834
31834
31834
31812
31812
31812
31769
31769
31769
31769
31769
31769
31769
31769
31769
31791
31791
31791
31791
31812
31812
31812
31769
31769
31769
31791
31791
31791
31705
31705
31705
31834
31834
31834
31834
31812
31812
31812
31683
31683
31683
31834
31834
31834
31726
31726
31726
31791
31791
31791
31791
31791
31791
31791
31705
31705
31705
31855
31855
31855
31640
31640
31640
31855
31855
31855
31855
31791
31791
31791
31705
31705
31705
31748
31748
31748
31705
31705
31705
31877
31877
31877
31877
31769
31769
31769
31705
31705
31705
31791
31791
31791
31705
31705
31705
31898
31898
31898
31898
31705
31705
31705
31726
31726
31726
31812
31812
31812
31726
31726
31726
31791
31791
31791
31791
31769
31769
31769
31726
31726
31726
31791
31791
31791
31748
31748
31748
31812
31812
31812
31812
31769
31769
31769
31619
31619
31619
31791
31791
31791
31726
31726
31726
31855
31855
31855
31855
31748
31748
31748
31726
31726
31726
31812
31812
31812
31748
31748
31748
31834
31834
31834
31834
31791
31791
31791
31748
31748
31748
31769
31769
31769
31726
31726
31726
31769
31769
31769
31769
31812
31812
31812
31683
31683
31683
31834
31834
31834
31683
31683
31683
31812
31812
31812
31812
31834
31834
31834
31726
31726
31726
31855
31855
31855
31662
31662
31662
31834
31834
31834
31834
31812
31812
31812
31726
31726
31726
31834
31834
31834
31683
31683
31683
31812
31812
31812
31812
31791
31791
31791
31726
31726
31726
31812
31812
31812
31705
31705
31705
31769
31769
31769
31769
31791
31791
31791
31726
31726
31726
31834
31834
31834
31705
31705
31705
31791
31791
31791
31791
31791
31791
31791
31683
31683
31683
31791
31791
31791
31726
31726
31726
31834
31834
31834
31834
31812
31812
31812
31726
31726
31726
31812
31812
31812
31726
31726
31726
31834
31834
31834
31834
31812
31812
31812
31726
31726
31726
31726
31726
31726
31726
31726
31726
31812
31812
31812
31812
31791
31791
31791
31662
31662
31662
31791
31791
31791
31662
31662
31662
31705
31705
31705
31705
31877
31877
31877
31726
31726
31726
31834
31834
31834
31705
31705
31705
31812
31812
31812
31812
31834
31834
31834
31662
31662
31662
31834
31834
31834
31726
31726
31726
31791
31791
31791
31791
31812
31812
31812
31662
31662
31662
31769
31769
31769
31726
31726
31726
31834
31834
31834
31834
31855
31855
31855
31683
31683
31683
31834
31834
31834
31769
31769
31769
31834
31834
31834
31834
31812
31812
31812
31748
31748
31748
31769
31769
31769
31726
31726
31726
31812
31812
31812
31812
31791
31791
31791
31748
31748
31748
31791
31791
31791
31683
31683
31683
31834
31834
31834
31834
31812
31812
31812
31748
31748
31748
31812
31812
31812
31791
31791
31791
31812
31812
31812
31812
31855
31855
31855
31662
31662
31662
31898
31898
31898
31662
31662
31662
31941
31941
31941
31941
31791
31791
31791
31705
31705
31705
31791
31791
31791
31705
31705
31705
31812
31812
31812
31812
31812
31812
31812
31769
31769
31769
31769
31769
31769
31748
31748
31748
31769
31769
31769
31769
31834
31834
31834
31662
31662
31662
31834
31834
31834
31683
31683
31683
31769
31769
31769
31769
31791
31791
31791
31662
31662
31662
31855
31855
31855
31748
31748
31748
31834
31834
31834
31834
31769
31769
31769
31726
31726
31726
31812
31812
31812
31683
31683
31683
31812
31812
31812
31812
31769
31769
31769
31705
31705
31705
31812
31812
31812
31726
31726
31726
31812
31812
31812
31812
31834
31834
31834
31705
31705
31705
31791
31791
31791
31683
31683
31683
31791
31791
31791
31791
31812
31812
31812
31619
31619
31619
31877
31877
31877
31748
31748
31748
31705
31705
31705
31705
31748
31748
31748
31683
31683
31683
31791
31791
31791
31683
31683
31683
31834
31834
31834
31834
31791
31791
31791
31769
31769
31769
31726
31726
31726
31662
31662
31662
31834
31834
31834
31834
31791
31791
31791
31834
31834
31834
31812
31812
31812
31705
31705
31705
31791
31791
31791
31791
31877
31877
31877
31705
31705
31705
31769
31769
31769
31705
31705
31705
31812
31812
31812
31812
31941
31941
31941
31726
31726
31726
31769
31769
31769
31683
31683
31683
31834
31834
31834
31834
31791
31791
31791
31726
31726
31726
31791
31791
31791
31726
31726
31726
31812
31812
31812
31812
31769
31769
31769
31748
31748
31748
31748
31748
31748
31726
31726
31726
31812
31812
31812
31812
31748
31748
31748
31597
31597
31597
31855
31855
31855
31726
31726
31726
31726
31726
31726
31726
31834
31834
31834
31726
31726
31726
31834
31834
31834
31726
31726
31726
31855
31855
31855
31855
31834
31834
31834
31726
31726
31726
31769
31769
31769
31705
31705
31705
31791
31791
31791
31791
31898
31898
31898
31726
31726
31726
31791
31791
31791
31726
31726
31726
31877
31877
31877
31877
31683
31683
31683
31748
31748
31748
31791
31791
31791
31726
31726
31726
31791
31791
31791
31791
31791
31791
31791
31726
31726
31726
31769
31769
31769
31748
31748
31748
31834
31834
31834
31834
31812
31812
31812
31748
31748
31748
31791
31791
31791
31705
31705
31705
31812
31812
31812
31812
31769
31769
31769
31748
31748
31748
31812
31812
31812
31726
31726
31726
31812
31812
31812
31812
31769
31769
31769
31726
31726
31726
31791
31791
31791
31748
31748
31748
31855
31855
31855
31855
31855
31855
31855
31640
31640
31640
31877
31877
31877
31769
31769
31769
31855
31855
31855
31855
31834
31834
31834
31748
31748
31748
31812
31812
31812
31705
31705
31705
31834
31834
31834
31834
31812
31812
31812
31791
31791
31791
31834
31834
31834
31662
31662
31662
31812
31812
31812
31812
31769
31769
31769
31748
31748
31748
31812
31812
31812
31705
31705
31705
31855
31855
31855
31855
31812
31812
31812
31705
31705
31705
31791
31791
31791
31726
31726
31726
31791
31791
31791
31791
31812
31812
31812
31769
31769
31769
31855
31855
31855
31748
31748
31748
31834
31834
31834
31834
31748
31748
31748
31726
31726
31726
31834
31834
31834
31705
31705
31705
31812
31812
31812
31812
31769
31769
31769
31726
31726
31726
31812
31812
31812
31769
31769
31769
31834
31834
31834
31834
31812
31812
31812
31748
31748
31748
31855
31855
31855
31726
31726
31726
31812
31812
31812
31812
31898
31898
31898
31683
31683
31683
31812
31812
31812
31726
31726
31726
31812
31812
31812
31812
31855
31855
31855
31726
31726
31726
31855
31855
31855
31683
31683
31683
31769
31769
31769
31769
31812
31812
31812
31683
31683
31683
31834
31834
31834
31748
31748
31748
31791
31791
31791
31791
31812
31812
31812
31748
31748
31748
31769
31769
31769
31726
31726
31726
31812
31812
31812
31812
31812
31812
31812
31662
31662
31662
31834
31834
31834
31726
31726
31726
31769
31769
31769
31769
31748
31748
31748
31726
31726
31726
31834
31834
31834
31705
31705
31705
31855
31855
31855
31855
31748
31748
31748
31683
31683
31683
31812
31812
31812
31683
31683
31683
31812
31812
31812
31812
31941
31941
31941
31705
31705
31705
31898
31898
31898
31683
31683
31683
31812
31812
31812
31812
31855
31855
31855
31726
31726
31726
31791
31791
31791
31705
31705
31705
31834
31834
31834
31834
31812
31812
31812
31726
31726
31726
31791
31791
31791
31748
31748
31748
31834
31834
31834
31834
31812
31812
31812
31683
31683
31683
31769
31769
31769
31726
31726
31726
31834
31834
31834
31834
31726
31726
31726
31726
31726
31726
31769
31769
31769
31619
31619
31619
31877
31877
31877
31877
31748
31748
31748
31769
31769
31769
31791
31791
31791
31748
31748
31748
31748
31748
31748
31748
31855
31855
31855
31748
31748
31748
31791
31791
31791
31662
31662
31662
31812
31812
31812
31812
31791
31791
31791
31662
31662
31662
31834
31834
31834
31726
31726
31726
31855
31855
31855
31855
31791
31791
31791
31726
31726
31726
31834
31834
31834
31726
31726
31726
31834
31834
31834
31834
31769
31769
31769
31705
31705
31705
31834
31834
31834
31683
31683
31683
31791
31791
31791
31791
31812
31812
31812
31726
31726
31726
31812
31812
31812
31705
31705
31705
31877
31877
31877
31877
31791
31791
31791
31726
31726
31726
31791
31791
31791
31769
31769
31769
31812
31812
31812
31812
31791
31791
31791
31877
31877
31877
31855
31855
31855
31705
31705
31705
31834
31834
31834
31834
31791
31791
31791
31683
31683
31683
31855
31855
31855
31748
31748
31748
31705
31705
31705
31705
31769
31769
31769
31705
31705
31705
31769
31769
31769
31726
31726
31726
31812
31812
31812
31812
31769
31769
31769
31726
31726
31726
31748
31748
31748
31726
31726
31726
31834
31834
31834
31834
31812
31812
31812
31877
31877
31877
31769
31769
31769
31705
31705
31705
31834
31834
31834
31834
31877
31877
31877
31769
31769
31769
31791
31791
31791
31640
31640
31640
31834
31834
31834
31834
31791
31791
31791
31748
31748
31748
31812
31812
31812
31726
31726
31726
31791
31791
31791
31791
31812
31812
31812
31726
31726
31726
31834
31834
31834
31705
31705
31705
31812
31812
31812
31812
31834
31834
31834
31726
31726
31726
31812
31812
31812
31769
31769
31769
31812
31812
31812
31812
31791
31791
31791
31683
31683
31683
31855
31855
31855
31726
31726
31726
31877
31877
31877
31877
31748
31748
31748
31748
31748
31748
31812
31812
31812
31705
31705
31705
31812
31812
31812
31812
31855
31855
31855
31662
31662
31662
31834
31834
31834
31705
31705
31705
31791
31791
31791
31791
31748
31748
31748
31748
31748
31748
31855
31855
31855
31705
31705
31705
31834
31834
31834
31834
31834
31834
31834
31705
31705
31705
31834
31834
31834
31748
31748
31748
31812
31812
31812
31812
31791
31791
31791
31726
31726
31726
31898
31898
31898
31748
31748
31748
31791
31791
31791
31791
31748
31748
31748
31597
31597
31597
31791
31791
31791
31791
31791
31791
31855
31855
31855
31855
31705
31705
31705
31791
31791
31791
31769
31769
31769
31726
31726
31726
31812
31812
31812
31812
31769
31769
31769
31726
31726
31726
31855
31855
31855
31705
31705
31705
31812
31812
31812
31812
31791
31791
31791
31662
31662
31662
31748
31748
31748
31769
31769
31769
31769
31769
31769
31769
31791
31791
31791
31726
31726
31726
31812
31812
31812
31726
31726
31726
31769
31769
31769
31769
31791
31791
31791
31662
31662
31662
31812
31812
31812
31683
31683
31683
31855
31855
31855
31855
31812
31812
31812
31791
31791
31791
31812
31812
31812
31662
31662
31662
31855
31855
31855
31855
31748
31748
31748
31726
31726
31726
31791
31791
31791
31705
31705
31705
31812
31812
31812
31812
31812
31812
31812
31683
31683
31683
31834
31834
31834
31705
31705
31705
31834
31834
31834
31834
31791
31791
31791
31748
31748
31748
31812
31812
31812
31748
31748
31748
31812
31812
31812
31812
31855
31855
31855
31705
31705
31705
31877
31877
31877
31748
31748
31748
31791
31791
31791
31791
31812
31812
31812
31705
31705
31705
31812
31812
31812
31726
31726
31726
31834
31834
31834
31834
31855
31855
31855
31726
31726
31726
31834
31834
31834
31834
31834
31834
31812
31812
31812
31812
31834
31834
31834
31748
31748
31748
31769
31769
31769
31726
31726
31726
31834
31834
31834
31834
31791
31791
31791
31791
31791
31791
31812
31812
31812
31597
31597
31597
31812
31812
31812
31812
31855
31855
31855
31769
31769
31769
31791
31791
31791
31726
31726
31726
31769
31769
31769
31769
31834
31834
31834
31726
31726
31726
31812
31812
31812
31705
31705
31705
31855
31855
31855
31855
31834
31834
31834
31705
31705
31705
31812
31812
31812
31683
31683
31683
31812
31812
31812
31812
31769
31769
31769
31705
31705
31705
31769
31769
31769
31726
31726
31726
31834
31834
31834
31834
31791
31791
31791
31726
31726
31726
31726
31726
31726
31683
31683
31683
31855
31855
31855
31855
31855
31855
31855
31748
31748
31748
31791
31791
31791
31769
31769
31769
31855
31855
31855
31855
31855
31855
31855
31726
31726
31726
31855
31855
31855
31726
31726
31726
31877
31877
31877
31877
31812
31812
31812
31683
31683
31683
31834
31834
31834
31748
31748
31748
31812
31812
31812
31812
31791
31791
31791
31726
31726
31726
31855
31855
31855
31726
31726
31726
31812
31812
31812
31812
31855
31855
31855
31726
31726
31726
31812
31812
31812
31705
31705
31705
31834
31834
31834
31834
31812
31812
31812
31705
31705
31705
31812
31812
31812
31791
31791
31791
31812
31812
31812
31812
31769
31769
31769
31705
31705
31705
31834
31834
31834
31769
31769
31769
31812
31812
31812
31812
31812
31812
31812
31726
31726
31726
31834
31834
31834
31726
31726
31726
31877
31877
31877
31877
31705
31705
31705
31726
31726
31726
31834
31834
31834
31683
31683
31683
31791
31791
31791
31791
31791
31791
31791
31683
31683
31683
31812
31812
31812
31726
31726
31726
31812
31812
31812
31812
31812
31812
31812
31769
31769
31769
31769
31769
31769
31748
31748
31748
31791
31791
31791
31791
31812
31812
31812
31748
31748
31748
31834
31834
31834
31748
31748
31748
31812
31812
31812
31812
31834
31834
31834
31726
31726
31726
31812
31812
31812
31726
31726
31726
31791
31791
31791
31791
31791
31791
31791
31748
31748
31748
31812
31812
31812
31640
31640
31640
31834
31834
31834
31834
31855
31855
31855
31726
31726
31726
31834
31834
31834
31683
31683
31683
31834
31834
31834
31834
31812
31812
31812
31726
31726
31726
31855
31855
31855
31726
31726
31726
31834
31834
31834
31834
31898
31898
31898
31769
31769
31769
31834
31834
31834
31683
31683
31683
31834
31834
31834
31834
31855
31855
31855
31705
31705
31705
31791
31791
31791
31705
31705
31705
31812
31812
31812
31812
31769
31769
31769
31748
31748
31748
31769
31769
31769
31705
31705
31705
31834
31834
31834
31834
31812
31812
31812
31705
31705
31705
31791
31791
31791
31705
31705
31705
31877
31877
31877
31877
31812
31812
31812
31769
31769
31769
31791
31791
31791
31726
31726
31726
31705
31705
31705
31705
31769
31769
31769
31812
31812
31812
31748
31748
31748
31705
31705
31705
31769
31769
31769
31769
31769
31769
31769
31769
31769
31769
31855
31855
31855
31683
31683
31683
31812
31812
31812
31812
31855
31855
31855
31769
31769
31769
31877
31877
31877
31662
31662
31662
31941
31941
31941
31941
31791
31791
31791
31726
31726
31726
31812
31812
31812
31726
31726
31726
31812
31812
31812
31812
31812
31812
31812
31705
31705
31705
31834
31834
31834
31683
31683
31683
31812
31812
31812
31812
31812
31812
31812
31705
31705
31705
31791
31791
31791
31705
31705
31705
31834
31834
31834
31834
31791
31791
31791
31726
31726
31726
31812
31812
31812
31726
31726
31726
31791
31791
31791
31791
31791
31791
31791
31726
31726
31726
31812
31812
31812
31726
31726
31726
31791
31791
31791
31791
31834
31834
31834
31683
31683
31683
31855
31855
31855
31748
31748
31748
31834
31834
31834
31834
31791
31791
31791
31726
31726
31726
31898
31898
31898
31748
31748
31748
31791
31791
31791
31791
31834
31834
31834
31769
31769
31769
31834
31834
31834
31705
31705
31705
31877
31877
31877
31877
31769
31769
31769
31748
31748
31748
31812
31812
31812
31748
31748
31748
31834
31834
31834
31834
31812
31812
31812
31769
31769
31769
31812
31812
31812
31726
31726
31726
31769
31769
31769
31769
31769
31769
31769
31705
31705
31705
31834
31834
31834
31769
31769
31769
31769
31769
31769
31769
31898
31898
31898
31726
31726
31726
31834
31834
31834
31726
31726
31726
31834
31834
31834
31834
31812
31812
31812
31683
31683
31683
31834
31834
31834
31769
31769
31769
31812
31812
31812
31812
31726
31726
31726
31748
31748
31748
31791
31791
31791
31748
31748
31748
31791
31791
31791
31791
31748
31748
31748
31748
31748
31748
31855
31855
31855
31705
31705
31705
31791
31791
31791
31791
31791
31791
31791
31705
31705
31705
31791
31791
31791
31705
31705
31705
31812
31812
31812
31812
31791
31791
31791
31791
31791
31791
31769
31769
31769
31748
31748
31748
31769
31769
31769
31769
31791
31791
31791
31705
31705
31705
31898
31898
31898
31683
31683
31683
31855
31855
31855
31855
31812
31812
31812
31683
31683
31683
31877
31877
31877
31683
31683
31683
31898
31898
31898
31898
31812
31812
31812
31705
31705
31705
31834
31834
31834
31705
31705
31705
31791
31791
31791
31791
31834
31834
31834
31705
31705
31705
31812
31812
31812
31683
31683
31683
31834
31834
31834
31834
31748
31748
31748
31791
31791
31791
31791
31791
31791
31726
31726
31726
31769
31769
31769
31769
31834
31834
31834
31705
31705
31705
31855
31855
31855
31726
31726
31726
31791
31791
31791
31791
31791
31791
31791
31748
31748
31748
31791
31791
31791
31748
31748
31748
31791
31791
31791
31791
31834
31834
31834
31726
31726
31726
31834
31834
31834
31726
31726
31726
31834
31834
31834
31834
31791
31791
31791
31726
31726
31726
31769
31769
31769
31726
31726
31726
31834
31834
31834
31834
31812
31812
31812
31726
31726
31726
31855
31855
31855
31705
31705
31705
31834
31834
31834
31834
31855
31855
31855
31726
31726
31726
31791
31791
31791
31705
31705
31705
31812
31812
31812
31812
31748
31748
31748
31748
31748
31748
31726
31726
31726
31705
31705
31705
31769
31769
31769
31769
31791
31791
31791
31705
31705
31705
31877
31877
31877
31769
31769
31769
31812
31812
31812
31812
31834
31834
31834
31683
31683
31683
31855
31855
31855
31769
31769
31769
31791
31791
31791
31791
31855
31855
31855
31705
31705
31705
31834
31834
31834
31662
31662
31662
31877
31877
31877
31877
31769
31769
31769
31683
31683
31683
31834
31834
31834
31683
31683
31683
31791
31791
31791
31791
31812
31812
31812
31683
31683
31683
31877
31877
31877
31726
31726
31726
31855
31855
31855
31855
31791
31791
31791
31726
31726
31726
31834
31834
31834
31748
31748
31748
31769
31769
31769
31769
31834
31834
31834
31726
31726
31726
31898
31898
31898
31705
31705
31705
31812
31812
31812
31812
31834
31834
31834
31748
31748
31748
31812
31812
31812
31726
31726
31726
31855
31855
31855
31855
31834
31834
31834
31748
31748
31748
31834
31834
31834
31640
31640
31640
31855
31855
31855
31855
31812
31812
31812
31726
31726
31726
31769
31769
31769
31748
31748
31748
31834
31834
31834
31834
31812
31812
31812
31683
31683
31683
31791
31791
31791
31683
31683
31683
31834
31834
31834
31834
31834
31834
31834
31748
31748
31748
31769
31769
31769
31705
31705
31705
31748
31748
31748
31748
31791
31791
31791
31769
31769
31769
31812
31812
31812
31726
31726
31726
31855
31855
31855
31855
31877
31877
31877
31726
31726
31726
31791
31791
31791
31619
31619
31619
31812
31812
31812
31812
31812
31812
31812
31726
31726
31726
31812
31812
31812
31769
31769
31769
31834
31834
31834
31834
31812
31812
31812
31662
31662
31662
31748
31748
31748
31705
31705
31705
31812
31812
31812
31812
31812
31812
31812
31812
31812
31812
31855
31855
31855
31705
31705
31705
31812
31812
31812
31812
31855
31855
31855
31683
31683
31683
31834
31834
31834
31726
31726
31726
31834
31834
31834
31834
31769
31769
31769
31726
31726
31726
31812
31812
31812
31662
31662
31662
31748
31748
31748
31748
31769
31769
31769
31769
31769
31769
31834
31834
31834
31748
31748
31748
31769
31769
31769
31769
31791
31791
31791
31748
31748
31748
31812
31812
31812
31748
31748
31748
31877
31877
31877
31877
31705
31705
31705
31726
31726
31726
31791
31791
31791
31726
31726
31726
31812
31812
31812
31812
31791
31791
31791
31769
31769
31769
31877
31877
31877
31726
31726
31726
31769
31769
31769
31769
31855
31855
31855
31726
31726
31726
31834
31834
31834
31683
31683
31683
31791
31791
31791
31791
31877
31877
31877
31726
31726
31726
31877
31877
31877
31705
31705
31705
31791
31791
31791
31791
31834
31834
31834
31619
31619
31619
31834
31834
31834
31705
31705
31705
31834
31834
31834
31834
31812
31812
31812
31748
31748
31748
31898
31898
31898
31726
31726
31726
31812
31812
31812
31812
31791
31791
31791
31705
31705
31705
31834
31834
31834
31791
31791
31791
31791
31791
31791
31791
31812
31812
31812
31748
31748
31748
31855
31855
31855
31683
31683
31683
31791
31791
31791
31791
31791
31791
31791
31726
31726
31726
31812
31812
31812
31640
31640
31640
31834
31834
31834
31834
31791
31791
31791
31748
31748
31748
31791
31791
31791
31705
31705
31705
31791
31791
31791
31791
31769
31769
31769
31705
31705
31705
31877
31877
31877
31726
31726
31726
31812
31812
31812
31812
31726
31726
31726
31726
31726
31726
31855
31855
31855
31726
31726
31726
31834
31834
31834
31834
31791
31791
31791
31662
31662
31662
31812
31812
31812
31726
31726
31726
31791
31791
31791
31791
31791
31791
31791
31726
31726
31726
31834
31834
31834
31748
31748
31748
31834
31834
31834
31834
31812
31812
31812
31705
31705
31705
31791
31791
31791
31705
31705
31705
31834
31834
31834
31834
31834
31834
31834
31726
31726
31726
31769
31769
31769
31726
31726
31726
31834
31834
31834
31834
31812
31812
31812
31726
31726
31726
31834
31834
31834
31726
31726
31726
31855
31855
31855
31855
31834
31834
31834
31791
31791
31791
31791
31791
31791
31705
31705
31705
31748
31748
31748
31748
31812
31812
31812
31726
31726
31726
31812
31812
31812
31705
31705
31705
31791
31791
31791
31791
31769
31769
31769
31683
31683
31683
31726
31726
31726
31748
31748
31748
31791
31791
31791
31791
31834
31834
31834
31705
31705
31705
31855
31855
31855
31662
31662
31662
31898
31898
31898
31898
31705
31705
31705
31769
31769
31769
31834
31834
31834
31683
31683
31683
31812
31812
31812
31812
31769
31769
31769
31683
31683
31683
31834
31834
31834
31748
31748
31748
31877
31877
31877
31877
31769
31769
31769
31726
31726
31726
31855
31855
31855
31748
31748
31748
31834
31834
31834
31834
31812
31812
31812
31705
31705
31705
31834
31834
31834
31705
31705
31705
31791
31791
31791
31791
31791
31791
31791
31748
31748
31748
31834
31834
31834
31705
31705
31705
31877
31877
31877
31877
31791
31791
31791
31705
31705
31705
31834
31834
31834
31748
31748
31748
31812
31812
31812
31812
31812
31812
31812
31726
31726
31726
31812
31812
31812
31705
31705
31705
31855
31855
31855
31855
31898
31898
31898
31662
31662
31662
31812
31812
31812
31705
31705
31705
31855
31855
31855
31855
31683
31683
31683
31748
31748
31748
31791
31791
31791
31683
31683
31683
31791
31791
31791
31791
31791
31791
31791
31705
31705
31705
31834
31834
31834
31662
31662
31662
31812
31812
31812
31812
31748
31748
31748
31791
31791
31791
31769
31769
31769
31769
31769
31769
31855
31855
31855
31855
31834
31834
31834
31726
31726
31726
31855
31855
31855
31726
31726
31726
31791
31791
31791
31791
31812
31812
31812
31683
31683
31683
31791
31791
31791
31769
