2082
2078
2078
2078
2080
2080
2080
2080
2080
2080
2080
2081
2081
2081
2081
2081
2081
2083
2083
2083
2080
2080
2080
2080
2081
2081
2081
2082
2082
2082
2073
2073
2073
2081
2081
2081
2082
2082
2082
2082
2081
2081
2081
2082
2082
2082
2079
2079
2079
2082
2082
2082
2079
2079
2079
2079
2079
2079
2079
2081
2081
2081
2087
2087
2087
2078
2078
2078
2083
2083
2083
2083
2077
2077
2077
2082
2082
2082
2077
2077
2077
2085
2085
2080
2083
2083
2083
2082
2082
2082
2082
2079
2079
2079
2073
2073
2073
2081
2081
2081
2082
2082
2082
2082
2082
2082
2082
2081
2081
2081
2082
2082
2082
2083
2083
2083
2087
2087
2087
2084
2084
2084
2084
2086
2086
2086
2081
2081
2081
2080
2080
2080
2086
2086
2086
2078
2078
2078
2078
2081
2081
2081
2082
2082
2082
2082
2082
2082
2077
2077
2077
2081
2081
2081
2081
2081
2081
2081
2083
2083
2083
2083
2083
2083
2081
2081
2081
2081
2081
2081
2081
2080
2080
2080
2081
2081
2081
2081
2081
2081
2081
2081
2081
2080
2080
2080
2080
2085
2085
2085
2080
2080
2080
2075
2075
2075
2079
2079
2079
2084
2084
2084
2084
2078
2078
2078
2081
2081
2081
2082
2082
2082
2080
2080
2080
2076
2076
2076
2076
2079
2079
2079
2080
2080
2080
2082
2082
2082
2080
2080
2080
2079
2079
2079
2079
2079
2079
2079
2085
2085
2085
2081
2081
2081
2073
2073
2073
2081
2081
2081
2081
2082
2082
2082
2083
2083
2083
2084
2084
2084
2083
2083
2083
2077
2077
2077
2077
2078
2078
2078
2078
2078
2078
2079
2079
2079
2080
2080
2080
2084
2084
2084
2084
2083
2083
2083
2080
2080
2080
2081
2081
2081
2088
2088
2088
2080
2080
2080
2080
2078
2078
2078
2084
2084
2084
2081
2081
2081
2077
2077
2077
2083
2083
2083
2083
2077
2077
2077
2082
2082
2082
2081
2081
2081
2083
2083
2083
2079
2079
2079
2079
2082
2082
2082
2080
2080
2080
2082
2082
2082
2083
2083
2083
2085
2085
2085
2085
2085
2085
2085
2083
2083
2083
2084
2084
2084
2083
2083
2083
2078
2078
2078
2078
2080
2080
2080
2082
2082
2082
2088
2088
2088
2085
2085
2085
2082
2082
2082
2082
2080
2080
2080
2075
2075
2075
2080
2080
2080
2083
2083
2083
2083
2083
2083
2083
2079
2079
2079
2077
2077
2077
2080
2080
2080
2082
2082
2082
2081
2081
2081
2081
2081
2081
2081
2083
2083
2083
2079
2079
2079
2078
2078
2078
2081
2081
2081
2081
2078
2078
2078
2082
2082
2082
2081
2081
2081
2086
2086
2086
2081
2081
2081
2081
2078
2078
2078
2082
2082
2082
2081
2081
2081
2087
2087
2087
2080
2080
2080
2080
2079
2079
2079
2084
2084
2084
2082
2082
2082
2083
2083
2083
2082
2082
2082
2082
2085
2085
2085
2081
2081
2081
2083
2083
2083
2081
2081
2081
2079
2079
2079
2079
2083
2083
2083
2082
2082
2082
2080
2080
2080
2082
2082
2082
2082
2082
2082
2082
2082
2082
2082
2081
2081
2081
2083
2083
2083
2082
2082
2082
2077
2077
2077
2077
2079
2079
2079
2083
2083
2083
2082
2082
2082
2084
2084
2084
2083
2083
2083
2083
2081
2081
2081
2079
2079
2079
2079
2079
2079
2082
2082
2082
2082
2082
2082
2082
2082
2082
2082
2084
2084
2084
2083
2083
2083
2083
2083
2083
2080
2080
2080
2080
2081
2081
2081
2085
2085
2085
2087
2087
2087
2083
2083
2083
2079
2079
2079
2079
2081
2081
2081
2080
2080
2080
2083
2083
2083
2083
2083
2083
2082
2082
2082
2082
2082
2082
2082
2081
2081
2081
2079
2079
2079
2083
2083
2083
2081
2081
2081
2081
2088
2088
2088
2083
2083
2083
2082
2082
2082
2079
2079
2079
2082
2082
2082
2082
2077
2077
2077
2084
2084
2084
2083
2083
2083
2083
2083
2083
2078
2078
2078
2078
2079
2079
2079
2080
2080
2080
2082
2082
2082
2084
2084
2084
2091
2091
2091
2091
2076
2076
2076
2081
2081
2081
2081
2081
2081
2083
2083
2083
2085
2085
2085
2085
2079
2079
2079
2083
2083
2083
2081
2081
2081
2085
2085
2085
2080
2080
2080
2080
2081
2081
2081
2075
2075
2075
2082
2082
2082
2088
2088
2088
2090
2090
2090
2090
2081
2081
2081
2084
2084
2084
2080
2080
2080
2081
2081
2081
2081
2081
2081
2081
2081
2081
2081
2093
2093
2093
2081
2081
2081
2077
2077
2077
2079
2079
2079
2079
2080
2080
2080
2082
2082
2082
2081
2081
2081
2080
2080
2080
2082
2082
2082
2082
2081
2081
2081
2082
2082
2082
2081
2081
2081
2080
2080
2080
2080
2080
2080
2080
2084
2084
2084
2081
2081
2081
2082
2082
2082
2085
2085
2085
2081
2081
2081
2081
2079
2079
2079
2077
2077
2077
2081
2081
2081
2081
2081
2081
2081
2081
2081
2081
2079
2079
2079
2080
2080
2080
2079
2079
2079
2082
2082
2082
2082
2082
2082
2082
2085
2085
2085
2083
2083
2083
2084
2084
2084
2082
2082
2082
2084
2084
2084
2084
2080
2080
2080
2084
2084
2084
2081
2081
2081
2081
2081
2081
2076
2076
2076
2076
2079
2079
2079
2081
2081
2081
2081
2081
2081
2082
2082
2082
2082
2082
2082
2082
2081
2081
2081
2078
2078
2078
2079
2079
2079
2081
2081
2081
2084
2084
2084
2084
2080
2080
2080
2084
2084
2084
2082
2082
2082
2080
2080
2080
2082
2082
2082
2082
2079
2079
2079
2082
2082
2082
2080
2080
2080
2081
2081
2081
2081
2081
2081
2081
2082
2082
2082
2081
2081
2081
2082
2082
2082
2085
2085
2085
2081
2081
2081
2081
2082
2082
2082
2082
2082
2082
2081
2081
2081
2082
2082
2082
2083
2083
2083
2083
2081
2081
2081
2082
2082
2082
2086
2086
2086
2081
2081
2081
2079
2079
2079
2079
2080
2080
2080
2079
2079
2079
2082
2082
2082
2083
2083
2083
2076
2076
2076
2076
2084
2084
2084
2084
2084
2084
2080
2080
2080
2081
2081
2081
2081
