2087
2082
2082
2082
2085
2085
2085
2085
2087
2087
2087
2083
2083
2083
2087
2087
2087
2081
2081
2081
2087
2087
2087
2087
2087
2087
2087
2081
2081
2081
2086
2086
2086
2082
2082
2082
2086
2086
2086
2086
2085
2085
2085
2083
2083
2083
2087
2087
2087
2081
2081
2081
2086
2086
2086
2086
2086
2086
2086
2078
2078
2078
2085
2085
2085
2083
2083
2083
2086
2086
2086
2086
2087
2087
2087
2084
2084
2084
2086
2086
2086
2081
2081
2081
2083
2083
2083
2087
2087
2087
2087
2087
2087
2087
2082
2082
2082
2086
2086
2086
2084
2084
2084
2086
2086
2086
2086
2085
2085
2085
2082
2082
2082
2087
2087
2087
2084
2084
2084
2085
2085
2085
2085
2086
2086
2086
2077
2077
2077
2089
2089
2089
2081
2081
2081
2084
2084
2084
2084
2084
2084
2084
2083
2083
2083
2087
2087
2087
2082
2082
2082
2084
2084
2084
2084
2086
2086
2086
2081
2081
2081
2087
2087
2087
2083
2083
2083
2084
2084
2084
2084
2085
2085
2085
2083
2083
2083
2087
2087
2087
2083
2083
2083
2086
2086
2086
2086
2077
2077
2077
2081
2081
2081
2088
2088
2088
2083
2083
2083
2090
2090
2090
2090
2089
2089
2089
2081
2081
2081
2082
2082
2082
2079
2079
2079
2087
2087
2087
2087
2084
2084
2084
2082
2082
2082
2089
2089
2089
2081
2081
2081
2080
2080
2080
2080
2085
2085
2085
2082
2082
2082
2086
2086
2086
2081
2081
2081
2087
2087
2087
2087
2087
2087
2087
2086
2086
2086
2086
2086
2086
2083
2083
2083
2086
2086
2086
2086
2082
2082
2082
2081
2081
2081
2088
2088
2088
2082
2082
2082
2085
2085
2085
2085
2087
2087
2087
2080
2080
2080
2086
2086
2086
2083
2083
2083
2088
2088
2088
2088
2087
2087
2087
2085
2085
2085
2087
2087
2087
2079
2079
2079
2087
2087
2087
2087
2086
2086
2086
2085
2085
2085
2087
2087
2087
2083
2083
2083
2086
2086
2086
2086
2086
2086
2086
2082
2082
2082
2087
2087
2087
2083
2083
2083
2085
2085
2085
2085
2086
2086
2086
2084
2084
2084
2087
2087
2087
2083
2083
2083
2087
2087
2087
2087
2087
2087
2087
2081
2081
2081
2088
2088
2088
2082
2082
2082
2087
2087
2087
2087
2086
2086
2086
2084
2084
2084
2074
2074
2074
2082
2082
2082
2086
2086
2086
2086
2088
2088
2088
2083
2083
2083
2089
2089
2089
2083
2083
2083
2094
2094
2094
2094
2089
2089
2089
2081
2081
2081
2088
2088
2088
2084
2084
2084
2084
2084
2084
2084
2085
2085
2085
2081
2081
2081
2086
2086
2086
2083
2083
2083
2087
2087
2087
2087
2087
2087
2087
2082
2082
2082
2090
2090
2090
2074
2074
2074
2086
2086
2086
2086
2085
2085
2085
2081
2081
2081
2086
2086
2086
2082
2082
2082
2085
2085
2085
2085
2082
2082
2082
2082
2082
2082
2088
2088
2088
2090
2090
2090
2088
2088
2088
2088
2084
2084
2084
2086
2086
2086
2086
2086
2086
2083
2083
2083
2089
2089
2089
2089
2087
2087
2087
2088
2088
2088
2091
2091
2091
2082
2082
2082
2086
2086
2086
2086
2087
2087
2087
2081
2081
2081
2084
2084
2084
2081
2081
2081
2085
2085
2085
2085
2086
2086
2086
2082
2082
2082
2087
2087
2087
2082
2082
2082
2092
2092
2092
2092
2084
2084
2084
2084
2084
2084
2087
2087
2087
2081
2081
2081
2091
2091
2091
2091
2075
2075
2075
2083
2083
2083
2082
2082
2082
2082
2082
2082
2090
2090
2090
2090
2087
2087
2087
2082
2082
2082
2082
2082
2082
2082
2082
2082
2085
2085
2085
2085
2084
2084
2084
2081
2081
2081
2085
2085
2085
2084
2084
2084
2085
2085
2085
2085
2087
2087
2087
2082
2082
2082
2084
2084
2084
2083
2083
2083
2089
2089
2089
2089
2083
2083
2083
2087
2087
2087
2085
2085
2085
2080
2080
2080
2087
2087
2087
2087
2086
2086
2086
2085
2085
2085
2088
2088
2088
2080
2080
2080
2089
2089
2089
2089
2086
2086
2086
2081
2081
2081
2085
2085
2085
2084
2084
2084
2086
2086
2086
2086
2089
2089
2089
2083
2083
2083
2087
2087
2087
2085
2085
2085
2088
2088
2088
2088
2089
2089
2089
2082
2082
2082
2090
2090
2090
2082
2082
2082
2083
2083
2083
2083
2085
2085
2085
2084
2084
2084
2086
2086
2086
2083
2083
2083
2087
2087
2087
2087
2084
2084
2084
2083
2083
2083
2084
2084
2084
2082
2082
2082
2086
2086
2086
2086
2085
2085
2085
2082
2082
2082
2088
2088
2088
2081
2081
2081
2083
2083
2083
2083
2085
2085
2085
2086
2086
2086
2086
2086
2086
2080
2080
2080
2078
2078
2078
2078
2091
2091
2091
2083
2083
2083
2089
2089
2089
2082
2082
2082
2085
2085
2085
2085
2088
2088
2088
2082
2082
2082
2088
2088
2088
2080
2080
2080
2089
2089
2089
2089
2085
2085
2085
2082
2082
2082
2087
2087
2087
2083
2083
2083
2100
2100
2100
2100
2083
2083
2083
2080
2080
2080
2088
2088
2088
2082
2082
2082
2086
2086
2086
2086
2085
2085
2085
2080
2080
2080
2086
2086
2086
2084
2084
2084
2085
2085
2085
2085
2086
2086
2086
2079
2079
2079
2088
2088
2088
2084
2084
2084
2086
2086
2086
2086
2085
2085
2085
2081
2081
2081
2087
2087
2087
2084
2084
2084
2087
2087
2087
2087
2087
2087
2087
2087
2087
2087
2087
2087
2087
2081
2081
2081
2088
2088
2088
2088
2081
2081
2081
2082
2082
2082
2084
2084
2084
2082
2082
2082
2092
2092
2092
2092
2087
2087
2087
2084
2084
2084
2089
2089
2089
2079
2079
2079
2086
2086
2086
2086
2085
2085
2085
2083
2083
2083
2089
2089
2089
2082
2082
2082
2086
2086
2086
2086
2086
2086
2086
2080
2080
2080
2087
2087
2087
2082
2082
2082
2086
2086
2086
2086
2087
2087
2087
2084
2084
2084
2086
2086
2086
2082
2082
2082
2090
2090
2090
2090
2087
2087
2087
2082
2082
2082
2088
2088
2088
2081
2081
2081
2086
