1974
1976
1976
1976
1974
1974
1974
1974
1974
1974
1971
1971
1971
1968
1968
1968
1968
1974
1974
1974
1973
1973
1973
1975
1975
1975
1976
1976
1976
1975
1975
1975
1975
1976
1976
1976
1971
1971
1971
1973
1973
1973
1973
1973
1973
1972
1972
1972
1972
1973
1973
1973
1973
1973
1973
1975
1975
1975
1974
1974
1974
1974
1974
1974
1974
1975
1975
1975
1973
1973
1973
1975
1975
1975
1970
1970
1970
1977
1977
1977
1977
1972
1972
1975
1978
1978
1978
1973
1973
1973
1972
1972
1972
1973
1973
1973
1974
1974
1974
1974
1974
1974
1974
1973
1973
1973
1971
1971
1971
1978
1978
1978
1968
1968
1968
1968
1971
1971
1971
1976
1976
1976
1978
1978
1978
1974
1974
1974
1975
1975
1975
1975
1975
1975
1975
1977
1977
1977
1974
1974
1974
1974
1974
1974
1977
1977
1977
1977
1973
1973
1973
1974
1974
1974
1975
1975
1975
1972
1972
1972
1976
1976
1976
1976
1972
1972
1972
1974
1974
1974
1975
1975
1975
1974
1974
1974
1973
1973
1973
1973
1976
1976
1976
1974
1974
1974
1980
1980
1980
1975
1975
1975
1976
1976
1976
1976
1974
1974
1974
1974
1974
1974
1974
1974
1974
1974
1974
1974
1972
1972
1972
1972
1971
1971
1971
1974
1974
1974
1973
1973
1973
1975
1975
1975
1975
1975
1975
1975
1973
1973
1973
1975
1975
1975
1975
1975
1975
1973
1973
1973
1973
1973
1973
1973
1971
1971
1971
1973
1973
1973
1974
1974
1974
1974
1974
1974
1971
1971
1971
1971
1974
1974
1974
1973
1973
1973
1975
1975
1975
1976
1976
1976
1974
1974
1974
1974
1974
1974
1974
1975
1975
1975
1977
1977
1977
1975
1975
1975
1975
1975
1975
1975
1977
1977
1977
1975
1975
1975
1974
1974
1974
1971
1971
1971
1974
1974
1974
1974
1974
1974
1974
1974
1974
1974
1976
1976
1976
1968
1968
1968
1974
1974
1974
1974
1974
1974
1974
1971
1971
1971
1977
1977
1977
1974
1974
1974
1974
1974
1974
1974
1969
1969
1969
1980
1980
1980
1974
1974
1974
1974
1974
1974
1964
1964
1964
1964
1972
1972
1972
1973
1973
1973
1974
1974
1974
1973
1973
1973
1975
1975
1975
1975
1977
1977
1977
1974
1974
1974
1976
1976
1976
1973
1973
1973
1972
1972
1972
1972
1972
1972
1972
1975
1975
1975
1973
1973
1973
1974
1974
1974
1974
1974
1974
1974
1974
1974
1974
1974
1974
1974
1974
1974
1974
1973
1973
1973
1973
1973
1973
1973
1973
1973
1973
1977
1977
1977
1974
1974
1974
1972
1972
1972
1974
1974
1974
1974
1974
1974
1974
1977
1977
1977
1973
1973
1973
1974
1974
1974
1974
1974
1974
1974
1976
1976
1976
1974
1974
1974
1975
1975
1975
1975
1975
1975
1979
1979
1979
1979
1974
1974
1974
1974
1974
1974
1970
1970
1970
1972
1972
1972
1975
1975
1975
1975
1973
1973
1973
1975
1975
1975
1975
1975
1975
1974
1974
1974
1972
1972
1972
1972
1979
1979
1979
1973
1973
1973
1975
1975
1975
1977
1977
1977
1974
1974
1974
1974
1973
1973
1973
1974
1974
1974
1973
1973
1973
1970
1970
1970
1974
1974
1974
1974
1975
1975
1975
1978
1978
1978
1977
1977
1977
1974
1974
1974
1975
1975
1975
1975
1976
1976
1976
1976
1976
1976
1973
1973
1973
1973
1973
1973
1974
1974
1974
1974
1973
1973
1973
1975
1975
1975
1973
1973
1973
1974
1974
1974
1980
1980
1980
1980
1974
1974
1974
1975
1975
1975
1973
1973
1973
1975
1975
1975
1972
1972
1972
1972
1968
1968
1968
1977
1977
1977
1974
1974
1974
1968
1968
1968
1974
1974
1974
1974
1973
1973
1973
1975
1975
1975
1976
1976
1976
1974
1974
1974
1974
1974
1974
1974
1978
1978
1978
1971
1971
1971
1973
1973
1973
1975
1975
1975
1975
1975
1975
1975
1976
1976
1976
1968
1968
1968
1973
1973
1973
1973
1973
1973
1974
1974
1974
1974
1969
1969
1969
1973
1973
1973
1974
1974
1974
1976
1976
1976
1977
1977
1977
1977
1975
1975
1975
1973
1973
1973
1974
1974
1974
1972
1972
1972
1972
1972
1972
1972
1974
1974
1974
1972
1972
1972
1972
1972
1972
1969
1969
1969
1976
1976
1976
1976
1971
1971
1971
1972
1972
1972
1971
1971
1971
1973
1973
1973
1973
1973
1973
1973
1974
1974
1974
1975
1975
1975
1971
1971
1971
1972
1972
1972
1973
1973
1973
1973
1970
1970
1970
1971
1971
1971
1974
1974
1974
1976
1976
1976
1971
1971
1971
1971
1974
1974
1974
1978
1978
1978
1978
1978
1978
1973
1973
1973
1975
1975
1975
1975
1972
1972
1972
1970
1970
1970
1976
1976
1976
1974
1974
1974
1973
1973
1973
1973
1972
1972
1972
1975
1975
1975
1975
1975
1975
1976
1976
1976
1972
1972
1972
1972
1971
1971
1971
1973
1973
1973
1975
1975
1975
1974
1974
1974
1973
1973
1973
1973
1970
1970
1970
1975
1975
1975
1973
1973
1973
1977
1977
1977
1973
1973
1973
1973
1974
1974
1974
1972
1972
1972
1970
1970
1970
1971
1971
1971
1974
1974
1974
1974
1973
1973
1973
1976
1976
1976
1971
1971
1971
1972
1972
1972
1973
1973
1973
1973
1974
1974
1974
1971
1971
1971
1975
1975
1975
1974
1974
1974
1972
1972
1972
1972
1973
1973
1973
1973
1973
1973
1976
1976
1976
1970
1970
1970
1980
1980
1980
1980
1976
1976
1976
1974
1974
1974
1970
1970
1970
1973
1973
1973
1975
1975
1975
1975
1978
1978
1978
1975
1975
1975
1975
1975
1975
1974
1974
1974
1973
1973
1973
1973
1973
1973
1973
1976
1976
1976
1974
1974
1974
1968
1968
1968
1969
1969
1969
1969
1971
1971
1971
1977
1977
1977
1970
1970
1970
1975
1975
1975
1976
1976
1976
1976
1970
1970
1970
1975
1975
1975
1974
1974
1974
1976
1976
1976
1974
1974
1974
1974
1973
1973
1973
1975
1975
1975
1974
1974
1974
1976
1976
1976
1974
1974
1974
1974
1974
1974
1974
1974
