32988
32988
32988
33118
33118
33118
33118
33075
33075
33075
33075
33075
33075
33097
33097
33097
33053
33053
33053
33075
33075
33075
33075
33118
33118
33118
33075
33075
33075
33162
33162
33162
33075
33075
33075
33184
33184
33184
33184
33053
33053
33053
33118
33118
33118
33053
33053
33053
33053
33053
33053
33053
33053
33053
33053
33118
33118
33118
32966
32966
32966
33075
33075
33075
33010
33010
33010
33075
33075
33075
33075
33075
33075
33075
33031
33031
33031
33118
33118
33118
33075
33075
33075
33053
33053
33053
33053
33118
33118
33118
33053
33053
33053
33075
33075
33075
33031
33031
33031
33053
33053
33053
33053
33075
33075
33075
33031
33031
33031
33031
33031
33031
33053
33053
33053
33010
33010
33010
33010
33053
33053
33053
33010
33010
33010
33010
33010
33010
33010
33010
33010
33097
33097
33097
33097
33010
33010
33010
33097
33097
33097
33031
33031
33031
33053
33053
33053
33031
33031
33031
33031
33053
33053
33053
33075
33075
33075
33097
33097
33097
33031
33031
33031
33097
33097
33097
33097
33097
33097
33097
33097
33097
33097
33097
33097
33097
33053
33053
33053
33097
33097
33097
33097
33075
33075
33075
33075
33075
33075
33075
33075
33075
33075
33075
33075
33118
33118
33118
33118
33031
33031
33031
33053
33053
33053
33075
33075
33075
33053
33053
33053
33075
33075
33075
33075
33075
33075
33075
33184
33184
33184
33118
33118
33118
33010
33010
33010
33053
33053
33053
33053
33140
33140
33140
33053
33053
33053
33097
33097
33097
33097
33097
33097
33075
33075
33075
33075
33097
33097
33097
33010
33010
33010
33097
33097
33097
33075
33075
33075
33162
33162
33162
33162
33075
33075
33075
33097
33097
33097
33097
33097
33097
33031
33031
33031
33075
33075
33075
33075
33140
33140
33140
33097
33097
33097
33075
33075
33075
32988
32988
32988
32988
32988
32988
32988
33031
33031
33031
33097
33097
33097
33162
33162
33162
33010
33010
33010
33118
33118
33118
33118
33118
33118
33118
33075
33075
33075
33031
33031
33031
33075
33075
33075
33053
33053
33053
33053
33118
33118
33118
33075
33075
33075
33053
33053
33053
33010
33010
33010
33162
33162
33162
33162
33075
33075
33075
33097
33097
33097
33249
33249
33249
33097
33097
33097
33053
33053
33053
33053
33075
33075
33075
33010
33010
33010
33118
33118
33118
33053
33053
33053
33010
33010
33010
33010
33053
33053
33053
33031
33031
33031
33097
33097
33097
33118
33118
33118
33031
33031
33031
33031
33010
33010
33010
33075
33075
33075
33097
33097
33097
33053
33053
33053
33053
33053
33053
33053
33097
33097
33097
33097
33097
33097
33097
33097
33097
33053
33053
33053
33097
33097
33097
33097
33075
33075
33075
33053
33053
33053
33097
33097
33097
33053
33053
33053
33097
33097
33097
33097
33162
33162
33162
33075
33075
33075
33140
33140
33140
33140
33140
33140
33031
33031
33031
33031
33075
33075
33075
32901
32901
32901
32988
32988
32988
33010
33010
33010
33053
33053
33053
33053
33053
33053
33053
33118
33118
33118
33097
33097
33097
33097
33097
33097
33118
33118
33118
33118
33097
33097
33097
33053
33053
33053
33053
33053
33053
32988
32988
32988
33075
33075
33075
33075
33075
33075
33075
33053
33053
33053
33097
33097
33097
33075
33075
33075
33097
33097
33097
33097
33118
33118
33118
33075
33075
33075
33118
33118
33118
33075
33075
33075
33075
33075
33075
33075
33075
33075
33075
33118
33118
33118
33075
33075
33075
32988
32988
32988
33010
33010
33010
33010
33118
33118
33118
32988
32988
32988
33184
33184
33184
33097
33097
33097
33075
33075
33075
33075
33031
33031
33031
33031
33031
33031
33118
33118
33118
33075
33075
33075
33053
33053
33053
33053
33118
33118
33118
33162
33162
33162
33097
33097
33097
33075
33075
33075
33075
33075
33075
33075
33053
33053
33053
33075
33075
33075
33010
33010
33010
33031
33031
33031
33053
33053
33053
33053
33097
33097
33097
33097
33097
33097
33053
33053
33053
33010
33010
33010
33010
33010
33010
33010
33097
33097
33097
33053
33053
33053
33053
33053
33053
33118
33118
33118
33075
33075
33075
33075
33118
33118
33118
33075
33075
33075
33075
33075
33075
33010
33010
33010
33118
33118
33118
33118
33075
33075
33075
33053
33053
33053
33075
33075
33075
33053
33053
33053
33097
33097
33097
33097
33118
33118
33118
33097
33097
33097
33097
33097
33097
33053
33053
33053
33097
33097
33097
33097
33205
33205
33205
33053
33053
33053
33031
33031
33031
33031
33031
33031
33118
33118
33118
33118
33118
33118
33118
33205
33205
33205
33097
33097
33097
32988
32988
32988
33053
33053
33053
33053
33010
33010
33010
33075
33075
33075
33118
33118
33118
32923
32923
32923
32988
32988
32988
32988
33075
33075
33075
33053
33053
33053
33075
33075
33075
33053
33053
33053
33097
33097
33097
33097
33118
33118
33118
33053
33053
33053
33075
33075
33075
33053
33053
33053
33097
33097
33097
33097
33097
33097
33097
33031
33031
33031
33053
33053
33053
33075
33075
33075
33053
33053
33053
33053
33031
33031
33031
33031
33031
33031
33075
33075
33075
33053
33053
33053
33075
33075
33075
33075
33053
33053
33053
33075
33075
33075
33010
33010
33010
33097
33097
33097
33010
33010
33010
33010
33118
33118
33118
33075
33075
33075
33053
33053
33053
33053
33053
33053
33140
33140
33140
33140
33075
33075
33075
33053
33053
33053
33031
33031
33031
33075
33075
33075
33162
33162
33162
33162
33053
33053
33053
33031
33031
33031
33031
33031
33031
33010
33010
33010
33140
33140
33140
33140
33075
33075
33075
33053
33053
33053
33075
33075
33075
33031
33031
33031
32944
32944
32944
32944
33053
33053
33053
33075
33075
33075
33162
33162
33162
33097
33097
33097
33031
33031
33031
33031
33010
33010
33010
33053
33053
33053
33053
33053
33053
33075
33075
33075
33075
33075
33075
33075
33140
33140
33140
33053
33053
33053
33097
33097
33097
33075
33075
33075
33075
33075
33075
33075
33075
33075
33075
33140
33140
33140
33075
33075
33075
33031
33031
33031
33053
33053
33053
33053
33053
33053
33053
33075
33075
33075
33075
33075
33075
33053
33053
33053
33097
33097
33097
33097
33075
33075
33075
33118
33118
33118
32966
32966
32966
33031
33031
33031
33031
33031
33031
33031
33031
33031
33031
33053
33053
33053
33053
33053
33053
33162
33162
33162
33075
33075
33075
33075
33118
33118
33118
33053
33053
33053
33140
33140
33140
33010
33010
33010
32988
32988
32988
32988
33140
33140
33140
33031
33031
33031
33118
33118
33118
33010
33010
33010
33075
33075
33075
33075
33075
33075
33075
33031
33031
33031
33097
33097
33097
33075
33075
33075
33097
33097
33097
33097
33053
33053
33053
33097
33097
33097
33118
33118
33118
33184
33184
33184
33031
33031
33031
33031
32966
32966
32966
33075
33075
33075
33053
33053
33053
32966
32966
32966
33118
33118
33118
33118
33031
33031
33031
33162
33162
33162
33053
33053
33053
33031
33031
33031
33031
33031
33031
33031
33097
33097
33097
32988
32988
32988
33097
33097
33097
33140
33140
33140
33053
33053
33053
33053
33075
33075
33075
33097
33097
33097
33053
33053
33053
33010
33010
33010
33053
33053
33053
33053
33075
33075
33075
33031
33031
33031
33075
33075
33075
33031
33031
33031
33031
33031
33031
33031
33075
33075
33075
33097
33097
33097
33031
33031
33031
33031
33031
33031
33010
33010
33010
33010
33097
33097
33097
33053
33053
33053
33010
33010
33010
33162
33162
33162
33075
33075
33075
33075
33184
33184
33184
33031
33031
33031
33097
33097
33097
33053
33053
33053
33075
33075
33075
33075
33075
33075
33075
33031
33031
33031
33097
33097
33097
33053
33053
33053
33097
33097
33097
33097
33140
33140
33140
33075
33075
33075
33097
33097
33097
33053
33053
33053
33075
33075
33075
33075
33053
33053
33053
33118
33118
33118
33053
33053
33053
33053
33053
33053
33075
33075
33075
33075
33118
33118
33118
33097
33097
33097
33053
33053
33053
33162
33162
33162
33031
33031
33031
33031
32944
32944
32944
33010
33010
33010
33184
33184
33184
33075
33075
33075
33053
33053
33053
33053
33097
33097
33097
33097
33097
33097
33118
33118
33118
33031
33031
33031
33227
33227
33227
33227
33075
33075
33075
33053
33053
33053
33053
33053
33053
33075
33075
33075
33053
33053
33053
33053
33075
33075
33075
33053
33053
33053
33097
33097
33097
33097
33097
33097
33075
33075
33075
33075
33053
33053
33053
33053
33053
33053
33097
33097
33097
33097
33097
33097
33140
33140
33140
33140
32988
32988
32988
33010
33010
33010
33140
33140
33140
33010
33010
33010
32988
32988
32988
32988
33227
33227
33227
33140
33140
33140
33053
33053
33053
33031
33031
33031
33140
33140
33140
33140
33075
33075
33075
33075
33075
33075
33010
33010
33010
33140
33140
33140
33031
33031
33031
33031
33053
33053
33053
33031
33031
33031
33031
33031
33031
33097
33097
33097
33118
33118
33118
33118
33097
33097
33097
33097
33097
33097
33097
33097
33097
33075
33075
33075
33184
33184
33184
33184
33075
33075
33075
33053
33053
33053
33075
33075
33075
33075
33075
33075
33205
33205
33205
33205
33205
33205
33205
32944
32944
32944
33053
33053
33053
33097
33097
33097
33031
33031
33031
33031
33031
33031
33031
33010
33010
33010
33010
33010
33010
33010
33010
33010
33075
33075
33075
33075
33097
33097
33097
33053
33053
33053
33075
33075
33075
33053
33053
33053
33075
33075
33075
33075
33053
33053
33053
33053
33053
33053
33075
33075
33075
33075
33075
33075
33031
33031
33031
33031
33227
33227
33227
33075
33075
33075
33075
33075
33075
33075
33075
33075
33118
33118
33118
33118
33097
33097
33097
33053
33053
33053
33075
33075
33075
33075
33075
33075
33140
33140
33140
33140
33097
33097
33097
33053
33053
33053
33053
33053
33053
33184
33184
33184
33118
33118
33118
33118
33010
33010
33010
33053
33053
33053
33075
33075
33075
33031
33031
33031
33053
33053
33053
33053
33118
33118
33118
33053
33053
33053
33031
33031
33031
33075
33075
33075
33097
33097
33097
33097
33075
33075
33075
33031
33031
33031
33118
33118
33118
33053
33053
33053
33075
33075
33075
33075
33053
33053
33053
33075
33075
33075
33075
33075
33075
33010
33010
33010
33075
33075
33075
33075
33118
33118
33118
32944
32944
32944
33140
33140
33140
33053
33053
33053
33031
33031
33031
33031
33140
33140
33140
33097
33097
33097
33118
33118
33118
33097
33097
33097
33097
33097
33097
33097
33075
33075
33075
33075
33075
33075
33118
33118
33118
33205
33205
33205
33097
33097
33097
33097
33053
33053
33053
33031
33031
33031
33053
33053
33053
33053
33053
33053
33031
33031
33031
33031
33031
33031
33031
32966
32966
32966
33053
33053
33053
33075
33075
33075
33075
33075
33075
33075
33097
33097
33097
33075
33075
33075
33097
33097
33097
33075
33075
33075
33097
33097
33097
33097
33075
33075
33075
32944
32944
32944
33075
33075
33075
32966
32966
32966
33075
33075
33075
33075
32944
32944
32944
32988
32988
32988
32988
32988
32988
33053
33053
33053
33031
33031
33031
33031
33075
33075
33075
33053
33053
33053
33075
33075
33075
33097
33097
33097
33075
33075
33075
33075
33118
33118
33118
32966
32966
32966
33053
33053
33053
33075
33075
33075
33075
33075
33075
33075
33010
33010
33010
33010
33010
33010
33075
33075
33075
33031
33031
33031
33075
33075
33075
33075
33053
33053
33053
33031
33031
33031
33053
33053
33053
33053
33053
33053
33031
33031
33031
33031
33031
33031
33031
33053
33053
33053
32966
32966
32966
33097
33097
33097
33010
33010
33010
33010
33010
33010
33010
33053
33053
33053
33118
33118
33118
33097
33097
33097
33053
33053
33053
33053
33053
33053
33053
33097
33097
33097
33075
33075
33075
33097
33097
33097
33053
33053
33053
33053
33118
33118
33118
33118
33118
33118
33075
33075
33075
33053
33053
33053
33075
33075
33075
33075
33031
33031
33031
33031
33031
33031
33097
33097
33097
33053
33053
33053
33053
33053
33053
33053
33162
33162
33162
33010
33010
33010
33184
33184
33184
33097
33097
33097
33140
33140
33140
33140
33010
33010
33010
33010
33010
33010
33010
33010
33010
33140
33140
33140
33053
33053
33053
33053
33053
33053
33053
33053
33053
33053
32901
32901
32901
33031
33031
33031
33075
33075
33075
33075
33031
33031
33031
33075
33075
33075
33118
33118
33118
33053
33053
33053
33140
33140
33140
33140
33097
33097
33097
33031
33031
33031
33097
33097
33097
33010
33010
33010
33075
33075
33075
33075
33075
33075
33075
33075
33075
33075
33053
33053
33053
33031
33031
33031
33097
33097
33097
33097
33118
33118
33118
33097
33097
33097
33140
33140
33140
33097
33097
33097
33010
33010
33010
33010
32966
32966
32966
33053
33053
33053
33118
33118
33118
33010
33010
33010
33118
33118
33118
33118
33118
33118
33118
33031
33031
33031
33010
33010
33010
33097
33097
33097
33053
33053
33053
33053
33118
33118
33118
33053
33053
33053
33097
33097
33097
33053
33053
33053
33118
33118
33118
33118
33097
33097
33097
33097
33097
33097
33075
33075
33075
33053
33053
33053
33031
33031
33031
33031
33075
33075
33075
33010
33010
33010
33053
33053
33053
32988
32988
32988
33053
33053
33053
33053
33118
33118
33118
33097
33097
33097
33162
33162
33162
32988
32988
32988
33140
33140
33140
33140
33075
33075
33075
33031
33031
33031
33010
33010
33010
33031
33031
33031
33118
33118
33118
33118
33053
33053
33053
33031
33031
33031
33118
33118
33118
33075
33075
33075
33031
33031
33031
33031
33031
33031
33031
33075
33075
33075
33053
33053
33053
33053
33053
33053
33097
33097
33097
33097
33118
33118
33118
33053
33053
33053
33118
33118
33118
33053
33053
33053
33140
33140
33140
33140
33205
33205
33205
32923
32923
32923
33053
33053
33053
32944
32944
32944
33075
33075
33075
33075
33075
33075
33075
33097
33097
33097
33205
33205
33205
33118
33118
33118
33097
33097
33097
33097
33031
33031
33031
33010
33010
33010
33075
33075
33075
33075
33075
33075
33097
33097
33097
33097
33075
33075
33075
33075
33075
33075
33118
33118
33118
32988
32988
32988
33075
33075
33075
33075
33075
33075
33075
32988
32988
32988
33031
33031
33031
33031
33031
33031
33097
33097
33097
33097
33097
33097
33097
33075
33075
33075
33075
33075
33075
33075
33075
33075
33097
33097
33097
33097
33097
33097
33097
33097
33097
33097
33184
33184
33184
32966
32966
32966
33097
33097
33097
33097
33075
33075
33075
33140
33140
33140
33031
33031
33031
33053
33053
33053
33053
33053
33053
33053
33118
33118
33118
33031
33031
33031
33097
33097
33097
33053
33053
33053
33031
33031
33031
33031
33075
33075
33075
33053
33053
33053
33031
33031
33031
33031
33031
33031
33053
33053
33053
33053
33075
33075
33075
33075
33075
33075
33075
33075
33075
33053
33053
33053
33097
33097
33097
33097
32988
32988
32988
33053
33053
33053
33031
33031
33031
33075
33075
33075
33075
33075
33075
33075
33162
33162
33162
33075
33075
33075
32988
32988
32988
33097
33097
33097
32988
32988
32988
32988
33075
33075
33075
32966
32966
32966
33075
33075
33075
33031
33031
33031
32988
32988
32988
32988
33097
33097
33097
33097
33097
33097
33031
33031
33031
33075
33075
33075
33097
33097
33097
33097
33118
33118
33118
33053
33053
33053
33075
33075
33075
33010
33010
33010
33075
33075
33075
33075
33075
33075
33075
33053
33053
33053
33075
33075
33075
33075
33075
33075
33075
33075
33075
33075
33075
33075
33075
33010
33010
33010
33031
33031
33031
33075
33075
33075
32988
32988
32988
32988
33075
33075
33075
33118
33118
33118
33097
33097
33097
33053
33053
33053
33097
33097
33097
33097
33097
33097
33097
33053
33053
33053
33075
33075
33075
32988
32988
32988
33075
33075
33075
33075
33075
33075
33075
32966
32966
32966
33031
33031
33031
33075
33075
33075
33097
33097
33097
33097
33075
33075
33075
33010
33010
33010
33184
33184
33184
33053
33053
33053
33075
33075
33075
33075
32988
32988
32988
33053
33053
33053
33075
33075
33075
33010
33010
33010
33010
33010
33010
33010
32966
32966
32966
33010
33010
33010
33053
33053
33053
33053
33053
33053
33075
33075
33075
33075
33010
33010
33010
33075
33075
33075
33010
33010
33010
33097
33097
33097
33075
33075
33075
33075
33118
33118
33118
33031
33031
33031
33075
33075
33075
33053
33053
33053
33097
33097
33097
33097
33097
33097
33097
33053
33053
33053
33075
33075
33075
33075
33075
33075
33118
33118
33118
33118
33097
33097
33097
33010
33010
33010
33075
33075
33075
33053
33053
33053
33053
33053
33053
33053
33031
33031
33031
33053
33053
33053
33075
33075
33075
33097
33097
33097
33075
33075
33075
33075
33010
33010
33010
33031
33031
33031
33205
33205
33205
33010
33010
33010
33075
33075
33075
33075
32988
32988
32988
33097
33097
33097
33075
33075
33075
33053
33053
33053
33031
33031
33031
33031
33097
33097
33097
33053
33053
33053
33053
33053
33053
33053
33053
33053
33140
33140
33140
33140
33075
33075
33075
33097
33097
33097
33053
33053
33053
33097
33097
33097
33010
33010
33010
33010
33097
33097
33097
33053
33053
33053
33097
33097
33097
33053
33053
33053
33053
33053
33053
33053
33097
33097
33097
33097
33097
33097
33140
33140
33140
33118
33118
33118
33140
33140
33140
33140
33140
33140
33140
33031
33031
33031
33053
33053
33053
33118
33118
33118
33205
33205
33205
33205
32923
32923
32923
33031
33031
33031
33118
33118
33118
33053
33053
33053
33031
33031
33031
33031
33053
33053
33053
33162
33162
33162
33075
33075
33075
33075
33075
33075
33118
33118
33118
33118
33097
33097
33097
33097
33097
33097
33097
33097
33097
32923
32923
32923
33140
33140
33140
33140
33075
33075
33075
33075
33075
33075
33097
33097
33097
33184
33184
33184
32988
32988
32988
32988
33118
33118
33118
33097
33097
33097
33053
33053
33053
33118
33118
33118
33140
33140
33140
33140
33184
33184
33184
33010
33010
33010
33118
33118
33118
33053
33053
33053
33097
33097
33097
33097
33140
33140
33140
33075
33075
33075
33075
33075
33075
33075
33075
33075
33053
33053
33053
33053
33097
33097
33097
33097
33097
33097
33118
33118
33118
33010
33010
33010
33075
33075
33075
33075
33053
33053
33053
33075
33075
33075
33075
33075
33075
33053
33053
33053
33097
33097
33097
33097
33031
33031
33031
33075
33075
33075
33140
33140
33140
33053
33053
33053
32988
32988
32988
32988
33075
33075
33075
33140
33140
33140
33118
33118
33118
33031
33031
33031
33053
33053
33053
33053
33053
33053
33053
33118
33118
33118
33053
33053
33053
32988
32988
32988
33075
33075
33075
33075
33010
33010
33010
33031
33031
33031
33031
33031
33031
33162
33162
33162
33140
33140
33140
33140
33053
33053
33053
33053
33053
33053
33075
33075
33075
33075
33075
33075
33053
33053
33053
33053
33118
33118
33118
33010
33010
33010
33075
33075
33075
33075
33075
33075
33097
33097
33097
33097
33097
33097
33097
33075
33075
33075
33097
33097
33097
33118
33118
33118
33031
33031
33031
33031
33031
33031
33031
33010
33010
33010
33075
33075
33075
33184
33184
33184
33097
33097
33097
33097
33118
33118
33118
32988
32988
32988
33140
33140
33140
33097
33097
33097
32988
32988
32988
32988
33053
33053
33053
33075
33075
33075
33075
33075
33075
33010
33010
33010
33097
33097
33097
33097
33118
33118
33118
33010
33010
33010
33031
33031
33031
33075
33075
33075
33075
33075
33075
33075
33075
33075
33075
33075
33075
33075
33075
33075
33075
33053
33053
33053
32988
32988
32988
32988
33053
33053
33053
33075
33075
33075
33053
33053
33053
33097
33097
33097
33162
33162
33162
33162
33140
33140
33140
33118
33118
33118
33075
33075
33075
33097
33097
33097
33053
33053
33053
33053
33053
33053
33053
33097
33097
33097
33075
33075
33075
33097
33097
33097
33053
33053
33053
33053
33075
33075
33075
33118
33118
33118
33140
33140
33140
33053
33053
33053
33097
33097
33097
33097
33097
33097
33097
33075
33075
33075
33075
33075
33075
33010
33010
33010
33075
33075
33075
33075
33097
33097
33097
33053
33053
33053
33118
33118
33118
33075
33075
33075
33162
33162
33162
33162
33053
33053
33053
33053
33053
33053
33031
33031
33031
33053
33053
33053
33031
33031
33031
33031
33140
33140
33140
33162
33162
33162
33097
33097
33097
33118
33118
33118
33140
33140
33140
33140
32988
32988
32988
33010
33010
33010
33097
33097
33097
33118
33118
33118
33162
33162
33162
33162
33140
33140
33140
33053
33053
33053
33075
33075
33075
33031
33031
33031
33140
33140
33140
33140
33075
33075
33075
33010
33010
33010
33097
33097
33097
33075
33075
33075
33031
33031
33031
33031
33031
33031
33031
33053
33053
33053
33075
33075
33075
33053
33053
33053
33140
33140
33140
33140
33118
33118
33118
33053
33053
33053
33118
33118
33118
33075
33075
33075
33118
33118
33118
33118
33075
33075
33075
33075
33075
33075
33031
33031
33031
33097
33097
33097
33140
33140
33140
33140
33140
33140
33140
33140
33140
33140
33053
33053
33053
33031
33031
33031
33140
33140
33140
33140
33162
33162
33162
33118
33118
33118
33053
33053
33053
33010
33010
33010
33075
33075
33075
33075
33053
33053
33053
33075
33075
33075
33140
33140
33140
33097
33097
33097
33031
33031
33031
33031
33075
33075
33075
33053
33053
33053
33075
33075
33075
33075
33075
33075
33053
33053
33053
33053
33118
33118
33118
33053
33053
33053
33097
33097
33097
33053
33053
33053
33205
33205
33205
33205
33140
33140
33140
33053
33053
33053
33097
33097
33097
32966
32966
32966
32988
32988
32988
32988
33097
33097
33097
33205
33205
33205
33118
33118
33118
33010
33010
33010
33140
33140
33140
33140
32988
32988
32988
33075
33075
33075
33010
33010
33010
33053
33053
33053
33075
33075
33075
33075
33075
33075
33075
33075
33075
33075
33097
33097
33097
33075
33075
33075
33118
33118
33118
33118
33075
33075
33075
33075
33075
33075
33097
33097
33097
33053
33053
33053
33118
33118
33118
33118
33031
33031
33031
33118
33118
33118
33075
33075
33075
33053
33053
33053
33118
33118
33118
33118
33053
33053
33053
33031
33031
33031
32966
32966
32966
33097
33097
33097
33075
33075
33075
33075
33140
33140
33140
33097
33097
33097
32988
32988
32988
32988
32988
32988
33097
33097
33097
33097
33162
33162
33162
33075
33075
33075
33075
33075
33075
33075
33075
33075
33010
33010
33010
33010
33118
33118
33118
33053
33053
33053
33075
33075
33075
33010
33010
33010
33140
33140
33140
33140
33075
33075
33075
33010
33010
33010
33097
33097
33097
33053
33053
33053
33031
33031
33031
33031
33097
33097
33097
33053
33053
33053
33097
33097
33097
33075
33075
33075
33053
33053
33053
33053
33140
33140
33140
33097
33097
33097
33031
33031
33031
32988
32988
32988
33118
33118
33118
33118
33031
33031
33031
33162
33162
33162
33075
33075
33075
32966
32966
32966
33031
33031
33031
33031
33184
33184
33184
33075
33075
33075
33097
33097
33097
33031
33031
33031
33118
33118
33118
33118
33097
33097
33097
33053
33053
33053
33162
33162
33162
32988
32988
32988
33053
33053
33053
33053
33031
33031
33031
33031
33031
33031
33097
33097
33097
33162
33162
33162
33010
33010
33010
33010
33075
33075
33075
33097
33097
33097
33097
33097
33097
33227
33227
33227
33010
33010
33010
33010
33053
33053
33053
33075
33075
33075
33118
33118
33118
33031
33031
33031
33053
33053
33053
33053
33053
33053
33053
33097
33097
33097
33140
33140
33140
33140
33140
33140
33031
33031
33031
33031
33097
33097
33097
33097
33097
33097
33140
33140
33140
33097
33097
33097
33118
33118
33118
33118
33031
33031
33031
33097
33097
33097
33075
33075
33075
33053
33053
33053
33097
33097
33097
33097
33031
33031
33031
33075
33075
33075
33075
33075
33075
33053
33053
33053
33075
33075
33075
33075
33249
33249
33249
33097
33097
33097
33075
33075
33075
33097
33097
33097
33075
33075
33075
33075
33097
33097
33097
32988
32988
32988
33010
33010
33010
33031
33031
33031
33075
33075
33075
33075
33075
33075
33075
33010
33010
33010
33075
33075
33075
33184
33184
33184
33162
33162
33162
33162
33075
33075
33075
33010
33010
33010
32988
32988
32988
33010
33010
33010
33053
33053
33053
33053
33097
33097
33097
33140
33140
33140
33097
33097
33097
33053
33053
33053
33140
33140
33140
33140
33053
33053
33053
33097
33097
33097
33075
33075
33075
33053
33053
33053
33097
33097
33097
33097
33075
33075
33075
33097
33097
33097
33140
33140
33140
33053
33053
33053
33031
33031
33031
33031
33140
33140
33140
33053
33053
33053
33097
33097
33097
33053
33053
33053
33031
33031
33031
33031
33075
33075
33075
33010
33010
33010
33205
33205
33205
33118
33118
33118
33053
33053
33053
33053
33010
33010
33010
33031
33031
33031
33118
33118
33118
32966
32966
32966
33097
33097
33097
33097
33075
33075
33075
33053
33053
33053
33053
33053
33053
33031
33031
33031
33053
33053
33053
33053
33075
33075
33075
33075
33075
33075
33075
33075
33075
33010
33010
33010
33140
33140
33140
33140
33097
33097
33097
33075
33075
33075
33097
33097
33097
33097
33097
33097
33053
33053
33053
33053
33053
33053
33053
33053
33053
33053
33097
33097
33097
33097
33097
33097
33031
33031
33031
33031
33118
33118
33118
32988
32988
32988
33140
33140
33140
33053
33053
33053
33162
33162
33162
33162
33075
33075
33075
33053
33053
33053
33010
33010
33010
33075
33075
33075
33053
33053
33053
33053
33097
33097
33097
33053
33053
33053
33075
33075
33075
33031
33031
33031
33097
33097
33097
33097
33053
33053
33053
33053
33053
33053
33053
33053
33053
33053
33053
33053
33053
33053
33053
33053
33097
33097
33097
33140
33140
33140
33097
33097
33097
33053
33053
33053
33031
33031
33031
33031
33053
33053
33053
32988
32988
32988
33031
33031
33031
33097
33097
33097
33075
33075
33075
33075
33075
33075
33075
33097
33097
33097
33140
33140
33140
33097
33097
33097
33010
33010
33010
33010
33010
33010
33010
33053
33053
33053
33184
33184
33184
33140
33140
33140
33031
33031
33031
33031
33031
33031
33031
33075
33075
33075
33053
33053
33053
33010
33010
33010
33097
33097
33097
33097
33075
33075
33075
33097
33097
33097
33097
33097
33097
33053
33053
33053
32988
32988
32988
32988
33075
33075
33075
33031
33031
33031
33097
33097
33097
33075
33075
33075
33075
33075
33075
33075
33140
33140
33140
33031
33031
33031
33053
33053
33053
33075
33075
33075
33053
33053
33053
33053
33031
33031
33031
33031
33031
33031
33097
33097
33097
33162
33162
33162
33097
33097
33097
33097
33118
33118
33118
33053
33053
33053
33010
33010
33010
33075
33075
33075
33053
33053
33053
33053
33097
33097
33097
33162
33162
33162
33097
33097
33097
33075
33075
33075
33118
33118
33118
33118
33075
33075
33075
33053
33053
33053
33075
33075
33075
33031
33031
33031
33075
33075
33075
33075
33010
33010
33010
33053
33053
33053
33075
33075
33075
33097
33097
33097
33075
33075
33075
33075
33118
33118
33118
33053
33053
33053
33075
33075
33075
33075
33075
33075
33075
33075
33075
33075
33097
33097
33097
33031
33031
33031
33075
33075
33075
33097
33097
33097
33140
33140
33140
33140
33205
33205
33205
33031
33031
33031
33031
33031
33031
33097
33097
33097
33053
33053
33053
33053
33097
33097
33097
33010
33010
33010
33097
33097
33097
33031
33031
33031
33097
33097
33097
33097
33075
33075
33075
33031
33031
33031
33053
33053
33053
33097
33097
33097
33075
33075
33075
33075
33053
33053
33053
33031
33031
33031
33053
33053
33053
33053
33053
33053
33053
33053
33053
33053
33075
33075
33075
33162
33162
33162
33097
33097
33097
33053
33053
33053
33010
33010
33010
33010
33140
33140
33140
33118
33118
33118
33075
33075
33075
32879
32879
32879
33097
33097
33097
33097
33097
33097
33097
33184
33184
33184
33118
33118
33118
32966
32966
32966
33162
33162
33162
33162
33053
33053
33053
33075
33075
33075
33053
33053
33053
33075
33075
33075
33075
33075
33075
33075
33097
33097
33097
33075
33075
33075
33075
33075
33075
33097
33097
33097
33097
33097
33097
33097
33097
33097
33097
33031
33031
33031
33053
33053
33053
33010
33010
33010
33053
33053
33053
33053
32966
32966
32966
33118
33118
33118
33097
33097
33097
33075
33075
33075
33053
33053
33053
33053
33118
33118
33118
33031
33031
33031
33162
33162
33162
33031
33031
33031
33075
33075
33075
33075
33031
33031
33031
33010
33010
33010
33162
33162
33162
33118
33118
33118
33010
33010
33010
33010
33053
33053
33053
33075
33075
33075
33075
33075
33075
33162
33162
33162
33118
33118
33118
33118
33031
33031
33031
33053
33053
33053
33075
33075
33075
33010
33010
33010
33075
33075
33075
33075
33053
33053
33053
33053
33053
33053
33075
33075
33075
33053
33053
33053
33053
33053
33053
33053
33010
33010
33010
33097
33097
33097
33075
33075
33075
33097
33097
33097
33097
33097
33097
33097
33075
33075
33075
33075
33075
33075
33097
33097
33097
33075
33075
33075
33075
33075
33075
33075
33075
33075
33075
33031
33031
33031
33075
33075
33075
33162
33162
33162
33053
33053
33053
33053
33162
33162
33162
32988
32988
32988
33075
33075
33075
33140
33140
33140
33118
33118
33118
33118
33379
33379
33379
33053
33053
33053
33097
33097
33097
33075
33075
33075
33053
33053
33053
33053
33053
33053
33053
33162
33162
33162
33075
33075
33075
33031
33031
33031
33075
33075
33075
33075
33075
33075
33075
33031
33031
33031
33162
33162
33162
33053
33053
33053
33097
33097
33097
33097
33075
33075
33075
33075
33075
33075
33053
33053
33053
33075
33075
33075
33031
33031
33031
33031
33053
33053
33053
33075
33075
33075
33140
33140
33140
33140
33140
33140
33118
33118
33118
33118
33053
33053
33053
33031
33031
33031
33097
33097
33097
32966
32966
32966
33184
33184
33184
33184
33053
33053
33053
33031
33031
33031
33053
33053
33053
33053
33053
33053
33031
33031
33031
33031
33075
33075
33075
33075
33075
33075
33097
33097
33097
33053
33053
33053
33118
33118
33118
33118
32988
32988
32988
33053
33053
33053
33053
33053
33053
33097
33097
33097
33118
33118
33118
33118
33075
33075
33075
33053
33053
33053
33075
33075
33075
33031
33031
33031
33097
33097
33097
33097
33053
33053
33053
33097
33097
33097
33118
33118
33118
33140
33140
33140
33053
33053
33053
33053
33097
33097
33097
33031
33031
33031
33053
33053
33053
33097
33097
33097
33184
33184
33184
33184
33031
33031
33031
33053
33053
33053
33053
33053
33053
33097
33097
33097
33118
33118
33118
33118
32988
32988
32988
33053
33053
33053
33010
33010
33010
33118
33118
33118
33227
33227
33227
33227
33140
33140
33140
33075
33075
33075
33097
33097
33097
33031
33031
33031
33097
33097
33097
33097
33097
33097
33097
33053
33053
33053
33184
33184
33184
33053
33053
33053
33075
33075
33075
33075
33075
33075
33075
33075
33075
33075
33140
33140
33140
33010
33010
33010
33053
33053
33053
33053
33075
33075
33075
33053
33053
33053
33162
33162
33162
33010
33010
33010
33031
33031
33031
33031
33053
33053
33053
33140
33140
33140
33162
33162
33162
33075
33075
33075
32988
32988
32988
32988
32988
32988
32988
32901
32901
32901
33097
33097
33097
32944
32944
32944
33118
33118
33118
33118
33162
33162
33162
33031
33031
33031
33118
33118
33118
33075
33075
33075
33075
33075
33075
33075
33031
33031
33031
33053
33053
33053
33140
33140
33140
33118
33118
33118
33140
33140
33140
33140
33097
33097
33097
33053
33053
33053
33097
33097
33097
33140
33140
33140
33031
33031
33031
33031
33075
33075
33075
33097
33097
33097
33118
33118
33118
32944
32944
32944
33184
33184
33184
33184
33097
33097
33097
33184
33184
33184
33075
33075
33075
33031
33031
33031
33118
33118
33118
33118
33031
33031
33031
33010
33010
33010
33010
33010
33010
33053
33053
33053
33031
33031
33031
33031
33075
33075
33075
33097
33097
33097
33097
33097
33097
33075
33075
33075
33118
33118
33118
33118
33010
33010
33010
33140
33140
33140
33075
33075
33075
33097
33097
33097
33140
33140
33140
33140
33053
33053
33053
33097
33097
33097
33118
33118
33118
33053
33053
33053
33140
33140
33140
33140
33118
33118
33118
33010
33010
33010
33075
33075
33075
32988
32988
32988
32988
32988
32988
32988
33097
33097
33097
32966
32966
32966
33162
33162
33162
33227
33227
33227
33097
33097
33097
33097
33053
33053
33053
33097
33097
33097
33140
33140
33140
33010
33010
33010
33205
33205
33205
33205
33053
33053
33053
33097
33097
33097
33075
33075
33075
33031
33031
33031
33097
33097
33097
33097
33075
33075
33075
33031
33031
33031
33075
33075
33075
33031
33031
33031
33053
33053
33053
33053
33075
33075
33075
32944
32944
32944
33075
33075
33075
33053
33053
33053
33075
33075
33075
33075
33140
33140
33140
33097
33097
33097
33097
33097
33097
33053
33053
33053
33075
33075
33075
33075
32988
32988
32988
33118
33118
33118
33075
33075
33075
33031
33031
33031
33075
33075
33075
33075
33162
33162
33162
33075
33075
33075
33118
33118
33118
33031
33031
33031
33053
33053
33053
33053
33118
33118
33118
33075
33075
33075
33010
33010
33010
33075
33075
33075
33140
33140
33140
33140
33075
33075
33075
33053
33053
33053
33184
33184
33184
32966
32966
32966
32988
32988
32988
32988
33075
33075
33075
33097
33097
33097
33075
33075
33075
33162
33162
33162
33140
33140
33140
33140
33031
33031
33031
33053
33053
33053
32988
32988
32988
33031
33031
33031
33097
33097
33097
33097
33162
33162
33162
33053
33053
33053
33097
33097
33097
33010
33010
33010
33097
33097
33097
33097
33184
33184
33184
33053
33053
33053
33053
33053
33053
33075
33075
33075
33075
33075
33075
33075
33075
33075
33075
33097
33097
33097
33075
33075
33075
33075
33075
33075
33053
33053
33053
33053
33140
33140
33140
33097
33097
33097
32966
32966
32966
33184
33184
33184
33097
33097
33097
33097
33097
33097
33097
33075
33075
33075
33140
33140
33140
33184
33184
33184
33031
33031
33031
33031
33140
33140
33140
33010
33010
33010
32944
32944
32944
32988
32988
32988
33010
33010
33010
33010
33053
33053
33053
33031
33031
33031
33075
33075
33075
33053
33053
33053
33097
33097
33097
33097
33097
33097
33097
33118
33118
33118
33075
33075
33075
33053
33053
33053
33097
33097
33097
33097
33053
33053
33053
33053
33053
33053
33097
33097
33097
33053
33053
33053
33118
33118
33118
33118
33118
33118
33118
33075
33075
33075
33118
33118
33118
33075
33075
33075
33118
33118
33118
33118
33097
33097
33097
33118
33118
33118
33140
33140
33140
33053
33053
33053
33010
33010
33010
33010
32988
32988
32988
33010
33010
33010
32944
32944
32944
32966
32966
32966
33053
33053
33053
33053
33053
33053
33053
33031
33031
33031
33162
33162
33162
33097
33097
33097
33031
33031
33031
33031
33075
33075
33075
33031
33031
33031
33075
33075
33075
33053
33053
33053
33010
33010
33010
33010
33097
33097
33097
33097
33097
33097
33118
33118
33118
33053
33053
33053
33010
33010
33010
33010
33053
33053
33053
33053
33053
33053
33097
33097
33097
33097
33097
33097
33075
33075
33075
33075
33053
33053
33053
33075
33075
33075
33097
33097
33097
33031
33031
33031
33184
33184
33184
33184
32988
32988
32988
33053
33053
33053
33010
33010
33010
33075
33075
33075
33075
33075
33075
33075
33053
33053
33053
33097
33097
33097
33097
33097
33097
33075
33075
33075
33097
33097
33097
33097
33010
33010
33010
33053
33053
33053
33140
33140
33140
33031
33031
33031
33075
33075
33075
33075
33053
33053
33053
33053
33053
33053
33140
33140
33140
33010
33010
33010
33075
33075
33075
33075
33097
33097
33097
33031
33031
33031
33140
33140
33140
33031
33031
33031
33010
33010
33010
33010
33010
33010
33010
33053
33053
33053
33097
33097
33097
33053
33053
33053
33053
33053
33053
33053
33010
33010
33010
33140
33140
33140
33053
33053
33053
33075
33075
33075
33075
33075
33075
33075
33053
33053
33053
33097
33097
33097
33118
33118
33118
33053
33053
33053
33075
33075
33075
33075
33053
33053
33053
33097
33097
33097
33097
33097
33097
33053
33053
33053
33075
33075
33075
33075
33162
33162
33162
33053
33053
33053
33097
33097
33097
33097
33097
33097
33118
33118
33118
33118
33097
33097
33097
33010
33010
33010
33097
33097
33097
33162
33162
33162
33053
33053
33053
33053
33097
33097
33097
33162
33162
33162
33053
33053
33053
33053
33053
33053
33097
33097
33097
33097
33053
33053
33053
33053
33053
33053
33097
33097
33097
32944
32944
32944
33010
33010
33010
33010
33053
33053
33053
33053
33053
33053
33075
33075
33075
33010
33010
33010
33118
33118
33118
33118
33075
33075
33075
33053
33053
33053
33097
33097
33097
33097
33097
33097
33075
33075
33075
33075
33097
33097
33097
33053
33053
33053
33118
33118
33118
33010
33010
33010
33031
33031
33031
33031
33097
33097
33097
33140
33140
33140
33162
33162
33162
33097
33097
33097
32988
32988
32988
32988
32966
32966
32966
33053
33053
33053
33140
33140
33140
33053
33053
33053
33097
33097
33097
33097
33053
33053
33053
33010
33010
33010
33097
33097
33097
33075
33075
33075
33097
33097
33097
33097
33075
33075
33075
33075
33075
33075
33075
33075
33075
33031
33031
33031
33097
33097
33097
33097
33075
33075
33075
33031
33031
33031
33097
33097
33097
33010
33010
33010
33118
33118
33118
33118
33118
33118
33118
33075
33075
33075
33031
33031
33031
32988
32988
32988
32988
32988
32988
32988
33140
33140
33140
33031
33031
33031
33140
33140
33140
33075
33075
33075
33184
33184
33184
33184
33053
33053
33053
32944
32944
32944
33010
33010
33010
33010
33010
33010
33097
33097
33097
33097
33053
33053
33053
33010
33010
33010
33097
33097
33097
33053
33053
33053
33075
33075
33075
33075
33031
33031
33031
33053
33053
33053
33075
33075
33075
33010
33010
33010
33097
33097
33097
33097
33227
33227
33227
33118
33118
33118
33118
33118
33118
33010
33010
33010
33118
33118
33118
33118
33053
33053
33053
32988
32988
32988
33031
33031
33031
33075
33075
33075
33097
33097
33097
33097
33162
33162
33162
33097
33097
33097
32988
32988
32988
32966
32966
32966
33075
33075
33075
33075
33075
33075
33075
33010
33010
33010
33053
33053
33053
33031
33031
33031
33162
33162
33162
33162
33075
33075
33075
33097
33097
33097
33053
33053
33053
33075
33075
33075
33075
33075
33075
33075
33053
33053
33053
33118
33118
33118
33075
33075
33075
33118
33118
33118
33097
33097
33097
33097
33053
33053
33053
33075
33075
33075
33075
33075
33075
33097
33097
33097
33053
33053
33053
33053
32988
32988
32988
33010
33010
33010
33118
33118
33118
33118
33118
33118
33184
33184
33184
33184
33010
33010
33010
32944
32944
32944
32988
32988
32988
33053
33053
33053
33053
33053
33053
33053
33140
33140
33140
33184
33184
33184
33075
33075
33075
33097
33097
33097
33053
33053
33053
33053
33097
33097
33097
33053
33053
33053
33053
33053
33053
33118
33118
33118
33031
33031
33031
33031
33053
33053
33053
33097
33097
33097
33075
33075
33075
33097
33097
33097
33097
33097
33097
33097
33053
33053
33053
33010
33010
33010
33140
33140
33140
33031
33031
33031
33097
33097
33097
33097
32988
32988
32988
33075
33075
33075
33097
33097
33097
33075
33075
33075
33118
33118
33118
33118
33031
33031
33031
33097
33097
33097
33031
33031
33031
33097
33097
33097
33075
33075
33075
33075
33097
33097
33097
33053
33053
33053
33053
33053
33053
33053
33053
33053
33075
33075
33075
33075
33053
33053
33053
33053
33053
33053
33075
33075
33075
33053
33053
33053
33097
33097
33097
33097
33184
33184
33184
33097
33097
33097
33097
33097
33097
33031
33031
33031
33140
33140
33140
33140
33118
33118
33118
33075
33075
33075
33075
33075
33075
33053
33053
33053
33118
33118
33118
33118
33053
33053
33053
32966
32966
32966
33162
33162
33162
33031
33031
33031
33118
33118
33118
33118
33140
33140
33140
33075
33075
33075
33097
33097
33097
33075
33075
33075
33227
33227
33227
33227
33075
33075
33075
33075
33075
33075
33075
33075
33075
33053
33053
33053
33031
33031
33031
33031
33053
33053
33053
33031
33031
33031
33075
33075
33075
33053
33053
33053
33118
33118
33118
33118
33053
33053
33053
33053
33053
33053
33118
33118
33118
33097
33097
33097
33075
33075
33075
33075
33075
33075
33075
33097
33097
33097
33097
33097
33097
33097
33097
33097
33075
33075
33075
33075
33053
33053
33053
33075
33075
33075
33184
33184
33184
32988
32988
32988
33097
33097
33097
33097
33118
33118
33118
32988
32988
32988
33140
33140
33140
33053
33053
33053
33053
33053
33053
33053
33097
33097
33097
33053
33053
33053
33118
33118
33118
33053
33053
33053
32988
32988
32988
32988
33097
33097
33097
33075
33075
33075
33097
33097
33097
33140
33140
33140
33184
33184
33184
33184
33118
33118
33118
33010
33010
33010
33075
33075
33075
33075
33075
33075
33097
33097
33097
33097
33140
33140
33140
33118
33118
33118
33162
33162
33162
33053
33053
33053
33140
33140
33140
33140
33075
33075
33075
33118
33118
33118
33031
33031
33031
33075
33075
33075
33031
33031
33031
33031
33075
33075
33075
33031
33031
33031
33097
33097
33097
33118
33118
33118
33053
33053
33053
33053
33075
33075
33075
33031
33031
33031
33053
33053
33053
33075
33075
33075
33053
33053
33053
33053
33053
33053
33053
33010
33010
33010
33118
33118
33118
33075
33075
33075
33053
33053
33053
33053
33075
33075
33075
33075
33075
33075
33162
33162
33162
32966
32966
32966
33097
33097
33097
33097
33075
33075
33075
33097
33097
33097
33010
33010
33010
32988
32988
32988
33075
33075
33075
33075
33162
33162
33162
33031
33031
33031
33097
33097
33097
33075
33075
33075
33118
33118
33118
33118
33140
33140
33140
33031
33031
33031
33118
33118
33118
33075
33075
33075
33053
33053
33053
33053
33097
33097
33097
33075
33075
33075
33053
33053
33053
33031
33031
33031
33053
33053
33053
33053
33075
33075
33075
33118
33118
33118
33053
33053
33053
33010
33010
33010
33097
33097
33097
33097
33053
33053
33053
33075
33075
33075
33075
33075
33075
33097
33097
33097
33118
33118
33118
33118
33227
33227
33227
33031
33031
33031
33075
33075
33075
33053
33053
33053
33162
33162
33162
33162
33097
33097
33097
33031
33031
33031
33097
33097
33097
33053
33053
33053
33097
33097
33097
33097
33097
33097
33097
33010
33010
33010
33118
33118
33118
33031
33031
33031
33053
33053
33053
33053
33097
33097
33097
33031
33031
33031
33031
33031
33031
33053
33053
33053
33010
33010
33010
33010
33118
33118
33118
33097
33097
33097
33118
33118
33118
33053
33053
33053
33097
33097
33097
33097
33010
33010
33010
32966
32966
32966
33140
33140
33140
32988
32988
32988
33162
33162
33162
33162
33227
33227
33227
33097
33097
33097
33053
33053
33053
33075
33075
33075
33075
33075
33075
33075
33097
33097
33097
33053
33053
33053
33140
33140
33140
33075
33075
33075
33118
33118
33118
33118
33075
33075
33075
33010
33010
33010
33075
33075
33075
33053
33053
33053
33097
33097
33097
33097
33075
33075
33075
33053
33053
33053
33075
33075
33075
33097
33097
33097
33118
33118
33118
33118
33097
33097
33097
33075
33075
33075
33097
33097
33097
33140
33140
33140
33053
33053
33053
33053
33118
33118
33118
32966
32966
32966
33118
33118
33118
33075
33075
33075
33010
33010
33010
33010
33097
33097
33097
33053
33053
33053
33031
33031
33031
33075
33075
33075
33097
33097
33097
33097
33140
33140
33140
33010
33010
33010
33097
33097
33097
33010
33010
33010
33053
33053
33053
33053
33097
33097
33097
33010
33010
33010
33118
33118
33118
33053
33053
33053
33053
33053
33053
33053
33031
33031
33031
33162
33162
33162
33053
33053
33053
33140
33140
33140
33053
33053
33053
33053
33053
33053
33053
33097
33097
33097
33010
33010
33010
33031
33031
33031
33097
33097
33097
33097
33140
33140
33140
33118
33118
33118
33140
33140
33140
33097
33097
33097
33184
33184
33184
33184
33075
33075
33075
33075
33075
33075
33097
33097
33097
33031
33031
33031
33097
33097
33097
33097
33053
33053
33053
33053
33053
33053
33097
33097
33097
33097
33097
33097
33097
33097
33097
33097
33075
33075
33075
33053
33053
33053
33097
33097
33097
33097
33097
33097
33075
33075
33075
33075
33053
33053
33053
32988
32988
32988
33053
33053
33053
33031
33031
33031
33075
33075
33075
33075
33053
33053
33053
33031
33031
33031
33140
33140
33140
33053
33053
33053
33118
33118
33118
33118
33075
33075
33075
33053
33053
33053
33031
33031
33031
33097
33097
33097
33162
33162
33162
33162
33053
33053
33053
33053
33053
33053
33140
33140
33140
33140
33140
33140
33097
33097
33097
33097
33053
33053
33053
33053
33053
33053
33053
33053
33053
33097
33097
33097
33053
33053
33053
33053
33053
33053
33053
33075
33075
33075
33118
33118
33118
33053
33053
33053
33075
33075
33075
33075
33184
33184
33184
33075
33075
33075
33075
33075
33075
33097
33097
33097
33118
33118
33118
33118
33097
33097
33097
32988
32988
32988
33075
33075
33075
33031
33031
33031
33053
33053
33053
33053
33097
33097
33097
33010
33010
33010
33031
33031
33031
33118
33118
33118
33118
33118
33118
33118
33118
33118
33118
33140
33140
33140
33031
33031
33031
32988
32988
32988
33140
33140
33140
33140
33053
33053
33053
33075
33075
33075
33118
33118
33118
33097
33097
33097
32901
32901
32901
32901
33097
33097
33097
32988
32988
32988
33010
33010
33010
33010
33010
33010
33205
33205
33205
33205
33010
33010
33010
33162
33162
33162
33140
33140
33140
33097
33097
33097
33097
33097
33097
33097
33118
33118
33118
33053
33053
33053
33097
33097
33097
33075
33075
33075
33097
33097
33097
33097
33075
33075
33075
33010
33010
33010
33075
33075
33075
33075
33075
33075
33053
33053
33053
33053
33075
33075
33075
33075
33075
33075
33140
33140
33140
33053
33053
33053
33053
33053
33053
33053
33118
33118
33118
33031
33031
33031
33118
33118
33118
33075
33075
33075
33140
33140
33140
33140
33162
33162
33162
33075
33075
33075
33097
33097
33097
33097
33097
33097
33010
33010
33010
33010
33053
33053
33053
33053
33053
33053
33031
33031
33031
33010
33010
33010
33075
33075
33075
33075
33118
33118
33118
33075
33075
33075
33053
33053
33053
32988
32988
32988
33140
33140
33140
33140
33053
33053
33053
33053
33053
33053
33097
33097
33097
33031
33031
33031
33097
33097
33097
33097
33118
33118
33118
33053
33053
33053
33118
33118
33118
33075
33075
33075
33140
33140
33140
33140
33097
33097
33097
33010
33010
33010
33140
33140
33140
33010
33010
33010
33162
33162
33162
33162
33118
33118
33118
33031
33031
33031
33140
33140
33140
33075
33075
33075
33097
33097
33097
33097
33097
33097
33097
33053
33053
33053
33097
33097
33097
33097
33097
33097
33053
33053
33053
33053
33075
33075
33075
33249
33249
33249
33118
33118
33118
33075
33075
33075
33053
33053
33053
33053
33118
33118
33118
33097
33097
33097
33097
33097
33097
33118
33118
33118
33227
33227
33227
33227
33097
33097
33097
33053
33053
33053
33031
33031
33031
32944
32944
32944
33162
33162
33162
33162
33118
33118
33118
33118
33118
33118
33205
33205
33205
33097
33097
33097
33097
33097
33097
33097
33075
33075
33075
33053
33053
33053
33075
33075
33075
33097
33097
33097
33075
33075
33075
33075
33140
33140
33140
33097
33097
33097
33075
33075
33075
33075
33075
33075
33118
33118
33118
33118
33140
33140
33140
33053
33053
33053
33097
33097
33097
33097
33097
33097
33097
33097
33097
33097
33097
33097
33097
33118
33118
33118
33118
33118
33118
33053
33053
33053
33184
33184
33184
33184
32944
32944
32944
33053
33053
33053
33010
33010
33010
33205
33205
33205
33118
33118
33118
33118
33162
33162
33162
32966
32966
32966
33140
33140
33140
33053
33053
33053
33075
33075
33075
33075
33075
33075
33075
33097
33097
33097
33097
33097
33097
33097
33097
33097
33118
33118
33118
33118
33097
33097
33097
33053
33053
33053
33097
33097
33097
33097
33097
33097
33205
33205
33205
33205
33118
33118
33118
33031
33031
33031
33075
33075
33075
33097
33097
33097
33053
33053
33053
33053
33075
33075
33075
33075
33075
33075
33227
33227
33227
33053
33053
33053
33053
33053
33053
33053
33031
33031
33031
33097
33097
33097
33010
33010
33010
33031
33031
33031
33097
33097
33097
33097
33097
33097
33097
33010
33010
33010
33053
33053
33053
33053
33053
33053
33075
33075
33075
33075
33031
33031
33031
33118
33118
33118
33075
33075
33075
33118
33118
33118
33031
33031
33031
33031
33097
33097
33097
33162
33162
33162
33097
33097
33097
33097
33097
33097
33097
33097
33097
33097
33097
33097
33097
33053
33053
33053
33010
33010
33010
33205
33205
33205
33205
33205
33205
33205
33075
33075
33075
33031
33031
33031
33053
33053
33053
32988
32988
32988
33118
33118
33118
33118
33053
33053
33053
33053
33053
33053
33097
33097
33097
33010
33010
33010
33075
33075
33075
33075
33097
33097
33097
33053
33053
33053
33097
33097
33097
33053
33053
33053
33097
33097
33097
33097
33075
33075
33075
32988
32988
32988
33097
33097
33097
33053
33053
33053
33075
33075
33075
33075
33053
33053
33053
33053
33053
33053
33140
33140
33140
33118
33118
33118
33097
33097
33097
33097
33140
33140
33140
33075
33075
33075
33031
33031
33031
32944
32944
32944
33075
33075
33075
33075
33292
33292
33292
33010
33010
33010
33053
33053
33053
33031
33031
33031
33075
33075
33075
33075
33118
33118
33118
33031
33031
33031
33075
33075
33075
33053
33053
33053
33118
33118
33118
33118
33118
33118
33118
33118
33118
33118
33031
33031
33031
33053
33053
33053
33053
33053
33053
33053
33097
33097
33097
33075
33075
33075
33097
33097
33097
33118
33118
33118
33162
33162
33162
33162
33053
33053
33053
32988
32988
32988
33031
33031
33031
32988
32988
32988
33097
33097
33097
33097
32966
32966
32966
33184
33184
33184
33097
33097
33097
33075
33075
33075
33075
33075
33075
33075
33097
33097
33097
32966
32966
32966
33053
33053
33053
33097
33097
33097
33097
33097
33097
33097
33010
33010
33010
33053
33053
33053
33118
33118
33118
33053
33053
33053
33097
33097
33097
33097
33162
33162
33162
33053
33053
33053
33053
33053
33053
33031
33031
33031
33118
33118
33118
33118
33053
33053
33053
33118
33118
33118
33075
33075
33075
33118
33118
33118
33140
33140
33140
33140
33162
33162
33162
33097
33097
33097
33140
33140
33140
33140
33140
33140
33097
33097
33097
33097
33075
33075
33075
33118
33118
33118
33118
33118
33118
33097
33097
33097
33249
33249
33249
33249
33053
33053
33053
33097
33097
33097
33118
33118
33118
33097
33097
33097
33097
33097
33097
33097
33075
33075
33075
33075
33075
33075
33031
33031
33031
33053
33053
33053
33097
33097
33097
33097
33097
33097
33097
33010
33010
33010
33140
33140
33140
33097
33097
33097
33140
33140
33140
33140
33053
33053
33053
33031
33031
33031
33184
33184
33184
33097
33097
33097
33010
33010
33010
33010
33140
33140
33140
33053
33053
33053
33031
33031
33031
33031
33031
33031
33075
33075
33075
33075
33031
33031
33031
33097
33097
33097
33075
33075
33075
33053
33053
33053
33097
33097
33097
33097
33075
33075
33075
33140
33140
33140
33031
33031
33031
33140
33140
33140
33118
33118
33118
33118
33097
33097
33097
33053
33053
33053
33118
33118
33118
33205
33205
33205
33097
33097
33097
33097
33097
33097
33097
33031
33031
33031
33227
33227
33227
33010
33010
33010
33031
33031
33031
33031
33010
33010
33010
33075
33075
33075
33140
33140
33140
32988
32988
32988
33097
33097
33097
33097
33075
33075
33075
33075
33075
33075
33097
33097
33097
33118
33118
33118
33097
33097
33097
33097
33075
33075
33075
33053
33053
33053
33053
33053
33053
33053
33053
33053
33097
33097
33097
33097
33075
33075
33075
33031
33031
33031
33075
33075
33075
33075
33075
33075
33075
33075
33075
33075
33010
33010
33010
33118
33118
33118
33075
33075
33075
32988
32988
32988
33010
33010
33010
33010
33118
33118
33118
33075
33075
33075
32988
32988
32988
33031
33031
33031
33118
33118
33118
33118
33118
33118
33118
33010
33010
33010
33140
33140
33140
33097
33097
33097
32966
32966
32966
32966
33075
33075
33075
33053
33053
33053
33075
33075
33075
33053
33053
33053
33031
33031
33031
33031
33097
33097
33097
33075
33075
33075
33053
33053
33053
33075
33075
33075
33097
33097
33097
33097
33075
33075
33075
33053
33053
33053
33097
33097
33097
33053
33053
33053
33053
33053
33053
33053
33031
33031
33031
33075
33075
33075
33118
33118
33118
33075
33075
33075
33162
33162
33162
33162
33031
33031
33031
33140
33140
33140
33010
33010
33010
33053
33053
33053
33097
33097
33097
33097
33162
33162
33162
33031
33031
33031
33053
33053
33053
33031
33031
33031
33053
33053
33053
33053
33053
33053
33053
32988
32988
32988
33031
33031
33031
33140
33140
33140
33075
33075
33075
33075
33053
33053
33053
33075
33075
33075
33053
33053
33053
33031
33031
33031
33075
33075
33075
33075
33075
33075
33075
33118
33118
33118
33053
33053
33053
33031
33031
33031
33010
33010
33010
33010
32966
32966
32966
32966
32966
32966
33053
33053
33053
33097
33097
33097
33097
33097
33097
33097
33118
33118
33118
33075
33075
33075
33140
33140
33140
33053
33053
33053
33075
33075
33075
33075
33075
33075
33075
33097
33097
33097
33075
33075
33075
33031
33031
33031
33097
33097
33097
33097
32988
32988
32988
33053
33053
33053
33140
33140
33140
33053
33053
33053
33097
33097
33097
33097
33053
33053
33053
33075
33075
33075
33075
33075
33075
33031
33031
33031
33031
33031
33031
33031
33075
33075
33075
33075
33075
33075
33205
33205
33205
33118
33118
33118
33075
33075
33075
33075
33053
33053
33053
33075
33075
33075
33010
33010
33010
33140
33140
33140
33118
33118
33118
33118
33075
33075
33075
33053
33053
33053
33075
33075
33075
33053
33053
33053
33097
33097
33097
33097
33118
33118
33118
33031
33031
33031
33140
33140
33140
33031
33031
33031
33031
33031
33031
33031
33053
33053
33053
33053
33053
33053
33097
33097
33097
33010
33010
33010
33097
33097
33097
33097
33097
33097
33097
33118
33118
33118
33097
33097
33097
33031
33031
33031
33118
33118
33118
33118
33140
33140
33140
33118
33118
33118
33118
33118
33118
33140
33140
33140
33162
33162
33162
33162
33162
33162
33162
33031
33031
33031
33097
33097
33097
33053
33053
33053
33097
33097
33097
33097
33053
33053
33053
33053
33053
33053
33097
33097
33097
33097
33097
33097
33118
33118
33118
33118
33097
33097
33097
33053
33053
33053
33075
33075
33075
33140
33140
33140
33118
33118
33118
33118
33075
33075
33075
33053
33053
33053
33118
33118
33118
33075
33075
33075
33097
33097
33097
33097
33140
33140
33140
33075
33075
33075
33053
33053
33053
33097
33097
33097
33075
33075
33075
33075
33053
33053
33053
33031
33031
33031
33118
33118
33118
33031
33031
33031
33075
33075
33075
33075
33053
33053
33053
33097
33097
33097
33075
33075
33075
33075
33075
33075
33053
33053
33053
33053
33097
33097
33097
33010
33010
33010
33075
33075
33075
33075
33075
33075
33118
33118
33118
33118
33075
33075
33075
33010
33010
33010
33031
33031
33031
33010
33010
33010
33140
33140
33140
33140
33097
33097
33097
33031
33031
33031
33097
33097
33097
32966
32966
32966
33162
33162
33162
33162
33053
33053
33053
33010
33010
33010
33010
33010
33010
33010
33010
33010
33010
33010
33010
33010
33249
33249
33249
33118
33118
33118
33075
33075
33075
33053
33053
33053
33097
33097
33097
33097
33075
33075
33075
33053
33053
33053
33118
33118
33118
33053
33053
33053
33097
33097
33097
33097
33118
33118
33118
33053
33053
33053
33118
33118
33118
33075
33075
33075
33075
33075
33075
33075
33097
33097
33097
33075
33075
33075
33097
33097
33097
33053
33053
33053
33031
33031
33031
33031
33227
33227
33227
33097
33097
33097
33075
33075
33075
33118
33118
33118
33184
33184
33184
33184
33075
33075
33075
33031
33031
33031
32988
32988
32988
33097
33097
33097
33140
33140
33140
33140
33140
33140
33140
33075
33075
33075
33205
33205
33205
33227
33227
33227
33053
33053
33053
33053
33075
33075
33075
33075
33075
33075
33140
33140
33140
33053
33053
33053
33075
33075
33075
33075
33010
33010
33010
33097
33097
33097
33053
33053
33053
33075
33075
33075
33118
33118
33118
33118
33075
33075
33075
33031
33031
33031
33097
33097
33097
33053
33053
33053
33097
33097
33097
33097
33097
33097
33097
33031
33031
33031
33118
33118
33118
33205
33205
33205
33118
33118
33118
33118
33075
33075
33075
33031
33031
33031
33031
33031
33031
33118
33118
33118
33053
33053
33053
33053
33140
33140
33140
33140
33140
33140
33140
33140
33140
33097
33097
33097
33097
33097
33097
33097
33010
33010
33010
33053
33053
33053
33097
33097
33097
33097
33097
33097
33162
33162
33162
33162
33097
33097
33097
33075
33075
33075
33075
33075
33075
33140
33140
33140
33097
33097
33097
33097
33075
33075
33075
33053
33053
33053
33118
33118
33118
33097
33097
33097
33075
33075
33075
33075
33075
33075
33075
33053
33053
33053
33184
33184
33184
33053
33053
33053
33053
33053
33053
33053
32966
32966
32966
32988
32988
32988
33162
33162
33162
33075
33075
33075
33118
33118
33118
33118
33075
33075
33075
33097
33097
33097
33053
33053
33053
33053
33053
33053
33053
33053
33053
33053
33118
33118
33118
33118
33118
33118
33097
33097
33097
33053
33053
33053
33097
33097
33097
33097
33053
33053
33053
33053
33053
33053
33053
33053
33053
33010
33010
33010
33118
33118
33118
33118
33075
33075
33075
32988
32988
32988
33118
33118
33118
33075
33075
33075
33031
33031
33031
33031
33097
33097
33097
33118
33118
33118
33162
33162
33162
33031
33031
33031
33097
33097
33097
33097
33097
33097
33097
33031
33031
33031
33162
33162
33162
33031
33031
33031
33205
33205
33205
33205
33010
33010
33010
33075
33075
33075
33053
33053
33053
33010
33010
33010
33031
33031
33031
33031
33097
33097
33097
33053
33053
33053
33097
33097
33097
33053
33053
33053
33097
33097
33097
33097
33097
33097
33097
33097
33097
33097
33118
33118
33118
33075
33075
33075
33053
33053
33053
33053
33031
33031
33031
33031
33031
33031
33205
33205
33205
33075
33075
33075
33097
33097
33097
33097
33118
33118
33118
33010
33010
33010
33075
33075
33075
33031
33031
33031
33031
33031
33031
33031
33053
33053
33053
33075
33075
33075
33184
33184
33184
33184
33184
33184
33010
33010
33010
33010
33075
33075
33075
33010
33010
33010
33140
33140
33140
33097
33097
33097
33097
33097
33097
33097
33053
33053
33053
32988
32988
32988
33118
33118
33118
32966
32966
32966
33097
33097
33097
33097
33118
33118
33118
33031
33031
33031
33097
33097
33097
33140
33140
33140
33053
33053
33053
33053
33097
33097
33097
33053
33053
33053
33140
33140
33140
33031
33031
33031
33031
33031
33031
33031
33075
33075
33075
33075
33075
33075
33097
33097
33097
33053
33053
33053
33162
33162
33162
33162
33097
33097
33097
33118
33118
33118
33118
33118
33118
33031
33031
33031
33010
33010
33010
33010
33097
33097
33097
33075
33075
33075
33184
33184
33184
32966
32966
32966
33140
33140
33140
33140
33097
33097
33097
33075
33075
33075
33097
33097
33097
33097
33097
33097
33097
33097
33097
33097
33075
33075
33075
33010
33010
33010
33053
33053
33053
33053
33053
33053
33053
33053
33053
33053
33031
33031
33031
33010
33010
33010
33075
33075
33075
33053
33053
33053
33031
33031
33031
33031
33097
33097
33097
32988
32988
32988
33075
33075
33075
33053
33053
33053
33075
33075
33075
33075
33053
33053
33053
33053
33053
33053
33031
33031
33031
33097
33097
33097
32966
32966
32966
32966
33053
33053
33053
33053
33053
33053
33184
33184
33184
32988
32988
32988
33075
33075
33075
33075
33010
33010
33010
33097
33097
33097
33118
33118
33118
33010
33010
33010
33118
33118
33118
33118
33118
33118
33118
33031
33031
33031
33075
33075
33075
33053
33053
33053
33075
33075
33075
33075
33118
33118
33118
33053
33053
33053
33140
33140
33140
33097
33097
33097
33097
33097
33097
33097
33053
33053
33053
33031
33031
33031
33053
33053
33053
33075
33075
33075
33031
33031
33031
33031
33118
33118
33118
33053
33053
33053
33097
33097
33097
33097
33097
33097
33010
33010
33010
33010
33075
33075
33075
33075
33075
33075
33118
33118
33118
33053
33053
33053
33162
33162
33162
33162
33097
33097
33097
33010
33010
33010
33205
33205
33205
33118
33118
33118
33010
33010
33010
33010
33118
33118
33118
33140
33140
33140
33053
33053
33053
32988
32988
32988
33118
33118
33118
33118
33118
33118
33118
33053
33053
33053
33075
33075
33075
33053
33053
33053
33097
33097
33097
33097
33097
33097
33097
33053
33053
33053
33031
33031
33031
33075
33075
33075
33097
33097
33097
33097
33118
33118
33118
33075
33075
33075
33075
33075
33075
33031
33031
33031
33140
33140
33140
33140
33097
33097
33097
33031
33031
33031
33010
33010
33010
33097
33097
33097
33162
33162
33162
33162
33118
33118
33118
33118
33118
33118
33010
33010
33010
33075
33075
33075
33097
33097
33097
33097
33205
33205
33205
33118
33118
33118
33075
33075
33075
33097
33097
33097
33118
33118
33118
33118
33075
33075
33075
33118
33118
33118
33097
33097
33097
33031
33031
33031
33053
33053
33053
33053
33205
33205
33205
33010
33010
33010
33075
33075
33075
33010
33010
33010
33097
33097
33097
33097
33031
33031
33031
33053
33053
33053
33075
33075
33075
33053
33053
33053
33075
33075
33075
33075
33097
33097
33097
33075
33075
33075
33097
33097
33097
32988
32988
32988
33097
33097
33097
33097
33053
33053
33053
33140
33140
33140
33075
33075
33075
33010
33010
33010
32901
32901
32901
32901
33118
33118
33118
33118
33118
33118
33031
33031
33031
33075
33075
33075
33031
33031
33031
33031
33097
33097
33097
33053
33053
33053
33075
33075
33075
33031
33031
33031
33075
33075
33075
33075
33075
33075
33075
33031
33031
33031
33097
33097
33097
33097
33097
33097
33075
33075
33075
33075
32988
32988
32988
33075
33075
33075
33097
33097
33097
33010
33010
33010
33118
33118
33118
33118
33118
33118
33118
33031
33031
33031
33205
33205
33205
33010
33010
33010
33053
33053
33053
33053
33010
33010
33010
33053
33053
33053
33097
33097
33097
33184
33184
33184
33010
33010
33010
33010
33053
33053
33053
32923
32923
32923
33075
33075
33075
32966
32966
32966
33075
33075
33075
33075
33031
33031
33031
33053
33053
33053
33075
33075
33075
32988
32988
32988
33097
33097
33097
33097
33053
33053
33053
33053
33053
33053
33097
33097
33097
33053
33053
33053
33118
33118
33118
33118
33075
33075
33075
33053
33053
33053
33118
33118
33118
33031
33031
33031
33097
33097
33097
33097
33140
33140
33140
33097
33097
33097
33097
33097
33097
33075
33075
33075
33140
33140
33140
33140
33118
33118
33118
33053
33053
33053
33031
33031
33031
32988
32988
32988
32966
32966
32966
32966
33205
33205
33205
33031
33031
33031
33118
33118
33118
32988
32988
32988
33031
33031
33031
33031
33075
33075
33075
33053
33053
33053
33097
33097
33097
33053
33053
33053
33097
33097
33097
33097
33097
33097
33097
33162
33162
33162
33097
33097
33097
33010
33010
33010
33140
33140
33140
33140
33075
33075
33075
33010
33010
33010
33031
33031
33031
33031
33031
33031
33031
33031
33031
33031
33097
33097
33097
33010
33010
33010
33075
33075
33075
32988
32988
32988
33097
33097
33097
33097
33140
33140
33140
33010
33010
33010
33010
33010
33010
33010
33010
33010
33097
33097
33097
33097
33205
33205
33205
33097
33097
33097
33010
33010
33010
