2096
2096
2096
2096
2096
2096
2096
2092
2092
2092
2098
2098
2098
2098
2098
2098
2097
2097
2097
2097
2098
2098
2098
2104
2104
2104
2098
2098
2098
2099
2099
2099
2097
2097
2097
2097
2094
2094
2094
2099
2099
2099
2096
2096
2096
2101
2101
2101
2100
2100
2100
2100
2097
2097
2097
2099
2099
2099
2100
2100
2100
2094
2094
2094
2101
2101
2101
2101
2098
2098
2098
2103
2103
2103
2093
2093
2093
2101
2101
2101
2097
2097
2097
2097
2106
2106
2106
2095
2095
2095
2099
2099
2099
2101
2101
2101
2097
2097
2097
2097
2098
2098
2098
2098
2098
2098
2094
2094
2094
2098
2098
2098
2101
2101
2101
2101
2095
2095
2095
2099
2099
2099
2098
2098
2098
2099
2099
2099
2097
2097
2097
2097
2093
2093
2093
2101
2101
2101
2097
2097
2097
2101
2101
2101
2098
2098
2098
2098
2097
2097
2097
2097
2097
2097
2102
2102
2102
2098
2098
2098
2100
2100
2100
2100
2096
2096
2096
2097
2097
2097
2097
2097
2097
2102
2102
2102
2096
2096
2096
2096
2092
2092
2092
2098
2098
2098
2099
2099
2099
2098
2098
2098
2095
2095
2095
2095
2097
2097
2097
2095
2095
2095
2099
2099
2099
2097
2097
2097
2098
2098
2098
2098
2098
2098
2098
2094
2094
2094
2099
2099
2099
2094
2094
2094
2096
2096
2096
2096
2104
2104
2104
2096
2096
2096
2095
2095
2095
2099
2099
2099
2096
2096
2096
2096
2098
2098
2098
2101
2101
2101
2098
2098
2098
2098
2098
2098
2098
2098
2098
2098
2098
2098
2098
2099
2099
2099
2096
2096
2096
2096
2096
2096
2096
2096
2096
2096
2095
2095
2095
2096
2096
2096
2101
2101
2101
2101
2101
2101
2094
2094
2094
2094
2097
2097
2097
2098
2098
2098
2092
2092
2092
2097
2097
2097
2093
2093
2093
2093
2096
2096
2096
2097
2097
2097
2094
2094
2094
2100
2100
2100
2099
2099
2099
2099
2100
2100
2100
2099
2099
2099
2095
2095
2095
2098
2098
2098
2094
2094
2094
2094
2096
2096
2096
2098
2098
2098
2096
2096
2096
2100
2100
2100
2099
2099
2099
2099
2096
2096
2096
2095
2095
2095
2105
2105
2105
2100
2100
2100
2097
2097
2097
2097
2100
2100
2100
2098
2098
2098
2096
2096
2096
2098
2098
2098
2092
2092
2092
2092
2097
2097
2097
2100
2100
2100
2096
2096
2096
2100
2100
2100
2096
2096
2096
2096
2090
2090
2090
2097
2097
2097
2096
2096
2096
2098
2098
2098
2096
2096
2096
2096
2099
2099
2099
2100
2100
2100
2095
2095
2095
2100
2100
2100
2100
2100
2100
2100
2095
2095
2095
2098
2098
2098
2094
2094
2094
2098
2098
2098
2098
2098
2098
2098
2100
2100
2100
2097
2097
2097
2099
2099
2099
2096
2096
2096
2098
2098
2098
2098
2102
2102
2102
2097
2097
2097
2090
2090
2090
2099
2099
2099
2099
2099
2099
2099
2099
2099
2099
2095
2095
2095
2097
2097
2097
2096
2096
2096
2096
2096
2096
2096
2093
2093
2093
2099
2099
2099
2101
2101
2101
2099
2099
2099
2096
2096
2096
2096
2100
2100
2100
2101
2101
2101
2094
2094
2094
2096
2096
2096
2101
2101
2101
2101
2096
2096
2096
2099
2099
2099
2097
2097
2097
2096
2096
2096
2095
2095
2095
2095
2092
2092
2092
2098
2098
2098
2099
2099
2099
2096
2096
2096
2096
2096
2096
2096
2096
2096
2096
2099
2099
2099
2094
2094
2094
2099
2099
2099
2098
2098
2098
2098
2087
2087
2087
2090
2090
2090
2098
2098
2098
2100
2100
2100
2097
2097
2097
2097
2097
2097
2097
2099
2099
2099
2097
2097
2097
2101
2101
2101
2098
2098
2098
2098
2098
2098
2098
2100
2100
2100
2098
2098
2098
2099
2099
2099
2097
2097
2097
2097
2100
2100
2100
2099
2099
2099
2097
2097
2097
2099
2099
2099
2093
2093
2093
2093
2094
2094
2094
2095
2095
2095
2097
2097
2097
2097
2097
2097
2095
2095
2095
2095
2097
2097
2097
2096
2096
2096
2095
2095
2095
2101
2101
2101
2095
2095
2095
2095
2097
2097
2097
2096
2096
2096
2097
2097
2097
2101
2101
2101
2096
2096
2096
2096
2097
2097
2097
2099
2099
2099
2101
2101
2101
2099
2099
2099
2096
2096
2096
2096
2095
2095
2095
2094
2094
2094
2097
2097
2097
2097
2097
2097
2093
2093
2093
2093
2094
2094
2094
2098
2098
2098
2099
2099
2099
2095
2095
2095
2096
2096
2096
2096
2099
2099
2099
2099
2099
2099
2099
2099
2099
2097
2097
2097
2097
2097
2097
2097
2096
2096
2096
2100
2100
2100
2097
2097
2097
2099
2099
2099
2096
2096
2096
2096
2095
2095
2095
2100
2100
2100
2096
2096
2096
2092
2092
2092
2097
2097
2097
2097
2101
2101
2101
2095
2095
2095
2101
2101
2101
2098
2098
2098
2099
2099
2099
2099
2097
2097
2097
2100
2100
2100
2098
2098
2098
2098
2098
2098
2098
2098
2098
2098
2094
2094
2094
2098
2098
2098
2090
2090
2090
2097
2097
2097
2099
2099
2099
2099
2097
2097
2097
2097
2097
2097
2099
2099
2099
2099
2099
2099
2100
2100
2100
2100
2096
2096
2096
2095
2095
2095
2095
2095
2095
2092
2092
2092
2096
2096
2096
2096
2089
2089
2089
2096
2096
2096
2099
2099
2099
2100
2100
2100
2099
2099
2099
2099
2096
2096
2096
2101
2101
2101
2098
2098
2098
2098
2098
2098
2100
2100
2100
2100
2097
2097
2097
2100
2100
2100
2096
2096
2096
2098
2098
2098
2096
2096
2096
2096
2091
2091
2091
2098
2098
2098
2100
2100
2100
2096
2096
2096
2100
2100
2100
2100
2097
2097
2097
2098
2098
2098
2095
2095
2095
2095
2095
2095
2099
2099
2099
2099
2093
2093
2093
2097
2097
2097
2096
2096
2096
2100
2100
2100
2098
2098
2098
2098
2097
2097
2097
2097
2097
2097
2098
2098
2098
2097
2097
2097
2099
2099
2099
2099
2098
2098
2098
2102
2102
2102
2095
2095
2095
2097
2097
2097
2101
2101
2101
2101
2110
2110
2110
2096
2096
2096
2101
2101
2101
2098
2098
2098
2097
2097
2097
2097
2094
2094
2094
2095
2095
2095
2097
2097
2097
2097
2097
2097
2094
2094
2094
2094
2098
2098
2098
2103
2103
2103
2097
2097
2097
2101
2101
2101
2097
2097
2097
2097
2092
2092
2092
2098
2098
2098
2098
2098
2098
2102
2102
2102
2100
2100
2100
2100
2100
2100
2100
2098
2098
2098
2097
2097
2097
2097
2097
2097
2096
2096
2096
2096
2098
2098
2098
2097
2097
2097
2097
2097
2097
2095
2095
2095
2095
2095
2095
2095
2103
2103
2103
2098
2098
2098
2093
2093
2093
2099
2099
2099
2095
2095
2095
2095
2097
2097
2097
2098
2098
2098
2097
2097
2097
2099
2099
2099
2088
2088
2088
2088
2095
2095
2095
2100
2100
2100
2099
2099
2099
2100
2100
2100
2097
2097
2097
2097
2098
2098
2098
2103
2103
2103
2101
2101
2101
2100
2100
2100
2093
2093
2093
2093
2099
2099
2099
2095
2095
2095
2097
2097
2097
2099
2099
2099
2099
2099
2099
2099
2094
2094
2094
2101
2101
2101
2098
2098
2098
2099
2099
2099
2096
2096
2096
2096
2094
2094
2094
2097
2097
2097
2093
2093
2093
2099
2099
2099
2101
2101
2101
2101
2096
2096
2096
2096
2096
2096
2095
2095
2095
2099
2099
2099
2096
2096
2096
2096
2108
2108
2108
2095
2095
2095
2097
2097
2097
2100
2100
2100
2097
2097
2097
2097
2098
2098
2098
2100
2100
2100
2100
2100
2100
2098
2098
2098
2095
2095
2095
2095
2098
2098
2098
2098
2098
2098
2096
2096
2096
2098
2098
2098
2102
2102
2102
2102
2102
2102
2102
2096
2096
2096
2098
2098
2098
2101
2101
2101
2096
2096
2096
2096
2098
2098
2098
2096
2096
2096
2096
2096
2096
2100
2100
2100
2098
2098
2098
2098
2100
2100
2100
2104
2104
2104
2099
2099
2099
2103
2103
2103
2097
2097
2097
2097
2095
2095
2095
2097
2097
2097
2096
2096
2096
2097
2097
2097
2099
2099
2099
2099
2096
2096
2096
2098
2098
2098
2098
2098
2098
2098
2098
2098
2091
2091
2091
2091
2097
2097
2097
2098
2098
2098
2101
2101
2101
2102
2102
2102
2097
2097
2097
2097
2091
2091
2091
2101
2101
2101
2100
2100
2100
2099
2099
2099
2099
2099
2099
2099
2100
2100
2100
2098
2098
2098
2095
2095
2095
2099
2099
2099
2101
2101
2101
2101
2097
2097
2097
2099
2099
2099
2100
2100
2100
2092
2092
2092
2096
2096
2096
2096
2099
2099
2099
2099
2099
2099
2093
2093
2093
2094
2094
2094
2096
2096
2096
2096
2095
2095
2095
2100
2100
2100
2094
2094
2094
2099
2099
2099
2101
2101
2101
2101
2096
2096
2096
2097
2097
2097
2095
2095
2095
2096
2096
2096
2096
2096
2096
2096
2100
2100
2100
2096
2096
2096
2102
2102
2102
2099
2099
2099
2097
2097
2097
2097
2095
2095
2095
2100
2100
2100
2095
2095
2095
2096
2096
2096
2095
2095
2095
2095
2096
2096
2096
2100
2100
2100
2099
2099
2099
2100
2100
2100
2097
2097
2097
2097
2103
2103
2103
2098
2098
2098
2102
2102
2102
2096
2096
2096
2098
2098
2098
2098
2097
2097
2097
2094
2094
2094
2098
2098
2098
2096
2096
2096
2102
2102
2102
2102
2097
2097
2097
2099
2099
2099
2097
2097
2097
2100
2100
2100
2096
2096
2096
2096
2093
2093
2093
2099
2099
2099
2096
2096
2096
2105
2105
2105
2103
2103
2103
2103
2096
2096
2096
2100
2100
2100
2095
2095
2095
2105
2105
2105
2099
2099
2099
2099
2099
2099
2099
2102
2102
2102
2097
2097
2097
2098
2098
2098
2095
2095
2095
2095
2096
2096
2096
2098
2098
2098
2094
2094
2094
2099
2099
2099
2093
2093
2093
2093
2097
2097
2097
2096
2096
2096
2099
2099
2099
2102
2102
2102
2095
2095
2095
2095
2097
2097
2097
2096
2096
2096
2093
2093
2093
2096
2096
2096
2098
2098
2098
2098
2100
2100
2100
2096
2096
2096
2099
2099
2099
2099
2099
2099
2093
2093
2093
2093
2095
2095
2095
2102
2102
2102
2097
2097
2097
2100
2100
2100
2100
2100
2100
2100
2100
2100
2100
2099
2099
2099
2097
2097
2097
2098
2098
2098
2096
2096
2096
2096
2093
2093
2093
2097
2097
2097
2100
2100
2100
2095
2095
2095
2096
2096
2096
2096
2097
2097
2097
2101
2101
2101
2103
2103
2103
2095
2095
2095
2096
2096
2096
2096
2091
2091
2091
2094
2094
2094
2096
2096
2096
2093
2093
2093
2096
2096
2096
2096
2098
2098
2098
2101
2101
2101
2094
2094
2094
2099
2099
2099
2098
2098
2098
2098
2097
2097
2097
2096
2096
2096
2098
2098
2098
2099
2099
2099
2098
2098
2098
2098
2093
2093
2093
2101
2101
2101
2095
2095
2095
2097
2097
2097
2097
2097
2097
2097
2097
2097
2097
2099
2099
2099
2094
2094
2094
2099
2099
2099
2100
2100
2100
2100
2096
2096
2096
2096
2096
2096
2097
2097
2097
2093
2093
2093
2096
2096
2096
2096
2100
2100
2100
2098
2098
2098
2097
2097
2097
2098
2098
2098
2097
2097
2097
2097
2097
2097
2097
2099
2099
2099
2098
2098
2098
2104
2104
2104
2100
2100
2100
2100
2096
2096
2096
2100
2100
2100
2098
2098
2098
2100
2100
2100
2097
2097
2097
2097
2094
2094
2094
2099
2099
2099
2099
2099
2099
2097
2097
2097
2096
2096
2096
2096
2096
2096
2096
2097
2097
2097
2099
2099
2099
2097
2097
2097
2097
2097
2097
2097
2097
2097
2097
2100
2100
2100
2097
2097
2097
2105
2105
2105
2093
2093
2093
2093
2092
2092
2092
2099
2099
2099
2091
2091
2091
2096
2096
2096
2096
2096
2096
2096
2099
2099
2099
2095
2095
2095
2099
2099
2099
2097
2097
2097
2099
2099
2099
2099
2094
2094
2094
2090
2090
2090
2099
2099
2099
2095
2095
2095
2099
2099
2099
2099
2092
2092
2092
2100
2100
2100
2099
2099
2099
2099
2099
2099
2096
2096
2096
2096
2097
2097
2097
2097
2097
2097
2098
2098
2098
2094
2094
2094
2100
2100
2100
2100
2094
2094
2094
2097
2097
2097
2096
2096
2096
2096
2096
2096
2097
2097
2097
2097
2101
2101
2101
2099
2099
2099
2101
2101
2101
2097
2097
2097
2097
2097
2097
2097
2097
2097
2097
2099
2099
2099
2100
2100
2100
2095
2095
2095
2099
2099
2099
2099
2096
2096
2096
2098
2098
2098
2097
2097
2097
2097
2097
2097
2094
2094
2094
2094
2102
2102
2102
2110
2110
2110
2095
2095
2095
2097
2097
2097
2097
2097
2097
2097
2098
2098
2098
2100
2100
2100
2095
2095
2095
2097
2097
2097
2095
2095
2095
2095
2095
2095
2095
2100
2100
2100
2097
2097
2097
2097
2097
2097
2098
2098
2098
2098
2096
2096
2096
2097
2097
2097
2100
2100
2100
2100
2100
2100
2095
2095
2095
2095
2095
2095
2095
2097
2097
2097
2096
2096
2096
2097
2097
2097
2090
2090
2090
2090
2099
2099
2099
2099
2099
2099
2097
2097
2097
2094
2094
2094
2098
2098
2098
2098
2098
2098
2098
2095
2095
2095
2093
2093
2093
2097
2097
2097
2096
2096
2096
2096
2097
2097
2097
2101
2101
2101
2097
2097
2097
2099
2099
2099
2090
2090
2090
2090
2096
2096
2096
2098
2098
2098
2097
2097
2097
2105
2105
2105
2097
2097
2097
2097
2093
2093
2093
2103
2103
2103
2091
2091
2091
2097
2097
2097
2100
2100
2100
2100
2096
2096
2096
2097
2097
2097
2097
2097
2097
2097
2097
2097
2095
2095
2095
2095
2100
2100
2100
2097
2097
2097
2096
2096
2096
2101
2101
2101
2099
2099
2099
2099
2097
2097
2097
2096
2096
2096
2092
2092
2092
2097
2097
2097
2093
2093
2093
2093
2096
2096
2096
2091
2091
2091
2104
2104
2104
2101
2101
2101
2097
2097
2097
2097
2098
2098
2098
2102
2102
2102
2097
2097
2097
2096
2096
2096
2099
2099
2099
2099
2101
2101
2101
2098
2098
2098
2094
2094
2094
2098
2098
2098
2096
2096
2096
2096
2098
2098
2098
2101
2101
2101
2097
2097
2097
2103
2103
2103
2095
2095
2095
2095
2091
2091
2091
2099
2099
2099
2100
2100
2100
2100
2100
2100
2098
2098
2098
2098
2093
2093
2093
2097
2097
2097
2100
2100
2100
2099
2099
2099
2101
2101
2101
2101
2096
2096
2096
2094
2094
2094
2095
2095
2095
2099
2099
2099
2098
2098
2098
2098
2097
2097
2097
2100
2100
2100
2096
2096
2096
2102
2102
2102
2095
2095
2095
2095
2096
2096
2096
2097
2097
2097
2094
2094
2094
2097
2097
2097
2095
2095
2095
2095
2096
2096
2096
2098
2098
2098
2098
2098
2098
2102
2102
2102
2094
2094
2094
2094
2094
2094
2094
2097
2097
2097
2097
2097
2097
2097
2097
2097
2099
2099
2099
2099
2097
2097
2097
2097
2097
2097
2101
2101
2101
2099
2099
2099
2091
2091
2091
2091
2097
2097
2097
2098
2098
2098
2092
2092
2092
2096
2096
2096
2095
2095
2095
2095
2094
2094
2094
2098
2098
2098
2091
2091
2091
2097
2097
2097
2098
2098
2098
2098
2095
2095
2095
2100
2100
2100
2096
2096
2096
2099
2099
2099
2097
2097
2097
2097
2097
2097
2097
2097
2097
2097
2096
2096
2096
2098
2098
2098
2096
2096
2096
2096
2096
2096
2096
2096
2096
2096
2094
2094
2094
2099
2099
2099
2098
2098
2098
2098
2096
2096
2096
2105
2105
2105
2096
2096
2096
2099
2099
2099
2097
2097
2097
2097
2100
2100
2100
2096
2096
2096
2097
2097
2097
2098
2098
2098
2098
2098
2098
2098
2092
2092
2092
2098
2098
2098
2097
2097
2097
2097
2097
2097
2094
2094
2094
2094
2097
2097
2097
2100
2100
2100
2099
2099
2099
2096
2096
2096
2098
2098
2098
2098
2098
2098
2098
2105
2105
2105
2095
2095
2095
2082
2082
2082
2098
2098
2098
2098
2095
2095
2095
2100
2100
2100
2094
2094
2094
2101
2101
2101
2099
2099
2099
2099
2098
2098
2098
2102
2102
2102
2096
2096
2096
2098
2098
2098
2097
2097
2097
2097
2096
2096
2096
2097
2097
2097
2100
2100
2100
2102
2102
2102
2103
2103
2103
2103
2098
2098
2098
2097
2097
2097
2097
2097
2097
2098
2098
2098
2091
2091
2091
2091
2094
2094
2094
2098
2098
2098
2097
2097
2097
2098
2098
2098
2098
2098
2098
2098
2091
2091
2091
2099
2099
2099
2095
2095
2095
2100
2100
2100
2097
2097
2097
2097
2099
2099
2099
2099
2099
2099
2102
2102
2102
2108
2108
2108
2103
2103
2103
2103
2097
2097
2097
2100
2100
2100
2100
2100
2100
2099
2099
2099
2097
2097
2097
2097
2099
2099
2099
2098
2098
2098
2097
2097
2097
2101
2101
2101
2097
2097
2097
2097
2099
2099
2099
2098
2098
2098
2097
2097
2097
2099
2099
2099
2094
2094
2094
2094
2097
2097
2097
2105
2105
2105
2096
2096
2096
2097
2097
2097
2094
2094
2094
2094
2094
2094
2094
2098
2098
2098
2106
2106
2106
2102
2102
2102
2098
2098
2098
2098
2098
2098
2098
2092
2092
2092
2096
2096
2096
2099
2099
2099
2100
2100
2100
2100
2099
2099
2099
2094
2094
2094
2097
2097
2097
2098
2098
2098
2092
2092
2092
2092
2094
2094
2094
2098
2098
2098
2094
2094
2094
2096
2096
2096
2099
2099
2099
2099
2096
2096
2096
2098
2098
2098
2095
2095
2095
2098
2098
2098
2101
2101
2101
2101
2094
2094
2094
2100
2100
2100
2098
2098
2098
2104
2104
2104
2096
2096
2096
2096
2094
2094
2094
2101
2101
2101
2097
2097
2097
2096
2096
2096
2097
2097
2097
2097
2094
2094
2094
2100
2100
2100
2098
2098
2098
2101
2101
2101
2098
2098
2098
2098
2096
2096
2096
2096
2096
2096
2097
2097
2097
2097
2097
2097
2096
2096
2096
2096
2102
2102
2102
2098
2098
2098
2095
2095
2095
2100
2100
2100
2093
2093
2093
2093
2092
2092
2092
2099
2099
2099
2097
2097
2097
2099
2099
2099
2094
2094
2094
2094
2099
2099
2099
2100
2100
2100
2096
2096
2096
2096
2096
2096
2099
2099
2099
2099
2094
2094
2094
2098
2098
2098
2096
2096
2096
2096
2096
2096
2097
2097
2097
2097
2097
2097
2097
2098
2098
2098
2096
2096
2096
2097
2097
2097
2096
2096
2096
2096
2092
2092
2092
2100
2100
2100
2095
2095
2095
2099
2099
2099
2097
2097
2097
2097
2107
2107
2107
2099
2099
2099
2093
2093
2093
2099
2099
2099
2095
2095
2095
2095
2096
2096
2096
2098
2098
2098
2098
2098
2098
2098
2098
2098
2100
2100
2100
2100
2094
2094
2094
2099
2099
2099
2099
2099
2099
2101
2101
2101
2099
2099
2099
2099
2094
2094
2094
2096
2096
2096
2103
2103
2103
2098
2098
2098
2100
2100
2100
2100
2098
2098
2098
2098
2098
2098
2097
2097
2097
2101
2101
2101
2093
2093
2093
2093
2097
2097
2097
2100
2100
2100
2094
2094
2094
2104
2104
2104
2098
2098
2098
2098
2098
2098
2098
2097
2097
2097
2095
2095
2095
2099
2099
2099
2092
2092
2092
2092
2096
2096
2096
2100
2100
2100
2097
2097
2097
2098
2098
2098
2098
2098
2098
2098
2099
2099
2099
2098
2098
2098
2098
2098
2098
2096
2096
2096
2096
2096
2096
2096
2096
2096
2096
2096
2096
2096
2096
2096
2096
2097
2097
2097
2097
2097
2097
2097
2094
2094
2094
2097
2097
2097
2094
2094
2094
2097
2097
2097
2098
2098
2098
2098
2105
2105
2105
2100
2100
2100
2098
2098
2098
2099
2099
2099
2098
2098
2098
2098
2099
2099
2099
2101
2101
2101
2098
2098
2098
2098
2098
2098
2090
2090
2090
2090
2095
2095
2095
2103
2103
2103
2094
2094
2094
2102
2102
2102
2099
2099
2099
2099
2099
2099
2099
2103
2103
2103
2093
2093
2093
2099
2099
2099
2097
2097
2097
2097
2095
2095
2095
2098
2098
2098
2096
2096
2096
2099
2099
2099
2095
2095
2095
2095
2097
2097
2097
2097
2097
2097
2096
2096
2096
2101
2101
2101
2098
2098
2098
2098
2093
2093
2093
2099
2099
2099
2099
2099
2099
2105
2105
2105
2103
2103
2103
2103
2095
2095
2095
2099
2099
2099
2095
2095
2095
2099
2099
2099
2098
2098
2098
2098
2094
2094
2094
2093
2093
2093
2099
2099
2099
2100
2100
2100
2099
2099
2099
2099
2094
2094
2094
2097
2097
2097
2097
2097
2097
2098
2098
2098
2100
2100
2100
2100
2097
2097
2097
2095
2095
2095
2099
2099
2099
2101
2101
2101
2097
2097
2097
2097
2098
2098
2098
2099
2099
2099
2097
2097
2097
2098
2098
2098
2097
2097
2097
2097
2096
2096
2096
2097
2097
2097
2089
2089
2089
2098
2098
2098
2099
2099
2099
2099
2098
2098
2098
2097
2097
2097
2097
2097
2097
2099
2099
2099
2094
2094
2094
2094
2099
2099
2099
2099
2099
2099
2097
2097
2097
2093
2093
2093
2095
2095
2095
2095
2097
2097
2097
2099
2099
2099
2091
2091
2091
2096
2096
2096
2095
2095
2095
2095
2098
2098
2098
2102
2102
2102
2099
2099
2099
2100
2100
2100
2098
2098
2098
2098
2095
2095
2095
2098
2098
2098
2096
2096
2096
2096
2096
2096
2098
2098
2098
2098
2099
2099
2099
2099
2099
2099
2088
2088
2088
2094
2094
2094
2098
2098
2098
2098
2096
2096
2096
2091
2091
2091
2097
2097
2097
2102
2102
2102
2096
2096
2096
2096
2107
2107
2107
2096
2096
2096
2102
2102
2102
2097
2097
2097
2099
2099
2099
2099
2097
2097
2097
2098
2098
2098
2100
2100
2100
2097
2097
2097
2095
2095
2095
2095
2098
2098
2098
2101
2101
2101
2097
2097
2097
2097
2097
2097
2096
2096
2096
2096
2099
2099
2099
2099
2099
2099
2105
2105
2105
2100
2100
2100
2098
2098
2098
2098
2097
2097
2097
2095
2095
2095
2098
2098
2098
2101
2101
2101
2098
2098
2098
2098
2098
2098
2098
2094
2094
2094
2098
2098
2098
2093
2093
2093
2099
2099
2099
2099
2099
2099
2099
2100
2100
2100
2093
2093
2093
2096
2096
2096
2098
2098
2098
2098
2095
2095
2095
2102
2102
2102
2091
2091
2091
2097
2097
2097
2101
2101
2101
2101
2095
2095
2095
2103
2103
2103
2097
2097
2097
2095
2095
2095
2098
2098
2098
2098
2097
2097
2097
2098
2098
2098
2099
2099
2099
2098
2098
2098
2097
2097
2097
2097
2096
2096
2096
2098
2098
2098
2097
2097
2097
2098
2098
2098
2096
2096
2096
2096
2096
2096
2096
2102
2102
2102
2093
2093
2093
2095
2095
2095
2097
2097
2097
2097
2099
2099
2099
2103
2103
2103
2095
2095
2095
2097
2097
2097
2100
2100
2100
2100
2096
2096
2096
2101
2101
2101
2095
2095
2095
2097
2097
2097
2096
2096
2096
2096
2098
2098
2098
2099
2099
2099
2098
2098
2098
2094
2094
2094
2100
2100
2100
2100
2101
2101
2101
2094
2094
2094
2094
2094
2094
2098
2098
2098
2097
2097
2097
2097
2093
2093
2093
2096
2096
2096
2099
2099
2099
2103
2103
2103
2095
2095
2095
2095
2096
2096
2096
2100
2100
2100
2099
2099
2099
2095
2095
2095
2098
2098
2098
2098
2097
2097
2097
2097
2097
2097
2102
2102
2102
2100
2100
2100
2103
2103
2103
2103
2095
2095
2095
2102
2102
2102
2094
2094
2094
2105
2105
2105
2098
2098
2098
2098
2097
2097
2097
2093
2093
2093
2097
2097
2097
2101
2101
2101
2096
2096
2096
2096
2096
2096
2096
2100
2100
2100
2100
2100
2100
2099
2099
2099
2096
2096
2096
2096
2096
2096
2096
2104
2104
2104
2098
2098
2098
2102
2102
2102
2096
2096
2096
2096
2099
2099
2099
2099
2099
2099
2092
2092
2092
2099
2099
2099
2097
2097
2097
2097
2096
2096
2096
2097
2097
2097
2097
2097
2097
2100
2100
2100
2097
2097
2097
2097
2096
2096
2096
2103
2103
2103
2097
2097
2097
2101
2101
2101
2097
2097
2097
2097
2098
2098
2098
2098
2098
2098
2099
2099
2099
2098
2098
2098
2102
2102
2102
2102
2099
2099
2099
2098
2098
2098
2095
2095
2095
2097
2097
2097
2092
2092
2092
2092
2100
2100
2100
2099
2099
2099
2096
2096
2096
2098
2098
2098
2097
2097
2097
2097
2096
2096
2096
2098
2098
2098
2103
2103
2103
2097
2097
2097
2097
2097
2097
2097
2099
2099
2099
2094
2094
2094
2098
2098
2098
2094
2094
2094
2101
2101
2101
2101
2098
2098
2098
2093
2093
2093
2101
2101
2101
2099
2099
2099
2100
2100
2100
2100
2093
2093
2093
2101
2101
2101
2095
2095
2095
2098
2098
2098
2098
2098
2098
2098
2098
2098
2098
2096
2096
2096
2099
2099
2099
2098
2098
2098
2102
2102
2102
2102
2095
2095
2095
2098
2098
2098
2098
2098
2098
2098
2098
2098
2096
2096
2096
2096
2094
2094
2094
2098
2098
2098
2093
2093
2093
2095
2095
2095
2094
2094
2094
2094
2095
2095
2095
2106
2106
2106
2099
2099
2099
2100
2100
2100
2099
2099
2099
2099
2095
2095
2095
2100
2100
2100
2097
2097
2097
2093
2093
2093
2097
2097
2097
2097
2102
2102
2102
2097
2097
2097
2102
2102
2102
2096
2096
2096
2093
2093
2093
2093
2097
2097
2097
2090
2090
2090
2097
2097
2097
2100
2100
2100
2095
2095
2095
2095
2098
2098
2098
2099
2099
2099
2098
2098
2098
2098
2098
2098
2096
2096
2096
2096
2096
2096
2096
2098
2098
2098
2098
2098
2098
2097
2097
2097
2102
2102
2102
2102
2098
2098
2098
2097
2097
2097
2095
2095
2095
2100
2100
2100
2099
2099
2099
2099
2093
2093
2093
2099
2099
2099
2094
2094
2094
2096
2096
2096
2097
2097
2097
2097
2095
2095
2095
2099
2099
2099
2096
2096
2096
2099
2099
2099
2101
2101
2101
2101
2096
2096
2096
2097
2097
2097
2098
2098
2098
2093
2093
2093
2102
2102
2102
2102
2094
2094
2094
2097
2097
2097
2097
2097
2097
2104
2104
2104
2097
2097
2097
2097
2097
2097
2097
2100
2100
2100
2091
2091
2091
2097
2097
2097
2096
2096
2096
2096
2100
2100
2100
2097
2097
2097
2098
2098
2098
2101
2101
2101
2097
2097
2097
2097
2101
2101
2101
2099
2099
2099
2099
2099
2099
2101
2101
2101
2091
2091
2091
2091
2098
2098
2098
2097
2097
2097
2102
2102
2102
2099
2099
2099
2094
2094
2094
2094
2094
2094
2094
2097
2097
2097
2097
2097
2097
2101
2101
2101
2098
2098
2098
2098
2097
2097
2097
2097
2097
2097
2096
2096
2096
2101
2101
2101
2097
2097
2097
2097
2098
2098
2098
2096
2096
2096
2099
2099
2099
2098
2098
2098
2094
2094
2094
2094
2097
2097
2097
2096
2096
2096
2106
2106
2106
2097
2097
2097
2098
2098
2098
2098
2090
2090
2090
2098
2098
2098
2104
2104
2104
2099
2099
2099
2097
2097
2097
2097
2096
2096
2096
2098
2098
2098
2095
2095
2095
2100
2100
2100
2094
2094
2094
2094
2097
2097
2097
2102
2102
2102
2097
2097
2097
2101
2101
2101
2096
2096
2096
2096
2090
2090
2090
2100
2100
2100
2093
2093
2093
2101
2101
2101
2098
2098
2098
2098
2099
2099
2099
2100
2100
2100
2098
2098
2098
2101
2101
2101
2092
2092
2092
2092
2098
2098
2098
2101
2101
2101
2096
2096
2096
2103
2103
2103
2096
2096
2096
2096
2092
2092
2092
2098
2098
2098
2102
2102
2102
2097
2097
2097
2093
2093
2093
2093
2097
2097
2097
2097
2097
2097
2101
2101
2101
2098
2098
2098
2100
2100
2100
2100
2097
2097
2097
2094
2094
2094
2099
2099
2099
2099
2099
2099
2098
2098
2098
2098
2093
2093
2093
2099
2099
2099
2099
2099
2099
2099
2099
2099
2098
2098
2098
2098
2099
2099
2099
2095
2095
2095
2098
2098
2098
2093
2093
2093
2092
2092
2092
2092
2096
2096
2096
2100
2100
2100
2100
2100
2100
2094
2094
2094
2097
2097
2097
2097
2102
2102
2102
2099
2099
2099
2093
2093
2093
2100
2100
2100
2098
2098
2098
2098
2095
2095
2095
2102
2102
2102
2098
2098
2098
2099
2099
2099
2093
2093
2093
2093
2097
2097
2097
2101
2101
2101
2099
2099
2099
2090
2090
2090
2100
2100
2100
2100
2099
2099
2099
2098
2098
2098
2091
2091
2091
2097
2097
2097
2097
2097
2097
2097
2092
2092
2092
2103
2103
2103
2096
2096
2096
2099
2099
2099
2099
2099
2099
2099
2097
2097
2097
2098
2098
2098
2098
2098
2098
2092
2092
2092
2097
2097
2097
2097
2099
2099
2099
2098
2098
2098
2094
2094
2094
2099
2099
2099
2089
2089
2089
2089
2098
2098
2098
2098
2098
2098
2095
2095
2095
2097
2097
2097
2099
2099
2099
2099
2099
2099
2099
2100
2100
2100
2099
2099
2099
2100
2100
2100
2097
2097
2097
2097
2096
2096
2096
2099
2099
2099
2096
2096
2096
2097
2097
2097
2095
2095
2095
2095
2098
2098
2098
2099
2099
2099
2097
2097
2097
2099
2099
2099
2098
2098
2098
2098
2094
2094
2094
2099
2099
2099
2096
2096
2096
2100
2100
2100
2097
2097
2097
2097
2096
2096
2096
2098
2098
2098
2100
2100
2100
2098
2098
2098
2093
2093
2093
2093
2097
2097
2097
2098
2098
2098
2098
2098
2098
2100
2100
2100
2098
2098
2098
2098
2099
2099
2099
2101
2101
2101
2096
2096
2096
2103
2103
2103
2103
2103
2103
2103
2094
2094
2094
2098
2098
2098
2096
2096
2096
2096
2096
2096
2096
2096
2096
2096
2095
2095
2095
2097
2097
2097
2098
2098
2098
2095
2095
2095
2097
2097
2097
2097
2099
2099
2099
2100
2100
2100
2101
2101
2101
2096
2096
2096
2103
2103
2103
2103
2095
2095
2095
2099
2099
2099
2098
2098
2098
2104
2104
2104
2101
2101
2101
2101
2096
2096
2096
2108
2108
2108
2096
2096
2096
2098
2098
2098
2096
2096
2096
2096
2099
2099
2099
2098
2098
2098
2102
2102
2102
2098
2098
2098
2099
2099
2099
2099
2097
2097
2097
2098
2098
2098
2097
2097
2097
2101
2101
2101
2097
2097
2097
2097
2097
2097
2097
2097
2097
2097
2099
2099
2099
2099
2099
2099
2092
2092
2092
2092
2096
2096
2096
2100
2100
2100
2099
2099
2099
2099
2099
2099
2094
2094
2094
2094
2094
2094
2094
2095
2095
2095
2094
2094
2094
2099
2099
2099
2099
2099
2099
2099
2095
2095
2095
2096
2096
2096
2098
2098
2098
2100
2100
2100
2097
2097
2097
2097
2095
2095
2095
2099
2099
2099
2097
2097
2097
2096
2096
2096
2097
2097
2097
2097
2093
2093
2093
2102
2102
2102
2098
2098
2098
2097
2097
2097
2098
2098
2098
2098
2097
2097
2097
2098
2098
2098
2098
2098
2098
2097
2097
2097
2098
2098
2098
2098
2098
2098
2098
2097
2097
2097
2098
2098
2098
2099
2099
2099
2107
2107
2107
2107
2097
2097
2097
2097
2097
2097
2099
2099
2099
2098
2098
2098
2097
2097
2097
2097
2097
2097
2097
2104
2104
2104
2102
2102
2102
2099
2099
2099
2097
2097
2097
2097
2090
2090
2090
2098
2098
2098
2091
2091
2091
2100
2100
2100
2091
2091
2091
2091
2097
2097
2097
2098
2098
2098
2099
2099
2099
2100
2100
2100
2095
2095
2095
2095
2093
2093
2093
2098
2098
2098
2095
2095
2095
2102
2102
2102
2096
2096
2096
2096
2098
2098
2098
2097
2097
2097
2100
2100
2100
2098
2098
2098
2102
2102
2102
2102
2096
2096
2096
2097
2097
2097
2097
2097
2097
2100
2100
2100
2098
2098
2098
2098
2091
2091
2091
2098
2098
2098
2092
2092
2092
2102
2102
2102
2092
2092
2092
2092
2097
2097
2097
2099
2099
2099
2097
2097
2097
2097
2097
2097
2095
2095
2095
2095
2096
2096
2096
2102
2102
2102
2095
2095
2095
2095
2095
2095
2097
2097
2097
2097
2096
2096
2096
2097
2097
2097
2098
2098
2098
2102
2102
2102
2096
2096
2096
2096
2098
2098
2098
2101
2101
2101
2098
2098
2098
2093
2093
2093
2095
2095
2095
2095
2094
2094
2094
2095
2095
2095
2097
2097
2097
2098
2098
2098
2097
2097
2097
2097
2097
2097
2097
2101
2101
2101
2096
2096
2096
2100
2100
2100
2099
2099
2099
2099
2097
2097
2097
2098
2098
2098
2098
2098
2098
2109
2109
2109
2095
2095
2095
2095
2098
2098
2098
2100
2100
2100
2093
2093
2093
2097
2097
2097
2101
2101
2101
2101
2101
2101
2101
2099
2099
2099
2098
2098
2098
2094
2094
2094
2098
2098
2098
2098
2103
2103
2103
2099
2099
2099
2100
2100
2100
2096
2096
2096
2097
2097
2097
2097
2095
2095
2095
2097
2097
2097
2098
2098
2098
2096
2096
2096
2097
2097
2097
2097
2099
2099
2099
2099
2099
2099
2097
2097
2097
2101
2101
2101
2097
2097
2097
2097
2096
2096
2096
2098
2098
2098
2095
2095
2095
2093
2093
2093
2102
2102
2102
2102
2097
2097
2097
2092
2092
2092
2094
2094
2094
2101
2101
2101
2097
2097
2097
2097
2095
2095
2095
2097
2097
2097
2093
2093
2093
2098
2098
2098
2099
2099
2099
2099
2098
2098
2098
2094
2094
2094
2094
2094
2094
2093
2093
2093
2094
2094
2094
2094
2097
2097
2097
2097
2097
2097
2094
2094
2094
2097
2097
2097
2097
2097
2097
2097
2097
2097
2097
2093
2093
2093
2096
2096
2096
2098
2098
2098
2097
2097
2097
2097
2097
2097
2097
2097
2097
2097
2096
2096
2096
2094
2094
2094
2095
2095
2095
2095
2097
2097
2097
2101
2101
2101
2092
2092
2092
2097
2097
2097
2097
2097
2097
2097
2097
2097
2097
2094
2094
2094
2099
2099
2099
2097
2097
2097
2100
2100
2100
2100
2097
2097
2097
2097
2097
2097
2102
2102
2102
2106
2106
2106
2101
2101
2101
2101
2096
2096
2096
2099
2099
2099
2095
2095
2095
2091
2091
2091
2098
2098
2098
2098
2091
2091
2091
2098
2098
2098
2100
2100
2100
2098
2098
2098
2100
2100
2100
2100
2095
2095
2095
2101
2101
2101
2096
2096
2096
2100
2100
2100
2097
2097
2097
2097
2096
2096
2096
2099
2099
2099
2093
2093
2093
2100
2100
2100
2096
2096
2096
2096
2094
2094
2094
2099
2099
2099
2096
2096
2096
2099
2099
2099
2103
2103
2103
2103
2096
2096
2096
2100
2100
2100
2097
2097
2097
2098
2098
2098
2100
2100
2100
2100
2099
2099
2099
2099
2099
2099
2105
2105
2105
2098
2098
2098
2094
2094
2094
2094
2099
2099
2099
2092
2092
2092
2097
2097
2097
2101
2101
2101
2099
2099
2099
2099
2100
2100
2100
2098
2098
2098
2100
2100
2100
2096
2096
2096
2094
2094
2094
2094
2097
2097
2097
2096
2096
2096
2097
2097
2097
2100
2100
2100
2097
2097
2097
2097
2095
2095
2095
2098
2098
2098
2097
2097
2097
2101
2101
2101
2098
2098
2098
2098
2096
2096
2096
2098
2098
2098
2098
2098
2098
2093
2093
2093
2100
2100
2100
2100
2097
2097
2097
2095
2095
2095
2096
2096
2096
2103
2103
2103
2097
2097
2097
2097
2103
2103
2103
2099
2099
2099
2095
2095
2095
2099
2099
2099
2094
2094
2094
2094
2095
2095
2095
2105
2105
2105
2097
2097
2097
2093
2093
2093
2100
2100
2100
2100
2093
2093
2093
2098
2098
2098
2098
2098
2098
2099
2099
2099
2097
2097
2097
2097
2098
2098
2098
2097
2097
2097
2096
2096
2096
2100
2100
2100
2094
2094
2094
2094
2099
2099
2099
2098
2098
2098
2097
2097
2097
2094
2094
2094
2098
2098
2098
2098
2097
2097
2097
2094
2094
2094
2098
2098
2098
2095
2095
2095
2097
2097
2097
2097
2097
2097
2097
2099
2099
2099
2097
2097
2097
2099
2099
2099
2096
2096
2096
2096
2099
2099
2099
2097
2097
2097
2097
2097
2097
2099
2099
2099
2103
2103
2103
2103
2097
2097
2097
2100
2100
2100
2094
2094
2094
2092
2092
2092
2096
2096
2096
2096
2094
2094
2094
2099
2099
2099
2099
2099
2099
2098
2098
2098
2098
2098
2098
2098
2096
2096
2096
2102
2102
2102
2097
2097
2097
2108
2108
2108
2100
2100
2100
2100
2095
2095
2095
2097
2097
2097
2096
2096
2096
2097
2097
2097
2097
2097
2097
2097
2098
2098
2098
2096
2096
2096
2103
2103
2103
2097
2097
2097
2097
2097
2097
2097
2096
2096
2096
2098
2098
2098
2097
2097
2097
2102
2102
2102
2095
2095
2095
2095
2097
2097
2097
2098
2098
2098
2098
2098
2098
2098
2098
2098
2099
2099
2099
2099
2098
2098
2098
2090
2090
2090
2097
2097
2097
2097
2097
2097
2101
2101
2101
2101
2095
2095
2095
2097
2097
2097
2097
2097
2097
2101
2101
2101
2096
2096
2096
2096
2099
2099
2099
2097
2097
2097
2096
2096
2096
2099
2099
2099
2100
2100
2100
2100
2097
2097
2097
2097
2097
2097
2096
2096
2096
2100
2100
2100
2095
2095
2095
2095
2097
2097
2097
2097
2097
2097
2096
2096
2096
2097
2097
2097
2103
2103
2103
2103
2097
2097
2097
2098
2098
2098
2095
2095
2095
2098
2098
2098
2096
2096
2096
2096
2097
2097
2097
2098
2098
2098
2092
2092
2092
2098
2098
2098
2095
2095
2095
2095
2096
2096
2096
2100
2100
2100
2095
2095
2095
2101
2101
2101
2097
2097
2097
2097
2090
2090
2090
2101
2101
2101
2099
2099
2099
2101
2101
2101
2097
2097
2097
2097
2095
2095
2095
2095
2095
2095
2097
2097
2097
2096
2096
2096
2099
2099
2099
2099
2096
2096
2096
2097
2097
2097
2098
2098
2098
2100
2100
2100
2097
2097
2097
2097
2101
2101
2101
2097
2097
2097
2098
2098
2098
2098
2098
2098
2096
2096
2096
2096
2099
2099
2099
2101
2101
2101
2097
2097
2097
2095
2095
2095
2096
2096
2096
2096
2093
2093
2093
2097
2097
2097
2091
2091
2091
2096
2096
2096
2097
2097
2097
2097
2103
2103
2103
2091
2091
2091
2100
2100
2100
2095
2095
2095
2096
2096
2096
2096
2099
2099
2099
2101
2101
2101
2097
2097
2097
2098
2098
2098
2097
2097
2097
2097
2095
2095
2095
2097
2097
2097
2094
2094
2094
2098
2098
2098
2092
2092
2092
2092
2098
2098
2098
2097
2097
2097
2098
2098
2098
2095
2095
2095
2098
2098
2098
2098
2098
2098
2098
2099
2099
2099
2100
2100
2100
2097
2097
2097
2091
2091
2091
2091
2097
2097
2097
2102
2102
2102
2100
2100
2100
2103
2103
2103
2098
2098
2098
2098
2090
2090
2090
2101
2101
2101
2100
2100
2100
2098
2098
2098
2097
2097
2097
2097
2097
2097
2097
2095
2095
2095
2099
2099
2099
2099
2099
2099
2099
2099
2099
2099
2100
2100
2100
2098
2098
2098
2103
2103
2103
2097
2097
2097
2095
2095
2095
2095
2093
2093
2093
2096
2096
2096
2096
2096
2096
2097
2097
2097
2096
2096
2096
2096
2097
2097
2097
2101
2101
2101
2095
2095
2095
2098
2098
2098
2100
2100
2100
2100
2097
2097
2097
2099
2099
2099
2099
2099
2099
2095
2095
2095
2095
2095
2095
2095
2093
2093
2093
2093
2093
2093
2097
2097
2097
2103
2103
2103
2096
2096
2096
2096
2100
2100
2100
2100
2100
2100
2091
2091
2091
2099
2099
2099
2090
2090
2090
2090
2096
2096
2096
2103
2103
2103
2092
2092
2092
2101
2101
2101
2096
2096
2096
2096
2090
2090
2090
2098
2098
2098
2098
2098
2098
2098
2098
2098
2098
2098
2098
2098
2096
2096
2096
2097
2097
2097
2097
2097
2097
2101
2101
2101
2100
2100
2100
2100
2097
2097
2097
2093
2093
2093
2096
2096
2096
2101
2101
2101
2096
2096
2096
2096
2095
2095
2095
2099
2099
2099
2094
2094
2094
2099
2099
2099
2101
2101
2101
2101
2096
2096
2096
2101
2101
2101
2097
2097
2097
2094
2094
2094
2102
2102
2102
2102
2092
2092
2092
2092
2092
2092
2105
2105
2105
2098
2098
2098
2096
2096
2096
2096
2096
2096
2096
2103
2103
2103
2097
2097
2097
2100
2100
2100
2098
2098
2098
2098
2098
2098
2098
2097
2097
2097
2096
2096
2096
2096
2096
2096
2097
2097
2097
2097
2096
2096
2096
2096
2096
2096
2101
2101
2101
2098
2098
2098
2097
2097
2097
2097
2097
2097
2097
2101
2101
2101
2096
2096
2096
2094
2094
2094
2098
2098
2098
2098
2097
2097
2097
2096
2096
2096
2101
2101
2101
2100
2100
2100
2091
2091
2091
2091
2095
2095
2095
2105
2105
2105
2098
2098
2098
2103
2103
2103
2099
2099
2099
2099
2098
2098
2098
2096
2096
2096
2094
2094
2094
2098
2098
2098
2099
2099
2099
2099
2099
2099
2099
2103
2103
2103
2095
2095
2095
2099
2099
2099
2095
2095
2095
2095
2097
2097
2097
2101
2101
2101
2101
2101
2101
2100
2100
2100
2096
2096
2096
2096
2095
2095
2095
2100
2100
2100
2099
2099
2099
2096
2096
2096
2097
2097
2097
2097
2097
2097
2097
2090
2090
2090
2093
2093
2093
2104
2104
2104
2097
2097
2097
2097
2098
2098
2098
2099
2099
2099
2092
2092
2092
2098
2098
2098
2098
2098
2098
2098
2093
2093
2093
2104
2104
2104
2097
2097
2097
2101
2101
2101
2100
2100
2100
2100
2097
2097
2097
2098
2098
2098
2104
2104
2104
2095
2095
2095
2094
2094
2094
2094
2094
2094
2094
2099
2099
2099
2097
2097
2097
2095
2095
2095
2094
2094
2094
2094
2098
2098
2098
2099
2099
2099
2098
2098
2098
2098
2098
2098
2099
2099
2099
2099
2099
2099
2099
2101
2101
2101
2097
2097
2097
2097
2097
2097
2097
2097
2097
2097
2095
2095
2095
2097
2097
2097
2097
2097
2097
2099
2099
2099
2098
2098
2098
2098
2099
2099
2099
2097
2097
2097
2097
2097
2097
2097
2097
2097
2100
2100
2100
2100
2098
2098
2098
2098
2098
2098
2094
2094
2094
2095
2095
2095
2097
2097
2097
2097
2094
2094
2094
2098
2098
2098
2093
2093
2093
2098
2098
2098
2097
2097
2097
2097
2097
2097
2097
2101
2101
2101
2099
2099
2099
2097
2097
2097
2095
2095
2095
2095
2096
2096
2096
2100
2100
2100
2101
2101
2101
2097
2097
2097
2098
2098
2098
2098
2094
2094
2094
2100
2100
2100
2096
2096
2096
2097
2097
2097
2102
2102
2102
2102
2097
2097
2097
2099
2099
2099
2097
2097
2097
2092
2092
2092
2101
2101
2101
2101
2093
2093
2093
2094
2094
2094
2096
2096
2096
2100
2100
2100
2097
2097
2097
2097
2099
2099
2099
2094
2094
2094
2099
2099
2099
2101
2101
2101
2095
2095
2095
2095
2098
2098
2098
2098
2098
2098
2097
2097
2097
2098
2098
2098
2089
2089
2089
2089
2096
2096
2096
2094
2094
2094
2100
2100
2100
2096
2096
2096
2097
2097
2097
2097
2102
2102
2102
2099
2099
2099
2100
2100
2100
2097
2097
2097
2096
2096
2096
2096
2099
2099
2099
2099
2099
2099
2099
2099
2099
2094
2094
2094
2094
2094
2094
2094
2100
2100
2100
2094
2094
2094
2093
2093
2093
2095
2095
2095
2097
2097
2097
2097
2097
2097
2097
2099
2099
2099
2097
2097
2097
2100
2100
2100
2095
2095
2095
2095
2098
2098
2098
2094
2094
2094
2097
2097
2097
2095
2095
2095
2100
2100
2100
2100
2097
2097
2097
2099
2099
2099
2097
2097
2097
2099
2099
2099
2097
2097
2097
2097
2099
2099
2099
2098
2098
2098
2097
2097
2097
2093
2093
2093
2097
2097
2097
2097
2097
2097
2097
2099
2099
2099
2103
2103
2103
2099
2099
2099
2097
2097
2097
2097
2098
2098
2098
2091
2091
2091
2096
2096
2096
2096
2096
2096
2095
2095
2095
2095
2096
2096
2096
2099
2099
2099
2095
2095
2095
2101
2101
2101
2094
2094
2094
2094
2095
2095
2095
2097
2097
2097
2100
2100
2100
2096
2096
2096
2093
2093
2093
2093
2097
2097
2097
2094
2094
2094
2097
2097
2097
2101
2101
2101
2097
2097
2097
2097
2092
2092
2092
2098
2098
2098
2096
2096
2096
2099
2099
2099
2105
2105
2105
2105
2097
2097
2097
2099
2099
2099
2104
2104
2104
2093
2093
2093
2095
2095
2095
2095
2094
2094
2094
2099
2099
2099
2097
2097
2097
2098
2098
2098
2097
2097
2097
2097
2094
2094
2094
2093
2093
2093
2098
2098
2098
2097
2097
2097
2097
2097
2097
2097
2097
2097
2097
2098
2098
2098
2103
2103
2103
2098
2098
2098
2096
2096
2096
2096
2101
2101
2101
2098
2098
2098
2098
2098
2098
2097
2097
2097
2104
2104
2104
2104
2096
2096
2096
2097
2097
2097
2097
2097
2097
2097
2097
2097
2099
2099
2099
2099
2098
2098
2098
2099
2099
2099
2101
2101
2101
2098
2098
2098
2104
2104
2104
2104
2096
2096
2096
2101
2101
2101
2097
2097
2097
2092
2092
2092
2099
2099
2099
2099
2094
2094
2094
2098
2098
2098
2100
2100
2100
2098
2098
2098
2098
2098
2098
2098
2097
2097
2097
2095
2095
2095
2097
2097
2097
2097
2097
2097
2094
2094
2094
2094
2095
2095
2095
2097
2097
2097
2099
2099
2099
2096
2096
2096
2100
2100
2100
2100
2097
2097
2097
2097
2097
2097
2099
2099
2099
2107
2107
2107
2096
2096
2096
2096
2097
2097
2097
2105
2105
2105
2095
2095
2095
2100
2100
2100
2098
2098
2098
2098
2094
2094
2094
2098
2098
2098
2102
2102
2102
2099
2099
2099
2093
2093
2093
2093
2097
2097
2097
2101
2101
2101
2097
2097
2097
2101
2101
2101
2095
2095
2095
2095
2098
2098
2098
2095
2095
2095
2096
2096
2096
2097
2097
2097
2102
2102
2102
2102
2096
2096
2096
2100
2100
2100
2097
2097
2097
2098
2098
2098
2093
2093
2093
2093
2096
2096
2096
2098
2098
2098
2096
2096
2096
2098
2098
2098
2098
2098
2098
2098
2093
2093
2093
2099
2099
2099
2095
2095
2095
2096
2096
2096
2094
2094
2094
2094
2095
2095
2095
2099
2099
2099
2097
2097
2097
2098
2098
2098
2099
2099
2099
2099
2096
2096
2096
2097
2097
2097
2095
2095
2095
2096
2096
2096
2100
2100
2100
2100
2097
2097
2097
2097
2097
2097
2098
2098
2098
2093
2093
2093
2097
2097
2097
2097
2095
2095
2095
2100
2100
2100
2093
2093
2093
2099
2099
2099
2101
2101
2101
2101
2097
2097
2097
2099
2099
2099
2099
2099
2099
2097
2097
2097
2096
2096
2096
2096
2096
2096
2096
2097
2097
2097
2098
2098
2098
2097
2097
2097
2098
2098
2098
2098
2097
2097
2097
2094
2094
2094
2099
2099
2099
2099
2099
2099
2090
2090
2090
2090
2098
2098
2098
2099
2099
2099
2093
2093
2093
2095
2095
2095
2099
2099
2099
2099
2095
2095
2095
2102
2102
2102
2098
2098
2098
2099
2099
2099
2099
2099
2099
2099
2097
2097
2097
2100
2100
2100
2097
2097
2097
2103
2103
2103
2098
2098
2098
2098
2098
2098
2098
2090
2090
2090
2093
2093
2093
2099
2099
2099
2100
2100
2100
2100
2099
2099
2099
2096
2096
2096
2096
2096
2096
2098
2098
2098
2099
2099
2099
2099
2100
2100
2100
2099
2099
2099
2102
2102
2102
2096
2096
2096
2097
2097
2097
2097
2096
2096
2096
2087
2087
2087
2100
2100
2100
2095
2095
2095
2093
2093
2093
2093
2100
2100
2100
2098
2098
2098
2096
2096
2096
2098
2098
2098
2094
2094
2094
2094
2097
2097
2097
2098
2098
2098
2099
2099
2099
2100
2100
2100
2093
2093
2093
2093
2094
2094
2094
2101
2101
2101
2098
2098
2098
2095
2095
2095
2097
2097
2097
2097
2097
2097
2097
2098
2098
2098
2099
2099
2099
2098
2098
2098
2090
2090
2090
2090
2097
2097
2097
2102
2102
2102
2095
2095
2095
2094
2094
2094
2096
2096
2096
2096
2105
2105
2105
2097
2097
2097
2098
2098
2098
2098
2098
2098
2097
2097
2097
2097
2097
2097
2097
2095
2095
2095
2098
2098
2098
2096
2096
2096
2098
2098
2098
2098
2093
2093
2093
2099
2099
2099
2093
2093
2093
2097
2097
2097
2096
2096
2096
2096
2096
2096
2096
2098
2098
2098
2095
2095
2095
2098
2098
2098
2094
2094
2094
2094
2096
2096
2096
2100
2100
2100
2095
2095
2095
2093
2093
2093
2094
2094
2094
2094
2096
2096
2096
2093
2093
2093
2095
2095
2095
2099
2099
2099
2098
2098
2098
2098
2098
2098
2098
2096
2096
2096
2098
2098
2098
2099
2099
2099
2099
2099
2099
2099
2094
2094
2094
2101
2101
2101
2095
2095
2095
2098
2098
2098
2095
2095
2095
2095
2097
2097
2097
2102
2102
2102
2097
2097
2097
2105
2105
2105
2095
2095
2095
2095
2095
2095
2095
2098
2098
2098
2097
2097
2097
2098
2098
2098
2096
2096
2096
2096
2093
2093
2093
2090
2090
2090
2101
2101
2101
2098
2098
2098
2100
2100
2100
2100
2098
2098
2098
2097
2097
2097
2098
2098
2098
2095
2095
2095
2095
2095
2095
2095
2097
2097
2097
2098
2098
2098
2097
2097
2097
2099
2099
2099
2093
2093
2093
2093
2099
2099
2099
2096
2096
2096
2098
2098
2098
2098
2098
2098
2097
2097
2097
2097
2099
2099
2099
2096
2096
2096
2094
2094
2094
2099
2099
2099
2093
2093
2093
2093
2097
2097
2097
2099
2099
2099
2096
2096
2096
2096
2096
2096
2097
2097
2097
2097
2099
2099
2099
2094
2094
2094
2096
2096
2096
2100
2100
2100
2097
2097
2097
2097
2096
2096
2096
2100
2100
2100
2098
2098
2098
2098
2098
2098
2107
2107
2107
2107
2091
2091
2091
2099
2099
2099
2093
2093
2093
2101
2101
2101
2098
2098
2098
2098
2093
2093
2093
2097
2097
2097
2099
2099
2099
2099
2099
2099
2096
2096
2096
2096
2099
2099
2099
2099
2099
2099
2097
2097
2097
2098
2098
2098
2095
2095
2095
2095
2095
2095
2095
2090
2090
2090
2099
2099
2099
2098
2098
2098
2098
2098
2098
2098
2094
2094
2094
2098
2098
2098
2097
2097
2097
2105
2105
2105
2095
2095
2095
2095
2099
2099
2099
2098
2098
2098
2096
2096
2096
2098
2098
2098
2095
2095
2095
2095
2104
2104
2104
2103
2103
2103
2094
2094
2094
2102
2102
2102
2097
2097
2097
2097
2099
2099
2099
2102
2102
2102
2096
2096
2096
2100
2100
2100
2097
2097
2097
2097
2097
2097
2097
2099
2099
2099
2095
2095
2095
2096
2096
2096
2094
2094
2094
2094
2091
2091
2091
2101
2101
2101
2097
2097
2097
2095
2095
2095
2097
2097
2097
2097
2098
2098
2098
2097
2097
2097
2096
2096
2096
2097
2097
2097
2097
2097
2097
2097
2096
2096
2096
2095
2095
2095
2100
2100
2100
2100
2100
2100
2097
2097
2097
2097
2097
2097
2097
2098
2098
2098
2097
2097
2097
2099
2099
2099
2099
2099
2099
2099
2096
2096
2096
2100
2100
2100
2094
2094
2094
2096
2096
2096
2099
2099
2099
2099
2093
2093
2093
2098
2098
2098
2097
2097
2097
2099
2099
2099
2095
2095
2095
2095
2101
2101
2101
2100
2100
2100
2098
2098
2098
2098
2098
2098
2097
2097
2097
2097
2098
2098
2098
2098
2098
2098
2097
2097
2097
2095
2095
2095
2095
2095
2095
2095
2095
2095
2095
2101
2101
2101
2098
2098
2098
2100
2100
2100
2099
2099
2099
2099
2095
2095
2095
2099
2099
2099
2098
2098
2098
2101
2101
2101
2098
2098
2098
2098
2098
2098
2098
2098
2098
2098
2095
2095
2095
2100
2100
2100
2094
2094
2094
2094
2089
2089
2089
2107
2107
2107
2094
2094
2094
2095
2095
2095
2096
2096
2096
2096
2095
2095
2095
2097
2097
2097
2095
2095
2095
2098
2098
2098
2101
2101
2101
2101
2097
2097
2097
2102
2102
2102
2100
2100
2100
2099
2099
2099
2095
2095
2095
2095
2099
2099
2099
2098
2098
2098
2098
2098
2098
2097
2097
2097
2098
2098
2098
2098
2095
2095
2095
2098
2098
2098
2098
2098
2098
2104
2104
2104
2099
2099
2099
2099
2094
2094
2094
2096
2096
2096
2099
2099
2099
2100
2100
2100
2097
2097
2097
2097
2098
2098
2098
2097
2097
2097
2098
2098
2098
2098
2098
2098
2092
2092
2092
2092
2099
2099
2099
2099
2099
2099
2096
2096
2096
2095
2095
2095
2096
2096
2096
2096
2093
2093
2093
2102
2102
2102
2100
2100
2100
2100
2100
2100
2096
2096
2096
2096
2099
2099
2099
2100
2100
2100
2097
2097
2097
2099
2099
2099
2099
2099
2099
2099
2097
2097
2097
2097
2097
2097
2100
2100
2100
2097
2097
2097
2098
2098
2098
2098
2098
2098
2098
2098
2098
2098
2094
2094
2094
2093
2093
2093
2097
2097
2097
2097
2097
2097
2097
2098
2098
2098
2098
2098
2098
2093
2093
2093
2101
2101
2101
2101
2095
2095
2095
2101
2101
2101
2098
2098
2098
2097
2097
2097
2096
2096
2096
2096
2100
2100
2100
2100
2100
2100
2097
2097
2097
2099
2099
2099
2098
2098
2098
2098
2096
2096
2096
2097
2097
2097
2097
2097
2097
2096
2096
2096
2096
2096
2096
2096
2095
2095
2095
2098
2098
2098
2099
2099
2099
2095
2095
2095
2097
2097
2097
2097
2100
2100
2100
2097
2097
2097
2101
2101
2101
2097
2097
2097
2099
2099
2099
2099
2097
2097
2097
2096
2096
2096
2093
2093
2093
2103
2103
2103
2096
2096
2096
2096
2103
2103
2103
2097
2097
2097
2102
2102
2102
2097
2097
2097
2094
2094
2094
2094
2099
2099
2099
2097
2097
2097
2094
2094
2094
2099
2099
2099
2097
2097
2097
2097
2095
2095
2095
2104
2104
2104
2095
2095
2095
2100
2100
2100
2098
2098
2098
2098
2099
2099
2099
2097
2097
2097
2096
2096
2096
2098
2098
2098
2097
2097
2097
2097
2093
2093
2093
2096
2096
2096
2097
2097
2097
2102
2102
2102
2097
2097
2097
2097
2094
2094
2094
2097
2097
2097
2095
2095
2095
2098
2098
2098
2100
2100
2100
2100
2093
2093
2093
2097
2097
2097
2101
2101
2101
2098
2098
2098
2099
2099
2099
2099
2099
2099
2099
2098
2098
2098
2099
2099
2099
2097
2097
2097
2098
2098
2098
2098
2091
2091
2091
2097
2097
2097
2099
2099
2099
2098
2098
2098
2096
2096
2096
2096
2100
2100
2100
2097
2097
2097
2091
2091
2091
2095
2095
2095
2102
2102
2102
2102
2096
2096
2096
2097
2097
2097
2099
2099
2099
2094
2094
2094
2098
2098
2098
2098
2093
2093
2093
2098
2098
2098
2096
2096
2096
2097
2097
2097
2097
2097
2097
2097
2097
2097
2097
2098
2098
2098
2098
2098
2098
2092
2092
2092
2100
2100
2100
2100
2087
2087
2087
2102
2102
2102
2094
2094
2094
2098
2098
2098
2096
2096
2096
2096
2095
2095
2095
2094
2094
2094
2098
2098
2098
2098
2098
2098
2094
2094
2094
2094
2099
2099
2099
2098
2098
2098
2098
2098
2098
2097
2097
2097
2098
2098
2098
2098
2097
2097
2097
2100
2100
2100
2096
2096
2096
2105
2105
2105
2097
2097
2097
2097
2091
2091
2091
2096
2096
2096
2095
2095
2095
2098
2098
2098
2097
2097
2097
2097
2095
2095
2095
2095
2095
2095
2100
2100
2100
2096
2096
2096
2099
2099
2099
2099
2096
2096
2096
2098
2098
2098
2098
2098
2098
2093
2093
2093
2100
2100
2100
2100
2095
2095
2095
2096
2096
2096
2101
2101
2101
2099
2099
2099
2099
2099
2099
2099
2098
2098
2098
2099
2099
2099
2097
2097
2097
2101
2101
2101
2096
2096
2096
2096
2098
2098
2098
2097
2097
2097
2102
2102
2102
2097
2097
2097
2089
2089
2089
2089
2095
2095
2095
2093
2093
2093
2101
2101
2101
2095
2095
2095
2097
2097
2097
2097
2097
2097
2097
2100
2100
2100
2095
2095
2095
2097
2097
2097
2093
2093
2093
2093
2098
2098
2098
2094
2094
2094
2108
2108
2108
2098
2098
2098
2097
2097
2097
2097
2095
2095
2095
2099
2099
2099
2101
2101
2101
2099
2099
2099
2098
2098
2098
2098
2098
2098
2098
2102
2102
2102
2098
2098
2098
2098
2098
2098
2099
2099
2099
2099
2101
2101
2101
2100
2100
2100
2098
2098
2098
2098
2098
2098
2098
2098
2098
2098
2093
2093
2093
2098
2098
2098
2095
2095
2095
2102
2102
2102
2094
2094
2094
2094
2098
2098
2098
2098
2098
2098
2097
2097
2097
2100
2100
2100
2099
2099
2099
2099
2095
2095
2095
2096
2096
2096
2097
2097
2097
2098
2098
2098
2097
2097
2097
2097
2096
2096
2096
2098
2098
2098
2098
2098
2098
2102
2102
2102
2101
2101
2101
2101
2100
2100
2100
2100
2100
2100
2091
2091
2091
2099
2099
2099
2101
2101
2101
2101
2100
2100
2100
2097
2097
2097
2097
2097
2097
2098
2098
2098
2097
2097
2097
2097
2092
2092
2092
2099
2099
2099
2100
2100
2100
2094
2094
2094
2097
2097
2097
2097
2095
2095
2095
2093
2093
2093
2096
2096
2096
2100
2100
2100
2097
2097
2097
2097
2096
2096
2096
2100
2100
2100
2098
2098
2098
2099
2099
2099
2096
2096
2096
2096
2095
2095
2095
2098
2098
2098
2093
2093
2093
2100
2100
2100
2096
2096
2096
2096
2098
2098
2098
2101
2101
2101
2097
2097
2097
2101
2101
2101
2096
2096
2096
2096
2099
2099
2099
2096
2096
2096
2099
2099
2099
2096
2096
2096
2093
2093
2093
2093
2097
2097
2097
2098
2098
2098
2093
2093
2093
2104
2104
2104
2095
2095
2095
2095
2098
2098
2098
2099
2099
2099
2092
2092
2092
2100
2100
2100
2100
2100
2100
2100
2096
2096
2096
2099
2099
2099
2100
2100
2100
2102
2102
2102
2100
2100
2100
2100
2090
2090
2090
2099
2099
2099
2098
2098
2098
2098
2098
2098
2094
2094
2094
2094
2096
2096
2096
2098
2098
2098
2096
2096
2096
2099
2099
2099
2095
2095
2095
2095
2102
2102
2102
2097
2097
2097
2096
2096
2096
2101
2101
2101
2097
2097
2097
2097
2105
2105
2105
2099
2099
2099
2098
2098
2098
2098
2098
2098
2092
2092
2092
2092
2101
2101
2101
2097
2097
2097
2097
2097
2097
2100
2100
2100
2102
2102
2102
2102
2095
2095
2095
2094
2094
2094
2096
2096
2096
2097
2097
2097
2096
2096
2096
2096
2099
2099
2099
2092
2092
2092
2097
2097
2097
2097
2097
2097
2100
2100
2100
2100
2098
2098
2098
2097
2097
2097
2096
2096
2096
2097
2097
2097
2101
2101
2101
2101
2097
2097
2097
2092
2092
2092
2099
2099
2099
2098
2098
2098
2098
2098
2098
2098
2101
2101
2101
2098
2098
2098
2094
2094
2094
2099
2099
2099
2098
2098
2098
2098
2096
2096
2096
2098
2098
2098
2098
2098
2098
2105
2105
2105
2097
2097
2097
2097
2094
2094
2094
2098
2098
2098
2098
2098
2098
2099
2099
2099
2099
2099
2099
2099
2095
2095
2095
2098
2098
2098
2096
2096
2096
2097
2097
2097
2095
2095
2095
2095
2098
2098
2098
2094
2094
2094
2099
2099
2099
2094
2094
2094
2097
2097
2097
2097
2097
2097
2097
2098
2098
2098
2091
2091
2091
2099
2099
2099
2098
2098
2098
2098
2097
2097
2097
2096
2096
2096
2096
2096
2096
2095
2095
2095
2095
2095
2095
2095
2099
2099
2099
2096
2096
2096
2090
2090
2090
2098
2098
2098
2096
2096
2096
2096
2096
2096
2096
2098
2098
2098
2098
2098
2098
2098
2098
2098
2097
2097
2097
2097
2094
2094
2094
2097
2097
2097
2098
2098
2098
2098
2098
2098
2098
2098
2098
2098
2096
2096
2096
2101
2101
2101
2096
2096
2096
2097
2097
2097
2100
2100
2100
2100
2093
2093
2093
2096
2096
2096
2095
2095
2095
2101
2101
2101
2091
2091
2091
2091
2096
2096
2096
2097
2097
2097
2100
2100
2100
2095
2095
2095
2098
2098
2098
2098
2100
2100
2100
2099
2099
2099
2096
2096
2096
2101
2101
2101
2098
2098
2098
2098
2094
2094
2094
2097
2097
2097
2100
2100
2100
2095
2095
2095
2090
2090
2090
2090
2097
2097
2097
2097
2097
2097
2100
2100
2100
2105
2105
2105
2097
2097
2097
2097
2098
2098
2098
2097
2097
2097
2095
2095
2095
2100
2100
2100
2097
2097
2097
2097
2098
2098
2098
2099
2099
2099
2100
2100
2100
2095
2095
2095
2101
2101
2101
2101
2100
2100
2100
2098
2098
2098
2098
2098
2098
2097
2097
2097
2097
2097
2097
2097
2093
2093
2093
2099
2099
2099
2099
2099
2099
2099
2099
2099
2104
2104
2104
2104
2095
2095
2095
2098
2098
2098
2096
2096
2096
2097
2097
2097
2098
2098
2098
2098
2100
2100
2100
2098
2098
2098
2099
2099
2099
2098
2098
2098
2098
2098
2098
2098
2098
2098
2098
2097
2097
2097
2096
2096
2096
2103
2103
2103
2094
2094
2094
2094
2094
2094
2094
2094
2094
2094
2101
2101
2101
2099
2099
2099
