29333
29333
29333
29615
29615
29615
29376
29376
29376
29507
29507
29507
29507
29594
29594
29594
29420
29420
29420
29528
29528
29528
29398
29398
29398
29550
29550
29550
29550
29463
29463
29463
29333
29333
29333
29507
29507
29507
29594
29594
29594
29637
29637
29637
29637
29398
29398
29398
29398
29398
29398
29441
29441
29441
29311
29311
29311
29485
29485
29485
29485
29550
29550
29550
29420
29420
29420
29572
29572
29572
29376
29376
29376
29463
29463
29463
29463
29615
29615
29615
29463
29463
29463
29507
29507
29507
29463
29463
29463
29507
29507
29507
29507
29507
29507
29507
29441
29441
29441
29550
29550
29550
29376
29376
29376
29550
29550
29550
29550
29485
29485
29485
29441
29441
29441
29550
29550
29550
29398
29398
29398
29528
29528
29528
29528
29572
29572
29572
29463
29463
29463
29550
29550
29550
29441
29441
29441
29594
29594
29594
29594
29507
29507
29507
29311
29311
29311
29485
29485
29485
29420
29420
29420
29615
29615
29615
29615
29507
29507
29507
29333
29333
29333
29441
29441
29441
29333
29333
29333
29463
29463
29463
29463
29550
29550
29550
29463
29463
29463
29507
29507
29507
29398
29398
29398
29485
29485
29485
29485
29681
29681
29681
29463
29463
29463
29507
29507
29507
29398
29398
29398
29507
29507
29507
29507
29572
29572
29572
29398
29398
29398
29572
29572
29572
29528
29528
29528
29615
29615
29615
29615
29528
29528
29528
29376
29376
29376
29637
29637
29637
29311
29311
29311
29463
29463
29463
29463
29550
29550
29550
29441
29441
29441
29572
29572
29572
29420
29420
29420
29572
29572
29572
29572
29528
29528
29528
29420
29420
29420
29572
29572
29572
29420
29420
29420
29485
29485
29485
29485
29528
29528
29528
29463
29463
29463
29594
29594
29594
29615
29615
29615
29507
29507
29507
29507
29528
29528
29528
29398
29398
29398
29550
29550
29550
29398
29398
29398
29441
29441
29441
29441
29528
29528
29528
29550
29550
29550
29485
29485
29485
29441
29441
29441
29528
29528
29528
29528
29485
29485
29485
29485
29485
29485
29485
29485
29485
29659
29659
29659
29528
29528
29528
29528
29463
29463
29463
29507
29507
29507
29550
29550
29550
29398
29398
29398
29507
29507
29507
29507
29463
29463
29463
29485
29485
29485
29528
29528
29528
29441
29441
29441
29572
29572
29572
29572
29550
29550
29550
29485
29485
29485
29615
29615
29615
29441
29441
29441
29594
29594
29594
29594
29528
29528
29528
29572
29572
29572
29615
29615
29615
29528
29528
29528
29463
29463
29463
29463
29463
29463
29463
29420
29420
29420
29550
29550
29550
29441
29441
29441
29441
29441
29441
29441
29485
29485
29485
29485
29485
29485
29507
29507
29507
29463
29463
29463
29528
29528
29528
29528
29507
29507
29507
29441
29441
29441
29507
29507
29507
29485
29485
29485
29420
29420
29420
29420
29376
29376
29376
29507
29507
29507
29572
29572
29572
29420
29420
29420
29485
29485
29485
29485
29528
29528
29528
29311
29311
29311
29485
29485
29485
29398
29398
29398
29550
29550
29550
29550
29463
29463
29463
29420
29420
29420
29528
29528
29528
29507
29507
29507
29507
29507
29507
29507
29507
29507
29507
29594
29594
29594
29507
29507
29507
29441
29441
29441
29594
29594
29594
29594
29441
29441
29441
29507
29507
29507
29528
29528
29528
29420
29420
29420
29463
29463
29463
29463
29507
29507
29507
29441
29441
29441
29441
29441
29441
29463
29463
29463
29550
29550
29550
29550
29507
29507
29507
29398
29398
29398
29594
29594
29594
29267
29267
29267
29528
29528
29528
29528
29463
29463
29463
29354
29354
29354
29463
29463
29463
29420
29420
29420
29528
29528
29528
29528
29507
29507
29507
29441
29441
29441
29485
29485
29485
29376
29376
29376
29528
29528
29528
29528
29441
29441
29441
29441
29441
29441
29528
29528
29528
29398
29398
29398
29615
29615
29615
29615
29572
29572
29572
29420
29420
29420
29485
29485
29485
29420
29420
29420
29441
29441
29441
29441
29528
29528
29528
29441
29441
29441
29550
29550
29550
29398
29398
29398
29528
29528
29528
29528
29485
29485
29485
29398
29398
29398
29528
29528
29528
29246
29246
29246
29550
29550
29550
29550
29463
29463
29463
29289
29289
29289
29507
29507
29507
29420
29420
29420
29398
29398
29398
29398
29485
29485
29485
29398
29398
29398
29420
29420
29420
29398
29398
29398
29550
29550
29550
29550
29507
29507
29507
29463
29463
29463
29550
29550
29550
29507
29507
29507
29441
29441
29441
29441
29615
29615
29615
29376
29376
29376
29507
29507
29507
29376
29376
29376
29507
29507
29507
29507
29441
29441
29441
29485
29485
29485
29528
29528
29528
29441
29441
29441
29528
29528
29528
29528
29507
29507
29507
29420
29420
29420
29572
29572
29572
29376
29376
29376
29528
29528
29528
29528
29528
29528
29528
29441
29441
29441
29528
29528
29528
29507
29507
29507
29507
29507
29507
29507
29528
29528
29528
29398
29398
29398
29528
29528
29528
29441
29441
29441
29572
29572
29572
29572
29507
29507
29507
29463
29463
29463
29659
29659
29659
29463
29463
29463
29528
29528
29528
29528
29507
29507
29507
29441
29441
29441
29550
29550
29550
29485
29485
29485
29463
29463
29463
29463
29420
29420
29420
29441
29441
29441
29507
29507
29507
29354
29354
29354
29507
29507
29507
29507
29507
29507
29507
29528
29528
29528
29528
29528
29528
29463
29463
29463
29550
29550
29550
29550
29550
29550
29550
29463
29463
29463
29463
29463
29463
29507
29507
29507
29507
29507
29507
29507
29572
29572
29572
29420
29420
29420
29528
29528
29528
29354
29354
29354
29528
29528
29528
29528
29746
29746
29746
29441
29441
29441
29441
29441
29441
29441
29441
29441
29507
29507
29507
29507
29528
29528
29528
29398
29398
29398
29420
29420
29420
29333
29333
29333
29441
29441
29441
29441
29528
29528
29528
29398
29398
29398
29528
29528
29528
29463
29463
29463
29681
29681
29681
29681
29441
29441
29441
29550
29550
29550
29507
29507
29507
29420
29420
29420
29463
29463
29463
29463
29485
29485
29485
29441
29441
29441
29441
29441
29441
29398
29398
29398
29333
29333
29333
29333
29507
29507
29507
29398
29398
29398
29572
29572
29572
29333
29333
29333
29550
29550
29550
29550
29615
29615
29615
29441
29441
29441
29594
29594
29594
29354
29354
29354
29550
29550
29550
29550
29637
29637
29637
29485
29485
29485
29507
29507
29507
29463
29463
29463
29528
29528
29528
29528
29572
29572
29572
29441
29441
29441
29420
29420
29420
29354
29354
29354
29507
29507
29507
29507
29463
29463
29463
29441
29441
29441
29528
29528
29528
29485
29485
29485
29507
29507
29507
29507
29572
29572
29572
29376
29376
29376
29528
29528
29528
29507
29507
29507
29572
29572
29572
29572
29441
29441
29441
29333
29333
29333
29572
29572
29572
29420
29420
29420
29528
29528
29528
29528
29528
29528
29528
29420
29420
29420
29528
29528
29528
29311
29311
29311
29528
29528
29528
29528
29485
29485
29485
29441
29441
29441
29333
29333
29333
29398
29398
29398
29376
29376
29376
29376
29528
29528
29528
29550
29550
29550
29463
29463
29463
29420
29420
29420
29507
29507
29507
29507
29528
29528
29528
29441
29441
29441
29528
29528
29528
29463
29463
29463
29485
29485
29485
29485
29463
29463
29463
29420
29420
29420
29528
29528
29528
29463
29463
29463
29528
29528
29528
29528
29659
29659
29659
29333
29333
29333
29528
29528
29528
29398
29398
29398
29485
29485
29485
29485
29528
29528
29528
29420
29420
29420
29550
29550
29550
29398
29398
29398
29550
29550
29550
29550
29507
29507
29507
29420
29420
29420
29507
29507
29507
29615
29615
29615
29485
29485
29485
29485
29572
29572
29572
29463
29463
29463
29507
29507
29507
29441
29441
29441
29528
29528
29528
29528
29398
29398
29398
29180
29180
29180
29441
29441
29441
29420
29420
29420
29507
29507
29507
29507
29528
29528
29528
29463
29463
29463
29507
29507
29507
29267
29267
29267
29528
29528
29528
29528
29550
29550
29550
29420
29420
29420
29528
29528
29528
29463
29463
29463
29485
29485
29485
29485
29485
29485
29485
29528
29528
29528
29572
29572
29572
29463
29463
29463
29507
29507
29507
29507
29441
29441
29441
29463
29463
29463
29572
29572
29572
29420
29420
29420
29507
29507
29507
29507
29463
29463
29463
29420
29420
29420
29507
29507
29507
29311
29311
29311
29572
29572
29572
29572
29572
29572
29572
29507
29507
29507
29485
29485
29485
29463
29463
29463
29615
29615
29615
29615
29463
29463
29463
29289
29289
29289
29507
29507
29507
29398
29398
29398
29485
29485
29485
29485
29550
29550
29550
29463
29463
29463
29528
29528
29528
29528
29528
29528
29550
29550
29550
29550
29550
29550
29550
29441
29441
29441
29441
29441
29441
29441
29441
29441
29398
29398
29398
29398
29441
29441
29441
29398
29398
29398
29528
29528
29528
29376
29376
29376
29485
29485
29485
29485
29441
29441
29441
29398
29398
29398
29528
29528
29528
29420
29420
29420
29507
29507
29507
29507
29485
29485
29485
29463
29463
29463
29528
29528
29528
29354
29354
29354
29528
29528
29528
29528
29507
29507
29507
29485
29485
29485
29572
29572
29572
29572
29572
29572
29572
29572
29572
29572
29550
29550
29550
29311
29311
29311
29528
29528
29528
29485
29485
29485
29507
29507
29507
29507
29528
29528
29528
29441
29441
29441
29507
29507
29507
29420
29420
29420
29528
29528
29528
29528
29507
29507
29507
29485
29485
29485
29550
29550
29550
29637
29637
29637
29354
29354
29354
29354
29572
29572
29572
29376
29376
29376
29463
29463
29463
29441
29441
29441
29594
29594
29594
29594
29485
29485
29485
29376
29376
29376
29550
29550
29550
29376
29376
29376
29507
29507
29507
29507
29594
29594
29594
29441
29441
29441
29507
29507
29507
29463
29463
29463
29703
29703
29703
29703
29550
29550
29550
29398
29398
29398
29594
29594
29594
29441
29441
29441
29507
29507
29507
29507
29485
29485
29485
29420
29420
29420
29485
29485
29485
29441
29441
29441
29550
29550
29550
29550
29463
29463
29463
29420
29420
29420
29507
29507
29507
29441
29441
29441
29463
29463
29463
29463
29441
29441
29441
29441
29441
29441
29507
29507
29507
29441
29441
29441
29507
29507
29507
29507
29463
29463
29463
29420
29420
29420
29572
29572
29572
29441
29441
29441
29507
29507
29507
29507
29507
29507
29507
29463
29463
29463
29550
29550
29550
29420
29420
29420
29485
29485
29485
29485
29572
29572
29572
29420
29420
29420
29528
29528
29528
29398
29398
29398
29528
29528
29528
29528
29572
29572
29572
29463
29463
29463
29594
29594
29594
29441
29441
29441
29507
29507
29507
29507
29507
29507
29507
29463
29463
29463
29572
29572
29572
29420
29420
29420
29550
29550
29550
29550
29637
29637
29637
29420
29420
29420
29485
29485
29485
29180
29180
29180
29659
29659
29659
29659
29376
29376
29376
29528
29528
29528
29615
29615
29615
29441
29441
29441
29507
29507
29507
29507
29485
29485
29485
29463
29463
29463
29420
29420
29420
29441
29441
29441
29507
29507
29507
29507
29550
29550
29550
29441
29441
29441
29528
29528
29528
29507
29507
29507
29528
29528
29528
29528
29572
29572
29572
29354
29354
29354
29507
29507
29507
29463
29463
29463
29485
29485
29485
29485
29441
29441
29441
29420
29420
29420
29420
29420
29420
29507
29507
29507
29550
29550
29550
29550
29485
29485
29485
29376
29376
29376
29528
29528
29528
29485
29485
29485
29507
29507
29507
29507
29463
29463
29463
29441
29441
29441
29528
29528
29528
29267
29267
29267
29485
29485
29485
29485
29507
29507
29507
29463
29463
29463
29485
29485
29485
29441
29441
29441
29507
29507
29507
29507
29485
29485
29485
29441
29441
29441
29485
29485
29485
29507
29507
29507
29528
29528
29528
29528
29528
29528
29528
29420
29420
29420
29463
29463
29463
29420
29420
29420
29615
29615
29615
29615
29485
29485
29485
29333
29333
29333
29528
29528
29528
29463
29463
29463
29507
29507
29507
29507
29594
29594
29594
29463
29463
29463
29615
29615
29615
29420
29420
29420
29507
29507
29507
29507
29463
29463
29463
29463
29463
29463
29572
29572
29572
29398
29398
29398
29463
29463
29463
29463
29615
29615
29615
29333
29333
29333
29615
29615
29615
29550
29550
29550
29550
29550
29550
29550
29528
29528
29528
29311
29311
29311
29572
29572
29572
29420
29420
29420
29507
29507
29507
29507
29507
29507
29507
29376
29376
29376
29485
29485
29485
29398
29398
29398
29550
29550
29550
29550
29528
29528
29528
29463
29463
29463
29507
29507
29507
29441
29441
29441
29485
29485
29485
29485
29441
29441
29441
29224
29224
29224
29463
29463
29463
29441
29441
29441
29528
29528
29528
29528
29507
29507
29507
29420
29420
29420
29528
29528
29528
29463
29463
29463
29485
29485
29485
29485
29528
29528
29528
29420
29420
29420
29507
29507
29507
29398
29398
29398
29333
29333
29333
29333
29528
29528
29528
29354
29354
29354
29659
29659
29659
29485
29485
29485
29485
29485
29485
29485
29528
29528
29528
29333
29333
29333
29550
29550
29550
29420
29420
29420
29507
29507
29507
29507
29463
29463
29463
29398
29398
29398
29507
29507
29507
29354
29354
29354
29572
29572
29572
29572
29398
29398
29398
29441
29441
29441
29485
29485
29485
29441
29441
29441
29550
29550
29550
29550
29550
29550
29550
29507
29507
29507
29463
29463
29463
29441
29441
29441
29572
29572
29572
29572
29528
29528
29528
29441
29441
29441
29528
29528
29528
29398
29398
29398
29572
29572
29572
29572
29463
29463
29463
29572
29572
29572
29528
29528
29528
29463
29463
29463
29485
29485
29485
29485
29354
29354
29354
29354
29354
29354
29420
29420
29420
29420
29420
29420
29528
29528
29528
29528
29550
29550
29550
29398
29398
29398
29572
29572
29572
29354
29354
29354
29528
29528
29528
29528
29354
29354
29354
29507
29507
29507
29550
29550
29550
29246
29246
29246
29376
29376
29376
29376
29354
29354
29354
29398
29398
29398
29485
29485
29485
29398
29398
29398
29485
29485
29485
29485
29485
29485
29485
29420
29420
29420
29507
29507
29507
29507
29507
29507
29507
29507
29507
29507
29463
29463
29463
29441
29441
29441
29528
29528
29528
29420
29420
29420
29441
29441
29441
29441
29485
29485
29485
29463
29463
29463
29528
29528
29528
29485
29485
29485
29485
29485
29485
29485
29485
29485
29485
29420
29420
29420
29528
29528
29528
29420
29420
29420
29528
29528
29528
29528
29485
29485
29485
29398
29398
29398
29528
29528
29528
29376
29376
29376
29572
29572
29572
29572
29615
29615
29615
29311
29311
29311
29594
29594
29594
29398
29398
29398
29550
29550
29550
29550
29615
29615
29615
29376
29376
29376
29441
29441
29441
29398
29398
29398
29507
29507
29507
29507
29485
29485
29485
29441
29441
29441
29507
29507
29507
29507
29507
29507
29507
29507
29507
29507
29615
29615
29615
29463
29463
29463
29528
29528
29528
29485
29485
29485
29528
29528
29528
29528
29528
29528
29528
29441
29441
29441
29463
29463
29463
29398
29398
29398
29507
29507
29507
29507
29485
29485
29485
29441
29441
29441
29528
29528
29528
29376
29376
29376
29485
29485
29485
29485
29528
29528
29528
29441
29441
29441
29441
29441
29441
29441
29441
29441
29420
29420
29420
29420
29463
29463
29463
29485
29485
29485
29572
29572
29572
29463
29463
29463
29485
29485
29485
29485
29485
29485
29485
29463
29463
29463
29398
29398
29398
29463
29463
29463
29528
29528
29528
29528
29485
29485
29485
29398
29398
29398
29528
29528
29528
29528
29528
29528
29528
29528
29528
29528
29398
29398
29398
29398
29398
29398
29528
29528
29528
29441
29441
29441
29485
29485
29485
29485
29507
29507
29507
29354
29354
29354
29507
29507
29507
29420
29420
29420
29550
29550
29550
29550
29507
29507
29507
29441
29441
29441
29485
29485
29485
29398
29398
29398
29528
29528
29528
29528
29507
29507
29507
29441
29441
29441
29507
29507
29507
29333
29333
29333
29550
29550
29550
29550
29376
29376
29376
29507
29507
29507
29550
29550
29550
29441
29441
29441
29507
29507
29507
29507
29485
29485
29485
29463
29463
29463
29507
29507
29507
29398
29398
29398
29485
29485
29485
29485
29441
29441
29441
29420
29420
29420
29507
29507
29507
29398
29398
29398
29398
29398
29398
29398
29550
29550
29550
29398
29398
29398
29528
29528
29528
29420
29420
29420
29507
29507
29507
29507
29507
29507
29507
29441
29441
29441
29463
29463
29463
29333
29333
29333
29507
29507
29507
29507
29550
29550
29550
29420
29420
29420
29507
29507
29507
29441
29441
29441
29376
29376
29376
29376
29398
29398
29398
29159
29159
29159
29550
29550
29550
29463
29463
29463
29528
29528
29528
29528
29507
29507
29507
29420
29420
29420
29615
29615
29615
29420
29420
29420
29528
29528
29528
29528
29441
29441
29441
29420
29420
29420
29485
29485
29485
29463
29463
29463
29637
29637
29637
29637
29528
29528
29528
29441
29441
29441
29637
29637
29637
29333
29333
29333
29550
29550
29550
29550
29354
29354
29354
29398
29398
29398
29528
29528
29528
29441
29441
29441
29528
29528
29528
29528
29507
29507
29507
29420
29420
29420
29441
29441
29441
29550
29550
29550
29463
29463
29463
29463
29485
29485
29485
29463
29463
29463
29398
29398
29398
29485
29485
29485
29550
29550
29550
29550
29572
29572
29572
29398
29398
29398
29528
29528
29528
29398
29398
29398
29507
29507
29507
29507
29463
29463
29463
29463
29463
29463
29550
29550
29550
29441
29441
29441
29528
29528
29528
29528
29594
29594
29594
29441
29441
29441
29528
29528
29528
29572
29572
29572
29441
29441
29441
29441
29572
29572
29572
29441
29441
29441
29441
29441
29441
29441
29441
29441
29507
29507
29507
29507
29528
29528
29528
29420
29420
29420
29463
29463
29463
29507
29507
29507
29507
29507
29507
29507
29550
29550
29550
29441
29441
29441
29485
29485
29485
29289
29289
29289
29703
29703
29703
29703
29420
29420
29420
29507
29507
29507
29572
29572
29572
29441
29441
29441
29507
29507
29507
29507
29572
29572
29572
29463
29463
29463
29528
29528
29528
29507
29507
29507
29507
29507
29507
29507
29463
29463
29463
29420
29420
29420
29507
29507
29507
29354
29354
29354
29398
29398
29398
29398
29420
29420
29420
29376
29376
29376
29572
29572
29572
29420
29420
29420
29572
29572
29572
29572
29463
29463
29463
29463
29463
29463
29463
29463
29463
29420
29420
29420
29485
29485
29485
29485
29528
29528
29528
29420
29420
29420
29528
29528
29528
29420
29420
29420
29594
29594
29594
29594
29507
29507
29507
29441
29441
29441
29441
29441
29441
29420
29420
29420
29550
29550
29550
29550
29507
29507
29507
29528
29528
29528
29572
29572
29572
29441
29441
29441
29507
29507
29507
29507
29441
29441
29441
29463
29463
29463
29507
29507
29507
29703
29703
29703
29528
29528
29528
29528
29354
29354
29354
29485
29485
29485
29398
29398
29398
29507
29507
29507
29441
29441
29441
29441
29550
29550
29550
29376
29376
29376
29485
29485
29485
29398
29398
29398
29507
29507
29507
29507
29202
29202
29202
29441
29441
29441
29528
29528
29528
29420
29420
29420
29659
29659
29659
29659
29572
29572
29572
29441
29441
29441
29550
29550
29550
29507
29507
29507
29572
29572
29572
29572
29594
29594
29594
29485
29485
29485
29507
29507
29507
29376
29376
29376
29528
29528
29528
29528
29550
29550
29550
29376
29376
29376
29463
29463
29463
29441
29441
29441
29507
29507
29507
29507
29463
29463
29463
29420
29420
29420
29507
29507
29507
29659
29659
29659
29507
29507
29507
29507
29681
29681
29681
29463
29463
29463
29528
29528
29528
29398
29398
29398
29507
29507
29507
29507
29485
29485
29485
29441
29441
29441
29463
29463
29463
29507
29507
29507
29463
29463
29463
29463
29528
29528
29528
29420
29420
29420
29507
29507
29507
29376
29376
29376
29572
29572
29572
29572
29463
29463
29463
29485
29485
29485
29507
29507
29507
29376
29376
29376
29528
29528
29528
29528
29485
29485
29485
29441
29441
29441
29507
29507
29507
29354
29354
29354
29507
29507
29507
29507
29463
29463
29463
29463
29463
29463
29507
29507
29507
29420
29420
29420
29441
29441
29441
29441
29420
29420
29420
29398
29398
29398
29550
29550
29550
29528
29528
29528
29507
29507
29507
29507
29507
29507
29507
29463
29463
29463
29398
29398
29398
29463
29463
29463
29507
29507
29507
29507
29485
29485
29485
29441
29441
29441
29485
29485
29485
29420
29420
29420
29528
29528
29528
29528
29398
29398
29398
29289
29289
29289
29572
29572
29572
29289
29289
29289
29507
29507
29507
29507
29441
29441
29441
29398
29398
29398
29594
29594
29594
29420
29420
29420
29572
29572
29572
29572
29485
29485
29485
29420
29420
29420
29485
29485
29485
29420
29420
29420
29594
29594
29594
29594
29637
29637
29637
29420
29420
29420
29615
29615
29615
29441
29441
29441
29550
29550
29550
29550
29420
29420
29420
29528
29528
29528
29528
29528
29528
29420
29420
29420
29507
29507
29507
29507
29507
29507
29507
29441
29441
29441
29441
29441
29441
29550
29550
29550
29507
29507
29507
29507
29441
29441
29441
29463
29463
29463
29528
29528
29528
29420
29420
29420
29572
29572
29572
29572
29463
29463
29463
29441
29441
29441
29463
29463
29463
29441
29441
29441
29507
29507
29507
29507
29550
29550
29550
29463
29463
29463
29485
29485
29485
29463
29463
29463
29528
29528
29528
29528
29572
29572
29572
29420
29420
29420
29572
29572
29572
29420
29420
29420
29703
29703
29703
29703
29441
29441
29441
29398
29398
29398
29420
29420
29420
29354
29354
29354
29485
29485
29485
29485
29550
29550
29550
29485
29485
29485
29550
29550
29550
29441
29441
29441
29507
29507
29507
29507
29528
29528
29528
29376
29376
29376
29507
29507
29507
29354
29354
29354
29528
29528
29528
29528
29485
29485
29485
29398
29398
29398
29572
29572
29572
29485
29485
29485
29441
29441
29441
29441
29507
29507
29507
29507
29507
29507
29528
29528
29528
29420
29420
29420
29528
29528
29528
29528
29507
29507
29507
29420
29420
29420
29594
29594
29594
29507
29507
29507
29528
29528
29528
29528
29507
29507
29507
29420
29420
29420
29528
29528
29528
29441
29441
29441
29572
29572
29572
29572
29507
29507
29507
29420
29420
29420
29485
29485
29485
29376
29376
29376
29485
29485
29485
29485
29420
29420
29420
29441
29441
29441
29441
29441
29441
29441
29441
29441
29507
29507
29507
29507
29485
29485
29485
29463
29463
29463
29485
29485
29485
29354
29354
29354
29463
29463
29463
29463
29594
29594
29594
29376
29376
29376
29550
29550
29550
29289
29289
29289
29507
29507
29507
29507
29398
29398
29398
29202
29202
29202
29485
29485
29485
29420
29420
29420
29485
29485
29485
29485
29463
29463
29463
29420
29420
29420
29528
29528
29528
29376
29376
29376
29594
29594
29594
29594
29485
29485
29485
29398
29398
29398
29528
29528
29528
29441
29441
29441
29441
29441
29441
29441
29420
29420
29420
29528
29528
29528
29528
29528
29528
29441
29441
29441
29507
29507
29507
29507
29528
29528
29528
29441
29441
29441
29507
29507
29507
29398
29398
29398
29507
29507
29507
29507
29463
29463
29463
29420
29420
29420
29485
29485
29485
29485
29485
29485
29420
29420
29420
29420
29572
29572
29572
29441
29441
29441
29507
29507
29507
29354
29354
29354
29637
29637
29637
29637
29420
29420
29420
29441
29441
29441
29572
29572
29572
29463
29463
29463
29507
29507
29507
29507
29485
29485
29485
29420
29420
29420
29550
29550
29550
29507
29507
29507
29550
29550
29550
29550
29615
29615
29615
29441
29441
29441
29485
29485
29485
29398
29398
29398
29703
29703
29703
29703
29550
29550
29550
29550
29550
29550
29615
29615
29615
29398
29398
29398
29528
29528
29528
29528
29485
29485
29485
29398
29398
29398
29420
29420
29420
29420
29420
29420
29463
29463
29463
29463
29528
29528
29528
29398
29398
29398
29441
29441
29441
29485
29485
29485
29420
29420
29420
29420
29550
29550
29550
29528
29528
29528
29441
29441
29441
29398
29398
29398
29528
29528
29528
29528
29420
29420
29420
29441
29441
29441
29463
29463
29463
29463
29463
29463
29528
29528
29528
29528
29485
29485
29485
29441
29441
29441
29507
29507
29507
29528
29528
29528
29485
29485
29485
29485
29572
29572
29572
29441
29441
29441
29485
29485
29485
29572
29572
29572
29507
29507
29507
29507
29637
29637
29637
29485
29485
29485
29463
29463
29463
29398
29398
29398
29550
29550
29550
29550
29507
29507
29507
29441
29441
29441
29485
29485
29485
29398
29398
29398
29485
29485
29485
29485
29550
29550
29550
29485
29485
29485
29528
29528
29528
29441
29441
29441
29507
29507
29507
29507
29528
29528
29528
29420
29420
29420
29441
29441
29441
29420
29420
29420
29550
29550
29550
29550
29485
29485
29485
29441
29441
29441
29572
29572
29572
29507
29507
29507
29507
29507
29507
29507
29572
29572
29572
29420
29420
29420
29485
29485
29485
29420
29420
29420
29528
29528
29528
29528
29507
29507
29507
29572
29572
29572
29507
29507
29507
29441
29441
29441
29507
29507
29507
29507
29572
29572
29572
29420
29420
29420
29398
29398
29398
29441
29441
29441
29485
29485
29485
29485
29398
29398
29398
29420
29420
29420
29463
29463
29463
29420
29420
29420
29485
29485
29485
29485
29463
29463
29463
29311
29311
29311
29507
29507
29507
29550
29550
29550
29398
29398
29398
29398
29441
29441
29441
29485
29485
29485
29550
29550
29550
29463
29463
29463
29528
29528
29528
29528
29550
29550
29550
29420
29420
29420
29485
29485
29485
29420
29420
29420
29420
29420
29420
29420
29441
29441
29441
29420
29420
29420
29463
29463
29463
29420
29420
29420
29485
29485
29485
29485
29333
29333
29333
29441
29441
29441
29463
29463
29463
29420
29420
29420
29507
29507
29507
29507
29528
29528
29528
29441
29441
29441
29507
29507
29507
29398
29398
29398
29507
29507
29507
29507
29528
29528
29528
29463
29463
29463
29528
29528
29528
29376
29376
29376
29507
29507
29507
29507
29528
29528
29528
29485
29485
29485
29420
29420
29420
29376
29376
29376
29485
29485
29485
29485
29485
29485
29485
29354
29354
29354
29485
29485
29485
29441
29441
29441
29572
29572
29572
29572
29485
29485
29485
29420
29420
29420
29528
29528
29528
29441
29441
29441
29485
29485
29485
29485
29528
29528
29528
29354
29354
29354
29528
29528
29528
29354
29354
29354
29485
29485
29485
29485
29376
29376
29376
29420
29420
29420
29507
29507
29507
29354
29354
29354
29550
29550
29550
29550
29333
29333
29333
29441
29441
29441
29572
29572
29572
29420
29420
29420
29507
29507
29507
29507
29507
29507
29507
29507
29507
29507
29485
29485
29485
29441
29441
29441
29528
29528
29528
29528
29572
29572
29572
29398
29398
29398
29485
29485
29485
29463
29463
29463
29485
29485
29485
29485
29441
29441
29441
29485
29485
29485
29507
29507
29507
29463
29463
29463
29572
29572
29572
29572
29485
29485
29485
29420
29420
29420
29507
29507
29507
29441
29441
29441
29572
29572
29572
29572
29485
29485
29485
29420
29420
29420
29507
29507
29507
29398
29398
29398
29507
29507
29507
29507
29528
29528
29528
29463
29463
29463
29507
29507
29507
29507
29507
29507
29420
29420
29420
29420
29550
29550
29550
29289
29289
29289
29528
29528
29528
29420
29420
29420
29441
29441
29441
29441
29507
29507
29507
29420
29420
29420
29333
29333
29333
29398
29398
29398
29507
29507
29507
29507
29463
29463
29463
29441
29441
29441
29550
29550
29550
29420
29420
29420
29550
29550
29550
29550
29398
29398
29398
29507
29507
29507
29528
29528
29528
29441
29441
29441
29441
29441
29441
29441
29463
29463
29463
29463
29463
29463
29267
29267
29267
29507
29507
29507
29507
29507
29507
29507
29507
29507
29507
29463
29463
29463
29507
29507
29507
29441
29441
29441
29485
29485
29485
29485
29528
29528
29528
29463
29463
29463
29485
29485
29485
29441
29441
29441
29507
29507
29507
29507
29528
29528
29528
29376
29376
29376
29485
29485
29485
29507
29507
29507
29398
29398
29398
29398
29637
29637
29637
29246
29246
29246
29507
29507
29507
29333
29333
29333
29507
29507
29507
29507
29420
29420
29420
29420
29420
29420
29507
29507
29507
29376
29376
29376
29507
29507
29507
29507
29528
29528
29528
29398
29398
29398
29463
29463
29463
29420
29420
29420
29637
29637
29637
29637
29637
29637
29637
29398
29398
29398
29615
29615
29615
29463
29463
29463
29507
29507
29507
29507
29550
29550
29550
29420
29420
29420
29507
29507
29507
29376
29376
29376
29550
29550
29550
29550
29463
29463
29463
29376
29376
29376
29528
29528
29528
29420
29420
29420
29528
29528
29528
29528
29550
29550
29550
29354
29354
29354
29420
29420
29420
29289
29289
29289
29507
29507
29507
29507
29594
29594
29594
29420
29420
29420
29485
29485
29485
29420
29420
29420
29615
29615
29615
29615
29615
29615
29615
29441
29441
29441
29550
29550
29550
29441
29441
29441
29441
29441
29441
29441
29507
29507
29507
29398
29398
29398
29441
29441
29441
29572
29572
29572
29441
29441
29441
29441
29528
29528
29528
29289
29289
29289
29637
29637
29637
29354
29354
29354
29550
29550
29550
29550
29550
29550
29550
29463
29463
29463
29507
29507
29507
29376
29376
29376
29485
29485
29485
29485
29507
29507
29507
29398
29398
29398
29441
29441
29441
29420
29420
29420
29528
29528
29528
29528
29528
29528
29528
29398
29398
29398
29746
29746
29746
29376
29376
29376
29507
29507
29507
29507
29615
29615
29615
29398
29398
29398
29485
29485
29485
29485
29485
29485
29572
29572
29572
29572
29420
29420
29420
29398
29398
29398
29485
29485
29485
29441
29441
29441
29528
29528
29528
29528
29485
29485
29485
29550
29550
29550
29485
29485
29485
29333
29333
29333
29441
29441
29441
29441
29463
29463
29463
29463
29463
29463
29507
29507
29507
29507
29507
29507
29507
29507
29507
29507
29550
29550
29550
29463
29463
29463
29441
29441
29441
29398
29398
29398
29528
29528
29528
29528
29507
29507
29507
29354
29354
29354
29485
29485
29485
29441
29441
29441
29463
29463
29463
29463
29507
29507
29507
29376
29376
29376
29398
29398
29398
29224
29224
29224
29507
29507
29507
29507
29637
29637
29637
29463
29463
29463
29463
29463
29463
29333
29333
29333
29507
29507
29507
29507
29507
29507
29507
29550
29550
29550
29528
29528
29528
29398
29398
29398
29485
29485
29485
29485
29572
29572
29572
29398
29398
29398
29485
29485
29485
29311
29311
29311
29485
29485
29485
29485
29463
29463
29463
29333
29333
29333
29637
29637
29637
29420
29420
29420
29485
29485
29485
29485
29594
29594
29594
29420
29420
29420
29528
29528
29528
29398
29398
29398
29594
29594
29594
29594
29485
29485
29485
29376
29376
29376
29550
29550
29550
29485
29485
29485
29637
29637
29637
29637
29507
29507
29507
29420
29420
29420
29550
29550
29550
29289
29289
29289
29463
29463
29463
29463
29441
29441
29441
29463
29463
29463
29550
29550
29550
29333
29333
29333
29528
29528
29528
29528
29615
29615
29615
29507
29507
29507
29550
29550
29550
29398
29398
29398
29637
29637
29637
29637
29528
29528
29528
29572
29572
29572
29420
29420
29420
29550
29550
29550
29463
29463
29463
29463
29615
29615
29615
29485
29485
29485
29528
29528
29528
29507
29507
29507
29398
29398
29398
29398
29594
29594
29594
29441
29441
29441
29463
29463
29463
29420
29420
29420
29507
29507
29507
29507
29463
29463
29463
29507
29507
29507
29615
29615
29615
29376
29376
29376
29528
29528
29528
29528
29615
29615
29615
29485
29485
29485
29615
29615
29615
29507
29507
29507
29507
29507
29507
29507
29528
29528
29528
29333
29333
29333
29528
29528
29528
29485
29485
29485
29594
29594
29594
29594
29398
29398
29398
29485
29485
29485
29420
29420
29420
29398
29398
29398
29507
29507
29507
29507
29594
29594
29594
29463
29463
29463
29420
29420
29420
29485
29485
29485
29507
29507
29507
29507
29615
29615
29615
29441
29441
29441
29507
29507
29507
29354
29354
29354
29441
29441
29441
29441
29572
29572
29572
29420
29420
29420
29485
29485
29485
29463
29463
29463
29507
29507
29507
29507
29485
29485
29485
29333
29333
29333
29441
29441
29441
29441
29441
29441
29463
29463
29463
29463
29615
29615
29615
29528
29528
29528
29550
29550
29550
29463
29463
29463
29528
29528
29528
29528
29550
29550
29550
29420
29420
29420
29528
29528
29528
29463
29463
29463
29550
29550
29550
29550
29441
29441
29441
29528
29528
29528
29507
29507
29507
29398
29398
29398
29550
29550
29550
29550
29463
29463
29463
29681
29681
29681
29507
29507
29507
29376
29376
29376
29485
29485
29485
29485
29485
29485
29485
29420
29420
29420
29528
29528
29528
29507
29507
29507
29485
29485
29485
29485
29441
29441
29441
29420
29420
29420
29507
29507
29507
29441
29441
29441
29550
29550
29550
29550
29507
29507
29507
29376
29376
29376
29594
29594
29594
29398
29398
29398
29550
29550
29550
29550
29550
29550
29550
29441
29441
29441
29398
29398
29398
29311
29311
29311
29528
29528
29528
29528
29507
29507
29507
29398
29398
29398
29528
29528
29528
29441
29441
29441
29615
29615
29615
29615
29528
29528
29528
29398
29398
29398
29507
29507
29507
29398
29398
29398
29507
29507
29507
29507
29485
29485
29485
29354
29354
29354
29485
29485
29485
29441
29441
29441
29528
29528
29528
29528
29507
29507
29507
29507
29507
29507
29485
29485
29485
29441
29441
29441
29550
29550
29550
29550
29507
29507
29507
29441
29441
29441
29507
29507
29507
29485
29485
29485
29463
29463
29463
29463
29485
29485
29485
29485
29485
29485
29528
29528
29528
29463
29463
29463
29463
29463
29463
29463
29528
29528
29528
29441
29441
29441
29615
29615
29615
29420
29420
29420
29485
29485
29485
29485
29637
29637
29637
29463
29463
29463
29507
29507
29507
29376
29376
29376
29528
29528
29528
29528
29528
29528
29528
29441
29441
29441
29528
29528
29528
29420
29420
29420
29528
29528
29528
29528
29550
29550
29550
29354
29354
29354
29485
29485
29485
29441
29441
29441
29528
29528
29528
29528
29550
29550
29550
29441
29441
29441
29507
29507
29507
29398
29398
29398
29267
29267
29267
29267
29507
29507
29507
29398
29398
29398
29572
29572
29572
29507
29507
29507
29463
29463
29463
29463
29594
29594
29594
29463
29463
29463
29507
29507
29507
29441
29441
29441
29441
29441
29441
29441
29398
29398
29398
29333
29333
29333
29180
29180
29180
29376
29376
29376
29507
29507
29507
29507
29485
29485
29485
29420
29420
29420
29441
29441
29441
29441
29441
29441
29550
29550
29550
29550
29485
29485
29485
29441
29441
29441
29550
29550
29550
29398
29398
29398
29550
29550
29550
29550
29441
29441
29441
29376
29376
29376
29507
29507
29507
29420
29420
29420
29615
29615
29615
29615
29485
29485
29485
29398
29398
29398
29572
29572
29572
29420
29420
29420
29550
29550
29550
29550
29615
29615
29615
29441
29441
29441
29528
29528
29528
29550
29550
29550
29528
29528
29528
29528
29594
29594
29594
29528
29528
29528
29528
29528
29528
29463
29463
29463
29550
29550
29550
29550
29528
29528
29528
29420
29420
29420
29681
29681
29681
29463
29463
29463
29507
29507
29507
29507
29615
29615
29615
29376
29376
29376
29550
29550
29550
29441
29441
29441
29485
29485
29485
29485
29507
29507
29507
29441
29441
29441
29507
29507
29507
29398
29398
29398
29528
29528
29528
29528
29485
29485
29485
29485
29485
29485
29507
29507
29507
29550
29550
29550
29615
29615
29615
29615
29333
29333
29333
29398
29398
29398
29420
29420
29420
29376
29376
29376
29507
29507
29507
29507
29485
29485
29485
29420
29420
29420
29507
29507
29507
29463
29463
29463
29485
29485
29485
29485
29528
29528
29528
29507
29507
29507
29550
29550
29550
29441
29441
29441
29572
29572
29572
29572
29507
29507
29507
29485
29485
29485
29485
29485
29485
29507
29507
29507
29550
29550
29550
29550
29528
29528
29528
29463
29463
29463
29528
29528
29528
29420
29420
29420
29528
29528
29528
29528
29528
29528
29528
29420
29420
29420
29550
29550
29550
29420
29420
29420
29637
29637
29637
29637
29528
29528
29528
29463
29463
29463
29507
29507
29507
29572
29572
29572
29507
29507
29507
29507
29659
29659
29659
29441
29441
29441
29572
29572
29572
29441
29441
29441
29485
29485
29485
29485
29485
29485
29485
29420
29420
29420
29507
29507
29507
29441
29441
29441
29550
29550
29550
29550
29507
29507
29507
29420
29420
29420
29528
29528
29528
29441
29441
29441
29398
29398
29398
29398
29507
29507
29507
29420
29420
29420
29267
29267
29267
29441
29441
29441
29528
29528
29528
29528
29507
29507
29507
29398
29398
29398
29528
29528
29528
29354
29354
29354
29550
29550
29550
29550
29615
29615
29615
29376
29376
29376
29485
29485
29485
29398
29398
29398
29572
29572
29572
29572
29528
29528
29528
29311
29311
29311
29420
29420
29420
29507
29507
29507
29594
29594
29594
29594
29507
29507
29507
29354
29354
29354
29659
29659
29659
29376
29376
29376
29507
29507
29507
29507
29528
29528
29528
29463
29463
29463
29507
29507
29507
29441
29441
29441
29485
29485
29485
29485
29463
29463
29463
29463
29463
29463
29507
29507
29507
29246
29246
29246
29528
29528
29528
29528
29485
29485
29485
29441
29441
29441
29615
29615
29615
29420
29420
29420
29528
29528
29528
29528
29528
29528
29528
29398
29398
29398
29485
29485
29485
29485
29485
29485
29572
29572
29572
29572
29615
29615
29615
29398
29398
29398
29507
29507
29507
29420
29420
29420
29463
29463
29463
29463
29463
29463
29463
29398
29398
29398
29420
29420
29420
29507
29507
29507
29507
29507
29507
29507
29485
29485
29485
29398
29398
29398
29441
29441
29441
29463
29463
29463
29550
29550
29550
29550
29550
29550
29550
29420
29420
29420
29485
29485
29485
29507
29507
29507
29485
29485
29485
29485
29485
29485
29485
29463
29463
29463
29528
29528
29528
29398
29398
29398
29528
29528
29528
29528
29507
29507
29507
29420
29420
29420
29528
29528
29528
29463
29463
29463
29550
29550
29550
29550
29463
29463
29463
29441
29441
29441
29485
29485
29485
29376
29376
29376
29507
29507
29507
29507
29485
29485
29485
29441
29441
29441
29485
29485
29485
29420
29420
29420
29398
29398
29398
29398
29615
29615
29615
29246
29246
29246
29528
29528
29528
29485
29485
29485
29528
29528
29528
29528
29485
29485
29485
29376
29376
29376
29659
29659
29659
29463
29463
29463
29550
29550
29550
29550
29507
29507
29507
29485
29485
29485
29550
29550
29550
29311
29311
29311
29441
29441
29441
29441
29463
29463
29463
29376
29376
29376
29528
29528
29528
29311
29311
29311
29507
29507
29507
29507
29376
29376
29376
29463
29463
29463
29507
29507
29507
29507
29507
29507
29507
29507
29507
29507
29485
29485
29485
29463
29463
29463
29507
29507
29507
29528
29528
29528
29463
29463
29463
29463
29420
29420
29420
29420
29420
29420
29550
29550
29550
29463
29463
29463
29594
29594
29594
29594
29572
29572
29572
29376
29376
29376
29550
29550
29550
29463
29463
29463
29507
29507
29507
29507
29441
29441
29441
29398
29398
29398
29507
29507
29507
29398
29398
29398
29594
29594
29594
29594
29507
29507
29507
29420
29420
29420
29528
29528
29528
29485
29485
29485
29441
29441
29441
29441
29550
29550
29550
29463
29463
29463
29594
29594
29594
29572
29572
29572
29441
29441
29441
29441
29420
29420
29420
29311
29311
29311
29441
29441
29441
29463
29463
29463
29550
29550
29550
29550
29485
29485
29485
29441
29441
29441
29528
29528
29528
29507
29507
29507
29463
29463
29463
29463
29485
29485
29485
29441
29441
29441
29507
29507
29507
29311
29311
29311
29572
29572
29572
29572
29333
29333
29333
29550
29550
29550
29507
29507
29507
29376
29376
29376
29507
29507
29507
29507
29485
29485
29485
29463
29463
29463
29463
29463
29463
29463
29463
29463
29507
29507
29507
29507
29528
29528
29528
29485
29485
29485
29463
29463
29463
29441
29441
29441
29333
29333
29333
29333
29528
29528
29528
29333
29333
29333
29485
29485
29485
29420
29420
29420
29420
29420
29420
29420
29485
29485
29485
29463
29463
29463
29528
29528
29528
29333
29333
29333
29485
29485
29485
29485
29463
29463
29463
29420
29420
29420
29528
29528
29528
29485
29485
29485
29528
29528
29528
29528
29528
29528
29528
29420
29420
29420
29550
29550
29550
29376
29376
29376
29420
29420
29420
29420
29550
29550
29550
29528
29528
29528
29463
29463
29463
29420
29420
29420
29507
29507
29507
29507
29507
29507
29507
29354
29354
29354
29572
29572
29572
29420
29420
29420
29528
29528
29528
29528
29485
29485
29485
29463
29463
29463
29485
29485
29485
29507
29507
29507
29507
29507
29507
29507
29398
29398
29398
29420
29420
29420
29485
29485
29485
29311
29311
29311
29420
29420
29420
29420
29507
29507
29507
29485
29485
29485
29507
29507
29507
29441
29441
29441
29463
29463
29463
29463
29485
29485
29485
29398
29398
29398
29441
29441
29441
29441
29441
29441
29507
29507
29507
29507
29507
29507
29507
29420
29420
29420
29550
29550
29550
29441
29441
29441
29550
29550
29550
29550
29615
29615
29615
29333
29333
29333
29463
29463
29463
29463
29463
29463
29550
29550
29550
29550
29507
29507
29507
29420
29420
29420
29594
29594
29594
29441
29441
29441
29528
29528
29528
29528
29528
29528
29528
29398
29398
29398
29615
29615
29615
29398
29398
29398
29594
29594
29594
29594
29528
29528
29528
29441
29441
29441
29637
29637
29637
29354
29354
29354
29572
29572
29572
29572
29572
29572
29572
29420
29420
29420
29485
29485
29485
29333
29333
29333
29507
29507
29507
29507
29528
29528
29528
29398
29398
29398
29441
29441
29441
29441
29441
29441
29507
29507
29507
29507
29485
29485
29485
29420
29420
29420
29507
29507
29507
29289
29289
29289
29507
29507
29507
29507
29463
29463
29463
29441
29441
29441
29572
29572
29572
29420
29420
29420
29528
29528
29528
29528
29572
29572
29572
29333
29333
29333
29550
29550
29550
29420
29420
29420
29463
29463
29463
29463
29528
29528
29528
29354
29354
29354
29507
29507
29507
29376
29376
29376
29528
29528
29528
29528
29746
29746
29746
29420
29420
29420
29463
29463
29463
29311
29311
29311
29550
29550
29550
29550
29659
29659
29659
29376
29376
29376
29463
29463
29463
29463
29463
29463
29550
29550
29550
29550
29485
29485
29485
29463
29463
29463
29507
29507
29507
29485
29485
29485
29507
29507
29507
29507
29528
29528
29528
29485
29485
29485
29572
29572
29572
29463
29463
29463
29528
29528
29528
29528
29485
29485
29485
29441
29441
29441
29572
29572
29572
29550
29550
29550
29463
29463
29463
29463
29398
29398
29398
29463
29463
29463
29572
29572
29572
29463
29463
29463
29485
29485
29485
29485
29463
29463
29463
29420
29420
29420
29507
29507
29507
29420
29420
29420
29507
29507
29507
29507
29507
29507
29507
29376
29376
29376
29420
29420
29420
29485
29485
29485
29463
29463
29463
29463
29507
29507
29507
29420
29420
29420
29441
29441
29441
29289
29289
29289
29528
29528
29528
29528
29550
29550
29550
29463
29463
29463
29485
29485
29485
29398
29398
29398
29463
29463
29463
29463
29507
29507
29507
29398
29398
29398
29507
29507
29507
29463
29463
29463
29507
29507
29507
29507
29528
29528
29528
29398
29398
29398
29703
29703
29703
29398
29398
29398
29485
29485
29485
29485
29420
29420
29420
29420
29420
29420
29463
29463
29463
29333
29333
29333
29485
29485
29485
29485
29441
29441
29441
29528
29528
29528
29485
29485
29485
29420
29420
29420
29485
29485
29485
29485
29485
29485
29485
29398
29398
29398
29463
29463
29463
29398
29398
29398
29485
29485
29485
29485
29572
29572
29572
29528
29528
29528
29485
29485
29485
29507
29507
29507
29528
29528
29528
29528
29420
29420
29420
29463
29463
29463
29550
29550
29550
29463
29463
29463
29441
29441
29441
29441
29528
29528
29528
29485
29485
29485
29572
29572
29572
29441
29441
29441
29485
29485
29485
29485
29550
29550
29550
29333
29333
29333
29528
29528
29528
29463
29463
29463
29528
29528
29528
29528
29485
29485
29485
29441
29441
29441
29507
29507
29507
29441
29441
29441
29420
29420
29420
29420
29507
29507
29507
29463
29463
29463
29507
29507
29507
29441
29441
29441
29463
29463
29463
29463
29528
29528
29528
29376
29376
29376
29550
29550
29550
29420
29420
29420
29463
29463
29463
29463
29333
29333
29333
29463
29463
29463
29550
29550
29550
29398
29398
29398
29572
29572
29572
29572
29485
29485
29485
29398
29398
29398
29485
29485
29485
29354
29354
29354
29528
29528
29528
29528
29485
29485
29485
29398
29398
29398
29528
29528
29528
29441
29441
29441
29572
29572
29572
29572
29528
29528
29528
29528
29528
29528
29485
29485
29485
29354
29354
29354
29507
29507
29507
29507
29485
29485
29485
29463
29463
29463
29507
29507
29507
29398
29398
29398
29594
29594
29594
29594
29507
29507
29507
29485
29485
29485
29485
29485
29485
29420
29420
29420
29528
29528
29528
29528
29485
29485
29485
29507
29507
29507
29376
29376
29376
29463
29463
29463
29550
29550
29550
29550
29463
29463
29463
29463
29463
29463
29485
29485
29485
29528
29528
29528
29528
29528
29528
29528
29507
29507
29507
29463
29463
29463
29507
29507
29507
29376
29376
29376
29485
29485
29485
29485
29550
29550
29550
29463
29463
29463
29572
29572
29572
29202
29202
29202
29594
29594
29594
29594
29507
29507
29507
29333
29333
29333
29572
29572
29572
29441
29441
29441
29507
29507
29507
29507
29485
29485
29485
29420
29420
29420
29485
29485
29485
29441
29441
29441
29441
29441
29441
29441
29441
29441
29441
29420
29420
29420
29507
29507
29507
29420
29420
29420
29485
29485
29485
29485
29463
29463
29463
29507
29507
29507
29594
29594
29594
29376
29376
29376
29528
29528
29528
29528
29572
29572
29572
29441
29441
29441
29572
29572
29572
29333
29333
29333
29507
29507
29507
29507
29507
29507
29507
29441
29441
29441
29507
29507
29507
29441
29441
29441
29463
29463
29463
29463
29572
29572
29572
29420
29420
29420
29528
29528
29528
29354
29354
29354
29398
29398
29398
29398
29615
29615
29615
29420
29420
29420
29463
29463
29463
29398
29398
29398
29528
29528
29528
29528
29485
29485
29485
29441
29441
29441
29485
29485
29485
29398
29398
29398
29507
29507
29507
29507
29528
29528
29528
29463
29463
29463
29528
29528
29528
29398
29398
29398
29507
29507
29507
29507
29550
29550
29550
29354
29354
29354
29594
29594
29594
29550
29550
29550
29594
29594
29594
29594
29507
29507
29507
29398
29398
29398
29572
29572
29572
29507
29507
29507
29528
29528
29528
29528
29485
29485
29485
29420
29420
29420
29485
29485
29485
29376
29376
29376
29572
29572
29572
29572
29507
29507
29507
29398
29398
29398
29376
29376
29376
29441
29441
29441
29594
29594
29594
29594
29550
29550
29550
29441
29441
29441
29528
29528
29528
29441
29441
29441
29507
29507
29507
29507
29507
29507
29507
29441
29441
29441
29485
29485
29485
29441
29441
29441
29507
29507
29507
29507
29681
29681
29681
29441
29441
29441
29485
29485
29485
29354
29354
29354
29376
29376
29376
29376
29398
29398
29398
29615
29615
29615
29528
29528
29528
29485
29485
29485
29485
29485
29485
29485
29463
29463
29463
29376
29376
29376
29485
29485
29485
29485
29485
29485
29528
29528
29528
29528
29528
29528
29528
29398
29398
29398
29485
29485
29485
29441
29441
29441
29420
29420
29420
29420
29420
29420
29420
29441
29441
29441
29528
29528
29528
29507
29507
29507
29441
29441
29441
29441
29398
29398
29398
29441
29441
29441
29572
29572
29572
29441
29441
29441
29572
29572
29572
29572
29528
29528
29528
29376
29376
29376
29463
29463
29463
29398
29398
29398
29485
29485
29485
29485
29550
29550
29550
29463
29463
29463
29507
29507
29507
29441
29441
29441
29550
29550
29550
29550
29463
29463
29463
29507
29507
29507
29507
29507
29507
29354
29354
29354
29550
29550
29550
29550
29463
29463
29463
29485
29485
29485
29528
29528
29528
29420
29420
29420
29507
29507
29507
29507
29463
29463
29463
29463
29463
29463
29550
29550
29550
29398
29398
29398
29507
29507
29507
29507
29441
29441
29441
29398
29398
29398
29550
29550
29550
29354
29354
29354
29485
29485
29485
29485
29615
29615
29615
29333
29333
29333
29594
29594
29594
29485
29485
29485
29550
29550
29550
29550
29528
29528
29528
29398
29398
29398
29528
29528
29528
29420
29420
29420
29507
29507
29507
29507
29528
29528
29528
29441
29441
29441
29463
29463
29463
29246
29246
29246
29507
29507
29507
29507
29528
29528
29528
29441
29441
29441
29485
29485
29485
29550
29550
29550
29746
29746
29746
29746
29398
29398
29398
29420
29420
29420
29507
29507
29507
29420
29420
29420
29550
29550
29550
29550
29485
29485
29485
29333
29333
29333
29550
29550
29550
29398
29398
29398
29550
29550
29550
29550
29528
29528
29528
29441
29441
29441
29572
29572
29572
29420
29420
29420
29528
29528
29528
29528
29507
29507
29507
29441
29441
29441
29441
29441
29441
29463
29463
29463
29333
29333
29333
29333
29311
29311
29311
29441
29441
29441
29615
29615
29615
29463
29463
29463
29528
29528
29528
29528
29550
29550
29550
29441
29441
29441
29420
29420
29420
29463
29463
29463
29528
29528
29528
29528
29507
29507
29507
29441
29441
29441
29507
29507
29507
29289
29289
29289
29202
29202
29202
29202
29550
29550
29550
29376
29376
29376
29485
29485
29485
29441
29441
29441
29354
29354
29354
29354
29485
29485
29485
29441
29441
29441
29528
29528
29528
29420
29420
29420
29485
29485
29485
29485
29528
29528
29528
29441
29441
29441
29420
29420
29420
29398
29398
29398
29572
29572
29572
29572
29507
29507
29507
29420
29420
29420
29507
29507
29507
29550
29550
29550
29615
29615
29615
29615
29637
29637
29637
29550
29550
29550
29485
29485
29485
29507
29507
29507
29528
29528
29528
29528
29528
29528
29528
29463
29463
29463
29615
29615
29615
29463
29463
29463
29528
29528
29528
29528
29550
29550
29550
29398
29398
29398
29550
29550
29550
29507
29507
29507
29507
29507
29507
29507
29528
29528
29528
29528
29528
29528
29572
29572
29572
29485
29485
29485
29572
29572
29572
29572
29463
29463
29463
29441
29441
29441
29507
29507
29507
29398
29398
29398
29507
29507
29507
29507
29507
29507
29507
29333
29333
29333
29420
29420
29420
29441
29441
29441
29485
29485
29485
29485
29507
29507
29507
29420
29420
29420
29463
29463
29463
29550
29550
29550
29441
29441
29441
29441
29507
29507
29507
29485
29485
29485
29528
29528
29528
29420
29420
29420
29507
29507
29507
29507
29507
29507
29507
29333
29333
29333
29441
29441
29441
29420
29420
29420
29507
29507
29507
29507
29507
29507
29507
29441
29441
29441
29550
29550
29550
29528
29528
29528
29637
29637
29637
29637
29528
29528
29528
29420
29420
29420
29441
29441
29441
29420
29420
29420
29463
29463
29463
29463
29463
29463
29463
29376
29376
29376
29507
29507
29507
29398
29398
29398
29507
29507
29507
29507
29485
29485
29485
29441
29441
29441
29463
29463
29463
29398
29398
29398
29485
29485
29485
29485
29463
29463
29463
29637
29637
29637
29572
29572
29572
29572
29572
29572
29485
29485
29485
29485
29637
29637
29637
29398
29398
29398
29507
29507
29507
29398
29398
29398
29485
29485
29485
29485
29463
29463
29463
29420
29420
29420
29550
29550
29550
29420
29420
29420
29528
29528
29528
29528
29507
29507
29507
29420
29420
29420
29420
29420
29420
29485
29485
29485
29550
29550
29550
29550
29528
29528
29528
29376
29376
29376
29507
29507
29507
29376
29376
29376
29420
29420
29420
29420
29485
29485
29485
29311
29311
29311
29507
29507
29507
29441
29441
29441
29507
29507
29507
29507
29507
29507
29507
29507
29507
29507
29485
29485
29485
29615
29615
29615
29594
29594
29594
29594
29420
29420
29420
29420
29420
29420
29463
29463
29463
29441
29441
29441
29463
29463
29463
29463
29441
29441
29441
29398
29398
29398
29485
29485
29485
29420
29420
29420
29659
29659
29659
29659
29724
29724
29724
29485
29485
29485
29507
29507
29507
29441
29441
29441
29550
29550
29550
29550
29550
29550
29550
29376
29376
29376
29507
29507
29507
29333
29333
29333
29572
29572
29572
29572
29507
29507
29507
29420
29420
29420
29507
29507
29507
29441
29441
29441
29463
29463
29463
29463
29594
29594
29594
29528
29528
29528
29528
29528
29528
29441
29441
29441
29528
29528
29528
29528
29528
29528
29528
29354
29354
29354
29615
29615
29615
29376
29376
29376
29485
29485
29485
29485
29528
29528
29528
29507
29507
29507
29615
29615
29615
29550
29550
29550
29572
29572
29572
29572
29572
29572
29572
29398
29398
29398
29463
29463
29463
29485
29485
29485
29507
29507
29507
29507
29615
29615
29615
29550
29550
29550
29507
29507
29507
29420
29420
29420
29507
29507
29507
29507
29507
29507
29507
29398
29398
29398
29463
29463
29463
29463
29463
29463
29637
29637
29637
29637
29528
29528
29528
29420
29420
29420
29507
29507
29507
29354
29354
29354
29420
29420
29420
29420
29485
29485
29485
29420
29420
29420
29528
29528
29528
29398
29398
29398
29441
29441
29441
29441
29528
29528
29528
29441
29441
29441
29528
29528
29528
29507
29507
29507
29441
29441
29441
29441
29485
29485
29485
29398
29398
29398
29550
29550
29550
29398
29398
29398
29550
29550
29550
29550
29572
29572
29572
29398
29398
29398
29507
29507
29507
29333
29333
29333
29572
29572
29572
29572
29354
29354
29354
29398
29398
29398
29528
29528
29528
29441
29441
29441
29550
29550
29550
29550
29528
29528
29528
29463
29463
29463
29833
29833
29833
29528
29528
29528
29594
29594
29594
29594
29615
29615
29615
29441
29441
29441
29528
29528
29528
29463
29463
29463
29572
29572
29572
29572
29615
29615
29615
29376
29376
29376
29507
29507
29507
29398
29398
29398
29594
29594
29594
29594
29507
29507
29507
29354
29354
29354
29507
29507
29507
29398
29398
29398
29441
29441
29441
29441
29485
29485
29485
29441
29441
29441
29615
29615
29615
29398
29398
29398
29485
29485
29485
29485
29507
29507
29507
29441
29441
29441
29528
29528
29528
29333
29333
29333
29507
29507
29507
29507
29550
29550
29550
29354
29354
29354
29528
29528
29528
29398
29398
29398
29746
29746
29746
29746
29485
29485
29485
29420
29420
29420
29246
29246
29246
29354
29354
29354
29594
29594
29594
29594
29507
29507
29507
29507
29507
29507
29594
29594
29594
29572
29572
29572
29550
29550
29550
29550
29594
29594
29594
29441
29441
29441
29507
29507
29507
29376
29376
29376
29528
29528
29528
29528
29463
29463
29463
29376
29376
29376
29376
29376
29376
29376
29376
29376
29485
29485
29485
29485
29463
29463
29463
29550
29550
29550
29572
29572
29572
29354
29354
29354
29528
29528
29528
29528
29528
29528
29528
29420
29420
29420
29507
29507
29507
29463
29463
29463
29528
29528
29528
29528
29507
29507
29507
29528
29528
29528
29550
29550
29550
29485
29485
29485
29398
29398
29398
29398
29550
29550
29550
29267
29267
29267
29463
29463
29463
29528
29528
29528
29507
29507
29507
29507
29463
29463
29463
29420
29420
29420
29507
29507
29507
29289
29289
29289
29376
29376
29376
29376
29485
29485
29485
29420
29420
29420
29463
29463
29463
29463
29463
29463
29376
29376
29376
29376
29485
29485
29485
29550
29550
29550
29485
29485
29485
29420
29420
29420
29507
29507
29507
29507
29528
29528
29528
29441
29441
29441
29528
29528
29528
29507
29507
29507
29528
29528
29528
29528
29528
29528
29528
29485
29485
29485
29507
29507
29507
29420
29420
29420
29528
29528
29528
29528
29463
29463
29463
29289
29289
29289
29615
29615
29615
29267
29267
29267
29485
29485
29485
29485
29528
29528
29528
29441
29441
29441
29572
29572
29572
29463
29463
29463
29485
29485
29485
29485
29528
29528
29528
29485
29485
29485
29528
29528
29528
29485
29485
29485
29550
29550
29550
29550
29485
29485
29485
29441
29441
29441
29463
29463
29463
29441
29441
29441
29441
29441
29441
29441
29463
29463
29463
29289
29289
29289
29659
29659
29659
29398
29398
29398
29485
29485
29485
29485
29485
29485
29485
29420
29420
29420
29528
29528
29528
29441
29441
29441
29485
29485
29485
29485
29441
29441
29441
29420
29420
29420
29507
29507
29507
29420
29420
29420
29420
29420
29420
29420
29485
29485
29485
29333
29333
29333
29550
29550
29550
29420
29420
29420
29507
29507
29507
29507
29485
29485
29485
29420
29420
29420
29507
29507
29507
29441
29441
29441
29507
29507
29507
29507
29528
29528
29528
29354
29354
29354
29550
29550
29550
29441
29441
29441
29572
29572
29572
29572
29463
29463
29463
29420
29420
29420
29528
29528
29528
29485
29485
29485
29441
29441
29441
29441
29615
29615
29615
29594
29594
29594
29485
29485
29485
29398
29398
29398
29550
29550
29550
29550
29507
29507
29507
29463
29463
29463
29507
29507
29507
29398
29398
29398
29463
29463
29463
29463
29463
29463
29463
29441
29441
29441
29528
29528
29528
29441
29441
29441
29441
29441
29441
29441
29441
29441
29441
29289
29289
29289
29420
29420
29420
29441
29441
29441
29528
29528
29528
29528
29528
29528
29528
29463
29463
29463
29463
29463
29463
29333
29333
29333
29528
29528
29528
29528
29528
29528
29528
29463
29463
29463
29507
29507
29507
29420
29420
29420
29572
29572
29572
29572
29528
29528
29528
29637
29637
29637
29463
29463
29463
29485
29485
29485
29507
29507
29507
29507
29528
29528
29528
29376
29376
29376
29528
29528
29528
29420
29420
29420
29528
29528
29528
29528
29550
29550
29550
29441
29441
29441
29528
29528
29528
29550
29550
29550
29507
29507
29507
29507
29594
29594
29594
29333
29333
29333
29507
29507
29507
29376
29376
29376
29507
29507
29507
29507
29528
29528
29528
29441
29441
29441
29354
29354
29354
29376
29376
29376
29507
29507
29507
29507
29550
29550
29550
29420
29420
29420
29485
29485
29485
29398
29398
29398
29507
29507
29507
29507
29441
29441
29441
29398
29398
29398
29463
29463
29463
29398
29398
29398
29485
29485
29485
29485
29572
29572
29572
29398
29398
29398
29594
29594
29594
29398
29398
29398
29550
29550
29550
29550
29507
29507
29507
29420
29420
29420
29485
29485
29485
29463
29463
29463
29420
29420
29420
29420
29528
29528
29528
29420
29420
29420
29528
29528
29528
29441
29441
29441
29463
29463
29463
29463
29463
29463
29463
29354
29354
29354
29420
29420
29420
29376
29376
29376
29463
29463
29463
29463
29463
29463
29463
29398
29398
29398
29420
29420
29420
29354
29354
29354
29507
29507
29507
29507
29463
29463
29463
29398
29398
29398
29376
29376
29376
29507
29507
29507
29637
29637
29637
29637
29637
29637
29637
29289
29289
29289
29528
29528
29528
29463
29463
29463
29528
29528
29528
29528
29572
29572
29572
29441
29441
29441
29550
29550
29550
29398
29398
29398
29485
29485
29485
29485
29528
29528
29528
29420
29420
29420
29376
29376
29376
29311
29311
29311
29550
29550
29550
29550
29572
29572
29572
29441
29441
29441
29550
29550
29550
29354
29354
29354
29528
29528
29528
29528
29528
29528
29528
29420
29420
29420
29594
29594
29594
29441
29441
29441
29507
29507
29507
29507
29528
29528
29528
29463
29463
29463
29441
29441
29441
29441
29441
29441
29550
29550
29550
29550
29463
29463
29463
29333
29333
29333
29463
29463
29463
29441
29441
29441
29507
29507
29507
29507
29463
29463
29463
29485
29485
29485
29572
29572
29572
29463
29463
29463
29507
29507
29507
29507
29528
29528
29528
29463
29463
29463
29507
29507
29507
29528
29528
29528
29637
29637
29637
29637
29485
29485
29485
29441
29441
29441
29441
29441
29441
29485
29485
29485
29441
29441
29441
29441
29637
29637
29637
29507
29507
29507
29463
29463
29463
29441
29441
29441
29528
29528
29528
29528
29485
29485
29485
29376
29376
29376
29441
29441
29441
29441
29441
29441
29550
29550
29550
29550
29507
29507
29507
29420
29420
29420
29398
29398
29398
29376
29376
29376
29528
29528
29528
29528
29463
29463
29463
29398
29398
29398
29507
29507
29507
29398
29398
29398
29420
29420
29420
29420
29463
29463
29463
29485
29485
29485
29528
29528
29528
29441
29441
29441
29507
29507
29507
29507
29550
29550
29550
29441
29441
29441
29463
29463
29463
29398
29398
29398
29441
29441
29441
29441
29441
29441
29441
29289
29289
29289
29485
29485
29485
29485
29485
29485
29485
29485
29485
29485
29550
29550
29550
29441
29441
29441
29550
29550
29550
29398
29398
29398
29507
29507
29507
29507
29485
29485
29485
29463
29463
29463
29376
29376
29376
29441
29441
29441
29681
29681
29681
29681
29572
29572
29572
29441
29441
29441
29550
29550
29550
29376
29376
29376
29615
29615
29615
29615
29528
29528
29528
29441
29441
29441
29507
29507
29507
29420
29420
29420
29507
29507
29507
29507
29528
29528
29528
29507
29507
29507
29485
29485
29485
29398
29398
29398
29528
29528
29528
29528
29507
29507
29507
29398
29398
29398
29463
29463
29463
29246
29246
29246
29528
29528
29528
29528
29507
29507
29507
29420
29420
29420
29507
29507
29507
29420
29420
29420
29572
29572
29572
29572
29376
29376
29376
29376
29376
29376
29485
29485
29485
29376
29376
29376
29594
29594
29594
29594
29572
29572
29572
29398
29398
29398
29398
29398
29398
29289
29289
29289
29550
29550
29550
29550
29463
29463
29463
29376
29376
29376
29528
29528
29528
29485
29485
29485
29507
29507
29507
29507
29441
29441
29441
29441
29441
29441
29507
29507
29507
29441
29441
29441
29550
29550
29550
29550
29550
29550
29550
29398
29398
29398
29507
29507
29507
29354
29354
29354
29420
29420
29420
29420
29528
29528
29528
29333
29333
29333
29681
29681
29681
29354
29354
29354
29572
29572
29572
29572
29572
29572
29572
29463
29463
29463
29507
29507
29507
29507
29507
29507
29463
29463
29463
29463
29485
29485
29485
29485
29485
29485
29550
29550
29550
29463
29463
29463
29703
29703
29703
29703
29485
29485
29485
29681
29681
29681
29572
29572
29572
29441
29441
29441
29550
29550
29550
29550
29528
29528
29528
29420
29420
29420
29507
29507
29507
29441
29441
29441
29420
29420
29420
29420
29441
29441
29441
29398
29398
29398
29528
29528
29528
29441
29441
29441
29615
29615
29615
29615
29528
29528
29528
29528
29528
29528
29507
29507
29507
29507
29507
29507
29507
29507
29507
29507
29615
29615
29615
29398
29398
29398
29485
29485
29485
29333
29333
29333
29485
29485
29485
29485
29463
29463
29463
29724
29724
29724
29507
29507
29507
29441
29441
29441
29354
29354
29354
29354
29485
29485
29485
29572
29572
29572
29507
29507
29507
29441
29441
29441
29528
29528
29528
29528
29463
29463
29463
29376
29376
29376
29420
29420
29420
29463
29463
29463
29507
29507
29507
29507
29507
29507
29507
29420
29420
29420
29528
29528
29528
29507
29507
29507
29528
29528
29528
29528
29550
29550
29550
29441
29441
29441
29441
29441
29441
29398
29398
29398
29507
29507
29507
29507
29398
29398
29398
29441
29441
29441
29485
29485
29485
29420
29420
29420
29528
29528
29528
29528
29507
29507
29507
29441
29441
29441
29507
29507
29507
29507
29507
29507
29528
29528
29528
29528
29398
29398
29398
29398
29398
29398
29507
29507
29507
29311
29311
29311
29550
29550
29550
29550
29376
29376
29376
29398
29398
29398
29550
29550
29550
29420
29420
29420
29507
29507
29507
29507
29528
29528
29528
29420
29420
29420
29420
29420
29420
29463
29463
29463
29507
29507
29507
29507
29485
29485
29485
29463
29463
29463
29528
29528
29528
29311
29311
29311
29550
29550
29550
29550
29398
29398
29398
29528
29528
29528
29528
29528
29528
29463
29463
29463
29485
29485
29485
29485
29528
29528
29528
29463
29463
29463
29528
29528
29528
29420
29420
29420
29528
29528
29528
29528
29485
29485
29485
29441
29441
29441
29507
29507
29507
29311
29311
29311
29485
29485
29485
29485
29528
29528
29528
