2122
2122
2120
2120
2120
2120
2120
2120
2120
2123
2123
2123
2116
2116
2116
2120
2120
2120
2118
2118
2118
2118
2119
2119
2119
2117
2117
2117
2122
2122
2122
2119
2119
2119
2124
2124
2124
2124
2121
2121
2121
2119
2119
2119
2118
2118
2118
2121
2121
2121
2120
2120
2120
2120
2120
2120
2120
2125
2125
2125
2127
2127
2127
2115
2115
2115
2121
2121
2121
2121
2120
2120
2120
2119
2119
2119
2115
2115
2115
2121
2121
2121
2118
2118
2118
2118
2127
2127
2127
2121
2121
2121
2120
2120
2120
2121
2121
2121
2119
2119
2119
2119
2121
2121
2121
2121
2121
2121
2122
2122
2122
2122
2122
2122
2121
2121
2121
2121
2118
2118
2118
2114
2114
2114
2117
2117
2117
2123
2123
2123
2118
2118
2118
2118
2121
2121
2121
2123
2123
2123
2118
2118
2118
2118
2118
2118
2116
2116
2116
2116
2116
2116
2116
2124
2124
2124
2111
2111
2111
2123
2123
2123
2121
2121
2121
2121
2119
2119
2119
2124
2124
2124
2117
2117
2117
2121
2121
2121
2118
2118
2118
2118
2119
2119
2119
2121
2121
2121
2123
2123
2123
2125
2125
2125
2120
2120
2120
2120
2119
2119
2119
2123
2123
2123
2122
2122
2122
2123
2123
2123
2123
2123
2123
2123
2122
2122
2122
2122
2122
2122
2119
2119
2119
2121
2121
2121
2119
2119
2119
2119
2120
2120
2120
2123
2123
2123
2118
2118
2118
2119
2119
2119
2120
2120
2120
2120
2116
2116
2116
2118
2118
2118
2119
2119
2119
2120
2120
2120
2122
2122
2122
2122
2123
2123
2123
2121
2121
2121
2122
2122
2122
2122
2122
2122
2122
2122
2122
2122
2125
2125
2125
2120
2120
2120
2121
2121
2121
2122
2122
2122
2112
2112
2112
2112
2120
2120
2120
2122
2122
2122
2121
2121
2121
2125
2125
2125
2127
2127
2127
2127
2123
2123
2123
2118
2118
2118
2122
2122
2122
2128
2128
2128
2118
2118
2118
2118
2119
2119
2119
2128
2128
2128
2120
2120
2120
2121
2121
2121
2120
2120
2120
2120
2116
2116
2116
2118
2118
2118
2121
2121
2121
2121
2121
2121
2120
2120
2120
2120
2119
2119
2119
2121
2121
2121
2124
2124
2124
2122
2122
2122
2120
2120
2120
2120
2122
2122
2122
2123
2123
2123
2115
2115
2115
2117
2117
2117
2116
2116
2116
2116
2118
2118
2118
2123
2123
2123
2120
2120
2120
2116
2116
2116
2124
2124
2124
2124
2121
2121
2121
2116
2116
2116
2120
2120
2120
2122
2122
2122
2122
2122
2122
2122
2125
2125
2125
2122
2122
2122
2120
2120
2120
2122
2122
2122
2122
2122
2122
2122
2117
2117
2117
2122
2122
2122
2122
2122
2122
2124
2124
2124
2120
2120
2120
2120
2121
2121
2121
2121
2121
2121
2120
2120
2120
2123
2123
2123
2121
2121
2121
2121
2120
2120
2120
2121
2121
2121
2116
2116
2116
2119
2119
2119
2127
2127
2127
2127
2116
2116
2116
2121
2121
2121
2121
2121
2121
2122
2122
2122
2116
2116
2116
2116
2120
2120
2120
2119
2119
2119
2120
2120
2120
2122
2122
2122
2122
2122
2122
2122
2120
2120
2120
2114
2114
2114
2122
2122
2122
2122
2122
2122
2119
2119
2119
2119
2120
2120
2120
2121
2121
2121
2122
2122
2122
2120
2120
2120
2121
2121
2121
2121
2120
2120
2120
2124
2124
2124
2120
2120
2120
2122
2122
2122
2130
2130
2130
2130
2118
2118
2118
2117
2117
2117
2123
2123
2123
2120
2120
2120
2121
2121
2121
2121
2119
2119
2119
2124
2124
2124
2119
2119
2119
2122
2122
2122
2120
2120
2120
2120
2116
2116
2116
2122
2122
2122
2120
2120
2120
2123
2123
2123
2119
2119
2119
2119
2116
2116
2116
2121
2121
2121
2120
2120
2120
2121
2121
2121
2125
2125
2125
2125
2119
2119
2119
2123
2123
2123
2121
2121
2121
2121
2121
2121
2125
2125
2125
2125
2117
2117
2117
2122
2122
2122
2122
2122
2122
2126
2126
2126
2117
2117
2117
2117
2116
2116
2116
2119
2119
2119
2117
2117
2117
2121
2121
2121
2120
2120
2120
2120
2122
2122
2122
2122
2122
2122
2120
2120
2120
2122
2122
2122
2124
2124
2124
2124
2119
2119
2119
2120
2120
2120
2118
2118
2118
2123
2123
2123
2120
2120
2120
2120
2121
2121
2121
2121
2121
2121
2121
2121
2121
2118
2118
2118
2123
2123
2123
2123
2120
2120
2120
2128
2128
2128
2125
2125
2125
2119
2119
2119
2121
2121
2121
2121
2123
2123
2123
2121
2121
2121
2121
2121
2121
2123
2123
2123
2120
2120
2120
2120
2117
2117
2117
2124
2124
2124
2122
2122
2122
2119
2119
2119
2120
2120
2120
2120
2119
2119
2119
2120
2120
2120
2122
2122
2122
2122
2122
2122
2118
2118
2118
2118
2122
2122
2122
2122
2122
2122
2121
2121
2121
2119
2119
2119
2121
2121
2121
2121
2121
2121
2121
2119
2119
2119
2118
2118
2118
2119
2119
2119
2126
2126
2126
2126
2123
2123
2123
2123
2123
2123
2116
2116
2116
2113
2113
2113
2118
2118
2118
2118
2115
2115
2115
2122
2122
2122
2120
2120
2120
2119
2119
2119
2121
2121
2121
2121
2113
2113
2113
2121
2121
2121
2121
2121
2121
2125
2125
2125
2121
2121
2121
2121
2118
2118
2118
2120
2120
2120
2120
2120
2120
2120
2120
2120
2119
2119
2119
2119
2118
2118
2118
2122
2122
2122
2121
2121
2121
2124
2124
2124
2121
2121
2121
2121
2119
2119
2119
2125
2125
2125
2120
2120
2120
2126
2126
2126
2123
2123
2123
2123
2122
2122
2122
2120
2120
2120
2118
2118
2118
2119
2119
2119
2120
2120
2120
2120
2122
2122
2122
2123
2123
2123
2120
2120
2120
2123
2123
2123
2120
2120
2120
2120
2122
2122
2122
2120
2120
2120
2125
2125
2125
2122
2122
2122
2121
2121
2121
2121
2119
2119
2119
2121
2121
2121
2117
2117
2117
2125
2125
2125
2121
2121
2121
2121
2120
2120
2120
2123
2123
2123
2123
2123
2123
2119
2119
2119
2122
2122
2122
2122
2116
2116
2116
2117
2117
2117
2119
2119
2119
2122
2122
2122
2122
2122
2122
2122
2114
2114
2114
2123
2123
2123
2120
2120
2120
2123
2123
2123
2121
2121
2121
2121
2116
2116
2116
2121
2121
2121
2121
2121
2121
2124
2124
2124
2121
2121
2121
2121
2118
2118
2118
2120
2120
2120
2121
2121
2121
2120
2120
2120
2115
2115
2115
2115
2128
2128
2128
2123
2123
2123
2119
2119
2119
2117
2117
2117
2118
2118
2118
2118
2124
2124
2124
2124
2124
2124
2124
2124
2124
2122
2122
2122
2121
2121
2121
2121
2123
2123
2123
2116
2116
2116
2120
2120
2120
2122
2122
2122
2122
2122
2122
2122
2120
2120
2120
2124
2124
2124
2121
2121
2121
2123
2123
2123
2122
2122
2122
2122
2121
2121
2121
2121
2121
2121
2119
2119
2119
2122
2122
2122
2120
2120
2120
2120
2120
2120
2120
2122
2122
2122
2124
2124
2124
2122
2122
2122
2125
2125
2125
2125
2119
2119
2119
2121
2121
2121
2120
2120
2120
2126
2126
2126
2122
2122
2122
2122
2117
2117
2117
2118
2118
2118
2128
2128
2128
2121
2121
2121
2120
2120
2120
2120
2120
2120
2120
2120
2120
2120
2119
2119
2119
2121
2121
2121
2119
2119
2119
2119
2120
2120
2120
2121
2121
2121
2117
2117
2117
2120
2120
2120
2122
2122
2122
2122
2125
2125
2125
2120
2120
2120
2121
2121
2121
2125
2125
2125
2118
2118
2118
2118
2124
2124
2124
2121
2121
2121
2122
2122
2122
2124
2124
2124
2121
2121
2121
2121
2124
2124
2124
2123
2123
2123
2123
2123
2123
2125
2125
2125
2121
2121
2121
2121
2123
2123
2123
2124
2124
2124
2121
2121
2121
2123
2123
2123
2121
2121
2121
2121
2112
2112
2112
2122
2122
2122
2122
2122
2122
2122
2122
2122
2116
2116
2116
2116
2120
2120
2120
2120
2120
2120
2119
2119
2119
2121
2121
2121
2109
2109
2109
2109
2120
2120
2120
2120
2120
2120
2118
2118
2118
2121
2121
2121
2117
2117
2117
2117
2117
2117
2117
2137
2137
2137
2111
2111
2111
2124
2124
2124
2118
2118
2118
2118
2119
2119
2119
2120
2120
2120
2122
2122
2122
2122
2122
2122
2120
2120
2120
2120
2123
2123
2123
2122
2122
2122
2125
2125
2125
2121
2121
2121
2120
2120
2120
2120
2120
2120
2120
2122
2122
2122
2117
2117
2117
2118
2118
2118
2122
2122
2122
2122
2122
2122
2122
2121
2121
2121
2120
2120
2120
2120
2120
2120
2120
2120
2120
2120
2120
2120
2120
2121
2121
2121
2109
2109
2109
2117
2117
2117
2119
2119
2119
2119
2118
2118
2118
2119
2119
2119
2120
2120
2120
2118
2118
2118
2119
2119
2119
2119
2120
2120
2120
2121
2121
2121
2122
2122
2122
2125
2125
2125
2121
2121
2121
2121
2121
2121
2121
2122
2122
2122
2122
2122
2122
2119
2119
2119
2119
2119
2119
2119
2128
2128
2128
2122
2122
2122
2124
2124
2124
2126
2126
2126
2117
2117
2117
2117
2127
2127
2127
2124
2124
2124
2118
2118
2118
2124
2124
2124
2122
2122
2122
2122
2121
2121
2121
2128
2128
2128
2120
2120
2120
2122
2122
2122
2124
2124
2124
2124
2123
2123
2123
2120
2120
2120
2120
2120
2120
2123
2123
2123
2120
2120
2120
2120
2120
2120
2120
2117
2117
2117
2119
2119
2119
2122
2122
2122
2118
2118
2118
2118
2120
2120
2120
2122
2122
2122
2122
2122
2122
2123
2123
2123
2119
2119
2119
2119
2121
2121
2121
2131
2131
2131
2121
2121
2121
2125
2125
2125
2121
2121
2121
2121
2120
2120
2120
2132
2132
2132
2125
2125
2125
2121
2121
2121
2120
2120
2120
2120
2117
2117
2117
2126
2126
2126
2121
2121
2121
2122
2122
2122
2119
2119
2119
2119
2119
2119
2119
2122
2122
2122
2119
2119
2119
2122
2122
2122
2120
2120
2120
2120
2120
2120
2120
2122
2122
2122
2116
2116
2116
2120
2120
2120
2120
2120
2120
2120
2120
2120
2120
2119
2119
2119
2121
2121
2121
2122
2122
2122
2121
2121
2121
2121
2121
2121
2121
2120
2120
2120
2124
2124
2124
2120
2120
2120
2117
2117
2117
2117
2120
2120
2120
2123
2123
2123
2127
2127
2127
2119
2119
2119
2120
2120
2120
2120
2117
2117
2117
2118
2118
2118
2120
2120
2120
2121
2121
2121
2122
2122
2122
2122
2120
2120
2120
2123
2123
2123
2120
2120
2120
2123
2123
2123
2117
2117
2117
2117
2122
2122
2122
2121
2121
2121
2118
2118
2118
2122
2122
2122
2120
2120
2120
2120
2118
2118
2118
2122
2122
2122
2120
2120
2120
2124
2124
2124
2123
2123
2123
2123
2119
2119
2119
2122
2122
2122
2125
2125
2125
2123
2123
2123
2121
2121
2121
2121
2115
2115
2115
2120
2120
2120
2118
2118
2118
2122
2122
2122
2120
2120
2120
2120
2119
2119
2119
2117
2117
2117
2118
2118
2118
2130
2130
2130
2120
2120
2120
2120
2120
2120
2120
2121
2121
2121
2121
2121
2121
2128
2128
2128
2124
2124
2124
2124
2116
2116
2116
2124
2124
2124
2121
2121
2121
2121
2121
2121
2123
2123
2123
2123
2122
2122
2122
2123
2123
2123
2123
2123
2123
2109
2109
2109
2123
2123
2123
2123
2120
2120
2120
2125
2125
2125
2120
2120
2120
2121
2121
2121
2120
2120
2120
2120
2120
2120
2120
2123
2123
2123
2120
2120
2120
2124
2124
2124
2120
2120
2120
2120
2124
2124
2124
2121
2121
2121
2123
2123
2123
2121
2121
2121
2122
2122
2122
2122
2120
2120
2120
2125
2125
2125
2122
2122
2122
2122
2122
2122
2121
2121
2121
2121
2120
2120
2120
2121
2121
2121
2121
2121
2121
2120
2120
2120
2121
2121
2121
2121
2120
2120
2120
2121
2121
2121
2119
2119
2119
2120
2120
2120
2124
2124
2124
2124
2122
2122
2122
2125
2125
2125
2123
2123
2123
2116
2116
2116
2115
2115
2115
2115
2118
2118
2118
2119
2119
2119
2122
2122
2122
2121
2121
2121
2122
2122
2122
2122
2122
2122
2122
2127
2127
2127
2121
2121
2121
2121
2121
2121
2122
2122
2122
2122
2121
2121
2121
2121
2121
2121
2122
2122
2122
2122
2122
2122
2118
2118
2118
2118
2120
2120
2120
2121
2121
2121
2123
2123
2123
2123
2123
2123
2117
2117
2117
2117
2121
2121
2121
2120
2120
2120
2123
2123
2123
2126
2126
2126
2118
2118
2118
2118
2118
2118
2118
2119
2119
2119
2121
2121
2121
2127
2127
2127
2121
2121
2121
2121
2121
2121
2121
2119
2119
2119
2119
2119
2119
2122
2122
2122
2120
2120
2120
2120
2116
2116
2116
2122
2122
2122
2120
2120
2120
2123
2123
2123
2120
2120
2120
2120
2118
2118
2118
2122
2122
2122
2119
2119
2119
2122
2122
2122
2121
2121
2121
2121
2120
2120
2120
2122
2122
2122
2113
2113
2113
2124
2124
2124
2121
2121
2121
2121
2121
2121
2121
2122
2122
2122
2123
2123
2123
2123
2123
2123
2119
2119
2119
2119
2122
2122
2122
2121
2121
2121
2117
2117
2117
2121
2121
2121
2117
2117
2117
2117
2113
2113
2113
2116
2116
2116
2118
2118
2118
2121
2121
2121
2119
2119
2119
2119
2122
2122
2122
2123
2123
2123
2121
2121
2121
2122
2122
2122
2120
2120
2120
2120
2122
2122
2122
2120
2120
2120
2120
2120
2120
2120
2120
2120
2121
2121
2121
2121
2118
2118
2118
2120
2120
2120
2119
2119
2119
2126
2126
2126
2114
2114
2114
2114
2124
2124
2124
2120
2120
2120
2119
2119
2119
2118
2118
2118
2120
2120
2120
2120
2116
2116
2116
2123
2123
2123
2123
2123
2123
2123
2123
2123
2119
2119
2119
2119
2126
2126
2126
2121
2121
2121
2132
2132
2132
2123
2123
2123
2118
2118
2118
2118
2118
2118
2118
2120
2120
2120
2119
2119
2119
2121
2121
2121
2121
2121
2121
2121
2118
2118
2118
2121
2121
2121
2121
2121
2121
2121
2121
2121
2122
2122
2122
2122
2122
2122
2122
2124
2124
2124
2120
2120
2120
2121
2121
2121
2118
2118
2118
2118
2122
2122
2122
2124
2124
2124
2122
2122
2122
2116
2116
2116
2114
2114
2114
2114
2121
2121
2121
2118
2118
2118
2120
2120
2120
2117
2117
2117
2126
2126
2126
2126
2118
2118
2118
2119
2119
2119
2126
2126
2126
2122
2122
2122
2119
2119
2119
2119
2114
2114
2114
2118
2118
2118
2120
2120
2120
2121
2121
2121
2128
2128
2128
2128
2118
2118
2118
2121
2121
2121
2121
2121
2121
2122
2122
2122
2120
2120
2120
2120
2121
2121
2121
2124
2124
2124
2117
2117
2117
2123
2123
2123
2123
2123
2123
2123
2121
2121
2121
2123
2123
2123
2123
2123
2123
2119
2119
2119
2118
2118
2118
2118
2119
2119
2119
2123
2123
2123
2119
2119
2119
2121
2121
2121
2117
2117
2117
2117
2119
2119
2119
2116
2116
2116
2119
2119
2119
2120
2120
2120
2121
2121
2121
2121
2119
2119
2119
2121
2121
2121
2116
2116
2116
2123
2123
2123
2120
2120
2120
2120
2123
2123
2123
2122
2122
2122
2122
2122
2122
2126
2126
2126
2122
2122
2122
2122
2121
2121
2121
2122
2122
2122
2121
2121
2121
2125
2125
2125
2123
2123
2123
2123
2121
2121
2121
2123
2123
2123
2127
2127
2127
2122
2122
2122
2123
2123
2123
2123
2119
2119
2119
2123
2123
2123
2117
2117
2117
2126
2126
2126
2125
2125
2125
2125
2119
2119
2119
2125
2125
2125
2119
2119
2119
2120
2120
2120
2121
2121
2121
2121
2120
2120
2120
2127
2127
2127
2120
2120
2120
2125
2125
2125
2120
2120
2120
2120
2122
2122
2122
2120
2120
2120
2122
2122
2122
2121
2121
2121
2121
2121
2121
2121
2120
2120
2120
2122
2122
2122
2119
2119
2119
2127
2127
2127
2123
2123
2123
2123
2125
2125
2125
2121
2121
2121
2118
2118
2118
2122
2122
2122
2119
2119
2119
2119
2120
2120
2120
2120
2120
2120
2118
2118
2118
2117
2117
2117
2120
2120
2120
2120
2123
2123
2123
2116
2116
2116
2123
2123
2123
2120
2120
2120
2117
2117
2117
2117
2118
2118
2118
2121
2121
2121
2120
2120
2120
2116
2116
2116
2118
2118
2118
2118
2117
2117
2117
2121
2121
2121
2119
2119
2119
2120
2120
2120
2118
2118
2118
2118
2127
2127
2127
2121
2121
2121
2121
2121
2121
2121
2121
2121
2123
2123
2123
2123
2119
2119
2119
2121
2121
2121
2115
2115
2115
2125
2125
2125
2122
2122
2122
2122
2119
2119
2119
2121
2121
2121
2124
2124
2124
2120
2120
2120
2126
2126
2126
2126
2126
2126
2126
2125
2125
2125
2119
2119
2119
2119
2119
2119
2123
2123
2123
2123
2127
2127
2127
2118
2118
2118
2121
2121
2121
2122
2122
2122
2122
2122
2122
2122
2121
2121
2121
2120
2120
2120
2120
2120
2120
2121
2121
2121
2120
2120
2120
2120
2121
2121
2121
2124
2124
2124
2121
2121
2121
2124
2124
2124
2114
2114
2114
2114
2119
2119
2119
2124
2124
2124
2122
2122
2122
2121
2121
2121
2125
2125
2125
2125
2121
2121
2121
2117
2117
2117
2115
2115
2115
2116
2116
2116
2120
2120
2120
2120
2119
2119
2119
2122
2122
2122
2120
2120
2120
2116
2116
2116
2125
2125
2125
2125
2117
2117
2117
2125
2125
2125
2120
2120
2120
2121
2121
2121
2118
2118
2118
2118
2123
2123
2123
2118
2118
2118
2122
2122
2122
2123
2123
2123
2121
2121
2121
2121
2118
2118
2118
2126
2126
2126
2119
2119
2119
2123
2123
2123
2120
2120
2120
2120
2120
2120
2120
2121
2121
2121
2121
2121
2121
2124
2124
2124
2122
2122
2122
2122
2120
2120
2120
2122
2122
2122
2120
2120
2120
2125
2125
2125
2122
2122
2122
2122
2122
2122
2122
2123
2123
2123
2124
2124
2124
2121
2121
2121
2119
2119
2119
2119
2119
2119
2119
2125
2125
2125
2125
2125
2125
2123
2123
2123
2119
2119
2119
2119
2118
2118
2118
2120
2120
2120
2120
2120
2120
2121
2121
2121
2121
2121
2121
2121
2118
2118
2118
2122
2122
2122
2117
2117
2117
2122
2122
2122
2122
2122
2122
2122
2120
2120
2120
2120
2120
2120
2119
2119
2119
2119
2119
2119
2123
2123
2123
2123
2121
2121
2121
2124
2124
2124
2117
2117
2117
2119
2119
2119
2117
2117
2117
2117
2117
2117
2117
2128
2128
2128
2117
2117
2117
2121
2121
2121
2119
2119
2119
2119
2118
2118
2118
2118
2118
2118
2120
2120
2120
2124
2124
2124
2120
2120
2120
2120
2115
2115
2115
2119
2119
2119
2119
2119
2119
2113
2113
2113
2121
2121
2121
2121
2121
2121
2121
2121
2121
2121
2115
2115
2115
2120
2120
2120
2126
2126
2126
2126
2123
2123
2123
2122
2122
2122
2119
2119
2119
2121
2121
2121
2120
2120
2120
2120
2122
2122
2122
2123
2123
2123
2120
2120
2120
2126
2126
2126
2123
2123
2123
2123
2119
2119
2119
2123
2123
2123
2124
2124
2124
2122
2122
2122
2121
2121
2121
2121
2121
2121
2121
2126
2126
2126
2125
2125
2125
2124
2124
2124
2120
2120
2120
2120
2111
2111
2111
2120
2120
2120
2121
2121
2121
2126
2126
2126
2122
2122
2122
2122
2123
2123
2123
2121
2121
2121
2120
2120
2120
2118
2118
2118
2121
2121
2121
2121
2122
2122
2122
2122
2122
2122
2119
2119
2119
2128
2128
2128
2121
2121
2121
2121
2119
2119
2119
2123
2123
2123
2122
2122
2122
2118
2118
2118
2119
2119
2119
2119
2117
2117
2117
2126
2126
2126
2119
2119
2119
2120
2120
2120
2121
2121
2121
2121
2114
2114
2114
2119
2119
2119
2121
2121
2121
2129
2129
2129
2122
2122
2122
2122
2119
2119
2119
2123
2123
2123
2119
2119
2119
2122
2122
2122
2119
2119
2119
2119
2119
2119
2119
2123
2123
2123
2121
2121
2121
2124
2124
2124
2119
2119
2119
2119
2122
2122
2122
2121
2121
2121
2121
2121
2121
2118
2118
2118
2121
2121
2121
2121
2120
2120
2120
2124
2124
2124
2116
2116
2116
2126
2126
2126
2115
2115
2115
2115
2112
2112
2112
2119
2119
2119
2121
2121
2121
2121
2121
2121
2120
2120
2120
2120
2118
2118
2118
2117
2117
2117
2120
2120
2120
2122
2122
2122
2119
2119
2119
2119
2123
2123
2123
2122
2122
2122
2120
2120
2120
2120
2120
2120
2125
2125
2125
2125
2115
2115
2115
2121
2121
2121
2121
2121
2121
2122
2122
2122
2124
2124
2124
2124
2120
2120
2120
2123
2123
2123
2120
2120
2120
2123
2123
2123
2113
2113
2113
2113
2118
2118
2118
2118
2118
2118
2121
2121
2121
2123
2123
2123
2121
2121
2121
2121
2115
2115
2115
2119
2119
2119
2114
2114
2114
2120
2120
2120
2121
2121
2121
2121
2121
2121
2121
2120
2120
2120
2121
2121
2121
2121
2121
2121
2121
2121
2121
2121
2120
2120
2120
2123
2123
2123
2122
2122
2122
2121
2121
2121
2118
2118
2118
2118
2119
2119
2119
2118
2118
2118
2119
2119
2119
2119
2119
2119
2130
2130
2130
2130
2120
2120
2120
2120
2120
2120
2119
2119
2119
2128
2128
2128
2116
2116
2116
2116
2120
2120
2120
2128
2128
2128
2121
2121
2121
2127
2127
2127
2121
2121
2121
2121
2126
2126
2126
2129
2129
2129
2123
2123
2123
2124
2124
2124
2120
2120
2120
2120
2121
2121
2121
2123
2123
2123
2120
2120
2120
2121
2121
2121
2120
2120
2120
2120
2119
2119
2119
2125
2125
2125
2121
2121
2121
2123
2123
2123
2119
2119
2119
2119
2120
2120
2120
2122
2122
2122
2120
2120
2120
2123
2123
2123
2119
2119
2119
2119
2119
2119
2119
2124
2124
2124
2122
2122
2122
2118
2118
2118
2121
2121
2121
2121
2124
2124
2124
2118
2118
2118
2121
2121
2121
2119
2119
2119
2121
2121
2121
2121
2127
2127
2127
2116
2116
2116
2119
2119
2119
2122
2122
2122
2120
2120
2120
2120
2116
2116
2116
2121
2121
2121
2117
2117
2117
2123
2123
2123
2121
2121
2121
2121
2119
2119
2119
2121
2121
2121
2118
2118
2118
2124
2124
2124
2121
2121
2121
2121
2120
2120
2120
2123
2123
2123
2115
2115
2115
2120
2120
2120
2115
2115
2115
2115
2122
2122
2122
2121
2121
2121
2116
2116
2116
2125
2125
2125
2125
2125
2125
2125
2118
2118
2118
2123
2123
2123
2125
2125
2125
2125
2125
2125
2121
2121
2121
2121
2121
2121
2121
2125
2125
2125
2123
2123
2123
2120
2120
2120
2120
2120
2120
2120
2122
2122
2122
2122
2122
2122
2120
2120
2120
2122
2122
2122
2119
2119
2119
2119
2120
2120
2120
2122
2122
2122
2121
2121
2121
2120
2120
2120
2120
2120
2120
2120
2121
2121
2121
2121
2121
2121
2126
2126
2126
2119
2119
2119
2121
2121
2121
2121
2120
2120
2120
2124
2124
2124
2124
2124
2124
2124
2124
2124
2119
2119
2119
2119
2122
2122
2122
2117
2117
2117
2124
2124
2124
2123
2123
2123
2119
2119
2119
2119
2111
2111
2111
2125
2125
2125
2113
2113
2113
2121
2121
2121
2120
2120
2120
2120
2116
2116
2116
2122
2122
2122
2121
2121
2121
2124
2124
2124
2118
2118
2118
2118
2120
2120
2120
2123
2123
2123
2127
2127
2127
2120
2120
2120
2121
2121
2121
2121
2121
2121
2121
2122
2122
2122
2118
2118
2118
2118
2118
2118
2121
2121
2121
2121
2119
2119
2119
2122
2122
2122
2114
2114
2114
2121
2121
2121
2115
2115
2115
2115
2119
2119
2119
2121
2121
2121
2122
2122
2122
2122
2122
2122
2122
2122
2122
2122
2123
2123
2123
2120
2120
2120
2113
2113
2113
2121
2121
2121
2122
2122
2122
2122
2122
2122
2122
2123
2123
2123
2118
2118
2118
2120
2120
2120
2129
2129
2129
2129
2120
2120
2120
2121
2121
2121
2118
2118
2118
2120
2120
2120
2121
2121
2121
2121
2120
2120
2120
2123
2123
2123
2119
2119
2119
2121
2121
2121
2121
2121
2121
2121
2121
2121
2121
2122
2122
2122
2123
2123
2123
2121
2121
2121
2121
2121
2121
2121
2120
2120
2120
2124
2124
2124
2126
2126
2126
2127
2127
2127
2120
2120
2120
2120
2121
2121
2121
2122
2122
2122
2123
2123
2123
2126
2126
2126
2122
2122
2122
2122
2124
2124
2124
2124
2124
2124
2121
2121
2121
2125
2125
2125
2119
2119
2119
2119
2119
2119
2119
2123
2123
2123
2120
2120
2120
2122
2122
2122
2120
2120
2120
2120
2120
2120
2120
2121
2121
2121
2121
2121
2121
2121
2121
2121
2123
2123
2123
2123
2119
2119
2119
2123
2123
2123
2120
2120
2120
2121
2121
2121
2127
2127
2127
2127
2122
2122
2122
2121
2121
2121
2118
2118
2118
2113
2113
2113
2118
2118
2118
2118
2118
2118
2118
2120
2120
2120
2120
2120
2120
2125
2125
2125
2121
2121
2121
2121
2120
2120
2120
2116
2116
2116
2119
2119
2119
2127
2127
2127
2123
2123
2123
2123
2118
2118
2118
2120
2120
2120
2123
2123
2123
2117
2117
2117
2120
2120
2120
2120
2121
2121
2121
2123
2123
2123
2121
2121
2121
2125
2125
2125
2121
2121
2121
2121
2120
2120
2120
2123
2123
2123
2120
2120
2120
2116
2116
2116
2120
2120
2120
2120
2122
2122
2122
2121
2121
2121
2118
2118
2118
2116
2116
2116
2121
2121
2121
2121
2114
2114
2114
2118
2118
2118
2123
2123
2123
2126
2126
2126
2120
2120
2120
2120
2123
2123
2123
2120
2120
2120
2118
2118
2118
2116
2116
2116
2119
2119
2119
2119
2124
2124
2124
2121
2121
2121
2119
2119
2119
2126
2126
2126
2119
2119
2119
2119
2117
2117
2117
2121
2121
2121
2119
2119
2119
2121
2121
2121
2117
2117
2117
2117
2118
2118
2118
2122
2122
2122
2121
2121
2121
2130
2130
2130
2125
2125
2125
2125
2122
2122
2122
2121
2121
2121
2117
2117
2117
2121
2121
2121
2123
2123
2123
2123
2122
2122
2122
2122
2122
2122
2125
2125
2125
2122
2122
2122
2121
2121
2121
2121
2122
2122
2122
2124
2124
2124
2123
2123
2123
2123
2123
2123
2118
2118
2118
2118
2114
2114
2114
2121
2121
2121
2122
2122
2122
2121
2121
2121
2119
2119
2119
2119
2120
2120
2120
2122
2122
2122
2121
2121
2121
2122
2122
2122
2116
2116
2116
2116
2119
2119
2119
2122
2122
2122
2121
2121
2121
2121
2121
2121
2123
2123
2123
2123
2114
2114
2114
2119
2119
2119
2117
2117
2117
2119
2119
2119
2120
2120
2120
2120
2114
2114
2114
2116
2116
2116
2117
2117
2117
2121
2121
2121
2119
2119
2119
2119
2111
2111
2111
2121
2121
2121
2120
2120
2120
2121
2121
2121
2120
2120
2120
2120
2123
2123
2123
2122
2122
2122
2121
2121
2121
2123
2123
2123
2121
2121
2121
2121
2123
2123
2123
2123
2123
2123
2122
2122
2122
2122
2122
2122
2117
2117
2117
2117
2121
2121
2121
2125
2125
2125
2119
2119
2119
2124
2124
2124
2125
2125
2125
2125
2122
2122
2122
2122
2122
2122
2116
2116
2116
2127
2127
2127
2115
2115
2115
2115
2123
2123
2123
2123
2123
2123
2116
2116
2116
2124
2124
2124
2120
2120
2120
2120
2123
2123
2123
2123
2123
2123
2119
2119
2119
2122
2122
2122
2123
2123
2123
2123
2120
2120
2120
2121
2121
2121
2118
2118
2118
2122
2122
2122
2122
2122
2122
2122
2120
2120
2120
2120
2120
2120
2120
2120
2120
2120
2120
2120
2117
2117
2117
2117
2120
2120
2120
2120
2120
2120
2120
2120
2120
2121
2121
2121
2120
2120
2120
2120
2118
2118
2118
2118
2118
2118
2121
2121
2121
2124
2124
2124
2120
2120
2120
2120
2123
2123
2123
2117
2117
2117
2121
2121
2121
2124
2124
2124
2118
2118
2118
2118
2111
2111
2111
2120
2120
2120
2119
2119
2119
2121
2121
2121
2116
2116
2116
2116
2118
2118
2118
2119
2119
2119
2120
2120
2120
2125
2125
2125
2117
2117
2117
2117
2121
2121
2121
2121
2121
2121
2120
2120
2120
2123
2123
2123
2120
2120
2120
2120
2120
2120
2120
2124
2124
2124
2119
2119
2119
2122
2122
2122
2117
2117
2117
2117
2119
2119
2119
2125
2125
2125
2117
2117
2117
2125
2125
2125
2121
2121
2121
2121
2119
2119
2119
2127
2127
2127
2120
2120
2120
2124
2124
2124
2113
2113
2113
2113
2118
2118
2118
2122
2122
2122
2119
2119
2119
2122
2122
2122
2123
2123
2123
2123
2121
2121
2121
2126
2126
2126
2121
2121
2121
2122
2122
2122
2120
2120
2120
2120
2120
2120
2120
2130
2130
2130
2122
2122
2122
2121
2121
2121
2120
2120
2120
2120
2121
2121
2121
2117
2117
2117
2117
2117
2117
2127
2127
2127
2121
2121
2121
2121
2121
2121
2121
2122
2122
2122
2126
2126
2126
2119
2119
2119
2120
2120
2120
2120
2121
2121
2121
2122
2122
2122
2119
2119
2119
2125
2125
2125
2123
2123
2123
2123
2117
2117
2117
2117
2117
2117
2121
2121
2121
2120
2120
2120
2116
2116
2116
2116
2118
2118
2118
2120
2120
2120
2121
2121
2121
2127
2127
2127
2118
2118
2118
2118
2120
2120
2120
2127
2127
2127
2122
2122
2122
2122
2122
2122
2117
2117
2117
2117
2120
2120
2120
2120
2120
2120
2123
2123
2123
2124
2124
2124
2119
2119
2119
2119
2121
2121
2121
2119
2119
2119
2121
2121
2121
2124
2124
2124
2120
2120
2120
2120
2122
2122
2122
2126
2126
2126
2118
2118
2118
2121
2121
2121
2124
2124
2124
2124
2117
2117
2117
2119
2119
2119
2122
2122
2122
2123
2123
2123
2121
2121
2121
2121
2118
2118
2118
2123
2123
2123
2119
2119
2119
2122
2122
2122
2117
2117
2117
2117
2118
2118
2118
2112
2112
2112
2120
2120
2120
2126
2126
2126
2120
2120
2120
2120
2119
2119
2119
2122
2122
2122
2117
2117
2117
2124
2124
2124
2116
2116
2116
2116
2122
2122
2122
2123
2123
2123
2119
2119
2119
2119
2119
2119
2120
2120
2120
2120
2126
2126
2126
2122
2122
2122
2121
2121
2121
2122
2122
2122
2122
2122
2122
2122
2117
2117
2117
2121
2121
2121
2124
2124
2124
2122
2122
2122
2120
2120
2120
2120
2120
2120
2120
2121
2121
2121
2120
2120
2120
2120
2120
2120
2120
2120
2120
2120
2119
2119
2119
2124
2124
2124
2119
2119
2119
2123
2123
2123
2114
2114
2114
2114
2119
2119
2119
2121
2121
2121
2116
2116
2116
2118
2118
2118
2121
2121
2121
2121
2120
2120
2120
2124
2124
2124
2122
2122
2122
2121
2121
2121
2107
2107
2107
2107
2116
2116
2116
2120
2120
2120
2120
2120
2120
2120
2120
2120
2121
2121
2121
2121
2116
2116
2116
2124
2124
2124
2122
2122
2122
2123
2123
2123
2120
2120
2120
2120
2117
2117
2117
2120
2120
2120
2119
2119
2119
2122
2122
2122
2125
2125
2125
2125
2119
2119
2119
2112
2112
2112
2119
2119
2119
2121
2121
2121
2120
2120
2120
2120
2120
2120
2120
2115
2115
2115
2121
2121
2121
2125
2125
2125
2123
2123
2123
2123
2120
2120
2120
2123
2123
2123
2124
2124
2124
2119
2119
2119
2118
2118
2118
2118
2123
2123
2123
2125
2125
2125
2123
2123
2123
2123
2123
2123
2122
2122
2122
2122
2120
2120
2120
2122
2122
2122
2120
2120
2120
2123
2123
2123
2118
2118
2118
2118
2122
2122
2122
2122
2122
2122
2121
2121
2121
2122
2122
2122
2120
2120
2120
2120
2116
2116
2116
2121
2121
2121
2120
2120
2120
2122
2122
2122
2116
2116
2116
2116
2118
2118
2118
2126
2126
2126
2123
2123
2123
2122
2122
2122
2115
2115
2115
2115
2117
2117
2117
2124
2124
2124
2113
2113
2113
2121
2121
2121
2120
2120
2120
2120
2120
2120
2120
2121
2121
2121
2121
2121
2121
2120
2120
2120
2113
2113
2113
2113
2117
2117
2117
2123
2123
2123
2120
2120
2120
2121
2121
2121
2117
2117
2117
2117
2119
2119
2119
2126
2126
2126
2122
2122
2122
2123
2123
2123
2122
2122
2122
2122
2119
2119
2119
2121
2121
2121
2121
2121
2121
2123
2123
2123
2123
2123
2123
2123
2121
2121
2121
2122
2122
2122
2121
2121
2121
2122
2122
2122
2124
2124
2124
2124
2122
2122
2122
2125
2125
2125
2119
2119
2119
2122
2122
2122
2119
2119
2119
2119
2118
2118
2118
2125
2125
2125
2123
2123
2123
2123
2123
2123
2115
2115
2115
2115
2116
2116
2116
2123
2123
2123
2120
2120
2120
2122
2122
2122
2119
2119
2119
2119
2119
2119
2119
2123
2123
2123
2123
2123
2123
2123
2123
2123
2111
2111
2111
2111
2119
2119
2119
2120
2120
2120
2121
2121
2121
2123
2123
2123
2116
2116
2116
2116
2120
2120
2120
2126
2126
2126
2119
2119
2119
2121
2121
2121
2120
2120
2120
2120
2116
2116
2116
2119
2119
2119
2117
2117
2117
2121
2121
2121
2117
2117
2117
2117
2119
2119
2119
2119
2119
2119
2120
2120
2120
2120
2120
2120
2116
2116
2116
2116
2121
2121
2121
2121
2121
2121
2120
2120
2120
2124
2124
2124
2120
2120
2120
2120
2119
2119
2119
2119
2119
2119
2121
2121
2121
2122
2122
2122
2124
2124
2124
2124
2117
2117
2117
2125
2125
2125
2119
2119
2119
2117
2117
2117
2122
2122
2122
2122
2120
2120
2120
2125
2125
2125
2119
2119
2119
2125
2125
2125
2111
2111
2111
2111
2118
2118
2118
2117
2117
2117
2117
2117
2117
2122
2122
2122
2119
2119
2119
2119
2119
2119
2119
2118
2118
2118
2120
2120
2120
2123
2123
2123
2124
2124
2124
2124
2120
2120
2120
2124
2124
2124
2119
2119
2119
2120
2120
2120
2126
2126
2126
2126
2120
2120
2120
2120
2120
2120
2119
2119
2119
2121
2121
2121
2127
2127
2127
2127
2121
2121
2121
2124
2124
2124
2123
2123
2123
2122
2122
2122
2119
2119
2119
2119
2119
2119
2119
2115
2115
2115
2120
2120
2120
2125
2125
2125
2124
2124
2124
2124
2121
2121
2121
2118
2118
2118
2118
2118
2118
2121
2121
2121
2116
2116
2116
2116
2120
2120
2120
2123
2123
2123
2120
2120
2120
2121
2121
2121
2124
2124
2124
2124
2119
2119
2119
2121
2121
2121
2122
2122
2122
2121
2121
2121
2119
2119
2119
2119
2118
2118
2118
2126
2126
2126
2121
2121
2121
2120
2120
2120
2121
2121
2121
2121
2120
2120
2120
2118
2118
2118
2122
2122
2122
2124
2124
2124
2129
2129
2129
2129
2120
2120
2120
2121
2121
2121
2117
2117
2117
2123
2123
2123
2119
2119
2119
2119
2121
2121
2121
2121
2121
2121
2119
2119
2119
2120
2120
2120
2117
2117
2117
2117
2116
2116
2116
2119
2119
2119
2122
2122
2122
2122
2122
2122
2122
2122
2122
2122
2120
2120
2120
2122
2122
2122
2121
2121
2121
2122
2122
2122
2123
2123
2123
2123
2122
2122
2122
2123
2123
2123
2120
2120
2120
2122
2122
2122
2121
2121
2121
2121
2124
2124
2124
2122
2122
2122
2121
2121
2121
2123
2123
2123
2121
2121
2121
2121
2117
2117
2117
2118
2118
2118
2117
2117
2117
2120
2120
2120
2120
2120
2120
2120
2117
2117
2117
2123
2123
2123
2123
2123
2123
2121
2121
2121
2123
2123
2123
2123
2120
2120
2120
2115
2115
2115
2120
2120
2120
2122
2122
2122
2117
2117
2117
2117
2119
2119
2119
2123
2123
2123
2121
2121
2121
2123
2123
2123
2118
2118
2118
2118
2118
2118
2118
2122
2122
2122
2117
2117
2117
2125
2125
2125
2113
2113
2113
2113
2121
2121
2121
2121
2121
2121
2120
2120
2120
2117
2117
2117
2120
2120
2120
2120
2122
2122
2122
2120
2120
2120
2121
2121
2121
2122
2122
2122
2116
2116
2116
2116
2117
2117
2117
2121
2121
2121
2117
2117
2117
2121
2121
2121
2128
2128
2128
2128
2120
2120
2120
2117
2117
2117
2118
2118
2118
2121
2121
2121
2124
2124
2124
2124
2121
2121
2121
2119
2119
2119
2122
2122
2122
2119
2119
2119
2126
2126
2126
2126
2118
2118
2118
2127
2127
2127
2122
2122
2122
2120
2120
2120
2115
2115
2115
2115
2116
2116
2116
2124
2124
2124
2117
2117
2117
2119
2119
2119
2123
2123
2123
2123
2117
2117
2117
2123
2123
2123
2117
2117
2117
2121
2121
2121
2125
2125
2125
2125
2120
2120
2120
2120
2120
2120
2119
2119
2119
2121
2121
2121
2117
2117
2117
2117
2122
2122
2122
2117
2117
2117
2119
2119
2119
2121
2121
2121
2120
2120
2120
2120
2121
2121
2121
2121
2121
2121
2119
2119
2119
2125
2125
2125
2123
2123
2123
2123
2121
2121
2121
2115
2115
2115
2124
2124
2124
2120
2120
2120
2123
2123
2123
2123
2119
2119
2119
2128
2128
2128
2119
2119
2119
2121
2121
2121
2122
2122
2122
2122
2120
2120
2120
2123
2123
2123
2121
2121
2121
2125
2125
2125
2122
2122
2122
2122
2120
2120
2120
2121
2121
2121
2119
2119
2119
2122
2122
2122
2122
2122
2122
2122
2120
2120
2120
2122
2122
2122
2119
2119
2119
2117
2117
2117
2118
2118
2118
2118
2119
2119
2119
2120
2120
2120
2121
2121
2121
2118
2118
2118
2116
2116
2116
2116
2116
2116
2116
2124
2124
2124
2121
2121
2121
2122
2122
2122
2117
2117
2117
2117
2117
2117
2117
2119
2119
2119
2117
2117
2117
2123
2123
2123
2120
2120
2120
2120
2120
2120
2120
2124
2124
2124
2121
2121
2121
2121
2121
2121
2123
2123
2123
2123
2121
2121
2121
2120
2120
2120
2121
2121
2121
2121
2121
2121
2114
2114
2114
2114
2121
2121
2121
2120
2120
2120
2122
2122
2122
2117
2117
2117
2121
2121
2121
2121
2121
2121
2121
2119
2119
2119
2118
2118
2118
2118
2118
2118
2119
2119
2119
2119
2122
2122
2122
2125
2125
2125
2124
2124
2124
2121
2121
2121
2122
2122
2122
2122
2118
2118
2118
2121
2121
2121
2123
2123
2123
2122
2122
2122
2121
2121
2121
2121
2120
2120
2120
2122
2122
2122
2120
2120
2120
2125
2125
2125
2118
2118
2118
2118
2120
2120
2120
2121
2121
2121
2122
2122
2122
2124
2124
2124
2120
2120
2120
2120
2119
2119
2119
2127
2127
2127
2126
2126
2126
2122
2122
2122
2119
2119
2119
2119
2119
2119
2119
2124
2124
2124
2122
2122
2122
2123
2123
2123
2117
2117
2117
2117
2124
2124
2124
2124
2124
2124
2122
2122
2122
2121
2121
2121
2120
2120
2120
2120
2118
2118
2118
2124
2124
2124
2120
2120
2120
2120
2120
2120
2120
2120
2120
2120
2120
2120
2120
2121
2121
2121
2120
2120
2120
2122
2122
2122
2120
2120
2120
2120
2121
2121
2121
2122
2122
2122
2121
2121
2121
2122
2122
2122
2130
2130
2130
2130
2118
2118
2118
2120
2120
2120
2119
2119
2119
2122
2122
2122
2118
2118
2118
2118
2120
2120
2120
2124
2124
2124
2120
2120
2120
2121
2121
2121
2124
2124
2124
2124
2122
2122
2122
2119
2119
2119
2120
2120
2120
2123
2123
2123
2123
2123
2123
2123
2120
2120
2120
2118
2118
2118
2122
2122
2122
2124
2124
2124
2119
2119
2119
2119
2120
2120
2120
2120
2120
2120
2118
2118
2118
2125
2125
2125
2122
2122
2122
2122
2124
2124
2124
2120
2120
2120
2122
2122
2122
2126
2126
2126
2120
2120
2120
2120
2116
2116
2116
2121
2121
2121
2119
2119
2119
2122
2122
2122
2121
2121
2121
2121
2126
2126
2126
2119
2119
2119
2119
2119
2119
2122
2122
2122
2124
2124
2124
2124
2119
2119
2119
2124
2124
2124
2121
2121
2121
2127
2127
2127
2123
2123
2123
2123
2113
2113
2113
2123
2123
2123
2122
2122
2122
2123
2123
2123
2121
2121
2121
2121
2119
2119
2119
2121
2121
2121
2119
2119
2119
2118
2118
2118
2121
2121
2121
2121
2116
2116
2116
2126
2126
2126
2124
2124
2124
2122
2122
2122
2119
2119
2119
2119
2123
2123
2123
2118
2118
2118
2121
2121
2121
2115
2115
2115
2121
2121
2121
2121
2121
2121
2121
2121
2121
2121
2120
2120
2120
2125
2125
2125
2121
2121
2121
2121
2123
2123
2123
2122
2122
2122
2123
2123
2123
2119
2119
2119
2121
2121
2121
2121
2123
2123
2123
2120
2120
2120
2120
2120
2120
2124
2124
2124
2118
2118
2118
2118
2121
2121
2121
2120
2120
2120
2121
2121
2121
2122
2122
2122
2123
2123
2123
2123
2123
2123
2123
2124
2124
2124
2123
2123
2123
2125
2125
2125
2123
2123
2123
2123
2116
2116
2116
2121
2121
2121
2119
2119
2119
2118
2118
2118
2120
2120
2120
2120
2123
2123
2123
2123
2123
2123
2121
2121
2121
2124
2124
2124
2121
2121
2121
2121
2121
2121
2121
2122
2122
2122
2120
2120
2120
2120
2120
2120
2123
2123
2123
2123
2120
2120
2120
2123
2123
2123
2119
2119
2119
2118
2118
2118
2122
2122
2122
2122
2123
2123
2123
2119
2119
2119
2124
2124
2124
2114
2114
2114
2122
2122
2122
2122
2115
2115
2115
2121
2121
2121
2119
2119
2119
2122
2122
2122
2120
2120
2120
2120
2119
2119
2119
2122
2122
2122
2120
2120
2120
2124
2124
2124
2119
2119
2119
2119
2120
2120
2120
2121
2121
2121
2121
2121
2121
2116
2116
2116
2120
2120
2120
2120
2117
2117
2117
2121
2121
2121
2119
2119
2119
2123
2123
2123
2120
2120
2120
2120
2119
2119
2119
2121
2121
2121
2120
2120
2120
2124
2124
2124
2119
2119
2119
2119
2123
2123
2123
2125
2125
2125
2121
2121
2121
2120
2120
2120
2119
2119
2119
2119
2120
2120
2120
2127
2127
2127
2122
2122
2122
2124
2124
2124
2120
2120
2120
2120
2122
2122
2122
2122
2122
2122
2122
2122
2122
2122
2122
2122
2120
2120
2120
2120
2120
2120
2120
2123
2123
2123
2119
2119
2119
2121
2121
2121
2122
2122
2122
2122
2122
2122
2122
2121
2121
2121
2119
2119
2119
2126
2126
2126
2116
2116
2116
2116
2121
2121
2121
2123
2123
2123
2126
2126
2126
2123
2123
2123
2122
2122
2122
2122
2122
2122
2122
2126
2126
2126
2130
2130
2130
2124
2124
2124
2120
2120
2120
2120
2121
2121
2121
2123
2123
2123
2116
2116
2116
2120
2120
2120
2119
2119
2119
2119
2120
2120
2120
2122
2122
2122
2114
2114
2114
2121
2121
2121
2119
2119
2119
2119
2120
2120
2120
2121
2121
2121
2119
2119
2119
2119
2119
2119
2123
2123
2123
2123
2120
2120
2120
2121
2121
2121
2116
2116
2116
2125
2125
2125
2126
2126
2126
2126
2119
2119
2119
2125
2125
2125
2125
2125
2125
2125
2125
2125
2122
2122
2122
2122
2121
2121
2121
2121
2121
2121
2121
2121
2121
2124
2124
2124
2123
2123
2123
2123
2116
2116
2116
2121
2121
2121
2119
2119
2119
2123
2123
2123
2119
2119
2119
2119
2120
2120
2120
2122
2122
2122
2124
2124
2124
2123
2123
2123
2121
2121
2121
2121
2120
2120
2120
2123
2123
2123
2125
2125
2125
2121
2121
2121
2120
2120
2120
2120
2119
2119
2119
2124
2124
2124
2122
2122
2122
2123
2123
2123
2123
2123
2123
2123
2115
2115
2115
2123
2123
2123
2116
2116
2116
2121
2121
2121
2118
2118
2118
2118
2116
2116
2116
2121
2121
2121
2119
2119
2119
2121
2121
2121
2121
2121
2121
2121
2121
2121
2121
2123
2123
2123
2121
2121
2121
2121
2121
2121
2120
2120
2120
2120
2121
2121
2121
2115
2115
2115
2122
2122
2122
2120
2120
2120
2122
2122
2122
2122
2122
2122
2122
2123
2123
2123
2119
2119
2119
2121
2121
2121
2123
2123
2123
2123
2119
2119
2119
2119
2119
2119
2120
2120
2120
2127
2127
2127
2119
2119
2119
2119
2121
2121
2121
2118
2118
2118
2115
2115
2115
2122
2122
2122
2117
2117
2117
2117
2124
2124
2124
2121
2121
2121
2120
2120
2120
2121
2121
2121
2119
2119
2119
2119
2120
2120
2120
2127
2127
2127
2123
2123
2123
2124
2124
2124
2121
2121
2121
2121
2120
2120
2120
2122
2122
2122
2121
2121
2121
2121
2121
2121
2118
2118
2118
2118
2119
2119
2119
2123
2123
2123
2121
2121
2121
2123
2123
2123
2123
2123
2123
2123
2118
2118
2118
2120
2120
2120
2120
2120
2120
2119
2119
2119
2117
2117
2117
2117
2115
2115
2115
2120
2120
2120
2119
2119
2119
2123
2123
2123
2113
2113
2113
2113
2113
2113
2113
2120
2120
2120
2120
2120
2120
2121
2121
2121
2116
2116
2116
2116
2121
2121
2121
2118
2118
2118
2120
2120
2120
2124
2124
2124
2112
2112
2112
2112
2122
2122
2122
2125
2125
2125
2120
2120
2120
2122
2122
2122
2127
2127
2127
2127
2124
2124
2124
2121
2121
2121
2123
2123
2123
2123
2123
2123
2126
2126
2126
2126
2116
2116
2116
2121
2121
2121
2123
2123
2123
2121
2121
2121
2127
2127
2127
2127
2124
2124
2124
2113
2113
2113
2118
2118
2118
2119
2119
2119
2121
2121
2121
2121
2121
2121
2121
2117
2117
2117
2119
2119
2119
2121
2121
2121
2121
2121
2121
2121
2118
2118
2118
2123
2123
2123
2122
2122
2122
2121
2121
2121
2124
2124
2124
2124
2121
2121
2121
2123
2123
2123
2122
2122
2122
2124
2124
2124
2123
2123
2123
2123
2121
2121
2121
2122
2122
2122
2126
2126
2126
2120
2120
2120
2122
2122
2122
2122
2120
2120
2120
2119
2119
2119
2116
2116
2116
2120
2120
2120
2119
2119
2119
2119
2121
2121
2121
2120
2120
2120
2122
2122
2122
2122
2122
2122
2118
2118
2118
2118
2113
2113
2113
2122
2122
2122
2120
2120
2120
2125
2125
2125
2126
2126
2126
2126
2120
2120
2120
2121
2121
2121
2120
2120
2120
2117
2117
2117
2124
2124
2124
2124
2118
2118
2118
2122
2122
2122
2120
2120
2120
2127
2127
2127
2114
2114
2114
2114
2118
2118
2118
2127
2127
2127
2119
2119
2119
2123
2123
2123
2125
2125
2125
2125
2116
2116
2116
2131
2131
2131
2119
2119
2119
2123
2123
2123
2121
2121
2121
2121
2118
2118
2118
2119
2119
2119
2120
2120
2120
2125
2125
2125
2124
2124
2124
2124
2113
2113
2113
2122
2122
2122
2123
2123
2123
2121
2121
2121
2119
2119
2119
2119
2118
2118
2118
2122
2122
2122
2118
2118
2118
2111
2111
2111
2119
2119
2119
2119
2117
2117
2117
2121
2121
2121
2120
2120
2120
2118
2118
2118
2119
2119
2119
2119
2116
2116
2116
2122
2122
2122
2124
2124
2124
2121
2121
2121
2119
2119
2119
2119
2118
2118
2118
2124
2124
2124
2120
2120
2120
2125
2125
2125
2122
2122
2122
2122
2119
2119
2119
2121
2121
2121
2121
2121
2121
2126
2126
2126
2120
2120
2120
2120
2119
2119
2119
2122
2122
2122
2120
2120
2120
2121
2121
2121
2117
2117
2117
2117
2123
2123
2123
2123
2123
2123
2122
2122
2122
2110
2110
2110
2123
2123
2123
2123
2123
2123
2123
2119
2119
2119
2118
2118
2118
2120
2120
2120
2120
2120
2120
2120
2115
2115
2115
2121
2121
2121
2116
2116
2116
2122
2122
2122
2120
2120
2120
2120
2121
2121
2121
2120
2120
2120
2121
2121
2121
2123
2123
2123
2122
2122
2122
2122
2119
2119
2119
2121
2121
2121
2120
2120
2120
2123
2123
2123
2121
2121
2121
2121
2119
2119
2119
2122
2122
2122
2120
2120
2120
2122
2122
2122
2116
2116
2116
2116
2123
2123
2123
2126
2126
2126
2119
2119
2119
2119
2119
2119
2118
2118
2118
2118
2115
2115
2115
2126
2126
2126
2122
2122
2122
2123
2123
2123
2121
2121
2121
2121
2114
2114
2114
2122
2122
2122
2120
2120
2120
2125
2125
2125
2118
2118
2118
2118
2124
2124
2124
2122
2122
2122
2118
2118
2118
2122
2122
2122
2122
2122
2122
2122
2120
2120
2120
2121
2121
2121
2116
2116
2116
2121
2121
2121
2120
2120
2120
2120
2119
2119
2119
2123
2123
2123
2117
2117
2117
2121
2121
2121
2119
2119
2119
2119
2120
2120
2120
2120
2120
2120
2123
2123
2123
2119
2119
2119
2122
2122
2122
2122
2123
2123
2123
2121
2121
2121
2117
2117
2117
2122
2122
2122
2110
2110
2110
2110
2116
2116
2116
2125
2125
2125
2119
2119
2119
2114
2114
2114
2121
2121
2121
2121
2120
2120
2120
2120
2120
2120
2118
2118
2118
2120
2120
2120
2119
2119
2119
2119
2120
2120
2120
2128
2128
2128
2122
2122
2122
2123
2123
2123
2118
2118
2118
2118
2119
2119
2119
2122
2122
2122
2116
2116
2116
2126
2126
2126
2119
2119
2119
2119
2121
2121
2121
2131
2131
2131
2124
2124
2124
2121
2121
2121
2119
2119
2119
2119
2124
2124
2124
2128
2128
2128
2121
2121
2121
2122
2122
2122
2122
2122
2122
2122
2120
2120
2120
2119
2119
2119
2118
2118
2118
2123
2123
2123
2119
2119
2119
2119
2119
2119
2119
2119
2119
2119
2119
2119
2119
2122
2122
2122
2120
2120
2120
2120
2121
2121
2121
2125
2125
2125
2120
2120
2120
2124
2124
2124
2123
2123
2123
2123
2120
2120
2120
2115
2115
2115
2125
2125
2125
2122
2122
2122
2125
2125
2125
2125
2117
2117
2117
2123
2123
2123
2115
2115
2115
2119
2119
2119
2121
2121
2121
2121
2114
2114
2114
2121
2121
2121
2120
2120
2120
2121
2121
2121
2119
2119
2119
2119
2118
2118
2118
2119
2119
2119
2123
2123
2123
2122
2122
2122
2118
2118
2118
2118
2121
2121
2121
2122
2122
2122
2122
2122
2122
2123
2123
2123
2118
2118
2118
2118
2115
2115
2115
2121
2121
2121
2121
2121
2121
2123
2123
2123
2117
2117
2117
2117
2116
2116
2116
2125
2125
2125
2119
2119
2119
2126
2126
2126
2120
2120
2120
2120
2121
2121
2121
2120
2120
2120
2120
2120
2120
2122
2122
2122
2121
2121
2121
2121
2122
2122
2122
2122
2122
2122
2119
2119
2119
2123
2123
2123
2119
2119
2119
2119
2120
2120
2120
2121
2121
2121
2121
2121
2121
2119
2119
2119
2119
2119
2119
2119
2118
2118
2118
2123
2123
2123
2121
2121
2121
2122
2122
2122
2116
2116
2116
2116
2118
2118
2118
2122
2122
2122
2117
2117
2117
2128
2128
2128
2116
2116
2116
2116
2123
2123
2123
2124
2124
2124
2120
2120
2120
2121
2121
2121
2119
2119
2119
2119
2122
2122
2122
2122
2122
2122
2120
2120
2120
2126
2126
2126
2121
2121
2121
2121
2119
2119
2119
2123
2123
2123
2119
2119
2119
2119
2119
2119
2118
2118
2118
2118
2118
2118
2118
2121
2121
2121
2122
2122
2122
2117
2117
2117
2115
2115
2115
2115
2118
2118
2118
2122
2122
2122
2121
2121
2121
2117
2117
2117
2121
2121
2121
2121
2120
2120
2120
2118
2118
2118
2119
2119
2119
2121
2121
2121
2118
2118
2118
2118
2113
2113
2113
2121
2121
2121
2123
2123
2123
2122
2122
2122
2120
2120
2120
2120
2122
2122
2122
2122
2122
2122
2120
2120
2120
2121
2121
2121
2121
2121
2121
2121
2124
2124
2124
2121
2121
2121
2118
2118
2118
2123
2123
2123
2120
2120
2120
2120
2120
2120
2120
2121
2121
2121
2113
2113
2113
2124
2124
2124
2115
2115
2115
2115
2120
2120
2120
2124
2124
2124
2115
2115
2115
2116
2116
2116
2122
2122
2122
2122
2118
2118
2118
2122
2122
2122
2112
2112
2112
2119
2119
2119
2119
2119
2119
2119
2121
2121
2121
2124
2124
2124
2122
2122
2122
2121
2121
2121
2120
2120
2120
2120
2123
2123
2123
2121
2121
2121
2123
2123
2123
2121
2121
2121
2123
2123
2123
2123
2120
2120
2120
2122
2122
2122
2121
2121
2121
2123
2123
2123
2121
2121
2121
2121
2121
2121
2121
2122
2122
2122
2122
2122
2122
2121
2121
2121
2122
2122
2122
2122
2119
2119
2119
2124
2124
2124
2118
2118
2118
2122
2122
2122
2120
2120
2120
2120
2119
2119
2119
2123
2123
2123
2124
2124
2124
2121
2121
2121
2118
2118
2118
2118
2123
2123
2123
2119
2119
2119
2121
2121
2121
2122
2122
2122
2120
2120
2120
2120
2117
2117
2117
2118
2118
2118
2119
2119
2119
2123
2123
2123
2124
2124
2124
2124
2121
2121
2121
2125
2125
2125
2121
2121
2121
2121
2121
2121
2126
2126
2126
2126
2121
2121
2121
2124
2124
2124
2122
2122
2122
2125
2125
2125
2115
2115
2115
2115
2119
2119
2119
2119
2119
2119
2120
2120
2120
2121
2121
2121
2116
2116
2116
2116
2121
2121
2121
2118
2118
2118
2119
2119
2119
2123
2123
2123
2120
2120
2120
2120
2126
2126
2126
2121
2121
2121
2120
2120
2120
2122
2122
2122
2121
2121
2121
2121
2118
2118
2118
2124
2124
2124
2121
2121
2121
2122
2122
2122
2118
2118
2118
2118
2121
2121
2121
2120
2120
2120
2123
2123
2123
2120
2120
2120
2121
2121
2121
2121
2120
2120
2120
2126
2126
2126
2123
2123
2123
2125
2125
2125
2124
2124
2124
2124
2121
2121
2121
2120
2120
2120
2124
2124
2124
2125
2125
2125
2116
2116
2116
2116
2121
2121
2121
2123
2123
2123
2119
2119
2119
2122
2122
2122
2120
2120
2120
2120
2121
2121
2121
2123
2123
2123
2123
2123
2123
2123
2123
2123
2119
2119
2119
2119
2118
2118
2118
2123
2123
2123
2120
2120
2120
2121
2121
2121
2123
2123
2123
2123
2127
2127
2127
2122
2122
2122
2121
2121
2121
2129
2129
2129
2125
2125
2125
2125
2121
2121
2121
2119
2119
2119
2125
2125
2125
2119
2119
2119
2126
2126
2126
2126
2121
2121
2121
2129
2129
2129
2117
2117
2117
2124
2124
2124
2120
2120
2120
2120
2115
2115
2115
2126
2126
2126
2123
2123
2123
2118
2118
2118
2119
2119
2119
2119
2120
2120
2120
2121
2121
2121
2122
2122
2122
2123
2123
2123
2122
2122
2122
2122
2119
2119
2119
2121
2121
2121
2122
2122
2122
2118
2118
2118
2119
2119
2119
2119
2120
2120
2120
2123
2123
2123
2118
2118
2118
2118
2118
2118
2117
2117
2117
2117
2117
2117
2117
2123
2123
2123
2117
2117
2117
2118
2118
2118
2121
2121
2121
2121
2121
2121
2121
2120
2120
2120
2119
2119
2119
2123
2123
2123
2121
2121
2121
2121
2117
2117
2117
2119
2119
2119
2121
2121
2121
2123
2123
2123
2119
2119
2119
2119
2120
2120
2120
2120
2120
2120
2118
2118
2118
2122
2122
2122
2120
2120
2120
2120
2120
2120
2120
2121
2121
2121
2123
2123
2123
2121
2121
2121
2119
2119
2119
2119
2121
2121
2121
2122
2122
2122
2115
2115
2115
2119
2119
2119
2119
2119
2119
2119
2119
2119
2119
2123
2123
2123
2124
2124
2124
2120
2120
2120
2121
2121
2121
2121
2116
2116
2116
2122
2122
2122
2123
2123
2123
2121
2121
2121
2119
2119
2119
2119
2115
2115
2115
2123
2123
2123
2116
2116
2116
2119
2119
2119
2120
2120
2120
2120
2119
2119
2119
2121
2121
2121
2121
2121
2121
2121
2121
2121
2131
2131
2131
2131
2121
2121
2121
2123
2123
2123
2122
2122
2122
2124
2124
2124
2119
2119
2119
2119
2118
2118
2118
2121
2121
2121
2123
2123
2123
2118
2118
2118
2126
2126
2126
2126
2119
2119
2119
2121
2121
2121
2119
2119
2119
2120
2120
2120
2119
2119
2119
2119
2117
2117
2117
2123
2123
2123
2112
2112
2112
2122
2122
2122
2120
2120
2120
2120
2119
2119
2119
2115
2115
2115
2121
2121
2121
2123
2123
2123
2124
2124
2124
2124
2118
2118
2118
2120
2120
2120
2119
2119
2119
2124
2124
2124
2125
2125
2125
2125
2122
2122
2122
2125
2125
2125
2122
2122
2122
2122
2122
2122
2122
2122
2122
2122
2121
2121
2121
2116
2116
2116
2117
2117
2117
2123
2123
2123
2118
2118
2118
2118
2119
2119
2119
2122
2122
2122
2118
2118
2118
2127
2127
2127
2123
2123
2123
2123
2119
2119
2119
2125
2125
2125
2127
2127
2127
2122
2122
2122
2118
2118
2118
2118
2119
2119
2119
2121
2121
2121
2122
2122
2122
2121
2121
2121
2118
2118
2118
2118
2119
2119
2119
2116
2116
2116
2119
2119
2119
2121
2121
2121
2122
2122
2122
2122
2117
2117
2117
2122
2122
2122
2119
2119
2119
2123
2123
2123
2120
2120
2120
2120
2125
2125
2125
2123
2123
2123
2125
2125
2125
2125
2125
2125
2122
2122
2122
2122
2116
2116
2116
2121
2121
2121
2115
2115
2115
2122
2122
2122
2126
2126
2126
2126
2117
2117
2117
2124
2124
2124
2115
2115
2115
2118
2118
2118
2119
2119
2119
2119
2119
2119
2119
2122
2122
2122
2119
2119
2119
2124
2124
2124
2120
2120
2120
2120
2120
2120
2120
2121
2121
2121
2122
2122
2122
2125
2125
2125
2121
2121
2121
2121
2121
2121
2121
2120
2120
2120
2120
2120
2120
2124
2124
2124
2121
2121
2121
2121
2121
2121
2121
2120
2120
2120
2121
2121
2121
2121
2121
2121
2115
2115
2115
2115
2117
2117
2117
2122
2122
2122
2121
2121
2121
2119
2119
2119
2121
2121
2121
2121
2121
2121
2121
2120
2120
2120
2124
2124
2124
2118
2118
2118
2120
2120
2120
2120
2125
2125
2125
2118
2118
2118
2119
2119
2119
2123
2123
2123
2121
2121
2121
2121
2118
2118
2118
2121
2121
2121
2119
2119
2119
2124
2124
2124
2119
2119
2119
2119
2121
2121
2121
2119
2119
2119
2117
2117
2117
2123
2123
2123
2120
2120
2120
2120
2121
2121
2121
2121
2121
2121
2118
2118
2118
2122
2122
2122
2116
2116
2116
2116
2119
2119
2119
2121
2121
2121
2120
2120
2120
2121
2121
2121
2127
2127
2127
2127
2122
2122
2122
2125
2125
2125
2125
2125
2125
2127
2127
2127
2121
2121
2121
2121
2123
2123
2123
2128
2128
2128
2122
2122
2122
2123
2123
2123
2119
2119
2119
2119
2122
2122
2122
2122
2122
2122
2121
2121
2121
2122
2122
2122
2123
2123
2123
2123
2119
2119
2119
2118
2118
2118
2120
2120
2120
2121
2121
2121
2124
2124
2124
2124
2120
2120
2120
2124
2124
2124
2123
2123
2123
2123
2123
2123
2123
2123
2123
2123
2119
2119
2119
2128
2128
2128
2122
2122
2122
2122
2122
2122
2112
2112
2112
2112
2118
2118
2118
2114
2114
2114
2121
2121
2121
2124
2124
2124
2119
2119
2119
2119
2119
2119
2119
2117
2117
2117
2116
2116
2116
2121
2121
2121
2121
2121
2121
2121
2119
2119
2119
2120
2120
2120
2120
2120
2120
2121
2121
2121
2120
2120
2120
2120
2119
2119
2119
2121
2121
2121
2119
2119
2119
2121
2121
2121
2120
2120
2120
2120
2124
2124
2124
2120
2120
2120
2120
2120
2120
2124
2124
2124
2119
2119
2119
2119
2120
2120
2120
2122
2122
2122
2119
2119
2119
2118
2118
2118
2115
2115
2115
2115
2119
2119
2119
2115
2115
2115
2119
2119
2119
2122
2122
2122
2114
2114
2114
2114
2119
2119
2119
2119
2119
2119
2119
2119
2119
2117
2117
2117
2122
2122
2122
2122
2119
2119
2119
2118
2118
2118
2119
2119
2119
2118
2118
2118
2122
2122
2122
2122
2118
2118
2118
2121
2121
2121
2120
2120
2120
2124
2124
2124
2119
2119
2119
2119
2120
2120
2120
2123
2123
2123
2121
2121
2121
2124
2124
2124
2118
2118
2118
2118
2120
2120
2120
2122
2122
2122
2126
2126
2126
2125
2125
2125
2119
2119
2119
2119
2120
2120
2120
2123
2123
2123
2118
2118
2118
2119
2119
2119
2120
2120
2120
2120
2116
2116
2116
2120
2120
2120
2116
2116
2116
2120
2120
2120
2120
2120
2120
2120
2118
2118
2118
2123
2123
2123
2125
2125
2125
2124
2124
2124
2121
2121
2121
2121
2118
2118
2118
2121
2121
2121
2123
2123
2123
2124
2124
2124
2120
2120
2120
2120
2118
2118
2118
2123
2123
2123
2117
2117
2117
2123
2123
2123
2120
2120
2120
2120
2121
2121
2121
2120
2120
2120
2120
2120
2120
2120
2120
2120
2119
2119
2119
2119
2118
2118
2118
2123
2123
2123
2120
2120
2120
2116
2116
2116
2122
2122
2122
2122
2122
2122
2122
2114
2114
2114
2122
2122
2122
2122
2122
2122
2119
2119
2119
2119
2117
2117
2117
2117
2117
2117
2119
2119
2119
2121
2121
2121
2117
2117
2117
2117
2124
2124
2124
2117
2117
2117
2122
2122
2122
2121
2121
2121
2116
2116
2116
2116
2121
2121
2121
2121
2121
2121
2121
2121
2121
2121
2121
2121
2116
2116
2116
2116
2117
2117
2117
2119
2119
2119
2120
2120
2120
2120
2120
2120
2121
2121
2121
2121
2119
2119
2119
2121
2121
2121
2119
2119
2119
2117
2117
2117
2116
2116
2116
2116
2124
2124
2124
2121
2121
2121
2117
2117
2117
2117
