2158
2158
2158
2170
2170
2170
2162
2162
2162
2165
2165
2165
2165
2166
2166
2166
2168
2168
2168
2164
2164
2164
2151
2151
2151
2163
2163
2163
2163
2164
2164
2164
2162
2162
2162
2168
2168
2168
2163
2163
2163
2169
2169
2169
2169
2167
2167
2167
2162
2162
2162
2164
2164
2164
2162
2162
2162
2164
2164
2164
2164
2163
2163
2163
2162
2162
2162
2167
2167
2167
2162
2162
2162
2161
2161
2161
2161
2157
2157
2157
2156
2156
2156
2167
2166
2166
2165
2165
2165
2162
2162
2162
2166
2166
2166
2166
2166
2166
2166
2162
2162
2162
2169
2169
2169
2163
2163
2163
2164
2164
2164
2164
2163
2163
2163
2163
2163
2163
2163
2163
2163
2166
2166
2166
2167
2167
2167
2167
2169
2169
2169
2153
2153
2153
2161
2161
2161
2165
2165
2165
2170
2170
2170
2170
2166
2166
2166
2164
2164
2164
2164
2164
2164
2159
2159
2159
2153
2153
2153
2153
2165
2165
2165
2160
2160
2160
2168
2168
2168
2157
2157
2157
2165
2165
2165
2165
2164
2164
2164
2160
2160
2160
2167
2167
2167
2162
2162
2162
2170
2170
2170
2170
2168
2168
2168
2164
2164
2164
2165
2165
2165
2163
2163
2163
2164
2164
2164
2164
2164
2164
2164
2158
2158
2158
2167
2167
2167
2162
2162
2162
2167
2167
2167
2167
2163
2163
2163
2162
2162
2162
2157
2157
2157
2175
2175
2175
2166
2166
2166
2166
2163
2163
2163
2164
2164
2164
2168
2168
2168
2163
2163
2163
2165
2165
2165
2165
2165
2165
2165
2161
2161
2161
2168
2168
2168
2164
2164
2164
2166
2166
2166
2166
2165
2165
2165
2162
2162
2162
2165
2165
2165
2163
2163
2163
2167
2167
2167
2167
2171
2171
2171
2161
2161
2161
2168
2168
2168
2160
2160
2160
2167
2167
2167
2167
2172
2172
2172
2157
2157
2157
2161
2161
2161
2169
2169
2169
2162
2162
2162
2162
2166
2166
2166
2161
2161
2161
2166
2166
2166
2161
2161
2161
2167
2167
2167
2167
2167
2167
2167
2163
2163
2163
2165
2165
2165
2162
2162
2162
2167
2167
2167
2167
2165
2165
2165
2162
2162
2162
2166
2166
2166
2163
2163
2163
2166
2166
2166
2166
2166
2166
2166
2168
2168
2168
2165
2165
2165
2161
2161
2161
2167
2167
2167
2167
2160
2160
2160
2177
2177
2177
2166
2166
2166
2163
2163
2163
2169
2169
2169
2169
2168
2168
2168
2162
2162
2162
2161
2161
2161
2161
2161
2161
2165
2165
2165
2165
2164
2164
2164
2163
2163
2163
2168
2168
2168
2162
2162
2162
2165
2165
2165
2165
2175
2175
2175
2162
2162
2162
2166
2166
2166
2165
2165
2165
2166
2166
2166
2166
2165
2165
2165
2164
2164
2164
2166
2166
2166
2165
2165
2165
2166
2166
2166
2166
2164
2164
2164
2164
2164
2164
2177
2177
2177
2162
2162
2162
2166
2166
2166
2166
2166
2166
2166
2165
2165
2165
2165
2165
2165
2160
2160
2160
2165
2165
2165
2165
2164
2164
2164
2160
2160
2160
2166
2166
2166
2161
2161
2161
2171
2171
2171
2171
2167
2167
2167
2163
2163
2163
2165
2165
2165
2164
2164
2164
2167
2167
2167
2167
2168
2168
2168
2165
2165
2165
2166
2166
2166
2160
2160
2160
2164
2164
2164
2164
2165
2165
2165
2163
2163
2163
2163
2163
2163
2167
2167
2167
2170
2170
2170
2170
2159
2159
2159
2163
2163
2163
2164
2164
2164
2165
2165
2165
2167
2167
2167
2167
2165
2165
2165
2162
2162
2162
2166
2166
2166
2162
2162
2162
2163
2163
2163
2163
2166
2166
2166
2162
2162
2162
2169
2169
2169
2162
2162
2162
2166
2166
2166
2166
2166
2166
2166
2162
2162
2162
2165
2165
2165
2163
2163
2163
2164
2164
2164
2164
2161
2161
2161
2171
2171
2171
2169
2169
2169
2163
2163
2163
2169
2169
2169
2169
2166
2166
2166
2162
2162
2162
2165
2165
2165
2162
2162
2162
2164
2164
2164
2164
2163
2163
2163
2161
2161
2161
2166
2166
2166
2164
2164
2164
2166
2166
2166
2166
2163
2163
2163
2163
2163
2163
2164
2164
2164
2166
2166
2166
2165
2165
2165
2165
2165
2165
2165
2163
2163
2163
2166
2166
2166
2161
2161
2161
2166
2166
2166
2166
2153
2153
2153
2161
2161
2161
2167
2167
2167
2161
2161
2161
2169
2169
2169
2169
2166
2166
2166
2160
2160
2160
2164
2164
2164
2162
2162
2162
2165
2165
2165
2165
2166
2166
2166
2164
2164
2164
2166
2166
2166
2162
2162
2162
2165
2165
2165
2165
2169
2169
2169
2165
2165
2165
2166
2166
2166
2166
2166
2166
2166
2166
2166
2166
2168
2168
2168
2159
2159
2159
2166
2166
2166
2162
2162
2162
2168
2168
2168
2168
2168
2168
2168
2161
2161
2161
2165
2165
2165
2166
2166
2166
2164
2164
2164
2164
2162
2162
2162
2162
2162
2162
2168
2168
2168
2159
2159
2159
2166
2166
2166
2166
2167
2167
2167
2163
2163
2163
2165
2165
2165
2162
2162
2162
2165
2165
2165
2165
2166
2166
2166
2160
2160
2160
2166
2166
2166
2162
2162
2162
2169
2169
2169
2169
2163
2163
2163
2161
2161
2161
2165
2165
2165
2164
2164
2164
2168
2168
2168
2168
2165
2165
2165
2155
2155
2155
2158
2158
2158
2166
2166
2166
2168
2168
2168
2168
2165
2165
2165
2165
2165
2165
2166
2166
2166
2162
2162
2162
2163
2163
2163
2163
2166
2166
2166
2158
2158
2158
2165
2165
2165
2162
2162
2162
2165
2165
2165
2165
2166
2166
2166
2163
2163
2163
2165
2165
2165
2163
2163
2163
2166
2166
2166
2166
2166
2166
2166
2159
2159
2159
2169
2169
2169
2164
2164
2164
2166
2166
2166
2166
2166
2166
2166
2162
2162
2162
2160
2160
2160
2168
2168
2168
2164
2164
2164
2164
2168
2168
2168
2163
2163
2163
2165
2165
2165
2162
2162
2162
2166
2166
2166
2166
2165
2165
2165
2163
2163
2163
2171
2171
2171
2159
2159
2159
2167
2167
2167
2167
2164
2164
2164
2163
2163
2163
2166
2166
