2034
2034
2027
2027
2027
2030
2030
2030
2033
2033
2033
2033
2035
2035
2035
2029
2029
2029
2028
2028
2028
2030
2030
2030
2031
2031
2031
2031
2036
2036
2036
2030
2030
2030
2034
2034
2034
2029
2029
2029
2035
2035
2035
2035
2032
2032
2032
2032
2032
2032
2034
2034
2034
2031
2031
2031
2036
2036
2036
2036
2036
2036
2036
2028
2028
2028
2038
2038
2038
2034
2034
2034
2034
2034
2034
2034
2036
2036
2036
2028
2028
2028
2030
2029
2029
2030
2030
2030
2029
2029
2029
2034
2034
2034
2034
2029
2029
2029
2031
2031
2031
2036
2036
2036
2032
2032
2032
2035
2035
2035
2035
2033
2033
2033
2031
2031
2031
2032
2032
2032
2034
2034
2034
2029
2029
2029
2029
2034
2034
2034
2028
2028
2028
2031
2031
2031
2031
2031
2031
2027
2027
2027
2027
2032
2032
2032
2026
2026
2026
2032
2032
2032
2024
2024
2024
2034
2034
2034
2034
2033
2033
2033
2035
2035
2035
2033
2033
2033
2030
2030
2030
2034
2034
2034
2034
2033
2033
2033
2031
2031
2031
2033
2033
2033
2026
2026
2026
2033
2033
2033
2033
2034
2034
2034
2028
2028
2028
2037
2037
2037
2028
2028
2028
2033
2033
2033
2033
2033
2033
2033
2031
2031
2031
2036
2036
2036
2034
2034
2034
2034
2034
2034
2034
2034
2034
2034
2021
2021
2021
2035
2035
2035
2025
2025
2025
2035
2035
2035
2035
2034
2034
2034
2033
2033
2033
2033
2033
2033
2027
2027
2027
2034
2034
2034
2034
2034
2034
2034
2030
2030
2030
2032
2032
2032
2030
2030
2030
2035
2035
2035
2035
2031
2031
2031
2031
2031
2031
2031
2031
2031
2034
2034
2034
2032
2032
2032
2032
2028
2028
2028
2029
2029
2029
2033
2033
2033
2031
2031
2031
2032
2032
2032
2032
2032
2032
2032
2031
2031
2031
2035
2035
2035
2032
2032
2032
2034
2034
2034
2034
2033
2033
2033
2029
2029
2029
2036
2036
2036
2029
2029
2029
2033
2033
2033
2033
2034
2034
2034
2029
2029
2029
2030
2030
2030
2030
2030
2030
2041
2041
2041
2041
2026
2026
2026
2030
2030
2030
2027
2027
2027
2032
2032
2032
2036
2036
2036
2036
2039
2039
2039
2030
2030
2030
2040
2040
2040
2029
2029
2029
2035
2035
2035
2035
2035
2035
2035
2028
2028
2028
2033
2033
2033
2031
2031
2031
2030
2030
2030
2030
2036
2036
2036
2031
2031
2031
2024
2024
2024
2030
2030
2030
2033
2033
2033
2033
2035
2035
2035
2031
2031
2031
2031
2031
2031
2032
2032
2032
2032
2032
2032
2032
2034
2034
2034
2031
2031
2031
2039
2039
2039
2033
2033
2033
2030
2030
2030
2030
2034
2034
2034
2031
2031
2031
2034
2034
2034
2033
2033
2033
2028
2028
2028
2028
2036
2036
2036
2030
2030
2030
2042
2042
2042
2030
2030
2030
2032
2032
2032
2032
2031
2031
2031
2032
2032
2032
2039
2039
2039
2022
2022
2022
2035
2035
2035
2035
2033
2033
2033
2029
2029
2029
2034
2034
2034
2031
2031
2031
2036
2036
2036
2036
2033
2033
2033
2031
2031
2031
2033
2033
2033
2027
2027
2027
2035
2035
2035
2035
2033
2033
2033
2029
2029
2029
2034
2034
2034
2030
2030
2030
2033
2033
2033
2033
2033
2033
2033
2026
2026
2026
2036
2036
2036
2031
2031
2031
2035
2035
2035
2035
2031
2031
2031
2028
2028
2028
2030
2030
2030
2029
2029
2029
2033
2033
2033
2033
2034
2034
2034
2029
2029
2029
2031
2031
2031
2030
2030
2030
2034
2034
2034
2034
2034
2034
2034
2030
2030
2030
2031
2031
2031
2029
2029
2029
2036
2036
2036
2036
2034
2034
2034
2029
2029
2029
2035
2035
2035
2030
2030
2030
2033
2033
2033
2033
2036
2036
2036
2030
2030
2030
2036
2036
2036
2031
2031
2031
2030
2030
2030
2030
2039
2039
2039
2032
2032
2032
2034
2034
2034
2031
2031
2031
2035
2035
2035
2035
2033
2033
2033
2033
2033
2033
2026
2026
2026
2029
2029
2029
2030
2030
2030
2030
2028
2028
2028
2030
2030
2030
2034
2034
2034
2028
2028
2028
2032
2032
2032
2032
2033
2033
2033
2033
2033
2033
2033
2033
2033
2031
2031
2031
2032
2032
2032
2032
2034
2034
2034
2030
2030
2030
2034
2034
2034
2029
2029
2029
2033
2033
2033
2033
2030
2030
2030
2034
2034
2034
2033
2033
2033
2028
2028
2028
2035
2035
2035
2035
2033
2033
2033
2030
2030
2030
2029
2029
2029
2034
2034
2034
2034
2034
2034
2034
2033
2033
2033
2029
2029
2029
2033
2033
2033
2031
2031
2031
2037
2037
2037
2037
2037
2037
2037
2034
2034
2034
2033
2033
2033
2034
2034
2034
2031
2031
2031
2031
2034
2034
2034
2030
2030
2030
2034
2034
2034
2023
2023
2023
2033
2033
2033
2033
2038
2038
2038
2027
2027
2027
2035
2035
2035
2027
2027
2027
2033
2033
2033
2033
2035
2035
2035
2025
2025
2025
2031
2031
2031
2031
2031
2031
2036
2036
2036
2036
2030
2030
2030
2033
2033
2033
2032
2032
2032
2033
2033
2033
2032
2032
2032
2032
2034
2034
2034
2031
2031
2031
2032
2032
2032
2030
2030
2030
2035
2035
2035
2035
2034
2034
2034
2032
2032
2032
2034
2034
2034
2032
2032
2032
2035
2035
2035
2035
2034
2034
2034
2032
2032
2032
2033
2033
2033
2036
2036
2036
2035
2035
2035
2035
2031
2031
2031
2031
2031
2031
2025
2025
2025
2025
2025
2025
2034
2034
2034
2034
2034
2034
2034
2031
2031
2031
2034
2034
2034
2024
2024
2024
2034
2034
2034
2034
2037
2037
2037
2029
2029
2029
2030
2030
2030
2031
2031
2031
2032
2032
2032
2032
2037
2037
2037
2029
2029
2029
2035
2035
2035
2028
2028
2028
2031
2031
2031
2031
2034
2034
2034
2029
2029
2029
2035
2035
2035
2032
2032
2032
2039
2039
2039
2039
2037
2037
2037
2029
2029
2029
2035
2035
2035
2030
2030
2030
2033
2033
2033
2033
2034
2034
2034
2030
2030
2030
2030
2030
2030
