33488
33488
33641
33641
33641
33641
33728
33728
33728
33575
33575
33575
33641
33641
33641
33554
33554
33554
33597
33597
33597
33597
33575
33575
33575
33532
33532
33532
33684
33684
33684
33510
33510
33510
33641
33641
33641
33641
33619
33619
33619
33379
33379
33379
33641
33641
33641
33554
33554
33554
33619
33619
33619
33619
33706
33706
33706
33619
33619
33619
33641
33641
33641
33575
33575
33575
33619
33619
33619
33619
33597
33597
33597
33532
33532
33532
33641
33641
33641
33597
33597
33597
33597
33597
33597
33597
33597
33597
33597
33575
33575
33575
33488
33488
33488
33532
33532
33532
33597
33597
33597
33597
33641
33641
33641
33554
33554
33554
33641
33641
33641
33510
33510
33510
33619
33619
33619
33619
33619
33619
33619
33575
33575
33575
33575
33575
33575
33575
33575
33575
33532
33532
33532
33532
33597
33597
33597
33532
33532
33532
33641
33641
33641
33749
33749
33749
33597
33597
33597
33597
33597
33597
33597
33532
33532
33532
33641
33641
33641
33597
33597
33597
33619
33619
33619
33619
33619
33619
33619
33597
33597
33597
33619
33619
33619
33532
33532
33532
33641
33641
33641
33641
33575
33575
33575
33488
33488
33488
33619
33619
33619
33532
33532
33532
33858
33858
33858
33858
33641
33641
33641
33532
33532
33532
33575
33575
33575
33488
33488
33488
33662
33662
33662
33662
33575
33575
33575
33445
33445
33445
33597
33597
33597
33510
33510
33510
33619
33619
33619
33619
33510
33510
33510
33532
33532
33532
33597
33597
33597
33532
33532
33532
33619
33619
33619
33619
33597
33597
33597
33554
33554
33554
33641
33641
33641
33532
33532
33532
33619
33619
33619
33619
33662
33662
33662
33510
33510
33510
33619
33619
33619
33575
33575
33575
33510
33510
33510
33510
33510
33510
33510
33532
33532
33532
33597
33597
33597
33575
33575
33575
33554
33554
33554
33554
33488
33488
33488
33575
33575
33575
33619
33619
33619
33510
33510
33510
33575
33575
33575
33575
33597
33597
33597
33445
33445
33445
33815
33815
33815
33488
33488
33488
33641
33641
33641
33641
33597
33597
33597
33554
33554
33554
33662
33662
33662
33510
33510
33510
33662
33662
33662
33662
33619
33619
33619
33597
33597
33597
33597
33597
33597
33554
33554
33554
33445
33445
33445
33445
33488
33488
33488
33532
33532
33532
33619
33619
33619
33401
33401
33401
33684
33684
33684
33684
33641
33641
33641
33510
33510
33510
33771
33771
33771
33532
33532
33532
33575
33575
33575
33575
33619
33619
33619
33423
33423
33423
33597
33597
33597
33532
33532
33532
33619
33619
33619
33619
33684
33684
33684
33575
33575
33575
33575
33575
33575
33423
33423
33423
33619
33619
33619
33619
33641
33641
33641
33488
33488
33488
33641
33641
33641
33554
33554
33554
33597
33597
33597
33597
33662
33662
33662
33532
33532
33532
33641
33641
33641
33662
33662
33662
33575
33575
33575
33575
33662
33662
33662
33554
33554
33554
33662
33662
33662
33554
33554
33554
33619
33619
33619
33619
33641
33641
33641
33488
33488
33488
33554
33554
33554
33575
33575
33575
33597
33597
33597
33597
33706
33706
33706
33488
33488
33488
33641
33641
33641
33575
33575
33575
33749
33749
33749
33749
33706
33706
33706
33467
33467
33467
33728
33728
33728
33445
33445
33445
33597
33597
33597
33597
33619
33619
33619
33554
33554
33554
33619
33619
33619
33532
33532
33532
33641
33641
33641
33641
33597
33597
33597
33554
33554
33554
33554
33554
33554
33554
33554
33554
33641
33641
33641
33641
33619
33619
33619
33488
33488
33488
33597
33597
33597
33488
33488
33488
33815
33815
33815
33815
33641
33641
33641
33554
33554
33554
33641
33641
33641
33532
33532
33532
33597
33597
33597
33597
33597
33597
33597
33510
33510
33510
33554
33554
33554
33423
33423
33423
33575
33575
33575
33575
33597
33597
33597
33488
33488
33488
33575
33575
33575
33554
33554
33554
33662
33662
33662
33662
33575
33575
33575
33488
33488
33488
33597
33597
33597
33597
33597
33597
33641
33641
33641
33641
33597
33597
33597
33445
33445
33445
33771
33771
33771
33554
33554
33554
33619
33619
33619
33619
33488
33488
33488
33488
33488
33488
33641
33641
33641
33510
33510
33510
33641
33641
33641
33641
33532
33532
33532
33510
33510
33510
33554
33554
33554
33510
33510
33510
33641
33641
33641
33641
33662
33662
33662
33532
33532
33532
33488
33488
33488
33510
33510
33510
33597
33597
33597
33597
33619
33619
33619
33793
33793
33793
33554
33554
33554
33619
33619
33619
33662
33662
33662
33662
33706
33706
33706
33532
33532
33532
33597
33597
33597
33662
33662
33662
33575
33575
33575
33575
33597
33597
33597
33488
33488
33488
33684
33684
33684
33423
33423
33423
33619
33619
33619
33619
33641
33641
33641
33445
33445
33445
33706
33706
33706
33532
33532
33532
33532
33532
33532
33532
33619
33619
33619
33619
33619
33619
33575
33575
33575
33467
33467
33467
33597
33597
33597
33597
33619
33619
33619
33532
33532
33532
33662
33662
33662
33575
33575
33575
33532
33532
33532
33532
33597
33597
33597
33532
33532
33532
33597
33597
33597
33423
33423
33423
33641
33641
33641
33641
33597
33597
33597
33510
33510
33510
33662
33662
33662
33532
33532
33532
33619
33619
33619
33619
33597
33597
33597
33619
33619
33619
33641
33641
33641
33554
33554
33554
33662
33662
33662
33662
33619
33619
33619
33510
33510
33510
33619
33619
33619
33597
33597
33597
33662
33662
33662
33662
33706
33706
33706
33554
33554
33554
33641
33641
33641
33575
33575
33575
33619
33619
33619
33619
33619
33619
33619
33488
33488
33488
33619
33619
33619
33532
33532
33532
33619
33619
33619
33619
33662
33662
33662
33554
33554
33554
33575
33575
33575
33597
33597
33597
33619
33619
33619
33619
33619
33619
33619
33358
33358
33358
33575
33575
33575
33532
33532
33532
33575
33575
33575
33575
33641
33641
33641
33445
33445
33445
33597
33597
33597
33641
33641
33641
33597
33597
33597
33597
33597
33597
33597
33423
33423
33423
33619
33619
33619
33575
33575
33575
33575
33575
33575
33575
33619
33619
33619
33554
33554
33554
33815
33815
33815
33532
33532
33532
33641
33641
33641
33641
33706
33706
33706
33467
33467
33467
33641
33641
33641
33554
33554
33554
33619
33619
33619
33619
33641
33641
33641
33597
33597
33597
33619
33619
33619
33510
33510
33510
33619
33619
33619
33619
33771
33771
33771
33510
33510
33510
33619
33619
33619
33488
33488
33488
33641
33641
33641
33641
33575
33575
33575
33488
33488
33488
33554
33554
33554
33597
33597
33597
33641
33641
33641
33641
33575
33575
33575
33532
33532
33532
33619
33619
33619
33532
33532
33532
33619
33619
33619
33619
33619
33619
33619
33532
33532
33532
33619
33619
33619
33532
33532
33532
33575
33575
33575
33575
33662
33662
33662
33510
33510
33510
33706
33706
33706
33575
33575
33575
33619
33619
33619
33619
33684
33684
33684
33532
33532
33532
33641
33641
33641
33554
33554
33554
33575
33575
33575
33575
33532
33532
33532
33488
33488
33488
33728
33728
33728
33532
33532
33532
33619
33619
33619
33619
33619
33619
33619
33619
33619
33619
33641
33641
33641
33488
33488
33488
33749
33749
33749
33749
33597
33597
33597
33554
33554
33554
33619
33619
33619
33488
33488
33488
33619
33619
33619
33619
33728
33728
33728
33532
33532
33532
33641
33641
33641
33488
33488
33488
33641
33641
33641
33641
33641
33641
33641
33510
33510
33510
33641
33641
33641
33510
33510
33510
33597
33597
33597
33597
33619
33619
33619
33662
33662
33662
33532
33532
33532
33467
33467
33467
33532
33532
33532
33532
33575
33575
33575
33467
33467
33467
33619
33619
33619
33575
33575
33575
33641
33641
33641
33641
33771
33771
33771
33532
33532
33532
33619
33619
33619
33575
33575
33575
33641
33641
33641
33641
33597
33597
33597
33488
33488
33488
33728
33728
33728
33597
33597
33597
33575
33575
33575
33575
33597
33597
33597
33532
33532
33532
33575
33575
33575
33488
33488
33488
33619
33619
33619
33619
33597
33597
33597
33575
33575
33575
33641
33641
33641
33554
33554
33554
33619
33619
33619
33619
33554
33554
33554
33510
33510
33510
33641
33641
33641
33771
33771
33771
33641
33641
33641
33641
33619
33619
33619
33575
33575
33575
33749
33749
33749
33532
33532
33532
33619
33619
33619
33619
33641
33641
33641
33510
33510
33510
33488
33488
33488
33532
33532
33532
33728
33728
33728
33728
33684
33684
33684
33423
33423
33423
33597
33597
33597
33597
33597
33597
33684
33684
33684
33684
33597
33597
33597
33597
33597
33597
33619
33619
33619
33532
33532
33532
33641
33641
33641
33641
33554
33554
33554
33532
33532
33532
33619
33619
33619
33575
33575
33575
33554
33554
33554
33554
33619
33619
33619
33554
33554
33554
33575
33575
33575
33532
33532
33532
33641
33641
33641
33641
33619
33619
33619
33554
33554
33554
33662
33662
33662
33554
33554
33554
33749
33749
33749
33749
33662
33662
33662
33488
33488
33488
33597
33597
33597
33488
33488
33488
33662
33662
33662
33662
33641
33641
33641
33532
33532
33532
33728
33728
33728
33467
33467
33467
33554
33554
33554
33554
33532
33532
33532
33510
33510
33510
33641
33641
33641
33597
33597
33597
33597
33597
33597
33597
33641
33641
33641
33532
33532
33532
33554
33554
33554
33532
33532
33532
33597
33597
33597
33597
33597
33597
33597
33401
33401
33401
33575
33575
33575
33488
33488
33488
33749
33749
33749
33749
33641
33641
33641
33554
33554
33554
33662
33662
33662
33445
33445
33445
33619
33619
33619
33619
33532
33532
33532
33641
33641
33641
33641
33641
33641
33619
33619
33619
33662
33662
33662
33662
33554
33554
33554
33488
33488
33488
33684
33684
33684
33488
33488
33488
33662
33662
33662
33662
33662
33662
33662
33510
33510
33510
33662
33662
33662
33532
33532
33532
33597
33597
33597
33597
33641
33641
33641
33793
33793
33793
33641
33641
33641
33554
33554
33554
33749
33749
33749
33749
33575
33575
33575
33554
33554
33554
33662
33662
33662
33510
33510
33510
33597
33597
33597
33597
33510
33510
33510
33488
33488
33488
33728
33728
33728
33445
33445
33445
33641
33641
33641
33641
33641
33641
33641
33532
33532
33532
33597
33597
33597
33510
33510
33510
33684
33684
33684
33684
33532
33532
33532
33488
33488
33488
33597
33597
33597
33619
33619
33619
33575
33575
33575
33575
33575
33575
33575
33662
33662
33662
33706
33706
33706
33575
33575
33575
33619
33619
33619
33619
33662
33662
33662
33467
33467
33467
33619
33619
33619
33488
33488
33488
33597
33597
33597
33597
33619
33619
33619
33532
33532
33532
33467
33467
33467
33532
33532
33532
33641
33641
33641
33641
33597
33597
33597
33597
33597
33597
33575
33575
33575
33532
33532
33532
33641
33641
33641
33641
33662
33662
33662
33554
33554
33554
33662
33662
33662
33532
33532
33532
33575
33575
33575
33575
33575
33575
33575
33575
33575
33575
33662
33662
33662
33575
33575
33575
33662
33662
33662
33662
33619
33619
33619
33445
33445
33445
33575
33575
33575
33532
33532
33532
33554
33554
33554
33554
33575
33575
33575
33532
33532
33532
33597
33597
33597
33532
33532
33532
33597
33597
33597
33597
33619
33619
33619
33554
33554
33554
33597
33597
33597
33597
33597
33597
33575
33575
33575
33575
33597
33597
33597
33575
33575
33575
33597
33597
33597
33488
33488
33488
33684
33684
33684
33684
33749
33749
33749
33532
33532
33532
33619
33619
33619
33706
33706
33706
33641
33641
33641
33641
33641
33641
33641
33532
33532
33532
33575
33575
33575
33510
33510
33510
33728
33728
33728
33728
33575
33575
33575
33510
33510
33510
33597
33597
33597
33510
33510
33510
33619
33619
33619
33619
33641
33641
33641
33532
33532
33532
33662
33662
33662
33554
33554
33554
33706
33706
33706
33706
33532
33532
33532
33641
33641
33641
33597
33597
33597
33467
33467
33467
33662
33662
33662
33662
33619
33619
33619
33554
33554
33554
33662
33662
33662
33467
33467
33467
33597
33597
33597
33597
33619
33619
33619
33488
33488
33488
33641
33641
33641
33532
33532
33532
33619
33619
33619
33619
33597
33597
33597
33575
33575
33575
33532
33532
33532
33467
33467
33467
33706
33706
33706
33706
33575
33575
33575
33554
33554
33554
33728
33728
33728
33510
33510
33510
33641
33641
33641
33641
33684
33684
33684
33532
33532
33532
33662
33662
33662
33554
33554
33554
33597
33597
33597
33597
33706
33706
33706
33554
33554
33554
33619
33619
33619
33510
33510
33510
33575
33575
33575
33575
33619
33619
33619
33510
33510
33510
33619
33619
33619
33554
33554
33554
33488
33488
33488
33488
33597
33597
33597
33641
33641
33641
33597
33597
33597
33662
33662
33662
33575
33575
33575
33575
33597
33597
33597
33554
33554
33554
33467
33467
33467
33532
33532
33532
33641
33641
33641
33641
33662
33662
33662
33510
33510
33510
33597
33597
33597
33641
33641
33641
33597
33597
33597
33597
33597
33597
33597
33532
33532
33532
33684
33684
33684
33510
33510
33510
33619
33619
33619
33619
33575
33575
33575
33532
33532
33532
33597
33597
33597
33510
33510
33510
33597
33597
33597
33597
33662
33662
33662
33554
33554
33554
33575
33575
33575
33575
33575
33575
33619
33619
33619
33619
33641
33641
33641
33488
33488
33488
33575
33575
33575
33510
33510
33510
33597
33597
33597
33597
33706
33706
33706
33532
33532
33532
33641
33641
33641
33619
33619
33619
33575
33575
33575
33575
33619
33619
33619
33510
33510
33510
33597
33597
33597
33510
33510
33510
33662
33662
33662
33662
33619
33619
33619
33532
33532
33532
33684
33684
33684
33554
33554
33554
33575
33575
33575
33575
33597
33597
33597
33510
33510
33510
33619
33619
33619
33597
33597
33597
33554
33554
33554
33554
33597
33597
33597
33532
33532
33532
33728
33728
33728
33749
33749
33749
33597
33597
33597
33597
33510
33510
33510
33445
33445
33445
33597
33597
33597
33510
33510
33510
33532
33532
33532
33532
33706
33706
33706
33510
33510
33510
33575
33575
33575
33575
33575
33575
33641
33641
33641
33641
33575
33575
33575
33467
33467
33467
33597
33597
33597
33532
33532
33532
33684
33684
33684
33684
33706
33706
33706
33619
33619
33619
33575
33575
33575
33401
33401
33401
33575
33575
33575
33575
33749
33749
33749
33532
33532
33532
33662
33662
33662
33684
33684
33684
33641
33641
33641
33641
33662
33662
33662
33510
33510
33510
33619
33619
33619
33532
33532
33532
33575
33575
33575
33575
33619
33619
33619
33532
33532
33532
33662
33662
33662
33554
33554
33554
33554
33554
33554
33554
33597
33597
33597
33554
33554
33554
33575
33575
33575
33532
33532
33532
33510
33510
33510
33510
33597
33597
33597
33488
33488
33488
33575
33575
33575
33554
33554
33554
33706
33706
33706
33706
33575
33575
33575
33532
33532
33532
33706
33706
33706
33510
33510
33510
33662
33662
33662
33662
33641
33641
33641
33575
33575
33575
33379
33379
33379
33532
33532
33532
33597
33597
33597
33597
33554
33554
33554
33575
33575
33575
33641
33641
33641
33445
33445
33445
33619
33619
33619
33619
33597
33597
33597
33597
33597
33597
33532
33532
33532
33532
33532
33532
33575
33575
33575
33575
33445
33445
33445
33510
33510
33510
33597
33597
33597
33467
33467
33467
33749
33749
33749
33749
33641
33641
33641
33554
33554
33554
33641
33641
33641
33401
33401
33401
33641
33641
33641
33641
33662
33662
33662
33619
33619
33619
33619
33619
33619
33554
33554
33554
33554
33554
33554
33554
33575
33575
33575
33467
33467
33467
33575
33575
33575
33488
33488
33488
33749
33749
33749
33749
33684
33684
33684
33488
33488
33488
33554
33554
33554
33445
33445
33445
33662
33662
33662
33662
33662
33662
33662
33532
33532
33532
33467
33467
33467
33575
33575
33575
33641
33641
33641
33641
33662
33662
33662
33554
33554
33554
33597
33597
33597
33467
33467
33467
33662
33662
33662
33662
33619
33619
33619
33510
33510
33510
33532
33532
33532
33554
33554
33554
33510
33510
33510
33510
33597
33597
33597
33532
33532
33532
33597
33597
33597
33488
33488
33488
33597
33597
33597
33597
33684
33684
33684
33488
33488
33488
33597
33597
33597
33510
33510
33510
33662
33662
33662
33662
33619
33619
33619
33488
33488
33488
33836
33836
33836
33532
33532
33532
33684
33684
33684
33684
33554
33554
33554
33532
33532
33532
33641
33641
33641
33467
33467
33467
33554
33554
33554
33554
33662
33662
33662
33488
33488
33488
33662
33662
33662
33575
33575
33575
33662
33662
33662
33662
33488
33488
33488
33554
33554
33554
33641
33641
33641
33510
33510
33510
33554
33554
33554
33554
33641
33641
33641
33510
33510
33510
33641
33641
33641
33554
33554
33554
33597
33597
33597
33597
33597
33597
33597
33554
33554
33554
33641
33641
33641
33488
33488
33488
33728
33728
33728
33728
33641
33641
33641
33641
33641
33641
33619
33619
33619
33488
33488
33488
33706
33706
33706
33706
33597
33597
33597
33488
33488
33488
33641
33641
33641
33728
33728
33728
33641
33641
33641
33641
33619
33619
33619
33597
33597
33597
33575
33575
33575
33554
33554
33554
33597
33597
33597
33597
33532
33532
33532
33532
33532
33532
33684
33684
33684
33532
33532
33532
33641
33641
33641
33641
33619
33619
33619
33641
33641
33641
33749
33749
33749
33423
33423
33423
33684
33684
33684
33684
33619
33619
33619
33597
33597
33597
33597
33597
33597
33532
33532
33532
33706
33706
33706
33706
33619
33619
33619
33510
33510
33510
33597
33597
33597
33641
33641
33641
33706
33706
33706
33706
33662
33662
33662
33554
33554
33554
33532
33532
33532
33488
33488
33488
33641
33641
33641
33641
33662
33662
33662
33488
33488
33488
33597
33597
33597
33554
33554
33554
33597
33597
33597
33597
33467
33467
33467
33510
33510
33510
33641
33641
33641
33575
33575
33575
33619
33619
33619
33619
33488
33488
33488
33597
33597
33597
33619
33619
33619
33532
33532
33532
33597
33597
33597
33597
33597
33597
33597
33445
33445
33445
33510
33510
33510
33597
33597
33597
33619
33619
33619
33619
33619
33619
33619
33554
33554
33554
33597
33597
33597
33575
33575
33575
33467
33467
33467
33467
33597
33597
33597
33467
33467
33467
33662
33662
33662
33532
33532
33532
33488
33488
33488
33488
33467
33467
33467
33728
33728
33728
33619
33619
33619
33554
33554
33554
33597
33597
33597
33597
33597
33597
33597
33575
33575
33575
33554
33554
33554
33532
33532
33532
33597
33597
33597
33597
33619
33619
33619
33554
33554
33554
33597
33597
33597
33532
33532
33532
33662
33662
33662
33662
33619
33619
33619
33467
33467
33467
33684
33684
33684
33488
33488
33488
33641
33641
33641
33641
33706
33706
33706
33467
33467
33467
33597
33597
33597
33510
33510
33510
33554
33554
33554
33554
33510
33510
33510
33554
33554
33554
33641
33641
33641
33510
33510
33510
33597
33597
33597
33597
33597
33597
33597
33532
33532
33532
33532
33532
33532
33532
33532
33532
33619
33619
33619
33619
33597
33597
33597
33488
33488
33488
33597
33597
33597
33532
33532
33532
33554
33554
33554
33554
33662
33662
33662
33467
33467
33467
33619
33619
33619
33554
33554
33554
33641
33641
33641
33641
33532
33532
33532
33597
33597
33597
33662
33662
33662
33488
33488
33488
33575
33575
33575
33575
33554
33554
33554
33488
33488
33488
33554
33554
33554
33510
33510
33510
33597
33597
33597
33597
33619
33619
33619
33532
33532
33532
33706
33706
33706
33510
33510
33510
33597
33597
33597
33597
33641
33641
33641
33554
33554
33554
33619
33619
33619
33532
33532
33532
33554
33554
33554
33554
33597
33597
33597
33488
33488
33488
33619
33619
33619
33554
33554
33554
33619
33619
33619
33619
33597
33597
33597
33575
33575
33575
33706
33706
33706
33619
33619
33619
33597
33597
33597
33597
33619
33619
33619
33488
33488
33488
33597
33597
33597
33510
33510
33510
33662
33662
33662
33662
33619
33619
33619
33488
33488
33488
33706
33706
33706
33575
33575
33575
33532
33532
33532
33532
33575
33575
33575
33510
33510
33510
33619
33619
33619
33532
33532
33532
33662
33662
33662
33662
33793
33793
33793
33510
33510
33510
33641
33641
33641
33554
33554
33554
33619
33619
33619
33619
33619
33619
33619
33488
33488
33488
33706
33706
33706
33554
33554
33554
33619
33619
33619
33619
33662
33662
33662
33510
33510
33510
33836
33836
33836
33510
33510
33510
33575
33575
33575
33575
33575
33575
33575
33641
33641
33641
33619
33619
33619
33554
33554
33554
33706
33706
33706
33706
33488
33488
33488
33510
33510
33510
33641
33641
33641
33488
33488
33488
33575
33575
33575
33575
33641
33641
33641
33532
33532
33532
33619
33619
33619
33488
33488
33488
33619
33619
33619
33619
33641
33641
33641
33488
33488
33488
33575
33575
33575
33532
33532
33532
33554
33554
33554
33554
33597
33597
33597
33445
33445
33445
33619
33619
33619
33401
33401
33401
33749
33749
33749
33749
33597
33597
33597
33575
33575
33575
33619
33619
33619
33467
33467
33467
33597
33597
33597
33597
33684
33684
33684
33488
33488
33488
33662
33662
33662
33575
33575
33575
33662
33662
33662
33662
33706
33706
33706
33619
33619
33619
33554
33554
33554
33554
33554
33554
33488
33488
33488
33488
33554
33554
33554
33532
33532
33532
33641
33641
33641
33445
33445
33445
33858
33858
33858
33858
33619
33619
33619
33641
33641
33641
33597
33597
33597
33532
33532
33532
33662
33662
33662
33662
33467
33467
33467
33532
33532
33532
33597
33597
33597
33467
33467
33467
33662
33662
33662
33662
33662
33662
33662
33554
33554
33554
33575
33575
33575
33575
33575
33575
33619
33619
33619
33619
33641
33641
33641
33532
33532
33532
33641
33641
33641
33532
33532
33532
33597
33597
33597
33597
33641
33641
33641
33532
33532
33532
33662
33662
33662
33532
33532
33532
33488
33488
33488
33488
33554
33554
33554
33488
33488
33488
33662
33662
33662
33510
33510
33510
33641
33641
33641
33641
33706
33706
33706
33597
33597
33597
33619
33619
33619
33467
33467
33467
33641
33641
33641
33641
33597
33597
33597
33488
33488
33488
33597
33597
33597
33510
33510
33510
33619
33619
33619
33619
33575
33575
33575
33597
33597
33597
33619
33619
33619
33510
33510
33510
33554
33554
33554
33554
33619
33619
33619
33554
33554
33554
33641
33641
33641
33575
33575
33575
33554
33554
33554
33554
33575
33575
33575
33597
33597
33597
33532
33532
33532
33510
33510
33510
33662
33662
33662
33662
33662
33662
33662
33554
33554
33554
33554
33554
33554
33532
33532
33532
33619
33619
33619
33619
33641
33641
33641
33532
33532
33532
33575
33575
33575
33510
33510
33510
33619
33619
33619
33619
33641
33641
33641
33532
33532
33532
33641
33641
33641
33532
33532
33532
33793
33793
33793
33793
33619
33619
33619
33554
33554
33554
33641
33641
33641
33467
33467
33467
33619
33619
33619
33619
33554
33554
33554
33532
33532
33532
33706
33706
33706
33467
33467
33467
33793
33793
33793
33793
33575
33575
33575
33510
33510
33510
33815
33815
33815
33488
33488
33488
33662
33662
33662
33662
33597
33597
33597
33510
33510
33510
33662
33662
33662
33423
33423
33423
33619
33619
33619
33619
33597
33597
33597
33379
33379
33379
33662
33662
33662
33554
33554
33554
33641
33641
33641
33641
33554
33554
33554
33488
33488
33488
33619
33619
33619
33597
33597
33597
33575
33575
33575
33575
33619
33619
33619
33488
33488
33488
33597
33597
33597
33510
33510
33510
33619
33619
33619
33619
33597
33597
33597
33597
33597
33597
33423
33423
33423
33510
33510
33510
33706
33706
33706
33706
33575
33575
33575
33488
33488
33488
33575
33575
33575
33401
33401
33401
33575
33575
33575
33575
33575
33575
33575
33510
33510
33510
33662
33662
33662
33532
33532
33532
33597
33597
33597
33597
33619
33619
33619
33575
33575
33575
33575
33575
33575
33336
33336
33336
33619
33619
33619
33619
33619
33619
33619
33532
33532
33532
33488
33488
33488
33510
33510
33510
33662
33662
33662
33662
33619
33619
33619
33510
33510
33510
33597
33597
33597
33510
33510
33510
33662
33662
33662
33662
33575
33575
33575
33532
33532
33532
33619
33619
33619
33575
33575
33575
33532
33532
33532
33532
33510
33510
33510
33575
33575
33575
33597
33597
33597
33445
33445
33445
33641
33641
33641
33641
33641
33641
33641
33488
33488
33488
33619
33619
33619
33532
33532
33532
33641
33641
33641
33641
33706
33706
33706
33532
33532
33532
33554
33554
33554
33488
33488
33488
33749
33749
33749
33749
33597
33597
33597
33662
33662
33662
33641
33641
33641
33554
33554
33554
33510
33510
33510
33510
33532
33532
33532
33510
33510
33510
33597
33597
33597
33467
33467
33467
33619
33619
33619
33619
33532
33532
33532
33554
33554
33554
33728
33728
33728
33575
33575
33575
33619
33619
33619
33619
33575
33575
33575
33445
33445
33445
33597
33597
33597
33510
33510
33510
33749
33749
33749
33749
33641
33641
33641
33510
33510
33510
33684
33684
33684
33510
33510
33510
33641
33641
33641
33641
33641
33641
33641
33510
33510
33510
33619
33619
33619
33510
33510
33510
33510
33510
33510
33510
33423
33423
33423
33532
33532
33532
33641
33641
33641
33793
33793
33793
33641
33641
33641
33641
33597
33597
33597
33510
33510
33510
33619
33619
33619
33532
33532
33532
33619
33619
33619
33619
33597
33597
33597
33445
33445
33445
33684
33684
33684
33510
33510
33510
33554
33554
33554
33554
33597
33597
33597
33510
33510
33510
33619
33619
33619
33619
33619
33619
33619
33619
33619
33619
33641
33641
33641
33575
33575
33575
33662
33662
33662
33554
33554
33554
33575
33575
33575
33575
33554
33554
33554
33532
33532
33532
33597
33597
33597
33488
33488
33488
33662
33662
33662
33662
33641
33641
33641
33554
33554
33554
33597
33597
33597
33510
33510
33510
33575
33575
33575
33575
33597
33597
33597
33597
33597
33597
33597
33597
33597
33575
33575
33575
33619
33619
33619
33619
33597
33597
33597
33554
33554
33554
33619
33619
33619
33597
33597
33597
33619
33619
33619
33619
33641
33641
33641
33532
33532
33532
33575
33575
33575
33597
33597
33597
33619
33619
33619
33619
33619
33619
33619
33532
33532
33532
33532
33532
33532
33532
33532
33532
33532
33532
33532
33532
33619
33619
33619
33532
33532
33532
33641
33641
33641
33575
33575
33575
33597
33597
33597
33597
33597
33597
33597
33575
33575
33575
33510
33510
33510
33510
33510
33510
33575
33575
33575
33575
33554
33554
33554
33488
33488
33488
33619
33619
33619
33336
33336
33336
33575
33575
33575
33575
33619
33619
33619
33510
33510
33510
33619
33619
33619
33510
33510
33510
33619
33619
33619
33619
33619
33619
33619
33532
33532
33532
33641
33641
33641
33467
33467
33467
33684
33684
33684
33684
33510
33510
33510
33597
33597
33597
33575
33575
33575
33597
33597
33597
33467
33467
33467
33467
33619
33619
33619
33532
33532
33532
33684
33684
33684
33554
33554
33554
33619
33619
33619
33619
33662
33662
33662
33532
33532
33532
33641
33641
33641
33510
33510
33510
33554
33554
33554
33554
33510
33510
33510
33510
33510
33510
33575
33575
33575
33575
33575
33575
33619
33619
33619
33619
33641
33641
33641
33488
33488
33488
33619
33619
33619
33510
33510
33510
33554
33554
33554
33554
33554
33554
33554
33532
33532
33532
33619
33619
33619
33554
33554
33554
33619
33619
33619
33619
33641
33641
33641
33554
33554
33554
33706
33706
33706
33510
33510
33510
33554
33554
33554
33554
33575
33575
33575
33445
33445
33445
33619
33619
33619
33488
33488
33488
33641
33641
33641
33641
33684
33684
33684
33554
33554
33554
33575
33575
33575
33467
33467
33467
33662
33662
33662
33662
33619
33619
33619
33467
33467
33467
33641
33641
33641
33510
33510
33510
33554
33554
33554
33554
33619
33619
33619
33358
33358
33358
33662
33662
33662
33510
33510
33510
33488
33488
33488
33488
33597
33597
33597
33554
33554
33554
33662
33662
33662
33662
33662
33662
33619
33619
33619
33619
33641
33641
33641
33423
33423
33423
33597
33597
33597
33510
33510
33510
33728
33728
33728
33728
33575
33575
33575
33510
33510
33510
33532
33532
33532
33510
33510
33510
33619
33619
33619
33619
33575
33575
33575
33467
33467
33467
33554
33554
33554
33488
33488
33488
33641
33641
33641
33641
33532
33532
33532
33662
33662
33662
33619
33619
33619
33554
33554
33554
33662
33662
33662
33662
33684
33684
33684
33488
33488
33488
33575
33575
33575
33554
33554
33554
33619
33619
33619
33619
33619
33619
33619
33510
33510
33510
33641
33641
33641
33510
33510
33510
33619
33619
33619
33619
33662
33662
33662
33749
33749
33749
33532
33532
33532
33467
33467
33467
33575
33575
33575
33575
33728
33728
33728
33554
33554
33554
33532
33532
33532
33510
33510
33510
33641
33641
33641
33641
33684
33684
33684
33575
33575
33575
33619
33619
33619
33445
33445
33445
33532
33532
33532
33532
33641
33641
33641
33554
33554
33554
33684
33684
33684
33445
33445
33445
33641
33641
33641
33641
33554
33554
33554
33488
33488
33488
33641
33641
33641
33532
33532
33532
33597
33597
33597
33597
33641
33641
33641
33467
33467
33467
33575
33575
33575
33575
33575
33575
33641
33641
33641
33641
33597
33597
33597
33532
33532
33532
33597
33597
33597
33488
33488
33488
33641
33641
33641
33641
33641
33641
33641
33510
33510
33510
33641
33641
33641
33488
33488
33488
33662
33662
33662
33662
33510
33510
33510
33510
33510
33510
33532
33532
33532
33575
33575
33575
33641
33641
33641
33641
33597
33597
33597
33488
33488
33488
33619
33619
33619
33488
33488
33488
33684
33684
33684
33684
33597
33597
33597
33488
33488
33488
33619
33619
33619
33445
33445
33445
33684
33684
33684
33684
33597
33597
33597
33575
33575
33575
33684
33684
33684
33510
33510
33510
33641
33641
33641
33641
33619
33619
33619
33510
33510
33510
33532
33532
33532
33554
33554
33554
33728
33728
33728
33728
33554
33554
33554
33575
33575
33575
33641
33641
33641
33532
33532
33532
33597
33597
33597
33597
33597
33597
33597
33554
33554
33554
33619
33619
33619
33532
33532
33532
33554
33554
33554
33554
33641
33641
33641
33532
33532
33532
33641
33641
33641
33358
33358
33358
33619
33619
33619
33619
33554
33554
33554
33510
33510
33510
33554
33554
33554
33597
33597
33597
33619
33619
33619
33619
33597
33597
33597
33597
33597
33597
33728
33728
33728
33467
33467
33467
33597
33597
33597
33597
33575
33575
33575
33510
33510
33510
33619
33619
33619
33532
33532
33532
33684
33684
33684
33684
33597
33597
33597
33488
33488
33488
33684
33684
33684
33510
33510
33510
33728
33728
33728
33728
33597
33597
33597
33575
33575
33575
33641
33641
33641
33467
33467
33467
33597
33597
33597
33597
33597
33597
33597
33532
33532
33532
33619
33619
33619
33488
33488
33488
33597
33597
33597
33597
33619
33619
33619
33467
33467
33467
33575
33575
33575
33532
33532
33532
33619
33619
33619
33619
33619
33619
33619
33728
33728
33728
33619
33619
33619
33554
33554
33554
33706
33706
33706
33706
33358
33358
33358
33554
33554
33554
33597
33597
33597
33467
33467
33467
33597
33597
33597
33597
33597
33597
33597
33554
33554
33554
33554
33554
33554
33532
33532
33532
33619
33619
33619
33619
33641
33641
33641
33532
33532
33532
33510
33510
33510
33488
33488
33488
33619
33619
33619
33619
33662
33662
33662
33532
33532
33532
33575
33575
33575
33510
33510
33510
33662
33662
33662
33662
33597
33597
33597
33597
33597
33597
33619
33619
33619
33379
33379
33379
33488
33488
33488
33488
33597
33597
33597
33532
33532
33532
33662
33662
33662
33619
33619
33619
33619
33619
33619
33619
33619
33619
33619
33510
33510
33510
33662
33662
33662
33554
33554
33554
33597
33597
33597
33597
33641
33641
33641
33445
33445
33445
33641
33641
33641
33532
33532
33532
33597
33597
33597
33597
33619
33619
33619
33554
33554
33554
33662
33662
33662
33510
33510
33510
33532
33532
33532
33532
33575
33575
33575
33575
33575
33575
33619
33619
33619
33467
33467
33467
33662
33662
33662
33662
33597
33597
33597
33554
33554
33554
33641
33641
33641
33445
33445
33445
33619
33619
33619
33619
33575
33575
33575
33554
33554
33554
33532
33532
33532
33554
33554
33554
33597
33597
33597
33597
33597
33597
33597
33554
33554
33554
33662
33662
33662
33554
33554
33554
33575
33575
33575
33575
33575
33575
33575
33445
33445
33445
33684
33684
33684
33575
33575
33575
33510
33510
33510
33510
33619
33619
33619
33445
33445
33445
33619
33619
33619
33467
33467
33467
33641
33641
33641
33641
33706
33706
33706
33575
33575
33575
33619
33619
33619
33488
33488
33488
33597
33597
33597
33597
33575
33575
33575
33554
33554
33554
33684
33684
33684
33488
33488
33488
33619
33619
33619
33619
33619
33619
33619
33488
33488
33488
33597
33597
33597
33510
33510
33510
33532
33532
33532
33532
33684
33684
33684
33532
33532
33532
33662
33662
33662
33467
33467
33467
33554
33554
33554
33554
33575
33575
33575
33554
33554
33554
33619
33619
33619
33575
33575
33575
33641
33641
33641
33641
33510
33510
33510
33467
33467
33467
33554
33554
33554
33597
33597
33597
33641
33641
33641
33641
33619
33619
33619
33575
33575
33575
33554
33554
33554
33554
33554
33554
33641
33641
33641
33641
33575
33575
33575
33445
33445
33445
33641
33641
33641
33532
33532
33532
33597
33597
33597
33597
33575
33575
33575
33554
33554
33554
33641
33641
33641
33510
33510
33510
33662
33662
33662
33662
33619
33619
33619
33510
33510
33510
33749
33749
33749
33510
33510
33510
33641
33641
33641
33641
33684
33684
33684
33532
33532
33532
33488
33488
33488
33575
33575
33575
33706
33706
33706
33706
33684
33684
33684
33467
33467
33467
33662
33662
33662
33554
33554
33554
33728
33728
33728
33728
33597
33597
33597
33554
33554
33554
33597
33597
33597
33510
33510
33510
33728
33728
33728
33728
33597
33597
33597
33510
33510
33510
33662
33662
33662
33401
33401
33401
33597
33597
33597
33597
33597
33597
33597
33510
33510
33510
33793
33793
33793
33488
33488
33488
33597
33597
33597
33597
33684
33684
33684
33597
33597
33597
33662
33662
33662
33532
33532
33532
33662
33662
33662
33662
33662
33662
33662
33532
33532
33532
33510
33510
33510
33532
33532
33532
33619
33619
33619
33619
33597
33597
33597
33597
33597
33597
33662
33662
33662
33488
33488
33488
33575
33575
33575
33575
33575
33575
33575
33532
33532
33532
33619
33619
33619
33510
33510
33510
33597
33597
33597
33597
33619
33619
33619
33641
33641
33641
33619
33619
33619
33510
33510
33510
33662
33662
33662
33662
33684
33684
33684
33575
33575
33575
33619
33619
33619
33488
33488
33488
33662
33662
33662
33662
33619
33619
33619
33532
33532
33532
33684
33684
33684
33554
33554
33554
33662
33662
33662
33662
33597
33597
33597
33575
33575
33575
33641
33641
33641
33379
33379
33379
33554
33554
33554
33554
33597
33597
33597
33488
33488
33488
33554
33554
33554
33467
33467
33467
33619
33619
33619
33619
33597
33597
33597
33488
33488
33488
33662
33662
33662
33554
33554
33554
33575
33575
33575
33575
33641
33641
33641
33401
33401
33401
33619
33619
33619
33575
33575
33575
33554
33554
33554
33554
33510
33510
33510
33488
33488
33488
33641
33641
33641
33467
33467
33467
33662
33662
33662
33662
33597
33597
33597
33575
33575
33575
33684
33684
33684
33510
33510
33510
33597
33597
33597
33597
33597
33597
33597
33510
33510
33510
33641
33641
33641
33575
33575
33575
33597
33597
33597
33597
33619
33619
33619
33401
33401
33401
33532
33532
33532
33554
33554
33554
33575
33575
33575
33575
33662
33662
33662
33467
33467
33467
33619
33619
33619
33510
33510
33510
33554
33554
33554
33554
33662
33662
33662
33510
33510
33510
33619
33619
33619
33641
33641
33641
33597
33597
33597
33597
33597
33597
33597
33532
33532
33532
33662
33662
33662
33510
33510
33510
33554
33554
33554
33554
33597
33597
33597
33575
33575
33575
33619
33619
33619
33554
33554
33554
33467
33467
33467
33467
33532
33532
33532
33532
33532
33532
33619
33619
33619
33532
33532
33532
33575
33575
33575
33575
33662
33662
33662
33597
33597
33597
33619
33619
33619
33445
33445
33445
33641
33641
33641
33641
33641
33641
33641
33467
33467
33467
33662
33662
33662
33532
33532
33532
33597
33597
33597
33597
33619
33619
33619
33532
33532
33532
33641
33641
33641
33532
33532
33532
33662
33662
33662
33662
33641
33641
33641
33532
33532
33532
33728
33728
33728
33510
33510
33510
33575
33575
33575
33575
33641
33641
33641
33554
33554
33554
33575
33575
33575
33510
33510
33510
33619
33619
33619
33619
33662
33662
33662
33488
33488
33488
33662
33662
33662
33554
33554
33554
33684
33684
33684
33684
33597
33597
33597
33510
33510
33510
33554
33554
33554
33467
33467
33467
33684
33684
33684
33684
33597
33597
33597
33554
33554
33554
33641
33641
33641
33445
33445
33445
33619
33619
33619
33619
33575
33575
33575
33554
33554
33554
33488
33488
33488
33554
33554
33554
33641
33641
33641
33641
33662
33662
33662
33575
33575
33575
33619
33619
33619
33445
33445
33445
33619
33619
33619
33619
33619
33619
33619
33532
33532
33532
33445
33445
33445
33532
33532
33532
33662
33662
33662
33662
33619
33619
33619
33619
33619
33619
33619
33619
33619
33532
33532
33532
33554
33554
33554
33554
33575
33575
33575
33510
33510
33510
33597
33597
33597
33445
33445
33445
33684
33684
33684
33684
33619
33619
33619
33467
33467
33467
33662
33662
33662
33467
33467
33467
33597
33597
33597
33597
33554
33554
33554
33510
33510
33510
33575
33575
33575
33641
33641
33641
33619
33619
33619
33619
33662
33662
33662
33510
33510
33510
33597
33597
33597
33510
33510
33510
33641
33641
33641
33641
33619
33619
33619
33510
33510
33510
33619
33619
33619
33575
33575
33575
33467
33467
33467
33467
33749
33749
33749
33467
33467
33467
33619
33619
33619
33510
33510
33510
33641
33641
33641
33641
33597
33597
33597
33554
33554
33554
33575
33575
33575
33532
33532
33532
33597
33597
33597
33597
33662
33662
33662
33532
33532
33532
33597
33597
33597
33358
33358
33358
33597
33597
33597
33597
33641
33641
33641
33532
33532
33532
33728
33728
33728
33488
33488
33488
33619
33619
33619
33619
33619
33619
33619
33728
33728
33728
33575
33575
33575
33510
33510
33510
33619
33619
33619
33619
33771
33771
33771
33488
33488
33488
33597
33597
33597
33445
33445
33445
33641
33641
33641
33641
33662
33662
33662
33554
33554
33554
33641
33641
33641
33510
33510
33510
33662
33662
33662
33662
33641
33641
33641
33619
33619
33619
33575
33575
33575
33510
33510
33510
33749
33749
33749
33749
33662
33662
33662
33401
33401
33401
33597
33597
33597
33488
33488
33488
33597
33597
33597
33597
33619
33619
33619
33619
33619
33619
33597
33597
33597
33488
33488
33488
33641
33641
33641
33641
33706
33706
33706
33575
33575
33575
33641
33641
33641
33423
33423
33423
33619
33619
33619
33619
33597
33597
33597
33575
33575
33575
33815
33815
33815
33597
33597
33597
33597
33597
33597
33597
33597
33597
33597
33532
33532
33532
33575
33575
33575
33532
33532
33532
33488
33488
33488
33488
33619
33619
33619
33597
33597
33597
33554
33554
33554
33619
33619
33619
33554
33554
33554
33554
33619
33619
33619
33575
33575
33575
33575
33575
33575
33597
33597
33597
33619
33619
33619
33619
33575
33575
33575
33641
33641
33641
33619
33619
33619
33597
33597
33597
33597
33597
33597
33597
33532
33532
33532
33575
33575
33575
33684
33684
33684
33619
33619
33619
33597
33597
33597
33597
33619
33619
33619
33575
33575
33575
33619
33619
33619
33510
33510
33510
33619
33619
33619
33619
33597
33597
33597
33488
33488
33488
33662
33662
33662
33532
33532
33532
33597
33597
33597
33597
33619
33619
33619
33510
33510
33510
33641
33641
33641
33575
33575
33575
33619
33619
33619
33619
33554
33554
33554
33597
33597
33597
33532
33532
33532
33510
33510
33510
33619
33619
33619
33619
33662
33662
33662
33488
33488
33488
33619
33619
33619
33532
33532
33532
33619
33619
33619
33619
33684
33684
33684
33467
33467
33467
33597
33597
33597
33488
33488
33488
33532
33532
33532
33532
33597
33597
33597
33467
33467
33467
33641
33641
33641
33510
33510
33510
33706
33706
33706
33706
33706
33706
33706
33532
33532
33532
33684
33684
33684
33467
33467
33467
33641
33641
33641
33641
33575
33575
33575
33554
33554
33554
33532
33532
33532
33532
33532
33532
33597
33597
33597
33597
33510
33510
33510
33554
33554
33554
33619
33619
33619
33488
33488
33488
33619
33619
33619
33619
33597
33597
33597
33554
33554
33554
33662
33662
33662
33510
33510
33510
33641
33641
33641
33641
33488
33488
33488
33532
33532
33532
33619
33619
33619
33575
33575
33575
33749
33749
33749
33749
33684
33684
33684
33532
33532
33532
33641
33641
33641
33445
33445
33445
33662
33662
33662
33662
33575
33575
33575
33510
33510
33510
33641
33641
33641
33510
33510
33510
33575
33575
33575
33575
33597
33597
33597
33379
33379
33379
33597
33597
33597
33575
33575
33575
33575
33575
33575
33575
33619
33619
33619
33597
33597
33597
33597
33597
33597
33532
33532
33532
33597
33597
33597
33597
33554
33554
33554
33619
33619
33619
33597
33597
33597
33445
33445
33445
33597
33597
33597
33597
33532
33532
33532
33532
33532
33532
33597
33597
33597
33554
33554
33554
33641
33641
33641
33641
33575
33575
33575
33488
33488
33488
33619
33619
33619
33554
33554
33554
33619
33619
33619
33619
33706
33706
33706
33445
33445
33445
33662
33662
33662
33510
33510
33510
33575
33575
33575
33575
33597
33597
33597
33575
33575
33575
33662
33662
33662
33532
33532
33532
33662
33662
33662
33662
33575
33575
33575
33575
33575
33575
33684
33684
33684
33684
33684
33684
33706
33706
33706
33706
33597
33597
33597
33575
33575
33575
33641
33641
33641
33575
33575
33575
33597
33597
33597
33597
33641
33641
33641
33401
33401
33401
33728
33728
33728
33554
33554
33554
33641
33641
33641
33641
33706
33706
33706
33554
33554
33554
33641
33641
33641
33401
33401
33401
33597
33597
33597
33597
33597
33597
33597
33488
33488
33488
33619
33619
33619
33554
33554
33554
33597
33597
33597
33597
33575
33575
33575
33641
33641
33641
33619
33619
33619
33641
33641
33641
33532
33532
33532
33532
33575
33575
33575
33510
33510
33510
33575
33575
33575
33619
33619
33619
33619
33619
33619
33619
33597
33597
33597
33597
33597
33597
33662
33662
33662
33488
33488
33488
33641
33641
33641
33641
33575
33575
33575
33619
33619
33619
33619
33619
33619
33554
33554
33554
33575
33575
33575
33575
33597
33597
33597
33510
33510
33510
33510
33510
33510
33532
33532
33532
33575
33575
33575
33575
33684
33684
33684
33532
33532
33532
33662
33662
33662
33662
33662
33662
33532
33532
33532
33532
33597
33597
33597
33575
33575
33575
33532
33532
33532
33554
33554
33554
33641
33641
33641
33641
33575
33575
33575
33532
33532
33532
33662
33662
33662
33510
33510
33510
33619
33619
33619
33619
33619
33619
33619
33401
33401
33401
33641
33641
33641
33532
33532
33532
33510
33510
33510
33510
33684
33684
33684
33488
33488
33488
33619
33619
33619
33597
33597
33597
33662
33662
33662
33662
33641
33641
33641
33597
33597
33597
33554
33554
33554
33445
33445
33445
33597
33597
33597
33597
33641
33641
33641
33532
33532
33532
33575
33575
33575
33619
33619
33619
33575
33575
33575
33575
33597
33597
33597
33554
33554
33554
33554
33554
33554
33532
33532
33532
33641
33641
33641
33641
33597
33597
33597
33379
33379
33379
33662
33662
33662
33554
33554
33554
33510
33510
33510
33510
33662
33662
33662
33554
33554
33554
33662
33662
33662
33575
33575
33575
33619
33619
33619
33619
33597
33597
33597
33554
33554
33554
33510
33510
33510
33467
33467
33467
33662
33662
33662
33662
33575
33575
33575
33554
33554
33554
33575
33575
33575
33423
33423
33423
33597
33597
33597
33597
33597
33597
33597
33554
33554
33554
33706
33706
33706
33554
33554
33554
33532
33532
33532
33532
33662
33662
33662
33532
33532
33532
33597
33597
33597
33575
33575
33575
33684
33684
33684
33684
33467
33467
33467
33532
33532
33532
33619
33619
33619
33554
33554
33554
33597
33597
33597
33597
33619
33619
33619
33554
33554
33554
33575
33575
33575
33510
33510
33510
33575
33575
33575
33575
33575
33575
33575
33597
33597
33597
33597
33597
33597
33488
33488
33488
33597
33597
33597
33597
33575
33575
33575
33554
33554
33554
33684
33684
33684
33532
33532
33532
33619
33619
33619
33619
33619
33619
33619
33488
33488
33488
33597
33597
33597
33488
33488
33488
33662
33662
33662
33662
33597
33597
33597
33510
33510
33510
33597
33597
33597
33597
33597
33597
33554
33554
33554
33554
33597
33597
33597
33510
33510
33510
33662
33662
33662
33532
33532
33532
33684
33684
33684
33684
33662
33662
33662
33575
33575
33575
33619
33619
33619
33510
33510
33510
33662
33662
33662
33662
33532
33532
33532
33619
33619
33619
33554
33554
33554
33554
33554
33554
33597
33597
33597
33597
33379
33379
33379
33554
33554
33554
33597
33597
33597
33532
33532
33532
33728
33728
33728
33728
33728
33728
33728
33554
33554
33554
33619
33619
33619
33510
33510
33510
33554
33554
33554
33554
33641
33641
33641
33532
33532
33532
33619
33619
33619
33488
33488
33488
33619
33619
33619
33619
33641
33641
33641
33423
33423
33423
33641
33641
33641
33554
33554
33554
33619
33619
33619
33619
33641
33641
33641
33532
33532
33532
33641
33641
33641
33445
33445
33445
33597
33597
33597
33597
33597
33597
33597
33510
33510
33510
33749
33749
33749
33445
33445
33445
33597
33597
33597
33597
33619
33619
33619
33488
33488
33488
33684
33684
33684
33488
33488
33488
33619
33619
33619
33619
33575
33575
33575
33554
33554
33554
33532
33532
33532
33445
33445
33445
33445
33445
33445
33445
33662
33662
33662
33488
33488
33488
33619
33619
33619
33575
33575
33575
33662
33662
33662
33662
33662
33662
33662
33423
33423
33423
33619
33619
33619
33532
33532
33532
33684
33684
33684
33684
33641
33641
33641
33488
33488
33488
33662
33662
33662
33662
33662
33662
33619
33619
33619
33619
33619
33619
33619
33510
33510
33510
33510
33510
33510
33554
33554
33554
33619
33619
33619
33619
33619
33619
33619
33641
33641
33641
33597
33597
33597
33532
33532
33532
33619
33619
33619
33619
33532
33532
33532
33532
33532
33532
33619
33619
33619
33510
33510
33510
33597
33597
33597
33597
33641
33641
33641
33467
33467
33467
33597
33597
33597
33575
33575
33575
33662
33662
33662
33662
33597
33597
33597
33510
33510
33510
33619
33619
33619
33554
33554
33554
33619
33619
33619
33619
33597
33597
33597
33554
33554
33554
33728
33728
33728
33532
33532
33532
33619
33619
33619
33619
33575
33575
33575
33532
33532
33532
33619
33619
33619
33575
33575
33575
33684
33684
33684
33684
33488
33488
33488
33488
33488
33488
33575
33575
33575
33554
33554
33554
33662
33662
33662
33662
33641
33641
33641
33532
33532
33532
33619
33619
33619
33488
33488
33488
33597
33597
33597
33597
33467
33467
33467
33488
33488
33488
33662
33662
33662
33532
33532
33532
33597
33597
33597
33597
33597
33597
33597
33358
33358
33358
33597
33597
33597
33554
33554
33554
33641
33641
33641
33641
33575
33575
33575
33641
33641
33641
33619
33619
33619
33488
33488
33488
33510
33510
33510
33510
33554
33554
33554
33554
33554
33554
33662
33662
33662
33467
33467
33467
33619
33619
33619
33619
33532
33532
33532
33619
33619
33619
33662
33662
33662
33554
33554
33554
33532
33532
33532
33532
33619
33619
33619
33575
33575
33575
33662
33662
33662
33467
33467
33467
33641
33641
33641
33641
33597
33597
33597
33554
33554
33554
33728
33728
33728
33554
33554
33554
33706
33706
33706
33706
33662
33662
33662
33532
33532
33532
33619
33619
33619
33815
33815
33815
33619
33619
33619
33619
33575
33575
33575
33554
33554
33554
33619
33619
33619
33488
33488
33488
33597
33597
33597
33597
33619
33619
33619
33554
33554
33554
33575
33575
33575
33532
33532
33532
33597
33597
33597
33597
33575
33575
33575
33532
33532
33532
33662
33662
33662
33597
33597
33597
33749
33749
33749
33749
33575
33575
33575
33532
33532
33532
33619
33619
33619
33532
33532
33532
33641
33641
33641
33641
33706
33706
33706
33467
33467
33467
33684
33684
33684
33619
33619
33619
33619
33619
33619
33619
33532
33532
33532
33532
33532
33532
33554
33554
33554
33554
33554
33554
33684
33684
33684
33684
33619
33619
33619
33575
33575
33575
33684
33684
33684
33575
33575
33575
33641
33641
33641
33641
33619
33619
33619
33532
33532
33532
33619
33619
33619
33510
33510
33510
33619
33619
33619
33619
33619
33619
33619
33510
33510
33510
33597
33597
33597
33575
33575
33575
33619
33619
33619
33619
33575
33575
33575
33575
33575
33575
33510
33510
33510
33510
33510
33510
33597
33597
33597
33597
33597
33597
33597
33488
33488
33488
33684
33684
33684
33510
33510
33510
33619
33619
33619
33619
33554
33554
33554
33554
33554
33554
33597
33597
33597
33575
33575
33575
33597
33597
33597
33597
33575
33575
33575
33532
33532
33532
33532
33532
33532
33379
33379
33379
33619
33619
33619
33619
33554
33554
33554
33488
33488
33488
33641
33641
33641
33467
33467
33467
33706
33706
33706
33706
33662
33662
33662
33532
33532
33532
33641
33641
33641
33467
33467
33467
33662
33662
33662
33662
33641
33641
33641
33597
33597
33597
33575
33575
33575
33532
33532
33532
33575
33575
33575
33575
33575
33575
33575
33554
33554
33554
33662
33662
33662
33532
33532
33532
33597
33597
33597
33597
33641
33641
33641
33554
33554
33554
33641
33641
33641
33554
33554
33554
33575
33575
33575
33575
33597
33597
33597
33401
33401
33401
33641
33641
33641
33532
33532
33532
33684
33684
33684
33684
33641
33641
33641
33488
33488
33488
33728
33728
33728
33575
33575
33575
33554
33554
33554
33554
33641
33641
33641
33510
33510
33510
33619
33619
33619
33532
33532
33532
33662
33662
33662
33662
33575
33575
33575
33488
33488
33488
33641
33641
33641
33532
33532
33532
33641
33641
33641
33641
33662
33662
33662
33554
33554
33554
33597
33597
33597
33445
33445
33445
33641
33641
33641
33641
33619
33619
33619
33575
33575
33575
33641
33641
33641
33532
33532
33532
33597
33597
33597
33597
33641
33641
33641
33619
33619
33619
33641
33641
33641
33488
33488
33488
33619
33619
33619
33619
33597
33597
33597
33532
33532
33532
33728
33728
33728
33597
33597
33597
33619
33619
33619
33619
33684
33684
33684
33467
33467
33467
33554
33554
33554
33662
33662
33662
33662
33662
33662
33662
33597
33597
33597
33554
33554
33554
33510
33510
33510
33554
33554
33554
33619
33619
33619
33619
33619
33619
33619
33575
33575
33575
33662
33662
33662
33488
33488
33488
33728
33728
33728
33728
33619
33619
33619
33641
33641
33641
33662
33662
33662
33575
33575
33575
33597
33597
33597
33597
33554
33554
33554
33597
33597
33597
33597
33597
33597
33401
33401
33401
33619
33619
33619
33619
33597
33597
33597
33488
33488
33488
33619
33619
33619
33467
33467
33467
33662
33662
33662
33662
33749
33749
33749
33532
33532
33532
33619
33619
33619
33532
33532
33532
33641
33641
33641
33641
33597
33597
33597
33575
33575
33575
33641
33641
33641
33532
33532
33532
33597
33597
33597
33597
33575
33575
33575
33532
33532
33532
33641
33641
33641
33554
33554
33554
33684
33684
33684
33684
33771
33771
33771
33532
33532
33532
33641
33641
33641
33532
33532
33532
33575
33575
33575
33575
33597
33597
33597
33597
33597
33597
33619
33619
33619
33510
33510
33510
33619
33619
33619
33619
33597
33597
33597
33292
33292
33292
33554
33554
33554
33488
33488
33488
33554
33554
33554
33554
33597
33597
33597
33575
33575
33575
33619
33619
33619
33554
33554
33554
33575
33575
33575
33575
33706
33706
33706
33445
33445
33445
33641
33641
33641
33532
33532
33532
33619
33619
33619
33619
33597
33597
33597
33554
33554
33554
33467
33467
33467
33379
33379
33379
33619
33619
33619
33619
33684
33684
33684
33554
33554
33554
33728
33728
33728
33532
33532
33532
33662
33662
33662
33662
33706
33706
33706
33554
33554
33554
33575
33575
33575
33510
33510
33510
33684
33684
33684
33684
33619
33619
33619
33510
33510
33510
33597
33597
33597
33401
33401
33401
33619
33619
33619
33619
33554
33554
33554
33488
33488
33488
33597
33597
33597
33597
33597
33597
33684
33684
33684
33684
33619
33619
33619
33554
33554
33554
33662
33662
33662
33423
33423
33423
33641
33641
33641
33641
33641
33641
33641
33445
33445
33445
33641
33641
33641
33532
33532
33532
33662
33662
33662
33662
33706
33706
33706
33510
33510
33510
33641
33641
33641
33467
33467
33467
33532
33532
33532
33532
33510
33510
33510
33532
33532
33532
33662
33662
33662
33423
33423
33423
33619
33619
33619
33619
33619
33619
33619
33401
33401
33401
33597
33597
33597
33575
33575
33575
33619
33619
33619
33619
33619
33619
33619
33554
33554
33554
33706
33706
33706
33467
33467
33467
33597
33597
33597
33597
33662
33662
33662
33575
33575
33575
33619
33619
33619
33532
33532
33532
33554
33554
33554
33554
33619
33619
33619
33554
33554
33554
33662
33662
33662
33575
33575
33575
33728
33728
33728
33728
33706
33706
33706
33510
33510
33510
33597
33597
33597
33423
33423
33423
33662
33662
33662
33662
33619
33619
33619
33575
33575
33575
33641
33641
33641
33510
33510
33510
33554
33554
33554
33554
33597
33597
33597
33532
33532
33532
33619
33619
33619
33619
33619
33619
33597
33597
33597
33597
33641
33641
33641
33641
33641
33641
33619
33619
33619
33554
33554
33554
33641
33641
33641
33641
33662
33662
33662
33467
33467
33467
33641
33641
33641
33445
33445
33445
33619
33619
33619
33619
33728
33728
33728
33510
33510
33510
33575
33575
33575
33510
33510
33510
33597
33597
33597
33597
33575
33575
33575
33445
33445
33445
33641
33641
33641
33532
33532
33532
33575
33575
33575
33575
33662
33662
33662
33597
33597
33597
33597
33597
33597
33488
33488
33488
33597
33597
33597
33597
33575
33575
33575
33510
33510
33510
33728
33728
33728
33510
33510
33510
33619
33619
33619
33619
33597
33597
33597
33445
33445
33445
33597
33597
33597
33532
33532
33532
33445
33445
33445
33445
33554
33554
33554
33532
33532
33532
33858
33858
33858
33488
33488
33488
33597
33597
33597
33597
33597
33597
33597
33554
33554
33554
33510
33510
33510
33510
33510
33510
33641
33641
33641
33641
33619
33619
33619
33619
33619
33619
33641
33641
33641
33554
33554
33554
33684
33684
33684
33684
33619
33619
33619
33510
33510
33510
33554
33554
33554
33488
33488
33488
33619
33619
33619
33619
33597
33597
33597
33575
33575
33575
33641
33641
33641
33510
33510
33510
33662
33662
33662
33662
33662
33662
33662
33467
33467
33467
33575
33575
33575
33488
33488
33488
33641
33641
33641
33641
33597
33597
33597
33575
33575
33575
33597
33597
33597
33532
33532
33532
33619
33619
33619
33619
33597
33597
33597
33467
33467
33467
33619
33619
33619
33575
33575
33575
33597
33597
33597
33597
33880
33880
33880
33532
33532
33532
33662
33662
33662
33336
33336
33336
33684
33684
33684
33684
33597
33597
33597
33532
33532
33532
33641
33641
33641
33575
33575
33575
33597
33597
33597
33597
33488
33488
33488
33554
33554
33554
33488
33488
33488
33575
33575
33575
33619
33619
33619
33619
33662
33662
33662
33488
33488
33488
33575
33575
33575
33510
33510
33510
33575
33575
33575
33575
33619
33619
33619
33554
33554
33554
33619
33619
33619
33532
33532
33532
33575
33575
33575
33575
33423
33423
33423
33554
33554
33554
33684
33684
33684
33532
33532
33532
33641
33641
33641
33641
33575
33575
33575
33488
33488
33488
33597
33597
33597
33532
33532
33532
33662
33662
33662
33662
33662
33662
33662
33575
33575
33575
33684
33684
33684
33488
33488
33488
33619
33619
33619
33619
33641
33641
33641
33597
33597
33597
33641
33641
33641
33532
33532
33532
33706
33706
33706
33706
33836
33836
33836
33532
33532
33532
33619
33619
33619
33532
33532
33532
33728
33728
33728
33728
33662
33662
33662
33554
33554
33554
33706
33706
33706
33423
33423
33423
33597
33597
33597
33597
33619
33619
33619
33554
33554
33554
33554
33554
33554
33554
33554
33554
33641
33641
33641
33641
33575
33575
33575
33662
33662
33662
33641
33641
33641
33554
33554
33554
33532
33532
33532
33532
33619
33619
33619
33510
33510
33510
33532
33532
33532
33510
33510
33510
33641
33641
33641
33641
33662
33662
33662
33554
33554
33554
33619
33619
33619
33597
33597
33597
33706
33706
33706
33706
33619
33619
33619
33554
33554
33554
33423
33423
33423
33532
33532
33532
33662
33662
33662
33662
33575
33575
33575
33532
33532
33532
33575
33575
33575
33467
33467
33467
33619
33619
33619
33619
33619
33619
33619
33488
33488
33488
33641
33641
33641
33532
33532
33532
33597
33597
33597
33597
33597
33597
33597
33575
33575
33575
33619
33619
33619
33619
33619
33619
33641
33641
33641
33641
33684
33684
33684
33532
33532
33532
33706
33706
33706
33532
33532
33532
33619
33619
33619
33619
33641
33641
33641
33445
33445
33445
33684
33684
33684
33532
33532
33532
33532
33532
33532
33532
33532
33532
33532
33532
33532
33532
33662
33662
33662
33532
33532
33532
33815
33815
33815
33815
33619
33619
33619
33575
33575
33575
33619
33619
33619
33488
33488
33488
33684
33684
33684
33684
33575
33575
33575
33575
33575
33575
33619
33619
33619
33423
33423
33423
33554
33554
33554
33554
33619
33619
33619
33488
33488
33488
33510
33510
33510
33401
33401
33401
33641
33641
33641
33641
33597
33597
33597
33379
33379
33379
33641
33641
33641
33510
33510
33510
33510
33510
33510
33510
33575
33575
33575
33554
33554
33554
33597
33597
33597
33488
33488
33488
33554
33554
33554
33554
33662
33662
33662
33532
33532
33532
33575
33575
33575
33554
33554
33554
33662
33662
33662
33662
33575
33575
33575
33488
33488
33488
33641
33641
33641
33510
33510
33510
33662
33662
33662
33662
33532
33532
33532
33532
33532
33532
33641
33641
33641
33575
33575
33575
33706
33706
33706
33706
33597
33597
33597
33532
33532
33532
33575
33575
33575
33510
33510
33510
33597
33597
33597
33597
33684
33684
33684
33532
33532
33532
33597
33597
33597
33467
33467
33467
33575
33575
33575
33575
33619
33619
33619
33554
33554
33554
33771
33771
33771
33445
33445
33445
33575
33575
33575
33575
33575
33575
33575
33423
33423
33423
33597
33597
33597
33488
33488
33488
33597
33597
33597
33597
33597
33597
33597
33467
33467
33467
33619
33619
33619
33706
33706
33706
33641
33641
33641
33641
33597
33597
33597
33510
33510
33510
33597
33597
33597
33488
33488
33488
33575
33575
33575
33575
33662
33662
33662
33510
33510
33510
33619
33619
33619
33488
33488
33488
33554
33554
33554
33554
33641
33641
33641
33445
33445
33445
33554
33554
33554
33532
33532
33532
33793
33793
33793
33793
33575
33575
33575
33532
33532
33532
33575
33575
33575
33532
33532
33532
33662
33662
33662
33662
33575
33575
33575
33575
33575
33575
33467
33467
33467
33467
33467
33467
33597
33597
33597
33597
33619
33619
33619
33488
33488
33488
33554
33554
33554
33554
33554
33554
33575
33575
33575
33575
33532
33532
33532
33575
33575
33575
33619
33619
33619
33445
33445
33445
33684
33684
33684
33684
33532
33532
33532
33575
33575
33575
33597
33597
33597
33401
33401
33401
33619
33619
33619
33619
33641
33641
33641
33488
33488
33488
33401
33401
33401
33532
33532
33532
33597
33597
33597
33597
33619
33619
33619
33488
33488
33488
33641
33641
33641
33510
33510
33510
33575
33575
33575
33575
33619
33619
33619
33467
33467
33467
33554
33554
33554
33510
33510
33510
33641
33641
33641
33641
33728
33728
33728
33488
33488
33488
33597
33597
33597
33488
33488
33488
33684
33684
33684
33684
33532
33532
33532
33467
33467
33467
33793
33793
33793
33575
33575
33575
33662
33662
33662
33662
33554
33554
33554
33532
33532
33532
33510
33510
33510
33510
33510
33510
33706
33706
33706
33706
33597
33597
33597
33510
33510
33510
33575
33575
33575
33488
33488
33488
33641
33641
33641
33641
33532
33532
33532
33467
33467
33467
33771
33771
33771
33597
33597
33597
33662
33662
33662
33662
33575
33575
33575
33532
33532
33532
33728
33728
33728
33554
33554
33554
33619
33619
33619
33619
33619
33619
33619
33575
33575
33575
33619
33619
33619
33532
33532
33532
33575
33575
33575
33575
33510
33510
33510
33554
33554
33554
33597
33597
33597
33488
33488
33488
33662
33662
33662
33662
33575
33575
33575
33532
33532
33532
33619
33619
33619
33445
33445
33445
33575
33575
33575
33575
33597
33597
33597
33510
33510
33510
33510
33510
33510
33532
33532
33532
33619
33619
33619
33619
33597
33597
33597
33445
33445
33445
33641
33641
33641
33554
33554
33554
33662
33662
33662
33662
33488
33488
33488
33488
33488
33488
33597
33597
33597
33488
33488
33488
33662
33662
33662
33662
33641
33641
33641
33445
33445
33445
33771
33771
33771
33510
33510
33510
33597
33597
33597
33597
33510
33510
33510
33510
33510
33510
33706
33706
33706
33532
33532
33532
33662
33662
33662
33662
33597
33597
33597
33423
33423
33423
33597
33597
33597
33510
33510
33510
33488
33488
33488
33488
33575
33575
33575
33488
33488
33488
33662
33662
33662
33488
33488
33488
33619
33619
33619
33619
33662
33662
33662
33575
33575
33575
33575
33575
33575
33445
33445
33445
33575
33575
33575
33575
33619
33619
33619
33532
33532
33532
33554
33554
33554
33510
33510
33510
33575
33575
33575
33575
33619
33619
33619
33379
33379
33379
33619
33619
33619
33554
33554
33554
33597
33597
33597
33597
33510
33510
33510
33554
33554
33554
33619
33619
33619
33684
33684
33684
33641
33641
33641
33641
33554
33554
33554
33532
33532
33532
33445
33445
33445
33488
33488
33488
33641
33641
33641
33641
33662
33662
33662
33467
33467
33467
33619
33619
33619
33532
33532
33532
33749
33749
33749
33749
33662
33662
33662
33532
33532
33532
33662
33662
33662
33597
33597
33597
33597
33597
33597
33597
33488
33488
33488
33532
33532
33532
33619
33619
33619
33619
33619
33619
33619
33619
33619
33619
33575
33575
33575
33554
33554
33554
33728
33728
33728
33510
33510
33510
33662
33662
33662
33662
33684
33684
33684
33467
33467
33467
33597
33597
33597
33575
33575
33575
33641
33641
33641
33641
33532
33532
33532
33488
33488
33488
33641
33641
33641
33532
33532
33532
33662
33662
33662
33662
33597
33597
33597
33597
33597
33597
33749
33749
33749
33488
33488
33488
33641
33641
33641
33641
33662
33662
33662
33445
33445
33445
33662
33662
33662
33532
33532
33532
33554
33554
33554
33554
33662
33662
33662
33445
33445
33445
33575
33575
33575
33510
33510
33510
33619
33619
33619
33619
33749
33749
33749
33467
33467
33467
33684
33684
33684
33532
33532
33532
33619
33619
33619
33619
33575
33575
33575
33510
33510
33510
33641
33641
33641
33554
33554
33554
33575
33575
33575
33575
33662
33662
33662
33554
33554
33554
33554
33554
33554
33445
33445
33445
33510
33510
33510
33510
33597
33597
33597
33532
33532
33532
33532
33532
33532
33488
33488
33488
33575
33575
33575
33575
33575
33575
33575
33575
33575
33575
33532
33532
33532
33575
33575
33575
33575
33575
33575
33575
33684
33684
33684
33510
33510
33510
33662
33662
33662
33445
33445
33445
33641
33641
33641
33641
33662
33662
33662
33532
33532
33532
33662
33662
33662
33532
33532
33532
33575
33575
33575
33575
33597
33597
33597
33358
33358
33358
33619
33619
33619
33379
33379
33379
33662
33662
33662
33662
33597
33597
33597
33554
33554
33554
33575
33575
33575
33445
