29394
29394
29394
29350
29350
29350
29437
29437
29437
29328
29328
29328
29350
29350
29350
29350
29372
29372
29372
29350
29350
29350
29372
29372
29372
29219
29219
29219
29415
29415
29415
29415
29372
29372
29372
29263
29263
29263
29415
29415
29415
29306
29306
29306
29415
29415
29415
29415
29415
29415
29415
29263
29263
29263
29394
29394
29394
29241
29241
29241
29372
29372
29372
29372
29415
29415
29415
29285
29285
29285
29394
29394
29394
29306
29306
29306
29415
29415
29415
29415
29394
29394
29394
29350
29350
29350
29415
29415
29415
29306
29306
29306
29459
29459
29459
29459
29394
29394
29394
29306
29306
29306
29415
29415
29415
29285
29285
29285
29415
29415
29415
29415
29415
29415
29415
29306
29306
29306
29503
29503
29503
29285
29285
29285
29372
29372
29372
29372
29372
29372
29372
29372
29372
29372
29459
29459
29459
29328
29328
29328
29350
29350
29350
29350
29459
29459
29459
29306
29306
29306
29372
29372
29372
29306
29306
29306
29459
29459
29459
29459
29394
29394
29394
29285
29285
29285
29437
29437
29437
29241
29241
29241
29394
29394
29394
29394
29459
29459
29459
29306
29306
29306
29415
29415
29415
29306
29306
29306
29372
29372
29372
29372
29394
29394
29394
29285
29285
29285
29328
29328
29328
29306
29306
29306
29415
29415
29415
29415
29459
29459
29459
29328
29328
29328
29372
29372
29372
29350
29350
29350
29437
29437
29437
29437
29415
29415
29415
29328
29328
29328
29415
29415
29415
29263
29263
29263
29415
29415
29415
29415
29372
29372
29372
29285
29285
29285
29459
29459
29459
29285
29285
29285
29372
29372
29372
29372
29394
29394
29394
29241
29241
29241
29437
29437
29437
29285
29285
29285
29328
29328
29328
29328
29415
29415
29415
29306
29306
29306
29328
29328
29328
29328
29328
29328
29394
29394
29394
29394
29350
29350
29350
29372
29372
29372
29394
29394
29394
29241
29241
29241
29372
29372
29372
29372
29415
29415
29415
29263
29263
29263
29415
29415
29415
29263
29263
29263
29394
29394
29394
29394
29350
29350
29350
29306
29306
29306
29372
29372
29372
29285
29285
29285
29415
29415
29415
29415
29394
29394
29394
29306
29306
29306
29415
29415
29415
29285
29285
29285
29394
29394
29394
29394
29372
29372
29372
29285
29285
29285
29372
29372
29372
29350
29350
29350
29459
29459
29459
29459
29394
29394
29394
29415
29415
29415
29372
29372
29372
29263
29263
29263
29372
29372
29372
29372
29459
29459
29459
29328
29328
29328
29350
29350
29350
29241
29241
29241
29350
29350
29350
29350
29372
29372
29372
29328
29328
29328
29437
29437
29437
29350
29350
29350
29437
29437
29437
29437
29415
29415
29415
29306
29306
29306
29524
29524
29524
29263
29263
29263
29437
29437
29437
29437
29394
29394
29394
29241
29241
29241
29415
29415
29415
29285
29285
29285
29372
29372
29372
29372
29394
29394
29394
29197
29197
29197
29437
29437
29437
29285
29285
29285
29372
29372
29372
29372
29176
29176
29176
29241
29241
29241
29394
29394
29394
29306
29306
29306
29415
29415
29415
29415
29437
29437
29437
29306
29306
29306
29415
29415
29415
29306
29306
29306
29415
29415
29415
29415
29372
29372
29372
29306
29306
29306
29415
29415
29415
29306
29306
29306
29415
29415
29415
29415
29415
29415
29415
29241
29241
29241
29372
29372
29372
29372
29372
29372
29328
29328
29328
29328
29415
29415
29415
29285
29285
29285
29394
29394
29394
29372
29372
29372
29372
29372
29372
29372
29372
29372
29372
29328
29328
29328
29437
29437
29437
29350
29350
29350
29350
29350
29350
29350
29372
29372
29372
29328
29328
29328
29459
29459
29459
29219
29219
29219
29415
29415
29415
29415
29415
29415
29415
29437
29437
29437
29372
29372
29372
29306
29306
29306
29437
29437
29437
29437
29394
29394
29394
29306
29306
29306
29415
29415
29415
29328
29328
29328
29394
29394
29394
29394
29481
29481
29481
29306
29306
29306
29415
29415
29415
29306
29306
29306
29394
29394
29394
29394
29394
29394
29394
29263
29263
29263
29394
29394
29394
29394
29394
29394
29372
29372
29372
29372
29394
29394
29394
29328
29328
29328
29415
29415
29415
29328
29328
29328
29306
29306
29306
29306
29350
29350
29350
29459
29459
29459
29350
29350
29350
29306
29306
29306
29481
29481
29481
29481
29394
29394
29394
29285
29285
29285
29415
29415
29415
29197
29197
29197
29372
29372
29372
29372
29415
29415
29415
29263
29263
29263
29437
29437
29437
29350
29350
29350
29459
29459
29459
29459
29350
29350
29350
29306
29306
29306
29415
29415
29415
29306
29306
29306
29437
29437
29437
29437
29394
29394
29394
29328
29328
29328
29415
29415
29415
29285
29285
29285
29459
29459
29459
29459
29394
29394
29394
29350
29350
29350
29372
29372
29372
29306
29306
29306
29437
29437
29437
29437
29372
29372
29372
29306
29306
29306
29459
29459
29459
29350
29350
29350
29372
29372
29372
29372
29372
29372
29372
29219
29219
29219
29394
29394
29394
29285
29285
29285
29328
29328
29328
29328
29394
29394
29394
29285
29285
29285
29306
29306
29306
29285
29285
29285
29394
29394
29394
29394
29394
29394
29394
29263
29263
29263
29415
29415
29415
29285
29285
29285
29328
29328
29328
29328
29372
29372
29372
29219
29219
29219
29394
29394
29394
29154
29154
29154
29415
29415
29415
29415
29394
29394
29394
29285
29285
29285
29394
29394
29394
29306
29306
29306
29394
29394
29394
29394
29372
29372
29372
29350
29350
29350
29394
29394
29394
29306
29306
29306
29437
29437
29437
29437
29415
29415
29415
29328
29328
29328
29372
29372
29372
29263
29263
29263
29372
29372
29372
29372
29394
29394
29394
29263
29263
29263
29415
29415
29415
29372
29372
29372
29350
29350
29350
29350
29415
29415
29415
29285
29285
29285
29437
29437
29437
29306
29306
29306
29394
29394
29394
29394
29394
29394
29394
29241
29241
29241
29350
29350
29350
29263
29263
29263
29394
29394
29394
29394
29394
29394
29394
29241
29241
29241
29459
29459
29459
29306
29306
29306
29372
29372
29372
29372
29415
29415
29415
29328
29328
29328
29394
29394
29394
29241
29241
29241
29437
29437
29437
29437
29503
29503
29503
29263
29263
29263
29415
29415
29415
29154
29154
29154
29372
29372
29372
29372
29372
29372
29372
29306
29306
29306
29481
29481
29481
29328
29328
29328
29372
29372
29372
29372
29350
29350
29350
29372
29372
29372
29437
29437
29437
29306
29306
29306
29459
29459
29459
29459
29372
29372
29372
29285
29285
29285
29437
29437
29437
29372
29372
29372
29459
29459
29459
29459
29481
29481
29481
29306
29306
29306
29372
29372
29372
29328
29328
29328
29394
29394
29394
29394
29394
29394
29394
29263
29263
29263
29481
29481
29481
29328
29328
29328
29372
29372
29372
29372
29394
29394
29394
29328
29328
29328
29415
29415
29415
29285
29285
29285
29415
29415
29415
29415
29372
29372
29372
29328
29328
29328
29394
29394
29394
29285
29285
29285
29350
29350
29350
29350
29306
29306
29306
29306
29306
29306
29394
29394
29394
29219
29219
29219
29394
29394
29394
29394
29437
29437
29437
29306
29306
29306
29394
29394
29394
29350
29350
29350
29415
29415
29415
29415
29394
29394
29394
29263
29263
29263
29415
29415
29415
29306
29306
29306
29372
29372
29372
29372
29437
29437
29437
29154
29154
29154
29394
29394
29394
29328
29328
29328
29350
29350
29350
29350
29394
29394
29394
29350
29350
29350
29394
29394
29394
29306
29306
29306
29437
29437
29437
29437
29328
29328
29328
29285
29285
29285
29415
29415
29415
29110
29110
29110
29394
29394
29394
29394
29394
29394
29394
29263
29263
29263
29350
29350
29350
29285
29285
29285
29437
29437
29437
29437
29415
29415
29415
29328
29328
29328
29437
29437
29437
29328
29328
29328
29350
29350
29350
29350
29437
29437
29437
29437
29437
29437
29372
29372
29372
29285
29285
29285
29394
29394
29394
29394
29350
29350
29350
29285
29285
29285
29372
29372
29372
29328
29328
29328
29394
29394
29394
29394
29437
29437
29437
29306
29306
29306
29350
29350
29350
29328
29328
29328
29372
29372
29372
29372
29328
29328
29328
29285
29285
29285
29394
29394
29394
29372
29372
29372
29415
29415
29415
29415
29372
29372
29372
29350
29350
29350
29306
29306
29306
29263
29263
29263
29437
29437
29437
29437
29372
29372
29372
29306
29306
29306
29350
29350
29350
29306
29306
29306
29415
29415
29415
29415
29372
29372
29372
29285
29285
29285
29459
29459
29459
29285
29285
29285
29394
29394
29394
29394
29415
29415
29415
29306
29306
29306
29372
29372
29372
29263
29263
29263
29437
29437
29437
29437
29394
29394
29394
29241
29241
29241
29415
29415
29415
29285
29285
29285
29372
29372
29372
29372
29415
29415
29415
29285
29285
29285
29415
29415
29415
29285
29285
29285
29415
29415
29415
29415
29481
29481
29481
29328
29328
29328
29415
29415
29415
29328
29328
29328
29372
29372
29372
29372
29350
29350
29350
29285
29285
29285
29459
29459
29459
29306
29306
29306
29415
29415
29415
29415
29372
29372
29372
29285
29285
29285
29394
29394
29394
29285
29285
29285
29437
29437
29437
29437
29394
29394
29394
29372
29372
29372
29394
29394
29394
29241
29241
29241
29415
29415
29415
29415
29350
29350
29350
29219
29219
29219
29394
29394
29394
29306
29306
29306
29415
29415
29415
29415
29459
29459
29459
29219
29219
29219
29394
29394
29394
29306
29306
29306
29394
29394
29394
29394
29394
29394
29394
29285
29285
29285
29503
29503
29503
29306
29306
29306
29372
29372
29372
29372
29394
29394
29394
29285
29285
29285
29328
29328
29328
29306
29306
29306
29481
29481
29481
29481
29394
29394
29394
29306
29306
29306
29415
29415
29415
29285
29285
29285
29328
29328
29328
29328
29437
29437
29437
29306
29306
29306
29372
29372
29372
29285
29285
29285
29415
29415
29415
29415
29394
29394
29394
29306
29306
29306
29415
29415
29415
29306
29306
29306
29459
29459
29459
29459
29394
29394
29394
29285
29285
29285
29328
29328
29328
29241
29241
29241
29437
29437
29437
29437
29394
29394
29394
29285
29285
29285
29415
29415
29415
29328
29328
29328
29306
29306
29306
29306
29372
29372
29372
29328
29328
29328
29394
29394
29394
29241
29241
29241
29372
29372
29372
29372
29415
29415
29415
29285
29285
29285
29350
29350
29350
29306
29306
29306
29437
29437
29437
29437
29350
29350
29350
29285
29285
29285
29437
29437
29437
29241
29241
29241
29394
29394
29394
29394
29481
29481
29481
29394
29394
29394
29372
29372
29372
29285
29285
29285
29350
29350
29350
29350
29415
29415
29415
29306
29306
29306
29437
29437
29437
29350
29350
29350
29350
29350
29350
29350
29415
29415
29415
29306
29306
29306
29394
29394
29394
29328
29328
29328
29372
29372
29372
29372
29437
29437
29437
29306
29306
29306
29459
29459
29459
29350
29350
29350
29372
29372
29372
29372
29372
29372
29372
29241
29241
29241
29285
29285
29285
29350
29350
29350
29459
29459
29459
29459
29394
29394
29394
29415
29415
29415
29415
29415
29415
29285
29285
29285
29285
29285
29285
29285
29415
29415
29415
29285
29285
29285
29350
29350
29350
29154
29154
29154
29415
29415
29415
29415
29415
29415
29415
29263
29263
29263
29394
29394
29394
29241
29241
29241
29459
29459
29459
29459
29350
29350
29350
29285
29285
29285
29350
29350
29350
29306
29306
29306
29394
29394
29394
29394
29372
29372
29372
29241
29241
29241
29372
29372
29372
29328
29328
29328
29437
29437
29437
29437
29350
29350
29350
29263
29263
29263
29437
29437
29437
29285
29285
29285
29394
29394
29394
29394
29437
29437
29437
29306
29306
29306
29415
29415
29415
29219
29219
29219
29415
29415
29415
29415
29350
29350
29350
29306
29306
29306
29459
29459
29459
29263
29263
29263
29372
29372
29372
29372
29415
29415
29415
29285
29285
29285
29394
29394
29394
29285
29285
29285
29350
29350
29350
29350
29415
29415
29415
29285
29285
29285
29328
29328
29328
29285
29285
29285
29350
29350
29350
29350
29372
29372
29372
29328
29328
29328
29372
29372
29372
29306
29306
29306
29372
29372
29372
29372
29001
29001
29001
29285
29285
29285
29459
29459
29459
29241
29241
29241
29350
29350
29350
29350
29372
29372
29372
29285
29285
29285
29394
29394
29394
29306
29306
29306
29372
29372
29372
29372
29437
29437
29437
29285
29285
29285
29415
29415
29415
29263
29263
29263
29394
29394
29394
29394
29350
29350
29350
29350
29350
29350
29372
29372
29372
29263
29263
29263
29459
29459
29459
29459
29372
29372
29372
29328
29328
29328
29372
29372
29372
29219
29219
29219
29437
29437
29437
29437
29328
29328
29328
29306
29306
29306
29415
29415
29415
29285
29285
29285
29394
29394
29394
29394
29372
29372
29372
29285
29285
29285
29415
29415
29415
29285
29285
29285
29372
29372
29372
29372
29372
29372
29372
29350
29350
29350
29372
29372
29372
29306
29306
29306
29372
29372
29372
29372
29394
29394
29394
29241
29241
29241
29415
29415
29415
29241
29241
29241
29415
29415
29415
29415
29524
29524
29524
29328
29328
29328
29372
29372
29372
29241
29241
29241
29415
29415
29415
29415
29459
29459
29459
29306
29306
29306
29394
29394
29394
29263
29263
29263
29372
29372
29372
29372
29394
29394
29394
29263
29263
29263
29459
29459
29459
29328
29328
29328
29394
29394
29394
29394
29372
29372
29372
29219
29219
29219
29372
29372
29372
29263
29263
29263
29415
29415
29415
29415
29372
29372
29372
29263
29263
29263
29415
29415
29415
29263
29263
29263
29372
29372
29372
29372
29437
29437
29437
29306
29306
29306
29372
29372
29372
29263
29263
29263
29437
29437
29437
29437
29372
29372
29372
29328
29328
29328
29481
29481
29481
29285
29285
29285
29350
29350
29350
29350
29394
29394
29394
29285
29285
29285
29459
29459
29459
29285
29285
29285
29394
29394
29394
29394
29415
29415
29415
29241
29241
29241
29415
29415
29415
29285
29285
29285
29394
29394
29394
29394
29350
29350
29350
29328
29328
29328
29372
29372
29372
29285
29285
29285
29394
29394
29394
29394
29437
29437
29437
29350
29350
29350
29437
29437
29437
29285
29285
29285
29394
29394
29394
29394
29372
29372
29372
29285
29285
29285
29285
29285
29285
29306
29306
29306
29459
29459
29459
29459
29437
29437
29437
29285
29285
29285
29415
29415
29415
29263
29263
29263
29415
29415
29415
29415
29415
29415
29415
29263
29263
29263
29415
29415
29415
29328
29328
29328
29481
29481
29481
29481
29437
29437
29437
29285
29285
29285
29372
29372
29372
29263
29263
29263
29372
29372
29372
29372
29350
29350
29350
29285
29285
29285
29394
29394
29394
29350
29350
29350
29437
29437
29437
29437
29306
29306
29306
29328
29328
29328
29437
29437
29437
29306
29306
29306
29372
29372
29372
29372
29372
29372
29372
29350
29350
29350
29328
29328
29328
29285
29285
29285
29328
29328
29328
29328
29372
29372
29372
29263
29263
29263
29372
29372
29372
29263
29263
29263
29481
29481
29481
29481
29546
29546
29546
29285
29285
29285
29415
29415
29415
29241
29241
29241
29328
29328
29328
29328
29415
29415
29415
29285
29285
29285
29394
29394
29394
29285
29285
29285
29415
29415
29415
29415
29328
29328
29328
29285
29285
29285
29394
29394
29394
29306
29306
29306
29437
29437
29437
29437
29415
29415
29415
29350
29350
29350
29394
29394
29394
29263
29263
29263
29350
29350
29350
29350
29372
29372
29372
29219
29219
29219
29394
29394
29394
29263
29263
29263
29437
29437
29437
29437
29372
29372
29372
29328
29328
29328
29459
29459
29459
29306
29306
29306
29328
29328
29328
29328
29394
29394
29394
29285
29285
29285
29328
29328
29328
29306
29306
29306
29394
29394
29394
29394
29394
29394
29394
29306
29306
29306
29437
29437
29437
29241
29241
29241
29459
29459
29459
29459
29328
29328
29328
29263
29263
29263
29415
29415
29415
29328
29328
29328
29394
29394
29394
29394
29437
29437
29437
29306
29306
29306
29372
29372
29372
29328
29328
29328
29437
29437
29437
29437
29394
29394
29394
29306
29306
29306
29394
29394
29394
29328
29328
29328
29415
29415
29415
29415
29415
29415
29415
29263
29263
29263
29372
29372
29372
29306
29306
29306
29306
29306
29306
29306
29415
29415
29415
29219
29219
29219
29372
29372
29372
29350
29350
29350
29437
29437
29437
29437
29415
29415
29415
29285
29285
29285
29415
29415
29415
29241
29241
29241
29372
29372
29372
29372
29394
29394
29394
29328
29328
29328
29415
29415
29415
29328
29328
29328
29437
29437
29437
29437
29372
29372
29372
29241
29241
29241
29328
29328
29328
29306
29306
29306
29437
29437
29437
29437
29394
29394
29394
29197
29197
29197
29372
29372
29372
29350
29350
29350
29394
29394
29394
29394
29459
29459
29459
29306
29306
29306
29394
29394
29394
29350
29350
29350
29415
29415
29415
29415
29459
29459
29459
29241
29241
29241
29415
29415
29415
29328
29328
29328
29459
29459
29459
29459
29394
29394
29394
29285
29285
29285
29415
29415
29415
29306
29306
29306
29415
29415
29415
29415
29394
29394
29394
29372
29372
29372
29372
29372
29372
29263
29263
29263
29394
29394
29394
29394
29394
29394
29394
29285
29285
29285
29415
29415
29415
29263
29263
29263
29415
29415
29415
29415
29394
29394
29394
29328
29328
29328
29350
29350
29350
29285
29285
29285
29350
29350
29350
29350
29350
29350
29350
29328
29328
29328
29394
29394
29394
29306
29306
29306
29372
29372
29372
29372
29415
29415
29415
29219
29219
29219
29372
29372
29372
29241
29241
29241
29372
29372
29372
29372
29459
29459
29459
29306
29306
29306
29437
29437
29437
29285
29285
29285
29437
29437
29437
29437
29415
29415
29415
29306
29306
29306
29394
29394
29394
29306
29306
29306
29437
29437
29437
29437
29394
29394
29394
29306
29306
29306
29459
29459
29459
29306
29306
29306
29372
29372
29372
29372
29372
29372
29372
29241
29241
29241
29437
29437
29437
29328
29328
29328
29459
29459
29459
29459
29415
29415
29415
29263
29263
29263
29372
29372
29372
29285
29285
29285
29394
29394
29394
29394
29415
29415
29415
29306
29306
29306
29372
29372
29372
29306
29306
29306
29437
29437
29437
29437
29437
29437
29437
29306
29306
29306
29394
29394
29394
29306
29306
29306
29328
29328
29328
29328
29437
29437
29437
29328
29328
29328
29350
29350
29350
29219
29219
29219
29415
29415
29415
29415
29394
29394
29394
29372
29372
29372
29481
29481
29481
29285
29285
29285
29394
29394
29394
29394
29372
29372
29372
29306
29306
29306
29394
29394
29394
29110
29110
29110
29415
29415
29415
29415
29437
29437
29437
29306
29306
29306
29372
29372
29372
29241
29241
29241
29372
29372
29372
29372
29415
29415
29415
29350
29350
29350
29437
29437
29437
29263
29263
29263
29394
29394
29394
29394
29372
29372
29372
29285
29285
29285
29415
29415
29415
29285
29285
29285
29437
29437
29437
29437
29394
29394
29394
29306
29306
29306
29394
29394
29394
29263
29263
29263
29372
29372
29372
29372
29394
29394
29394
29306
29306
29306
29372
29372
29372
29285
29285
29285
29328
29328
29328
29328
29372
29372
29372
29285
29285
29285
29415
29415
29415
29328
29328
29328
29415
29415
29415
29415
29394
29394
29394
29263
29263
29263
29372
29372
29372
29263
29263
29263
29503
29503
29503
29503
29394
29394
29394
29197
29197
29197
29437
29437
29437
29219
29219
29219
29394
29394
29394
29394
29459
29459
29459
29263
29263
29263
29328
29328
29328
29306
29306
29306
29415
29415
29415
29415
29350
29350
29350
29372
29372
29372
29372
29372
29372
29306
29306
29306
29372
29372
29372
29372
29394
29394
29394
29285
29285
29285
29415
29415
29415
29219
29219
29219
29415
29415
29415
29415
29437
29437
29437
29219
29219
29219
29437
29437
29437
29328
29328
29328
29503
29503
29503
29503
29394
29394
29394
29263
29263
29263
29459
29459
29459
29241
29241
29241
29394
29394
29394
29394
29415
29415
29415
29285
29285
29285
29372
29372
29372
29328
29328
29328
29415
29415
29415
29415
29394
29394
29394
29263
29263
29263
29328
29328
29328
29285
29285
29285
29328
29328
29328
29328
29437
29437
29437
29285
29285
29285
29415
29415
29415
29285
29285
29285
29394
29394
29394
29394
29437
29437
29437
29285
29285
29285
29394
29394
29394
29306
29306
29306
29394
29394
29394
29394
29481
29481
29481
29263
29263
29263
29350
29350
29350
29328
29328
29328
29415
29415
29415
29415
29372
29372
29372
29285
29285
29285
29328
29328
29328
29306
29306
29306
29437
29437
29437
29437
29437
29437
29437
29219
29219
29219
29372
29372
29372
29306
29306
29306
29394
29394
29394
29394
29372
29372
29372
29241
29241
29241
29415
29415
29415
29306
29306
29306
29394
29394
29394
29394
29503
29503
29503
29328
29328
29328
29328
29328
29328
29285
29285
29285
29394
29394
29394
29394
29372
29372
29372
29306
29306
29306
29372
29372
29372
29306
29306
29306
29350
29350
29350
29350
29415
29415
29415
29306
29306
29306
29437
29437
29437
29306
29306
29306
29437
29437
29437
29437
29415
29415
29415
29263
29263
29263
29394
29394
29394
29285
29285
29285
29372
29372
29372
29372
29459
29459
29459
29263
29263
29263
29394
29394
29394
29328
29328
29328
29350
29350
29350
29350
29459
29459
29459
29328
29328
29328
29372
29372
29372
29285
29285
29285
29394
29394
29394
29394
29394
29394
29394
29285
29285
29285
29459
29459
29459
29285
29285
29285
29481
29481
29481
29481
29372
29372
29372
29394
29394
29394
29350
29350
29350
29241
29241
29241
29350
29350
29350
29350
29655
29655
29655
29285
29285
29285
29394
29394
29394
29306
29306
29306
29372
29372
29372
29372
29372
29372
29372
29328
29328
29328
29394
29394
29394
29219
29219
29219
29459
29459
29459
29459
29437
29437
29437
29285
29285
29285
29437
29437
29437
29219
29219
29219
29394
29394
29394
29394
29394
29394
29394
29263
29263
29263
29437
29437
29437
29350
29350
29350
29350
29350
29350
29350
29415
29415
29415
29372
29372
29372
29372
29372
29372
29328
29328
29328
29394
29394
29394
29394
29372
29372
29372
29328
29328
29328
29328
29328
29328
29328
29328
29328
29372
29372
29372
29372
29350
29350
29350
29306
29306
29306
29372
29372
29372
29285
29285
29285
29394
29394
29394
29394
29459
29459
29459
29263
29263
29263
29372
29372
29372
29350
29350
29350
29415
29415
29415
29415
29415
29415
29415
29306
29306
29306
29394
29394
29394
29263
29263
29263
29394
29394
29394
29394
29350
29350
29350
29176
29176
29176
29394
29394
29394
29306
29306
29306
29394
29394
29394
29394
29459
29459
29459
29306
29306
29306
29437
29437
29437
29285
29285
29285
29350
29350
29350
29350
29394
29394
29394
29263
29263
29263
29415
29415
29415
29263
29263
29263
29372
29372
29372
29372
29437
29437
29437
29263
29263
29263
29415
29415
29415
29328
29328
29328
29372
29372
29372
29372
29350
29350
29350
29350
29350
29350
29372
29372
29372
29306
29306
29306
29415
29415
29415
29415
29415
29415
29415
29306
29306
29306
29415
29415
29415
29263
29263
29263
29437
29437
29437
29437
29394
29394
29394
29328
29328
29328
29459
29459
29459
29285
29285
29285
29437
29437
29437
29437
29394
29394
29394
29306
29306
29306
29437
29437
29437
29285
29285
29285
29437
29437
29437
29437
29328
29328
29328
29285
29285
29285
29437
29437
29437
29285
29285
29285
29437
29437
29437
29437
29437
29437
29437
29241
29241
29241
29459
29459
29459
29285
29285
29285
29415
29415
29415
29415
29372
29372
29372
29263
29263
29263
29372
29372
29372
29241
29241
29241
29350
29350
29350
29350
29285
29285
29285
29219
29219
29219
29415
29415
29415
29219
29219
29219
29415
29415
29415
29415
29415
29415
29415
29306
29306
29306
29197
29197
29197
29350
29350
29350
29394
29394
29394
29394
29372
29372
29372
29372
29372
29372
29415
29415
29415
29350
29350
29350
29459
29459
29459
29459
29415
29415
29415
29263
29263
29263
29394
29394
29394
29241
29241
29241
29328
29328
29328
29328
29459
29459
29459
29263
29263
29263
29372
29372
29372
29394
29394
29394
29503
29503
29503
29503
29459
29459
29459
29263
29263
29263
29328
29328
29328
29241
29241
29241
29372
29372
29372
29372
29415
29415
29415
29328
29328
29328
29372
29372
29372
29263
29263
29263
29350
29350
29350
29350
29437
29437
29437
29241
29241
29241
29394
29394
29394
29241
29241
29241
29328
29328
29328
29328
29328
29328
29328
29328
29328
29328
29415
29415
29415
29263
29263
29263
29415
29415
29415
29415
29437
29437
29437
29285
29285
29285
29415
29415
29415
29285
29285
29285
29481
29481
29481
29481
29394
29394
29394
29306
29306
29306
29328
29328
29328
29219
29219
29219
29394
29394
29394
29394
29372
29372
29372
29328
29328
29328
29415
29415
29415
29263
29263
29263
29459
29459
29459
29459
29415
29415
29415
29306
29306
29306
29350
29350
29350
29241
29241
29241
29372
29372
29372
29372
29415
29415
29415
29263
29263
29263
29415
29415
29415
29328
29328
29328
29394
29394
29394
29394
29372
29372
29372
29263
29263
29263
29350
29350
29350
29263
29263
29263
29437
29437
29437
29437
29372
29372
29372
29285
29285
29285
29350
29350
29350
29219
29219
29219
29350
29350
29350
29350
29372
29372
29372
29350
29350
29350
29437
29437
29437
29328
29328
29328
29328
29328
29328
29328
29394
29394
29394
29263
29263
29263
29437
29437
29437
29306
29306
29306
29372
29372
29372
29372
29415
29415
29415
29328
29328
29328
29394
29394
29394
29306
29306
29306
29394
29394
29394
29394
29372
29372
29372
29306
29306
29306
29459
29459
29459
29219
29219
29219
29372
29372
29372
29372
29394
29394
29394
29306
29306
29306
29176
29176
29176
29241
29241
29241
29415
29415
29415
29415
29437
29437
29437
29241
29241
29241
29372
29372
29372
29285
29285
29285
29350
29350
29350
29350
29372
29372
29372
29372
29372
29372
29394
29394
29394
29263
29263
29263
29481
29481
29481
29481
29372
29372
29372
29285
29285
29285
29459
29459
29459
29241
29241
29241
29372
29372
29372
29372
29372
29372
29372
29219
29219
29219
29437
29437
29437
29263
29263
29263
29394
29394
29394
29394
29394
29394
29394
29241
29241
29241
29394
29394
29394
29328
29328
29328
29394
29394
29394
29394
29459
29459
29459
29306
29306
29306
29350
29350
29350
29197
29197
29197
29415
29415
29415
29415
29350
29350
29350
29328
29328
29328
29372
29372
29372
29306
29306
29306
29350
29350
29350
29350
29394
29394
29394
29263
29263
29263
29415
29415
29415
29241
29241
29241
29350
29350
29350
29350
29415
29415
29415
29263
29263
29263
29481
29481
29481
29263
29263
29263
29415
29415
29415
29415
29372
29372
29372
29285
29285
29285
29394
29394
29394
29219
29219
29219
29459
29459
29459
29459
29459
29459
29459
29306
29306
29306
29394
29394
29394
29241
29241
29241
29415
29415
29415
29415
29394
29394
29394
29328
29328
29328
29328
29328
29328
29285
29285
29285
29459
29459
29459
29459
29372
29372
29372
29306
29306
29306
29394
29394
29394
29306
29306
29306
29350
29350
29350
29350
29372
29372
29372
29306
29306
29306
29372
29372
29372
29285
29285
29285
29415
29415
29415
29415
29306
29306
29306
29219
29219
29219
29372
29372
29372
29372
29372
29372
29372
29372
29372
29372
29372
29372
29372
29263
29263
29263
29415
29415
29415
29241
29241
29241
29415
29415
29415
29415
29372
29372
29372
29328
29328
29328
29372
29372
29372
29306
29306
29306
29437
29437
29437
29437
29372
29372
29372
29350
29350
29350
29394
29394
29394
29285
29285
29285
29394
29394
29394
29394
29372
29372
29372
29328
29328
29328
29415
29415
29415
29285
29285
29285
29394
29394
29394
29394
29437
29437
29437
29306
29306
29306
29372
29372
29372
29306
29306
29306
29415
29415
29415
29415
29350
29350
29350
29328
29328
29328
29415
29415
29415
29197
29197
29197
29415
29415
29415
29415
29372
29372
29372
29328
29328
29328
29394
29394
29394
29285
29285
29285
29372
29372
29372
29372
29415
29415
29415
29219
29219
29219
29394
29394
29394
29263
29263
29263
29350
29350
29350
29350
29437
29437
29437
29306
29306
29306
29350
29350
29350
29350
29350
29350
29394
29394
29394
29394
29350
29350
29350
29263
29263
29263
29415
29415
29415
29306
29306
29306
29415
29415
29415
29415
29328
29328
29328
29328
29328
29328
29481
29481
29481
29241
29241
29241
29372
29372
29372
29372
29394
29394
29394
29241
29241
29241
29415
29415
29415
29306
29306
29306
29328
29328
29328
29328
29372
29372
29372
29241
29241
29241
29394
29394
29394
29219
29219
29219
29350
29350
29350
29350
29415
29415
29415
29285
29285
29285
29415
29415
29415
29285
29285
29285
29372
29372
29372
29372
29372
29372
29372
29306
29306
29306
29481
29481
29481
29306
29306
29306
29306
29306
29306
29306
29350
29350
29350
29285
29285
29285
29372
29372
29372
29372
29372
29372
29415
29415
29415
29415
29372
29372
29372
29285
29285
29285
29394
29394
29394
29328
29328
29328
29481
29481
29481
29481
29437
29437
29437
29306
29306
29306
29350
29350
29350
29328
29328
29328
29415
29415
29415
29415
29328
29328
29328
29306
29306
29306
29415
29415
29415
29285
29285
29285
29415
29415
29415
29415
29459
29459
29459
29263
29263
29263
29350
29350
29350
29263
29263
29263
29394
29394
29394
29394
29415
29415
29415
29372
29372
29372
29372
29372
29372
29285
29285
29285
29372
29372
29372
29372
29415
29415
29415
29263
29263
29263
29437
29437
29437
29350
29350
29350
29372
29372
29372
29372
29394
29394
29394
29306
29306
29306
29394
29394
29394
29285
29285
29285
29394
29394
29394
29394
29350
29350
29350
29328
29328
29328
29481
29481
29481
29285
29285
29285
29372
29372
29372
29372
29350
29350
29350
29306
29306
29306
29372
29372
29372
29285
29285
29285
29415
29415
29415
29415
29437
29437
29437
29285
29285
29285
29415
29415
29415
29328
29328
29328
29394
29394
29394
29394
29459
29459
29459
29285
29285
29285
29415
29415
29415
29219
29219
29219
29459
29459
29459
29459
29394
29394
29394
29306
29306
29306
29524
29524
29524
29328
29328
29328
29394
29394
29394
29394
29437
29437
29437
29285
29285
29285
29394
29394
29394
29285
29285
29285
29546
29546
29546
29546
29394
29394
29394
29306
29306
29306
29372
29372
29372
29263
29263
29263
29372
29372
29372
29372
29437
29437
29437
29306
29306
29306
29394
29394
29394
29285
29285
29285
29459
29459
29459
29459
29437
29437
29437
29263
29263
29263
29415
29415
29415
29197
29197
29197
29394
29394
29394
29394
29394
29394
29394
29285
29285
29285
29481
29481
29481
29241
29241
29241
29394
29394
29394
29394
29394
29394
29394
29306
29306
29306
29372
29372
29372
29285
29285
29285
29350
29350
29350
29350
29437
29437
29437
29328
29328
29328
29394
29394
29394
29263
29263
29263
29394
29394
29394
29394
29459
29459
29459
29219
29219
29219
29350
29350
29350
29306
29306
29306
29394
29394
29394
29394
29394
29394
29394
29285
29285
29285
29415
29415
29415
29285
29285
29285
29394
29394
29394
29394
29350
29350
29350
29285
29285
29285
29394
29394
29394
29306
29306
29306
29394
29394
29394
29394
29394
29394
29394
29328
29328
29328
29372
29372
29372
29306
29306
29306
29394
29394
29394
29394
29415
29415
29415
29372
29372
29372
29372
29372
29372
29306
29306
29306
29415
29415
29415
29415
29415
29415
29415
29306
29306
29306
29415
29415
29415
29285
29285
29285
29415
29415
29415
29415
29372
29372
29372
29394
29394
29394
29415
29415
29415
29285
29285
29285
29415
29415
29415
29415
29415
29415
29415
29263
29263
29263
29415
29415
29415
29372
29372
29372
29437
29437
29437
29437
29372
29372
29372
29350
29350
29350
29415
29415
29415
29285
29285
29285
29372
29372
29372
29372
29372
29372
29372
29328
29328
29328
29415
29415
29415
29219
29219
29219
29350
29350
29350
29350
29394
29394
29394
29306
29306
29306
29459
29459
29459
29328
29328
29328
29415
29415
29415
29415
29394
29394
29394
29263
29263
29263
29415
29415
29415
29285
29285
29285
29546
29546
29546
29546
29372
29372
29372
29350
29350
29350
29437
29437
29437
29219
29219
29219
29459
29459
29459
29459
29372
29372
29372
29328
29328
29328
29415
29415
29415
29350
29350
29350
29372
29372
29372
29372
29350
29350
29350
29285
29285
29285
29394
29394
29394
29263
29263
29263
29394
29394
29394
29394
29394
29394
29394
29263
29263
29263
29437
29437
29437
29328
29328
29328
29394
29394
29394
29394
29241
29241
29241
29350
29350
29350
29459
29459
29459
29306
29306
29306
29394
29394
29394
29394
29372
29372
29372
29285
29285
29285
29415
29415
29415
29219
29219
29219
29350
29350
29350
29350
29372
29372
29372
29241
29241
29241
29503
29503
29503
29197
29197
29197
29437
29437
29437
29437
29372
29372
29372
29263
29263
29263
29459
29459
29459
29263
29263
29263
29350
29350
29350
29350
29394
29394
29394
29285
29285
29285
29459
29459
29459
29306
29306
29306
29350
29350
29350
29350
29394
29394
29394
29219
29219
29219
29394
29394
29394
29263
29263
29263
29415
29415
29415
29415
29285
29285
29285
29328
29328
29328
29394
29394
29394
29263
29263
29263
29372
29372
29372
29372
29372
29372
29372
29285
29285
29285
29350
29350
29350
29306
29306
29306
29328
29328
29328
29328
29372
29372
29372
29241
29241
29241
29372
29372
29372
29328
29328
29328
29415
29415
29415
29415
29394
29394
29394
29263
29263
29263
29394
29394
29394
29263
29263
29263
29415
29415
29415
29415
29372
29372
29372
29176
29176
29176
29415
29415
29415
29263
29263
29263
29437
29437
29437
29437
29459
29459
29459
29285
29285
29285
29350
29350
29350
29285
29285
29285
29372
29372
29372
29372
29394
29394
29394
29328
29328
29328
29437
29437
29437
29306
29306
29306
29328
29328
29328
29328
29394
29394
29394
29263
29263
29263
29350
29350
29350
29263
29263
29263
29394
29394
29394
29394
29437
29437
29437
29372
29372
29372
29394
29394
29394
29328
29328
29328
29350
29350
29350
29350
29437
29437
29437
29350
29350
29350
29394
29394
29394
29285
29285
29285
29394
29394
29394
29394
29350
29350
29350
29263
29263
29263
29394
29394
29394
29372
29372
29372
29350
29350
29350
29350
29394
29394
29394
29328
29328
29328
29328
29328
29328
29285
29285
29285
29415
29415
29415
29415
29372
29372
29372
29306
29306
29306
29241
29241
29241
29285
29285
29285
29437
29437
29437
29437
29394
29394
29394
29415
29415
29415
29415
29415
29415
29285
29285
29285
29372
29372
29372
29372
29372
29372
29372
29285
29285
29285
29437
29437
29437
29285
29285
29285
29372
29372
29372
29372
29415
29415
29415
29285
29285
29285
29415
29415
29415
29306
29306
29306
29394
29394
29394
29394
29415
29415
29415
29306
29306
29306
29306
29306
29306
29285
29285
29285
29437
29437
29437
29437
29372
29372
29372
29306
29306
29306
29437
29437
29437
29263
29263
29263
29459
29459
29459
29459
29459
29459
29459
29285
29285
29285
29394
29394
29394
29241
29241
29241
29459
29459
29459
29459
29394
29394
29394
29285
29285
29285
29328
29328
29328
29372
29372
29372
29415
29415
29415
29415
29437
29437
29437
29328
29328
29328
29415
29415
29415
29197
29197
29197
29437
29437
29437
29437
29394
29394
29394
29285
29285
29285
29459
29459
29459
29306
29306
29306
29394
29394
29394
29394
29394
29394
29394
29306
29306
29306
29437
29437
29437
29285
29285
29285
29394
29394
29394
29394
29328
29328
29328
29328
29328
29328
29415
29415
29415
29263
29263
29263
29394
29394
29394
29394
29350
29350
29350
29285
29285
29285
29503
29503
29503
29241
29241
29241
29394
29394
29394
29394
29394
29394
29394
29328
29328
29328
29350
29350
29350
29350
29350
29350
29394
29394
29394
29394
29372
29372
29372
29197
29197
29197
29437
29437
29437
29285
29285
29285
29481
29481
29481
29481
29459
29459
29459
29241
29241
29241
29394
29394
29394
29197
29197
29197
29394
29394
29394
29394
29285
29285
29285
29350
29350
29350
29415
29415
29415
29306
29306
29306
29372
29372
29372
29372
29415
29415
29415
29328
29328
29328
29372
29372
29372
29263
29263
29263
29415
29415
29415
29415
29437
29437
29437
29285
29285
29285
29394
29394
29394
29285
29285
29285
29394
29394
29394
29394
29350
29350
29350
29328
29328
29328
29350
29350
29350
29306
29306
29306
29415
29415
29415
29415
29459
29459
29459
29263
29263
29263
29394
29394
29394
29306
29306
29306
29394
29394
29394
29394
29394
29394
29394
29219
29219
29219
29394
29394
29394
29328
29328
29328
29350
29350
29350
29350
29394
29394
29394
29285
29285
29285
29394
29394
29394
29263
29263
29263
29415
29415
29415
29415
29394
29394
29394
29285
29285
29285
29415
29415
29415
29306
29306
29306
29415
29415
29415
29415
29350
29350
29350
29285
29285
29285
29372
29372
29372
29263
29263
29263
29350
29350
29350
29350
29263
29263
29263
29306
29306
29306
29372
29372
29372
29263
29263
29263
29372
29372
29372
29372
29394
29394
29394
29350
29350
29350
29394
29394
29394
29285
29285
29285
29350
29350
29350
29350
29350
29350
29350
29263
29263
29263
29437
29437
29437
29219
29219
29219
29437
29437
29437
29437
29415
29415
29415
29241
29241
29241
29350
29350
29350
29306
29306
29306
29394
29394
29394
29394
29372
29372
29372
29306
29306
29306
29415
29415
29415
29285
29285
29285
29394
29394
29394
29394
29372
29372
29372
29285
29285
29285
29328
29328
29328
29263
29263
29263
29394
29394
29394
29394
29394
29394
29394
29285
29285
29285
29306
29306
29306
29241
29241
29241
29415
29415
29415
29415
29328
29328
29328
29176
29176
29176
29350
29350
29350
29197
29197
29197
29394
29394
29394
29394
29394
29394
29394
29241
29241
29241
29415
29415
29415
29306
29306
29306
29394
29394
29394
29394
29459
29459
29459
29241
29241
29241
29415
29415
29415
29285
29285
29285
29437
29437
29437
29437
29415
29415
29415
29285
29285
29285
29394
29394
29394
29263
29263
29263
29372
29372
29372
29372
29481
29481
29481
29285
29285
29285
29437
29437
29437
29263
29263
29263
29437
29437
29437
29437
29394
29394
29394
29263
29263
29263
29394
29394
29394
29372
29372
29372
29481
29481
29481
29481
29372
29372
29372
29285
29285
29285
29350
29350
29350
29219
29219
29219
29372
29372
29372
29372
29394
29394
29394
29241
29241
29241
29372
29372
29372
29306
29306
29306
29415
29415
29415
29415
29437
29437
29437
29306
29306
29306
29437
29437
29437
29372
29372
29372
29372
29372
29372
29372
29394
29394
29394
29219
29219
29219
29394
29394
29394
29285
29285
29285
29437
29437
29437
29437
29459
29459
29459
29263
29263
29263
29350
29350
29350
29306
29306
29306
29350
29350
29350
29350
29503
29503
29503
29306
29306
29306
29415
29415
29415
29285
29285
29285
29350
29350
29350
29350
29481
29481
29481
29285
29285
29285
29481
29481
29481
29241
29241
29241
29437
29437
29437
29437
29328
29328
29328
29219
29219
29219
29437
29437
29437
29328
29328
29328
29394
29394
29394
29394
29394
29394
29394
29263
29263
29263
29415
29415
29415
29285
29285
29285
29437
29437
29437
29437
29437
29437
29437
29263
29263
29263
29394
29394
29394
29328
29328
29328
29394
29394
29394
29394
29328
29328
29328
29285
29285
29285
29524
29524
29524
29263
29263
29263
29372
29372
29372
29372
29394
29394
29394
29328
29328
29328
29394
29394
29394
29263
29263
29263
29437
29437
29437
29437
29394
29394
29394
29241
29241
29241
29372
29372
29372
29328
29328
29328
29328
29328
29328
29328
29437
29437
29437
29263
29263
29263
29328
29328
29328
29241
29241
29241
29437
29437
29437
29437
29350
29350
29350
29350
29350
29350
29415
29415
29415
29328
29328
29328
29415
29415
29415
29415
29437
29437
29437
29306
29306
29306
29437
29437
29437
29285
29285
29285
29415
29415
29415
29415
29459
29459
29459
29285
29285
29285
29503
29503
29503
29285
29285
29285
29241
29241
29241
29241
29394
29394
29394
29328
29328
29328
29372
29372
29372
29263
29263
29263
29394
29394
29394
29394
29372
29372
29372
29306
29306
29306
29372
29372
29372
29285
29285
29285
29394
29394
29394
29394
29415
29415
29415
29328
29328
29328
29372
29372
29372
29285
29285
29285
29350
29350
29350
29350
29415
29415
29415
29285
29285
29285
29372
29372
29372
29219
29219
29219
29459
29459
29459
29459
29372
29372
29372
29176
29176
29176
29372
29372
29372
29306
29306
29306
29481
29481
29481
29481
29328
29328
29328
29306
29306
29306
29415
29415
29415
29241
29241
29241
29437
29437
29437
29437
29415
29415
29415
29263
29263
29263
29437
29437
29437
29241
29241
29241
29394
29394
29394
29394
29394
29394
29394
29285
29285
29285
29372
29372
29372
29328
29328
29328
29394
29394
29394
29394
29415
29415
29415
29350
29350
29350
29415
29415
29415
29263
29263
29263
29350
29350
29350
29350
29394
29394
29394
29197
29197
29197
29415
29415
29415
29328
29328
29328
29394
29394
29394
29394
29372
29372
29372
29306
29306
29306
29481
29481
29481
29285
29285
29285
29415
29415
29415
29415
29394
29394
29394
29328
29328
29328
29394
29394
29394
29263
29263
29263
29394
29394
29394
29394
29394
29394
29394
29328
29328
29328
29372
29372
29372
29263
29263
29263
29437
29437
29437
29437
29437
29437
29437
29263
29263
29263
29394
29394
29394
29328
29328
29328
29415
29415
29415
29415
29394
29394
29394
29415
29415
29415
29350
29350
29350
29285
29285
29285
29394
29394
29394
29394
29328
29328
29328
29350
29350
29350
29415
29415
29415
29285
29285
29285
29415
29415
29415
29415
29372
29372
29372
29328
29328
29328
29372
29372
29372
29306
29306
29306
29372
29372
29372
29372
29372
29372
29372
29306
29306
29306
29328
29328
29328
29263
29263
29263
29394
29394
29394
29394
29415
29415
29415
29263
29263
29263
29415
29415
29415
29306
29306
29306
29415
29415
29415
29415
29394
29394
29394
29285
29285
29285
29394
29394
29394
29285
29285
29285
29328
29328
29328
29328
29328
29328
29328
29263
29263
29263
29394
29394
29394
29241
29241
29241
29350
29350
29350
29350
29372
29372
29372
29306
29306
29306
29437
29437
29437
29285
29285
29285
29394
29394
29394
29394
29394
29394
29394
29285
29285
29285
29394
29394
29394
29263
29263
29263
29372
29372
29372
29372
29394
29394
29394
29285
29285
29285
29437
29437
29437
29328
29328
29328
29415
29415
29415
29415
29415
29415
29415
29285
29285
29285
29372
29372
29372
29219
29219
29219
29415
29415
29415
29415
29437
29437
29437
29285
29285
29285
29328
29328
29328
29328
29328
29328
29481
29481
29481
29481
29350
29350
29350
29285
29285
29285
29415
29415
29415
29263
29263
29263
29415
29415
29415
29415
29372
29372
29372
29306
29306
29306
29459
29459
29459
29263
29263
29263
29372
29372
29372
29372
29350
29350
29350
29306
29306
29306
29372
29372
29372
29306
29306
29306
29437
29437
29437
29437
29350
29350
29350
29306
29306
29306
29415
29415
29415
29306
29306
29306
29415
29415
29415
29415
29350
29350
29350
29328
29328
29328
29415
29415
29415
29306
29306
29306
29415
29415
29415
29415
29372
29372
29372
29306
29306
29306
29350
29350
29350
29263
29263
29263
29415
29415
29415
29415
29415
29415
29415
29306
29306
29306
29481
29481
29481
29263
29263
29263
29415
29415
29415
29415
29394
29394
29394
29415
29415
29415
29415
29415
29415
29263
29263
29263
29546
29546
29546
29546
29350
29350
29350
29263
29263
29263
29415
29415
29415
29263
29263
29263
29372
29372
29372
29372
29372
29372
29372
29328
29328
29328
29481
29481
29481
29285
29285
29285
29372
29372
29372
29372
29372
29372
29372
29306
29306
29306
29481
29481
29481
29263
29263
29263
29372
29372
29372
29372
29350
29350
29350
29306
29306
29306
29459
29459
29459
29285
29285
29285
29437
29437
29437
29437
29415
29415
29415
29241
29241
29241
29394
29394
29394
29285
29285
29285
29415
29415
29415
29415
29415
29415
29415
29306
29306
29306
29372
29372
29372
29306
29306
29306
29415
29415
29415
29415
29350
29350
29350
29285
29285
29285
29372
29372
29372
29263
29263
29263
29415
29415
29415
29415
29415
29415
29415
29394
29394
29394
29437
29437
29437
29285
29285
29285
29481
29481
29481
29481
29437
29437
29437
29285
29285
29285
29394
29394
29394
29219
29219
29219
29415
29415
29415
29415
29394
29394
29394
29306
29306
29306
29437
29437
29437
29263
29263
29263
29459
29459
29459
29459
29306
29306
29306
29263
29263
29263
29394
29394
29394
29394
29394
29394
29459
29459
29459
29459
29437
29437
29437
29306
29306
29306
29372
29372
29372
29263
29263
29263
29394
29394
29394
29394
29415
29415
29415
29328
29328
29328
29437
29437
29437
29285
29285
29285
29394
29394
29394
29394
29394
29394
29394
29285
29285
29285
29415
29415
29415
29219
29219
29219
29372
29372
29372
29372
29415
29415
29415
29154
29154
29154
29459
29459
29459
29263
29263
29263
29437
29437
29437
29437
29415
29415
29415
29285
29285
29285
29437
29437
29437
29328
29328
29328
29459
29459
29459
29459
29415
29415
29415
29306
29306
29306
29328
29328
29328
29372
29372
29372
29394
29394
29394
29394
29459
29459
29459
29306
29306
29306
29415
29415
29415
29219
29219
29219
29415
29415
29415
29415
29328
29328
29328
29197
29197
29197
29394
29394
29394
29306
29306
29306
29459
29459
29459
29459
29328
29328
29328
29350
29350
29350
29481
29481
29481
29263
29263
29263
29437
29437
29437
29437
29394
29394
29394
29263
29263
29263
29394
29394
29394
29263
29263
29263
29394
29394
29394
29394
29394
29394
29394
29328
29328
29328
29350
29350
29350
29328
29328
29328
29394
29394
29394
29394
29372
29372
29372
29197
29197
29197
29394
29394
29394
29306
29306
29306
29372
29372
29372
29372
29394
29394
29394
29328
29328
29328
29394
29394
29394
29306
29306
29306
29350
29350
29350
29350
29394
29394
29394
29285
29285
29285
29394
29394
29394
29306
29306
29306
29394
29394
29394
29394
29394
29394
29394
29285
29285
29285
29415
29415
29415
29306
29306
29306
29394
29394
29394
29394
29328
29328
29328
29306
29306
29306
29372
29372
29372
29219
29219
29219
29306
29306
29306
29306
29350
29350
29350
29263
29263
29263
29394
29394
29394
29306
29306
29306
29394
29394
29394
29394
29350
29350
29350
29306
29306
29306
29437
29437
29437
29328
29328
29328
29372
29372
29372
29372
29350
29350
29350
29263
29263
29263
29415
29415
29415
29285
29285
29285
29437
29437
29437
29437
29394
29394
29394
29285
29285
29285
29372
29372
29372
29285
29285
29285
29350
29350
29350
29350
29372
29372
29372
29350
29350
29350
29394
29394
29394
29306
29306
29306
29394
29394
29394
29394
29372
29372
29372
29328
29328
29328
29437
29437
29437
29350
29350
29350
29394
29394
29394
29394
29394
29394
29394
29285
29285
29285
29350
29350
29350
29285
29285
29285
29415
29415
29415
29415
29437
29437
29437
29306
29306
29306
29372
29372
29372
29197
29197
29197
29394
29394
29394
29394
29350
29350
29350
29306
29306
29306
29459
29459
29459
29263
29263
29263
29372
29372
29372
29372
29394
29394
29394
29306
29306
29306
29350
29350
29350
29328
29328
29328
29372
29372
29372
29372
29328
29328
29328
29001
29001
29001
29350
29350
29350
29219
29219
29219
29415
29415
29415
29415
29415
29415
29415
29306
29306
29306
29415
29415
29415
29263
29263
29263
29459
29459
29459
29459
29394
29394
29394
29263
29263
29263
29372
29372
29372
29328
29328
29328
29372
29372
29372
29372
29394
29394
29394
29372
29372
29372
29306
29306
29306
29263
29263
29263
29372
29372
29372
29372
29372
29372
29372
29372
29372
29372
29437
29437
29437
29306
29306
29306
29437
29437
29437
29437
29415
29415
29415
29306
29306
29306
29415
29415
29415
29176
29176
29176
29415
29415
29415
29415
29394
29394
29394
29285
29285
29285
29415
29415
29415
29285
29285
29285
29394
29394
29394
29394
29394
29394
29394
29285
29285
29285
29415
29415
29415
29263
29263
29263
29481
29481
29481
29481
29459
29459
29459
29350
29350
29350
29415
29415
29415
29241
29241
29241
29437
29437
29437
29437
29372
29372
29372
29350
29350
29350
29372
29372
29372
29263
29263
29263
29394
29394
29394
29394
29415
29415
29415
29306
29306
29306
29372
29372
29372
29263
29263
29263
29437
29437
29437
29437
29415
29415
29415
29306
29306
29306
29372
29372
29372
29263
29263
29263
29415
29415
29415
29415
29415
29415
29415
29328
29328
29328
29394
29394
29394
29285
29285
29285
29394
29394
29394
29394
29415
29415
29415
29306
29306
29306
29415
29415
29415
29263
29263
29263
29328
29328
29328
29328
29350
29350
29350
29285
29285
29285
29350
29350
29350
29350
29350
29350
29394
29394
29394
29394
29415
29415
29415
29306
29306
29306
29394
29394
29394
29328
29328
29328
29394
29394
29394
29394
29306
29306
29306
29241
29241
29241
29394
29394
29394
29241
29241
29241
29306
29306
29306
29306
29350
29350
29350
29285
29285
29285
29415
29415
29415
29306
29306
29306
29350
29350
29350
29350
29350
29350
29350
29328
29328
29328
29372
29372
29372
29241
29241
29241
29394
29394
29394
29394
29394
29394
29394
29285
29285
29285
29350
29350
29350
29241
29241
29241
29415
29415
29415
29415
29415
29415
29415
29328
29328
29328
29285
29285
29285
29285
29285
29285
29415
29415
29415
29415
29415
29415
29415
29285
29285
29285
29372
29372
29372
29263
29263
29263
29372
29372
29372
29372
29459
29459
29459
29306
29306
29306
29394
29394
29394
29241
29241
29241
29394
29394
29394
29394
29372
29372
29372
29285
29285
29285
29372
29372
29372
29306
29306
29306
29394
29394
29394
29394
29394
29394
29394
29328
29328
29328
29415
29415
29415
29263
29263
29263
29415
29415
29415
29415
29394
29394
29394
29350
29350
29350
29394
29394
29394
29285
29285
29285
29415
29415
29415
29415
29437
29437
29437
29306
29306
29306
29372
29372
29372
29328
29328
29328
29415
29415
29415
29415
29372
29372
29372
29285
29285
29285
29437
29437
29437
29350
29350
29350
29394
29394
29394
29394
29372
29372
29372
29350
29350
29350
29459
29459
29459
29285
29285
29285
29437
29437
29437
29437
29415
29415
29415
29241
29241
29241
29481
29481
29481
29219
29219
29219
29394
29394
29394
29394
29372
29372
29372
29241
29241
29241
29459
29459
29459
29328
29328
29328
29372
29372
29372
29372
29241
29241
29241
29285
29285
29285
29459
29459
29459
29328
29328
29328
29415
29415
29415
29415
29394
29394
29394
29350
29350
29350
29350
29350
29350
29285
29285
29285
29394
29394
29394
29394
29372
29372
29372
29306
29306
29306
29350
29350
29350
29328
29328
29328
29415
29415
29415
29415
29415
29415
29415
29110
29110
29110
29372
29372
29372
29263
29263
29263
29350
29350
29350
29350
29394
29394
29394
29241
29241
29241
29459
29459
29459
29328
29328
29328
29394
29394
29394
29394
29459
29459
29459
29285
29285
29285
29415
29415
29415
29263
29263
29263
29394
29394
29394
29394
29459
29459
29459
29241
29241
29241
29481
29481
29481
29306
29306
29306
29415
29415
29415
29415
29372
29372
29372
29306
29306
29306
29350
29350
29350
29285
29285
29285
29459
29459
29459
29459
29394
29394
29394
29328
29328
29328
29503
29503
29503
29263
29263
29263
29481
29481
29481
29481
29394
29394
29394
29328
29328
29328
29394
29394
29394
29328
29328
29328
29437
29437
29437
29437
29372
29372
29372
29263
29263
29263
29437
29437
29437
29285
29285
29285
29415
29415
29415
29415
29415
29415
29415
29285
29285
29285
29415
29415
29415
29285
29285
29285
29350
29350
29350
29350
29372
29372
29372
29263
29263
29263
29415
29415
29415
29306
29306
29306
29263
29263
29263
29263
29459
29459
29459
29350
29350
29350
29394
29394
29394
29328
29328
29328
29459
29459
29459
29459
29415
29415
29415
29285
29285
29285
29415
29415
29415
29241
29241
29241
29437
29437
29437
29437
29394
29394
29394
29328
29328
29328
29415
29415
29415
29285
29285
29285
29437
29437
29437
29437
29415
29415
29415
29263
29263
29263
29372
29372
29372
29328
29328
29328
29372
29372
29372
29372
29350
29350
29350
29350
29350
29350
29415
29415
29415
29263
29263
29263
29415
29415
29415
29415
29394
29394
29394
29285
29285
29285
29437
29437
29437
29285
29285
29285
29372
29372
29372
29372
29328
29328
29328
29285
29285
29285
29372
29372
29372
29328
29328
29328
29437
29437
29437
29437
29394
29394
29394
29350
29350
29350
29394
29394
29394
29328
29328
29328
29415
29415
29415
29415
29372
29372
29372
29328
29328
29328
29415
29415
29415
29285
29285
29285
29415
29415
29415
29415
29415
29415
29415
29263
29263
29263
29394
29394
29394
29306
29306
29306
29415
29415
29415
29415
29372
29372
29372
29306
29306
29306
29372
29372
29372
29219
29219
29219
29372
29372
29372
29372
29328
29328
29328
29263
29263
29263
29285
29285
29285
29394
29394
29394
29415
29415
29415
29415
29394
29394
29394
29241
29241
29241
29372
29372
29372
29306
29306
29306
29415
29415
29415
29415
29306
29306
29306
29350
29350
29350
29394
29394
29394
29285
29285
29285
29328
29328
29328
29328
29394
29394
29394
29306
29306
29306
29394
29394
29394
29328
29328
29328
29394
29394
29394
29394
29415
29415
29415
29263
29263
29263
29372
29372
29372
29241
29241
29241
29459
29459
29459
29459
29372
29372
29372
29263
29263
29263
29437
29437
29437
29241
29241
29241
29437
29437
29437
29437
29350
29350
29350
29219
29219
29219
29459
29459
29459
29285
29285
29285
29503
29503
29503
29503
29437
29437
29437
29263
29263
29263
29372
29372
29372
29328
29328
29328
29481
29481
29481
29481
29437
29437
29437
29285
29285
29285
29372
29372
29372
29197
29197
29197
29415
29415
29415
29415
29415
29415
29415
29306
29306
29306
29459
29459
29459
29263
29263
29263
29394
29394
29394
29394
29415
29415
29415
29285
29285
29285
29394
29394
29394
29306
29306
29306
29394
29394
29394
29394
29459
29459
29459
29372
29372
29372
29372
29372
29372
29285
29285
29285
29306
29306
29306
29306
29372
29372
29372
29328
29328
29328
29415
29415
29415
29306
29306
29306
29372
29372
29372
29372
29394
29394
29394
29328
29328
29328
29415
29415
29415
29285
29285
29285
29437
29437
29437
29437
29350
29350
29350
29285
29285
29285
29394
29394
29394
29263
29263
29263
29394
29394
29394
29394
29394
29394
29394
29372
29372
29372
29415
29415
29415
29306
29306
29306
29394
29394
29394
29394
29394
29394
29394
29350
29350
29350
29437
29437
29437
29241
29241
29241
29437
29437
29437
29437
29285
29285
29285
29306
29306
29306
29415
29415
29415
29306
29306
29306
29328
29328
29328
29328
29372
29372
29372
29306
29306
29306
29372
29372
29372
29263
29263
29263
29372
29372
29372
29372
29372
29372
29372
29285
29285
29285
29350
29350
29350
29306
29306
29306
29437
29437
29437
29437
29415
29415
29415
29415
29415
29415
29415
29415
29415
29285
29285
29285
29415
29415
29415
29415
29350
29350
29350
29328
29328
29328
29394
29394
29394
29372
29372
29372
29394
29394
29394
29394
29372
29372
29372
29328
29328
29328
29437
29437
29437
29263
29263
29263
29394
29394
29394
29394
29415
29415
29415
29306
29306
29306
29372
29372
29372
29241
29241
29241
29372
29372
29372
29372
29612
29612
29612
29306
29306
29306
29459
29459
29459
29306
29306
29306
29437
29437
29437
29437
29394
29394
29394
29241
29241
29241
29415
29415
29415
29285
29285
29285
29459
29459
29459
29459
29372
29372
29372
29328
29328
29328
29415
29415
29415
29328
29328
29328
29415
29415
29415
29415
29372
29372
29372
29263
29263
29263
29394
29394
29394
29328
29328
29328
29372
29372
29372
29372
29394
29394
29394
29350
29350
29350
29394
29394
29394
29328
29328
29328
29437
29437
29437
29437
29372
29372
29372
29241
29241
29241
29394
29394
29394
29306
29306
29306
29459
29459
29459
29459
29350
29350
29350
29372
29372
29372
29394
29394
29394
29285
29285
29285
29394
29394
29394
29394
29394
29394
29394
29285
29285
29285
29372
29372
29372
29306
29306
29306
29415
29415
29415
29415
29350
29350
29350
29306
29306
29306
29394
29394
29394
29285
29285
29285
29415
29415
29415
29415
29415
29415
29415
29328
29328
29328
29437
29437
29437
29306
29306
29306
29372
29372
29372
29372
29415
29415
29415
29263
29263
29263
29394
29394
29394
29285
29285
29285
29459
29459
29459
29459
29328
29328
29328
29285
29285
29285
29350
29350
29350
29285
29285
29285
29394
29394
29394
29394
29372
29372
29372
29350
29350
29350
29415
29415
29415
29263
29263
29263
29350
29350
29350
29350
29394
29394
29394
29285
29285
29285
29394
29394
29394
29285
29285
29285
29415
29415
29415
29415
29415
29415
29415
29263
29263
29263
29415
29415
29415
29285
29285
29285
29394
29394
29394
29394
29394
29394
29394
29328
29328
29328
29394
29394
29394
29285
29285
29285
29394
29394
29394
29394
29459
29459
29459
29285
29285
29285
29394
29394
29394
29132
29132
29132
29394
29394
29394
29394
29372
29372
29372
29285
29285
29285
29372
29372
29372
29350
29350
29350
29372
29372
29372
29372
29306
29306
29306
29306
29306
29306
29372
29372
29372
29176
29176
29176
29415
29415
29415
29415
29415
29415
29415
29306
29306
29306
29372
29372
29372
29285
29285
29285
29481
29481
29481
29481
29372
29372
29372
29285
29285
29285
29350
29350
29350
29263
29263
29263
29372
29372
29372
29372
29394
29394
29394
29263
29263
29263
29350
29350
29350
29306
29306
29306
29372
29372
29372
29372
29394
29394
29394
29306
29306
29306
29394
29394
29394
29350
29350
29350
29394
29394
29394
29394
29394
29394
29394
29306
29306
29306
29437
29437
29437
29503
29503
29503
29437
29437
29437
29437
29394
29394
29394
29328
29328
29328
29437
29437
29437
29241
29241
29241
29394
29394
29394
29394
29394
29394
29394
29263
29263
29263
29415
29415
29415
29285
29285
29285
29437
29437
29437
29437
29372
29372
29372
29306
29306
29306
29328
29328
29328
29241
29241
29241
29394
29394
29394
29394
29372
29372
29372
29394
29394
29394
29394
29394
29394
29285
29285
29285
29328
29328
29328
29328
29394
29394
29394
29285
29285
29285
29372
29372
29372
29241
29241
29241
29328
29328
29328
29328
29415
29415
29415
29328
29328
29328
29394
29394
29394
29285
29285
29285
29415
29415
29415
29415
29328
29328
29328
29350
29350
29350
29328
29328
29328
29306
29306
29306
29394
29394
29394
29394
29372
29372
29372
29197
29197
29197
29415
29415
29415
29241
29241
29241
29437
29437
29437
29437
29350
29350
29350
29285
29285
29285
29415
29415
29415
29306
29306
29306
29372
29372
29372
29372
29503
29503
29503
29241
29241
29241
29394
29394
29394
29285
29285
29285
29394
29394
29394
29394
29372
29372
29372
29328
29328
29328
29459
29459
29459
29306
29306
29306
29372
29372
29372
29372
29437
29437
29437
29372
29372
29372
29415
29415
29415
29306
29306
29306
29372
29372
29372
29372
29481
29481
29481
29372
29372
29372
29394
29394
29394
29285
29285
29285
29459
29459
29459
29459
29415
29415
29415
29372
29372
29372
29415
29415
29415
29306
29306
29306
29328
29328
29328
29328
29350
29350
29350
29263
29263
29263
29394
29394
29394
29328
29328
29328
29415
29415
29415
29415
29415
29415
29415
29306
29306
29306
29415
29415
29415
29285
29285
29285
29394
29394
29394
29394
29481
29481
29481
29285
29285
29285
29415
29415
29415
29350
29350
29350
29328
29328
29328
29328
29372
29372
29372
29263
29263
29263
29350
29350
29350
29241
29241
29241
29415
29415
29415
29415
29415
29415
29415
29306
29306
29306
29372
29372
29372
29241
29241
29241
29459
29459
29459
29459
29350
29350
29350
29350
29350
29350
29437
29437
29437
29241
29241
29241
29372
29372
29372
29372
29394
29394
29394
29285
29285
29285
29415
29415
29415
29350
29350
29350
29415
29415
29415
29415
29372
29372
29372
29306
29306
29306
29372
29372
29372
29306
29306
29306
29350
29350
29350
29350
29415
29415
29415
29306
29306
29306
29415
29415
29415
29241
29241
29241
29350
29350
29350
29350
29415
29415
29415
29306
29306
29306
29372
29372
29372
29306
29306
29306
29415
29415
29415
29415
29459
29459
29459
29328
29328
29328
29350
29350
29350
29328
29328
29328
29394
29394
29394
29394
29306
29306
29306
29328
29328
29328
29328
29328
29328
29263
29263
29263
29437
29437
29437
29437
29415
29415
29415
29328
29328
29328
29372
29372
29372
29263
29263
29263
29503
29503
29503
29503
29372
29372
29372
29306
29306
29306
29415
29415
29415
29328
29328
29328
29415
29415
29415
29415
29306
29306
29306
29306
29306
29306
29394
29394
29394
29328
29328
29328
29415
29415
29415
29415
29415
29415
29415
29306
29306
29306
29328
29328
29328
29241
29241
29241
29394
29394
29394
29394
29394
29394
29394
29394
29394
29394
29350
29350
29350
29306
29306
29306
29394
29394
29394
29394
29328
29328
29328
29285
29285
29285
29394
29394
29394
29328
29328
29328
29394
29394
29394
29394
29437
29437
29437
29306
29306
29306
29415
29415
29415
29197
29197
29197
29372
29372
29372
29372
29459
29459
29459
29285
29285
29285
29437
29437
29437
29263
29263
29263
29415
29415
29415
29415
29415
29415
29415
29241
29241
29241
29394
29394
29394
29285
29285
29285
29350
29350
29350
29350
29306
29306
29306
29285
29285
29285
29437
29437
29437
29350
29350
29350
29394
29394
29394
29394
29372
29372
29372
29306
29306
29306
29350
29350
29350
29241
29241
29241
29372
29372
29372
29372
29372
29372
29372
29263
29263
29263
29328
29328
29328
29285
29285
29285
29459
29459
29459
29459
29350
29350
29350
29328
29328
29328
29415
29415
29415
29350
29350
29350
29372
29372
29372
29372
29437
29437
29437
29285
29285
29285
29372
29372
29372
29328
29328
29328
29394
29394
29394
29394
29394
29394
29394
29350
29350
29350
29394
29394
29394
29263
29263
29263
29394
29394
29394
29394
29394
29394
29394
29306
29306
29306
29394
29394
29394
29263
29263
29263
29372
29372
29372
29372
29394
29394
29394
29350
29350
29350
29394
29394
29394
29241
29241
29241
29415
29415
29415
29415
29415
29415
29415
29328
29328
29328
29415
29415
29415
29285
29285
29285
29394
29394
29394
29394
29415
29415
29415
29328
29328
29328
29394
29394
29394
29306
29306
29306
29372
29372
29372
29372
29372
29372
29372
29394
29394
29394
29394
29394
29394
29285
29285
29285
29372
29372
29372
29372
29415
29415
29415
29241
29241
29241
29394
29394
29394
29219
29219
29219
29459
29459
29459
29459
29437
29437
29437
29285
29285
29285
29459
29459
29459
29328
29328
29328
29372
29372
29372
29372
29350
29350
29350
29306
29306
29306
29372
29372
29372
29263
29263
29263
29415
29415
29415
29415
29394
29394
29394
29176
29176
29176
29394
29394
29394
29263
29263
29263
29437
29437
29437
29437
29372
29372
29372
29306
29306
29306
29415
29415
29415
29306
29306
29306
29350
29350
29350
29350
29394
29394
29394
29306
29306
29306
29415
29415
29415
29306
29306
29306
29415
29415
29415
29415
29415
29415
29415
29350
29350
29350
29372
29372
29372
29285
29285
29285
29372
29372
29372
29372
29415
29415
29415
29263
29263
29263
29372
29372
29372
29241
29241
29241
29415
29415
29415
29415
29350
29350
29350
29306
29306
29306
29328
29328
29328
29306
29306
29306
29394
29394
29394
29394
29415
29415
29415
29263
29263
29263
29415
29415
29415
29263
29263
29263
29394
29394
29394
29394
29372
29372
29372
29328
29328
29328
29394
29394
29394
29285
29285
29285
29415
29415
29415
29415
29306
29306
29306
29306
29306
29306
29415
29415
29415
29372
29372
29372
29394
29394
29394
29394
29372
29372
29372
29372
29372
29372
29437
29437
29437
29306
29306
29306
29394
29394
29394
29394
29394
29394
29394
29328
29328
29328
29306
29306
29306
29372
29372
29372
29481
29481
29481
29481
29459
29459
29459
29197
29197
29197
29328
29328
29328
29306
29306
29306
29394
29394
29394
29394
