2072
2072
2072
2072
2068
2068
2068
2066
2066
2066
2065
2065
2065
2070
2070
2070
2066
2066
2066
2066
2069
2069
2069
2067
2067
2067
2070
2070
2070
2074
2074
2074
2067
2067
2067
2067
2069
2069
2069
2067
2067
2067
2067
2067
2067
2070
2070
2070
2062
2062
2062
2062
2068
2068
2068
2071
2071
2071
2069
2069
2069
2066
2066
2066
2067
2067
2067
2067
2067
2067
2067
2070
2070
2070
2070
2070
2070
2071
2071
2071
2073
2073
2073
2073
2072
2072
2072
2074
2074
2074
2071
2071
2071
2070
2070
2070
2068
2068
2068
2068
2065
2065
2065
2064
2064
2064
2073
2073
2073
2069
2069
2069
2069
2069
2069
2069
2074
2074
2074
2071
2071
2071
2068
2068
2068
2069
2069
2069
2070
2070
2070
2070
2067
2067
2067
2066
2066
2066
2068
2068
2068
2070
2070
2070
2072
2072
2072
2072
2074
2074
2074
2071
2071
2071
2065
2065
2065
2073
2073
2073
2066
2066
2066
2066
2071
2071
2071
2068
2068
2068
2070
2070
2070
2073
2073
2073
2068
2068
2068
2068
2066
2066
2066
2070
2070
2070
2069
2069
2069
2070
2070
2070
2066
2066
2066
2066
2073
2073
2073
2074
2074
2074
2071
2071
2071
2072
2072
2072
2069
2069
2069
2069
2067
2067
2067
2069
2069
2069
2068
2068
2068
2074
2074
2074
2067
2067
2067
2067
2069
2069
2069
2073
2073
2073
2067
2067
2067
2073
2073
2073
2069
2069
2069
2069
2069
2069
2069
2072
2072
2072
2068
2068
2068
2072
2072
2072
2070
2070
2070
2070
2070
2070
2070
2070
2070
2070
2067
2067
2067
2075
2075
2075
2070
2070
2070
2070
2069
2069
2069
2074
2074
2074
2068
2068
2068
2072
2072
2072
2069
2069
2069
2069
2064
2064
2064
2068
2068
2068
2067
2067
2067
2070
2070
2070
2069
2069
2069
2069
2070
2070
2070
2075
2075
2075
2066
2066
2066
2071
2071
2071
2068
2068
2068
2068
2072
2072
2072
2066
2066
2066
2066
2066
2066
2071
2071
2071
2065
2065
2065
2065
2071
2071
2071
2065
2065
2065
2067
2067
2067
2073
2073
2073
2067
2067
2067
2067
2067
2067
2067
2069
2069
2069
2073
2073
2073
2070
2070
2070
2067
2067
2067
2067
2068
2068
2068
2072
2072
2072
2072
2072
2072
2073
2073
2073
2065
2065
2065
2065
2068
2068
2068
2072
2072
2072
2070
2070
2070
2071
2071
2071
2068
2068
2068
2068
2065
2065
2065
2071
2071
2071
2069
2069
2069
2073
2073
2073
2069
2069
2069
2069
2069
2069
2069
2074
2074
2074
2068
2068
2068
2070
2070
2070
2068
2068
2068
2068
2074
2074
2074
2070
2070
2070
2070
2070
2070
2071
2071
2071
2067
2067
2067
2067
2065
2065
2065
2065
2065
2065
2069
2069
2069
2070
2070
2070
2068
2068
2068
2068
2069
2069
2069
2067
2067
2067
2063
2063
2063
2071
2071
2071
2066
2066
2066
2066
2068
2068
2068
2071
2071
2071
2070
2070
2070
2074
2074
2074
2068
2068
2068
2068
2067
2067
2067
2068
2068
2068
2071
2071
2071
2075
2075
2075
2070
2070
2070
2070
2069
2069
2069
2070
2070
2070
2071
2071
2071
2072
2072
2072
2067
2067
2067
2067
2069
2069
2069
2071
2071
2071
2068
2068
2068
2071
2071
2071
2070
2070
2070
2070
2067
2067
2067
2068
2068
2068
2067
2067
2067
2072
2072
2072
2068
2068
2068
2068
2066
2066
2066
2074
2074
2074
2069
2069
2069
2070
2070
2070
2069
2069
2069
2069
2066
2066
2066
2068
2068
2068
2072
2072
2072
2073
2073
2073
2069
2069
2069
2069
2067
2067
2067
2067
2067
2067
2062
2062
2062
2074
2074
2074
2065
2065
2065
2065
2067
2067
2067
2069
2069
2069
2071
2071
2071
2075
2075
2075
2066
2066
2066
2066
2069
2069
2069
2071
2071
2071
2070
2070
2070
2069
2069
2069
2065
2065
2065
2065
2069
2069
2069
2069
2069
2069
2070
2070
2070
2073
2073
2073
2068
2068
2068
2068
2069
2069
2069
2070
2070
2070
2068
2068
2068
2077
2077
2077
2067
2067
2067
2067
2071
2071
2071
2072
2072
2072
2069
2069
2069
2071
2071
2071
2065
2065
2065
2065
2074
2074
2074
2070
2070
2070
2069
2069
2069
2071
2071
2071
2067
2067
2067
2067
2066
2066
2066
2068
2068
2068
2068
2068
2068
2068
2068
2068
2066
2066
2066
2066
2067
2067
2067
2068
2068
2068
2071
2071
2071
2074
2074
2074
2069
2069
2069
2069
2069
2069
2069
2069
2069
2069
2069
2069
2069
2067
2067
2067
2065
2065
2065
2065
2067
2067
2067
2070
2070
2070
2071
2071
2071
2072
2072
2072
2066
2066
2066
2066
2069
2069
2069
2071
2071
2071
2068
2068
2068
2065
2065
2065
2068
2068
2068
2068
2066
2066
2066
2069
2069
2069
2073
2073
2073
2072
2072
2072
2065
2065
2065
2065
2064
2064
2064
2070
2070
2070
2071
2071
2071
2072
2072
2072
2069
2069
2069
2069
2069
2069
2069
2069
2069
2069
2068
2068
2068
2071
2071
2071
2068
2068
2068
2068
2072
2072
2072
2075
2075
2075
2068
2068
2068
2071
2071
2071
2070
2070
2070
2070
2068
2068
2068
2067
2067
2067
2066
2066
2066
2069
2069
2069
2064
2064
2064
2064
2073
2073
2073
2070
2070
2070
2068
2068
2068
2072
2072
2072
2068
2068
2068
2068
2067
2067
2067
2069
2069
2069
2069
2069
2069
2071
2071
2071
2067
2067
2067
2067
2071
2071
2071
2071
2071
2071
2071
2071
2071
2071
2071
2071
2069
2069
2069
2069
2070
2070
2070
2070
2070
2070
2069
2069
2069
2072
2072
2072
2067
2067
2067
2067
2066
2066
2066
2070
2070
2070
2067
2067
2067
2071
2071
2071
2069
2069
2069
2069
2068
2068
2068
2069
2069
2069
2071
2071
2071
2075
2075
2075
2070
2070
2070
2070
2069
2069
2069
2071
2071
2071
2066
2066
2066
2072
2072
2072
2061
2061
2061
2061
2066
2066
2066
2071
2071
2071
2069
2069
2069
2064
2064
2064
2063
2063
2063
2063
2069
2069
2069
2069
2069
2069
2068
2068
2068
2070
2070
2070
2062
2062
2062
2062
2068
2068
2068
2072
2072
2072
2070
2070
2070
2072
2072
2072
2066
2066
2066
2066
2067
2067
2067
2069
2069
2069
2068
2068
2068
2073
2073
2073
2068
2068
2068
2068
2060
2060
2060
2074
2074
2074
2067
2067
2067
2071
2071
2071
2070
2070
2070
2070
2065
2065
2065
2071
2071
2071
2070
2070
2070
2071
2071
2071
2070
2070
2070
2070
2065
2065
2065
2070
2070
2070
2071
2071
2071
2069
2069
2069
2069
2069
2069
2069
2069
2069
2069
2071
2071
2071
2074
2074
2074
2070
2070
2070
2063
2063
2063
2063
2069
2069
2069
2071
2071
2071
2063
2063
2063
2073
2073
2073
2065
2065
2065
2065
2068
2068
2068
2072
2072
2072
2070
2070
2070
2070
2070
2070
2066
2066
2066
2066
2069
2069
2069
2070
2070
2070
2070
2070
2070
2071
2071
2071
2061
2061
2061
2061
2070
2070
2070
2069
2069
2069
2069
2069
2069
2069
2069
2069
2067
2067
2067
2067
2072
2072
2072
2069
2069
2069
2069
2069
2069
2072
2072
2072
2067
2067
2067
2067
2064
2064
2064
2072
2072
2072
2068
2068
2068
2072
2072
2072
2066
2066
2066
2066
2069
2069
2069
2072
2072
2072
2071
2071
2071
2073
2073
2073
2069
2069
2069
2069
2070
2070
2070
2071
2071
2071
2070
2070
2070
2075
2075
2075
2069
2069
2069
2069
2068
2068
2068
2076
2076
2076
2069
2069
2069
2069
2069
2069
2067
2067
2067
2067
2069
2069
2069
2070
2070
2070
2074
2074
2074
2072
2072
2072
2070
2070
2070
2070
2070
2070
2070
2069
2069
2069
2068
2068
2068
2073
2073
2073
2068
2068
2068
2068
2068
2068
2068
2072
2072
2072
2069
2069
2069
2073
2073
2073
2067
2067
2067
2067
2065
2065
2065
2072
2072
2072
2071
2071
2071
2069
2069
2069
2068
2068
2068
2068
2070
2070
2070
2072
2072
2072
2069
2069
2069
2077
2077
2077
2066
2066
2066
2066
2072
2072
2072
2072
2072
2072
2068
2068
2068
2073
2073
2073
2067
2067
2067
2067
2068
2068
2068
2063
2063
2063
2070
2070
2070
2072
2072
2072
2069
2069
2069
2069
2062
2062
2062
2070
2070
2070
2066
2066
2066
2071
2071
2071
2067
2067
2067
2067
2067
2067
2067
2070
2070
2070
2070
2070
2070
2076
2076
2076
2064
2064
2064
2064
2069
2069
2069
2068
2068
2068
2067
2067
2067
2071
2071
2071
2067
2067
2067
2067
2068
2068
2068
2072
2072
2072
2068
2068
2068
2071
2071
2071
2068
2068
2068
2068
2070
2070
2070
2074
2074
2074
2070
2070
2070
2073
2073
2073
2066
2066
2066
2066
2067
2067
2067
2072
2072
2072
2066
2066
2066
2070
2070
2070
2066
2066
2066
2066
2069
2069
2069
2075
2075
2075
2067
2067
2067
2074
2074
2074
2069
2069
2069
2069
2067
2067
2067
2070
2070
2070
2072
2072
2072
2073
2073
2073
2062
2062
2062
2062
2066
2066
2066
2069
2069
2069
2067
2067
2067
2072
2072
2072
2071
2071
2071
2071
2070
2070
2070
2071
2071
2071
2065
2065
2065
2071
2071
2071
2069
2069
2069
2069
2069
2069
2069
2069
2069
2069
2069
2069
2069
2069
2069
2069
2069
2069
2069
2069
2072
2072
2072
2075
2075
2075
2073
2073
2073
2073
2073
2073
2068
2068
2068
2068
2066
2066
2066
2070
2070
2070
2069
2069
2069
2071
2071
2071
2062
2062
2062
2062
2069
2069
2069
2071
2071
2071
2070
2070
2070
2071
2071
2071
2059
2059
2059
2059
2068
2068
2068
2070
2070
2070
2070
2070
2070
2071
2071
2071
2069
2069
2069
2069
2068
2068
2068
2070
2070
2070
2069
2069
2069
2070
2070
2070
2066
2066
2066
2066
2065
2065
2065
2072
2072
2072
2071
2071
2071
2070
2070
2070
2070
2070
2070
2070
2071
2071
2071
2069
2069
2069
2068
2068
2068
2068
2068
2068
2068
2068
2068
2068
2066
2066
2066
2068
2068
2068
2066
2066
2066
2070
2070
2070
2066
2066
2066
2066
2070
2070
2070
2071
2071
2071
2066
2066
2066
2071
2071
2071
2067
2067
2067
2067
2066
2066
2066
2069
2069
2069
2062
2062
2062
2070
2070
2070
2070
2070
2070
2070
2069
2069
2069
2074
2074
2074
2068
2068
2068
2070
2070
2070
2065
2065
2065
2065
2067
2067
2067
2070
2070
2070
2069
2069
2069
2073
2073
2073
2073
2073
2073
2073
2067
2067
2067
2071
2071
2071
2068
2068
2068
2074
2074
2074
2067
2067
2067
2067
2065
2065
2065
2074
2074
2074
2066
2066
2066
2073
2073
2073
2067
2067
2067
2067
2065
2065
2065
2070
2070
2070
2069
2069
2069
2072
2072
2072
2067
2067
2067
2067
2069
2069
2069
2062
2062
2062
2065
2065
2065
2070
2070
2070
2064
2064
2064
2064
2073
2073
2073
2071
2071
2071
2075
2075
2075
2073
2073
2073
2066
2066
2066
2066
2070
2070
2070
2068
2068
2068
2070
2070
2070
2072
2072
2072
2069
2069
2069
2069
2069
2069
2069
2069
2069
2069
2074
2074
2074
2073
2073
2073
2071
2071
2071
2071
2067
2067
2067
2069
2069
2069
2071
2071
2071
2065
2065
2065
2068
2068
2068
2068
2067
2067
2067
2071
2071
2071
2069
2069
2069
2071
2071
2071
2070
2070
2070
2070
2070
2070
2070
2069
2069
2069
2071
2071
2071
2070
2070
2070
2067
2067
2067
2067
2068
2068
2068
2064
2064
2064
2067
2067
2067
2071
2071
2071
2067
2067
2067
2067
2061
2061
2061
2070
2070
2070
2072
2072
2072
2074
2074
2074
2068
2068
2068
2068
2070
2070
2070
2071
2071
2071
2069
2069
2069
2072
2072
2072
2066
2066
2066
2066
2071
2071
2071
2068
2068
2068
2064
2064
2064
2073
2073
2073
2071
2071
2071
2071
2071
2071
2071
2062
2062
2062
2069
2069
2069
2069
2069
2069
2073
2073
2073
2073
2069
2069
2069
2068
2068
2068
2078
2078
2078
2072
2072
2072
2071
2071
2071
2071
2067
2067
2067
2069
2069
2069
2070
2070
2070
2067
2067
2067
2069
2069
2069
2069
2068
2068
2068
2071
2071
2071
2071
2071
2071
2069
2069
2069
2071
2071
2071
2071
2069
2069
2069
2070
2070
2070
2069
2069
2069
2068
2068
2068
2073
2073
2073
2073
2068
2068
2068
2070
2070
2070
2068
2068
2068
2070
2070
2070
2065
2065
2065
2065
2063
2063
2063
2071
2071
2071
2071
2071
2071
2072
2072
2072
2069
2069
2069
2069
2068
2068
2068
2069
2069
2069
2071
2071
2071
2069
2069
2069
2069
2069
2069
2069
2069
2069
2069
2070
2070
2070
2073
2073
2073
2071
2071
2071
2069
2069
2069
2069
2068
2068
2068
2065
2065
2065
2069
2069
2069
2073
2073
2073
2070
2070
2070
2070
2069
2069
2069
2073
2073
2073
2072
2072
2072
2069
2069
2069
2070
2070
2070
2070
2069
2069
2069
2072
2072
2072
2071
2071
2071
2078
2078
2078
2069
2069
2069
2069
2069
2069
2069
2068
2068
2068
2068
2068
2068
2071
2071
2071
2063
2063
2063
2063
2069
2069
2069
2071
2071
2071
2068
2068
2068
2078
2078
2078
2068
2068
2068
2068
2066
2066
2066
2071
2071
2071
2068
2068
2068
2072
2072
2072
2061
2061
2061
2061
2070
2070
2070
2070
2070
2070
2065
2065
2065
2074
2074
2074
2067
2067
2067
2067
2069
2069
2069
2073
2073
2073
2069
2069
2069
2069
2069
2069
2068
2068
2068
2068
2071
2071
2071
2071
2071
2071
2068
2068
2068
2073
2073
2073
2064
2064
2064
2064
2068
2068
2068
2071
2071
2071
2070
2070
2070
2072
2072
2072
2069
2069
2069
2069
2068
2068
2068
2068
2068
2068
2072
2072
2072
2071
2071
2071
2070
2070
2070
2070
2067
2067
2067
2069
2069
2069
2069
2069
2069
2066
2066
2066
2069
2069
2069
2069
2065
2065
2065
2069
2069
2069
2074
2074
2074
2071
2071
2071
2066
2066
2066
2066
2068
2068
2068
2074
2074
2074
2071
2071
2071
2073
2073
2073
2069
2069
2069
2069
2068
2068
2068
2070
2070
2070
2073
2073
2073
2070
2070
2070
2066
2066
2066
2066
2070
2070
2070
2071
2071
2071
2071
2071
2071
2072
2072
2072
2065
2065
2065
2065
2069
2069
2069
2070
2070
2070
2068
2068
2068
2071
2071
2071
2064
2064
2064
2064
2074
2074
2074
2069
2069
2069
2068
2068
2068
2070
2070
2070
2068
2068
2068
2068
2069
2069
2069
2064
2064
2064
2070
2070
2070
2069
2069
2069
2069
2069
2069
2069
2076
2076
2076
2069
2069
2069
2068
2068
2068
2071
2071
2071
2068
2068
2068
2068
2065
2065
2065
2070
2070
2070
2072
2072
2072
2073
2073
2073
2070
2070
2070
2070
2075
2075
2075
2070
2070
2070
2068
2068
2068
2074
2074
2074
2070
2070
2070
2070
2068
2068
2068
2067
2067
2067
2067
2067
2067
2078
2078
2078
2068
2068
2068
2068
2067
2067
2067
2068
2068
2068
2067
2067
2067
2075
2075
2075
2066
2066
2066
2066
2068
2068
2068
2071
2071
2071
2069
2069
2069
2070
2070
2070
2060
2060
2060
2060
2069
2069
2069
2069
2069
2069
2070
2070
2070
2069
2069
2069
2074
2074
2074
2074
2071
2071
2071
2069
2069
2069
2072
2072
2072
2074
2074
2074
2065
2065
2065
2065
2069
2069
2069
2074
2074
2074
2068
2068
2068
2071
2071
2071
2067
2067
2067
2067
2067
2067
2067
2069
2069
2069
2070
2070
2070
2071
2071
2071
2071
2071
2071
2071
2069
2069
2069
2065
2065
2065
2065
2065
2065
2071
2071
2071
2067
2067
2067
2067
2061
2061
2061
2068
2068
2068
2071
2071
2071
2075
2075
2075
2069
2069
2069
2069
2071
2071
2071
2066
2066
2066
2069
2069
2069
2073
2073
2073
2068
2068
2068
2068
2071
2071
2071
2072
2072
2072
2068
2068
2068
2070
2070
2070
2069
2069
2069
2069
2071
2071
2071
2068
2068
2068
2070
2070
2070
2075
2075
2075
2068
2068
2068
2068
2071
2071
2071
2068
2068
2068
2068
2068
2068
2070
2070
2070
2068
2068
2068
2068
2069
2069
2069
2065
2065
2065
2071
2071
2071
2072
2072
2072
2069
2069
2069
2069
2070
2070
2070
2069
2069
2069
2072
2072
2072
2068
2068
2068
2067
2067
2067
2067
2065
2065
2065
2066
2066
2066
2067
2067
2067
2074
2074
2074
2066
2066
2066
2066
2069
2069
2069
2068
2068
2068
2069
2069
2069
2073
2073
2073
2068
2068
2068
2068
2068
2068
2068
2072
2072
2072
2070
2070
2070
2069
2069
2069
2069
2069
2069
2069
2071
2071
2071
2070
2070
2070
2071
2071
2071
2073
2073
2073
2069
2069
2069
2069
2067
2067
2067
2069
2069
2069
2069
2069
2069
2071
2071
2071
2067
2067
2067
2067
2069
2069
2069
2069
2069
2069
2073
2073
2073
2071
2071
2071
2066
2066
2066
2066
2072
2072
2072
2071
2071
2071
2069
2069
2069
2072
2072
2072
2069
2069
2069
2069
2069
2069
2069
2072
2072
2072
2070
2070
2070
2073
2073
2073
2068
2068
2068
2068
2069
2069
2069
2072
2072
2072
2070
2070
2070
2068
2068
2068
2071
2071
2071
2071
2074
2074
2074
2068
2068
2068
2070
2070
2070
2070
2070
2070
2069
2069
2069
2069
2068
2068
2068
2072
2072
2072
2070
2070
2070
2072
2072
2072
2069
2069
2069
2069
2074
2074
2074
2071
2071
2071
2069
2069
2069
2072
2072
2072
2067
2067
2067
2067
2068
2068
2068
2065
2065
2065
2071
2071
2071
2071
2071
2071
2066
2066
2066
2066
2074
2074
2074
2070
2070
2070
2065
2065
2065
2072
2072
2072
2068
2068
2068
2068
2070
2070
2070
2073
2073
2073
2067
2067
2067
2071
2071
2071
2068
2068
2068
2068
2070
2070
2070
2066
2066
2066
2066
2066
2066
2073
2073
2073
2065
2065
2065
2065
2069
2069
2069
2071
2071
2071
2070
2070
2070
2072
2072
2072
2067
2067
2067
2067
2069
2069
2069
2070
2070
2070
2064
2064
2064
2070
2070
2070
2071
2071
2071
2071
2067
2067
2067
2070
2070
2070
2069
2069
2069
2067
2067
2067
2069
2069
2069
2069
2067
2067
2067
2069
2069
2069
2070
2070
2070
2072
2072
2072
2063
2063
2063
2063
2067
2067
2067
2070
2070
2070
2070
2070
2070
2069
2069
2069
2068
2068
2068
2068
2071
2071
2071
2068
2068
2068
2070
2070
2070
2073
2073
2073
2066
2066
2066
2066
2067
2067
2067
2068
2068
2068
2068
2068
2068
2072
2072
2072
2067
2067
2067
2067
2070
2070
2070
2076
2076
2076
2070
2070
2070
2070
2070
2070
2068
2068
2068
2068
2064
2064
2064
2072
2072
2072
2066
2066
2066
2068
2068
2068
2064
2064
2064
2064
2070
2070
2070
2071
2071
2071
2069
2069
2069
2072
2072
2072
2069
2069
2069
2069
2069
2069
2069
2076
2076
2076
2070
2070
2070
2072
2072
2072
2069
2069
2069
2069
2071
2071
2071
2065
2065
2065
2069
2069
2069
2074
2074
2074
2070
2070
2070
2070
2069
2069
2069
2068
2068
2068
2073
2073
2073
2071
2071
2071
2074
2074
2074
2074
2068
2068
2068
2065
2065
2065
2069
2069
2069
2068
2068
2068
2068
2068
2068
2068
2069
2069
2069
2071
2071
2071
2072
2072
2072
2069
2069
2069
2072
2072
2072
2072
2068
2068
2068
2071
2071
2071
2070
2070
2070
2073
2073
2073
2067
2067
2067
2067
2069
2069
2069
2069
2069
2069
2070
2070
2070
2072
2072
2072
2078
2078
2078
2078
2069
2069
2069
2069
2069
2069
2066
2066
2066
2071
2071
2071
2069
2069
2069
2069
2070
2070
2070
2069
2069
2069
2070
2070
2070
2072
2072
2072
2067
2067
2067
2067
2070
2070
2070
2070
2070
2070
2070
2070
2070
2072
2072
2072
2067
2067
2067
2067
2070
2070
2070
2075
2075
2075
2072
2072
2072
2073
2073
2073
2069
2069
2069
2069
2068
2068
2068
2072
2072
2072
2073
2073
2073
2071
2071
2071
2067
2067
2067
2067
2071
2071
2071
2077
2077
2077
2068
2068
2068
2067
2067
2067
2068
2068
2068
2068
2069
2069
2069
2071
2071
2071
2071
2071
2071
2069
2069
2069
2069
2069
2069
2069
2069
2069
2069
2068
2068
2068
2068
2068
2068
2068
2068
2068
2071
2071
2071
2071
2067
2067
2067
2069
2069
2069
2069
2069
2069
2070
2070
2070
2063
2063
2063
2063
2070
2070
2070
2068
2068
2068
2068
2068
2068
2070
2070
2070
2069
2069
2069
2069
2071
2071
2071
2069
2069
2069
2068
2068
2068
2070
2070
2070
2072
2072
2072
2072
2073
2073
2073
2069
2069
2069
2068
2068
2068
2071
2071
2071
2068
2068
2068
2068
2071
2071
2071
2069
2069
2069
2067
2067
2067
2074
2074
2074
2067
2067
2067
2067
2070
2070
2070
2070
2070
2070
2072
2072
2072
2067
2067
2067
2067
2067
2067
2067
2068
2068
2068
2069
2069
2069
2065
2065
2065
2066
2066
2066
2066
2066
2066
2066
2070
2070
2070
2070
2070
2070
2068
2068
2068
2069
2069
2069
2067
2067
2067
2067
2069
2069
2069
2071
2071
2071
2069
2069
2069
2076
2076
2076
2069
2069
2069
2069
2077
2077
2077
2071
2071
2071
2065
2065
2065
2072
2072
2072
2065
2065
2065
2065
2069
2069
2069
2073
2073
2073
2071
2071
2071
2070
2070
2070
2068
2068
2068
2068
2071
2071
2071
2073
2073
2073
2068
2068
2068
2070
2070
2070
2072
2072
2072
2072
2068
2068
2068
2065
2065
2065
2067
2067
2067
2077
2077
2077
2068
2068
2068
2068
2070
2070
2070
2073
2073
2073
2071
2071
2071
2074
2074
2074
2073
2073
2073
2073
2071
2071
2071
2070
2070
2070
2069
2069
2069
2067
2067
2067
2066
2066
2066
2066
2067
2067
2067
2069
2069
2069
2070
2070
2070
2072
2072
2072
2064
2064
2064
2072
2072
2072
2072
2068
2068
2068
2072
2072
2072
2067
2067
2067
2073
2073
2073
2073
2073
2073
2073
2070
2070
2070
2069
2069
2069
2070
2070
2070
2071
2071
2071
2067
2067
2067
2067
2069
2069
2069
2069
2069
2069
2069
2069
2069
2073
2073
2073
2071
2071
2071
2071
2073
2073
2073
2073
2073
2073
2070
2070
2070
2068
2068
2068
2068
2068
2068
2068
2066
2066
2066
2069
2069
2069
2069
2069
2069
2070
2070
2070
2070
2070
2070
2070
2060
2060
2060
2066
2066
2066
2067
2067
2067
2073
2073
2073
2072
2072
2072
2072
2070
2070
2070
2076
2064
2064
2064
2071
2071
2071
2068
2068
2068
2070
2070
2070
2071
2071
2071
2071
2069
2069
2069
2072
2072
2072
2069
2069
2069
2072
2072
2072
2071
2071
2071
2071
2070
2070
2070
2070
2070
2070
2070
2070
2070
2072
2072
2072
2072
2072
2072
2072
2068
2068
2068
2071
2071
2071
2069
2069
2069
2068
2068
2068
2071
2071
2071
2071
2066
2066
2066
2072
2072
2072
2063
2063
2063
2067
2067
2067
2065
2065
2065
2065
2069
2069
2069
2069
2069
2069
2072
2072
2072
2068
2068
2068
2069
2069
2069
2069
2072
2072
2072
2071
2071
2071
2069
2069
2069
2070
2070
2070
2067
2067
2070
2071
2071
2071
2071
2071
2071
2071
2070
2070
2070
2069
2069
2069
2068
2068
2068
2074
2074
2074
2074
2068
2068
2068
2072
2072
2072
2068
2068
2068
2072
2072
2072
2074
2074
2074
2074
2068
2068
2068
2076
2076
2076
2069
2069
2069
2067
2067
2067
2070
2070
2070
2070
2068
2068
2068
2070
2070
2070
2074
2074
2074
2071
2071
2071
2071
2071
2071
2071
2070
2070
2070
2068
2068
2068
2069
2069
2069
2069
2069
2069
2072
2072
2072
2072
2067
2067
2067
2068
2068
2068
2070
2070
2070
2069
2069
2069
2072
2072
2072
2072
2068
2068
2068
2070
2070
2070
2069
2069
2069
2069
2069
2069
2070
2070
2070
2071
2071
2071
2071
2071
2071
2071
2066
2066
2066
2069
2069
2069
2070
2070
2070
2071
2071
2071
2071
2064
2064
2064
2066
2066
2066
2074
2074
2074
2068
2068
2068
2070
2070
2070
2070
2070
2070
2070
2071
2071
2071
2069
2069
2069
2067
2067
2067
2076
2076
2076
2076
2069
2069
2069
2070
2070
2070
2068
2068
2068
2066
2066
2066
2070
2070
2070
2070
2067
2067
2067
2069
2069
2069
2075
2075
2075
2069
2069
2069
2069
2069
2069
2069
2068
2068
2068
2072
2072
2072
2068
2068
2068
2075
2075
2075
2071
2071
2071
2071
2067
2067
2067
2070
2069
2069
2069
2069
2069
2069
2069
2069
2067
2067
2067
2069
2069
2069
2069
2069
2069
2069
2068
2068
2068
2069
2069
2069
2069
2069
2069
2071
2071
2071
2071
2075
2075
2075
2067
2067
2067
2069
2069
2069
2069
2069
2069
2070
2070
2070
2070
2069
2069
2069
2075
2075
2075
2074
2074
2074
2071
2071
2071
2070
2070
2070
2070
2071
2071
2071
2071
2071
2071
2063
2063
2063
2068
2068
2068
2068
2068
2068
2068
2068
2068
2068
2074
2074
2074
2068
2068
2068
2070
2070
2070
2068
2068
2068
2068
2069
2069
2069
2071
2071
2071
2079
2079
2079
2069
2069
2069
2067
2067
2074
2067
2067
2067
2067
2070
2070
2070
2070
2070
2070
2072
2072
2072
2067
2067
2067
2071
2071
2071
2071
2069
2069
2069
2073
2073
2073
2069
2069
2069
2070
2070
2070
2068
2068
2068
2068
2066
2066
2066
2072
2072
2072
2068
2068
2068
2072
2072
2072
2069
2069
2069
2069
2069
2069
2069
2068
2068
2068
2069
2069
2069
2069
2069
2069
2066
2066
2066
2066
2069
2069
2069
2071
2071
2071
2069
2069
2069
2070
2070
2070
2069
2069
2069
2069
2069
2069
2069
2071
2071
2071
2069
2069
2069
2069
2069
2069
2072
2072
2072
2072
2069
2069
2069
2068
2068
2068
2073
2073
2070
2070
2071
2071
2071
2068
2068
2068
2067
2067
2067
2067
2067
2067
2067
2069
2069
2069
2071
2071
2071
2065
2065
2065
2071
2071
2071
2071
2071
2071
2071
2068
2068
2068
2071
2071
2071
2068
2068
2068
2077
2077
2077
2077
2071
2071
2071
2069
2069
2069
2070
2070
2070
2068
2068
2068
2071
2071
2071
2071
2071
2071
2071
2075
2075
2075
2069
2069
2069
2071
2071
2071
2071
2071
2071
2071
2068
2068
2068
2068
2068
2068
2066
2066
2066
2072
2072
2072
2069
2069
2069
2069
2070
2070
2070
2069
2069
2069
2068
2068
2068
2071
2071
2071
2068
2068
2068
2068
2069
2069
2071
2069
2069
2069
2071
2071
2071
2068
2068
2068
2063
2063
2063
2072
2072
2072
2072
2067
2067
2067
2072
2072
2072
2065
2065
2065
2070
2070
2070
2070
2070
2070
2070
2070
2070
2070
2069
2069
2069
2068
2068
2068
2068
2068
2068
2072
2072
2072
2072
2063
2063
2063
2070
2070
2070
2071
2071
2071
2069
2069
2069
2071
2071
2071
2071
2063
2063
2063
2065
2065
2065
2070
2070
2070
2064
2064
2064
2073
2073
2073
2073
2066
2066
2066
2072
2072
2072
2071
2071
2071
2074
2074
2074
2065
2065
2065
2065
2063
2063
2063
2071
2071
2071
2068
2068
2068
2069
2069
2069
2070
2069
2069
2068
2068
2068
2068
2066
2066
2066
2071
2071
2071
2073
2073
2073
2068
2068
2068
2072
2072
2072
2072
2069
2069
2069
2069
2069
2069
2069
2069
2069
2068
2068
2068
2072
2072
2072
2072
2068
2068
2068
2070
2070
2070
2069
2069
2069
2069
2069
2069
2069
2069
2069
2069
2070
2070
2070
2066
2066
2066
2073
2073
2073
2067
2067
2067
2070
2070
2070
2070
2073
2073
2073
2066
2066
2066
2072
2072
2072
2069
2069
2069
2070
2070
2070
2070
2067
2067
2067
2068
2068
2068
2069
2069
2069
2067
2067
2067
2067
2067
2067
2067
2071
2071
2071
2069
2069
2069
2068
2068
2071
2067
2067
2067
2064
2064
2064
2074
2074
2074
2074
2069
2069
2069
2069
2069
2069
2071
2071
2071
2069
2069
2069
2071
2071
2071
2071
2060
2060
2060
2071
2071
2071
2067
2067
2067
2069
2069
2069
2071
2071
2071
2071
2070
2070
2070
2068
2068
2068
2069
2069
2069
2070
2070
2070
2071
2071
2071
2071
2070
2070
2070
2067
2067
2067
2065
2065
2065
2069
2069
2069
2071
2071
2071
2071
2064
2064
2064
2073
2073
2073
2068
2068
2068
2064
2064
2064
2071
2071
2071
2071
2068
2068
2068
2070
2070
2070
2063
2063
2063
2065
2065
2065
2069
2069
2069
2069
2069
2069
2069
2069
2069
2069
2069
2069
2069
2064
2064
2064
2072
2072
2072
2072
2070
2070
2070
2068
2068
2068
2063
2063
2063
2071
2071
2071
2074
2074
2074
2074
2068
2068
2068
2072
2072
2072
2071
2071
2071
2067
2067
2067
2071
2071
2071
2071
2071
2071
2071
2069
2069
2069
2070
2070
2070
2073
2073
2073
2071
2071
2071
2071
2063
2063
2063
2069
2069
2069
2069
2069
2069
2068
2068
2068
2069
2069
2069
2069
2068
2068
2068
2068
2068
2068
2070
2070
2070
2069
2069
2069
2073
2073
2073
2073
2070
2070
2070
2070
2070
2070
2069
2069
2069
2070
2070
2070
2067
2067
2067
2067
2070
2070
2070
2073
2073
2073
2070
2070
2070
2067
2067
2067
2067
2067
2067
2067
2065
2065
2065
2070
2070
2070
2073
2073
2073
2069
2069
2069
2070
2070
2070
2070
2070
2070
2070
2065
2065
2065
2069
2069
2069
2067
2067
2067
2071
2071
2071
2071
2068
2068
2068
2066
2066
2066
2077
2077
2077
2070
2070
2070
2071
2071
2071
2071
2063
2063
2063
2069
2069
2069
2074
2074
2074
2065
2065
2065
2073
2073
2073
2073
2069
2069
2069
2074
2074
2074
2064
2064
2064
2067
2067
2067
2077
2077
2077
2077
2065
2065
2065
2069
2069
2069
2069
2069
2069
2072
2072
2072
2075
2075
2075
2075
2069
2069
2069
2073
2073
2073
2069
2069
2069
2069
2069
2069
2068
2068
2068
2068
2067
2067
2067
2071
2071
2071
2070
2070
2070
2069
2069
2069
2070
2070
2070
2070
2069
2069
2069
2068
2068
2068
2068
2068
2068
2068
2068
2068
2068
2068
2068
2068
2071
2071
2071
2072
2072
2072
2073
2073
2073
2071
2071
2071
2071
2071
2071
2071
2071
2071
2071
2076
2076
2076
2067
2067
2067
2069
2069
2069
2073
2073
2073
2073
2062
2062
2062
2071
2071
2071
2066
2066
2066
2072
2072
2072
2073
2073
2073
2073
2068
2068
2068
2070
2070
2070
2070
2070
2070
2070
2070
2070
2072
2072
2072
2072
2070
2070
2070
2070
2070
2070
2072
2072
2072
2067
2067
2067
2077
2077
2077
2077
2071
2071
2071
2071
2071
2071
2071
2071
2071
2065
2065
2065
2071
2071
2071
2071
2071
2071
2071
2067
2067
2067
2068
2068
2068
2070
2070
2070
2066
2066
2066
2066
2071
2071
2071
2071
2071
2071
2068
2068
2068
2072
2072
2072
2069
2069
2069
2069
2071
2071
2071
2068
2068
2068
2063
2063
2063
2071
2071
2071
2067
2067
2067
2067
2069
2069
2069
2070
2070
2070
2070
2070
2070
2074
2074
2074
2071
2071
2071
2071
2070
2070
2070
2072
2072
2072
2068
2068
2068
2071
2071
2071
2069
2069
2069
2069
2064
2064
2064
2068
2068
2068
2066
2066
2066
2068
2068
2068
2067
2067
2067
2067
2067
2067
2067
2065
2065
2065
2071
2071
2071
2068
2068
2068
2069
2069
2069
2069
2071
2071
2071
2069
2069
2069
2068
2068
2068
2068
2068
2068
2067
2067
2067
2067
2069
2069
2069
2071
2071
2071
2072
2072
2072
2075
2075
2075
2070
2070
2070
2070
2066
2066
2066
2076
2076
2076
2068
2068
2068
2074
2074
2074
2070
2070
2070
2070
2067
2067
2067
2072
2072
2072
2069
2069
2069
2069
2069
2069
2071
2071
2071
2071
2069
2069
2069
2070
2070
2070
2068
2068
2068
2070
2070
2070
2075
2075
2075
2075
2070
2070
2070
2071
2071
2071
2073
2073
2073
2069
2069
2069
2069
2069
2069
2069
2067
2067
2067
2074
2074
2074
2069
2069
2069
2070
2070
2070
2065
2065
2065
2065
2065
2065
2065
2066
2066
2066
2071
2071
2071
2071
2071
2071
2069
2069
2069
2069
2070
2070
2070
2072
2072
2072
2070
2070
2070
2069
2069
2069
2070
2070
2070
2070
2065
2065
2065
2068
2068
2068
2076
2076
2076
2064
2064
2064
2073
2073
2073
2073
2069
2069
2069
2071
2071
2071
2074
2074
2074
2066
2066
2066
2066
2066
2066
2066
2071
2071
2071
2071
2071
2071
2070
2070
2070
2074
2074
2074
2073
2073
2073
2073
2068
2068
2068
2073
2073
2073
2071
2071
2071
2068
2068
2068
2071
2071
2071
2071
2067
2067
2067
2077
2077
2077
2069
2069
2069
2068
2068
2068
2073
2073
2073
2073
2066
2066
2066
2068
2068
2068
2072
2072
2072
2069
2069
2069
2069
2069
2069
2069
2069
2069
2069
2065
2065
2065
2068
2068
2068
2068
2068
2068
2068
2068
2068
2068
2070
2070
2070
2071
2071
2071
2073
2073
2073
2070
2070
2070
2071
2071
2071
2071
2067
2067
2067
2071
2071
2071
2069
2069
2069
2068
2068
2068
2069
2069
2069
2069
2066
2066
2066
2069
2069
2069
2065
2065
2065
2068
2068
2068
2069
2069
2069
2069
2067
2067
2067
2072
2072
2072
2071
2071
2071
2070
2070
2070
2068
2068
2068
2068
2075
2075
2075
2071
2071
2071
2067
2067
2067
2072
2072
2072
2071
2071
2071
2071
2069
2069
2069
2066
2066
2066
2066
2066
2066
2068
2068
2068
2069
2069
2069
2069
2066
2066
2066
2068
2068
2068
2069
2069
2069
2069
2069
2069
2068
2068
2068
2068
2067
2067
2067
2071
2071
2071
2068
2068
2068
2073
2073
2073
2075
2075
2075
2075
2067
2067
2067
2070
2070
2070
2067
2067
2067
2065
2065
2065
2071
2071
2071
2071
2069
2069
2069
2070
2070
2070
2067
2067
2067
2069
2069
2069
2071
2071
2071
2071
2068
2068
2068
2071
2071
2071
2070
2070
2070
2068
2068
2068
2066
2066
2066
2066
2070
2070
2070
2071
2071
2071
2067
2067
2067
2069
2069
2069
2071
2071
2071
2071
2070
2070
2070
2075
2075
2075
2069
2069
2069
2071
2071
2071
2071
2071
2071
2071
2065
2065
2065
2069
2069
2069
2065
2065
2065
2070
2070
2070
2069
2069
2069
2069
2069
2069
2069
2070
2070
2070
2069
2069
2069
2072
2072
2072
2070
2070
2070
2070
2070
2070
2070
2072
2072
2072
2070
2070
2070
2069
2069
2069
2069
2069
2069
2069
2072
2072
2072
2071
2071
2071
2069
2069
2069
2071
2071
2071
2069
2069
2069
2069
2064
2064
2064
2069
2069
2069
2075
2075
2075
2071
2071
2071
2072
2072
2072
2072
2074
2074
2074
2068
2068
2068
2068
2068
2068
2069
2069
2069
2069
2069
2069
2069
2067
2067
2067
2070
2070
2070
2070
2070
2070
2068
2068
2068
2068
2068
2068
2068
2069
2069
2069
2072
2072
2072
2066
2066
2066
2067
2067
2067
2064
2064
2064
2064
2065
2065
2065
2070
2070
2070
2064
2064
2064
2067
2067
2067
2072
2072
2072
2072
2067
2067
2067
2071
2071
2071
2064
2064
2064
2072
2072
2072
2069
2069
2069
2069
2071
2071
2071
2071
2071
2071
2069
2069
2069
2067
2067
2067
2068
2068
2068
2068
2068
2068
2068
2070
2070
2070
2064
2064
2064
2070
2070
2070
2072
2072
2072
2072
2070
2070
2070
2072
2072
2072
2067
2067
2067
2070
2070
2070
2071
2071
2071
2071
2068
2068
2068
2070
2070
2070
2070
2070
2070
2069
2069
2069
2068
2068
2068
2068
2067
2067
2067
2067
2067
2067
2071
2071
2071
2068
2068
2068
2069
2069
2069
2069
2069
2069
2069
2070
2070
2070
2074
2074
2074
2071
2071
2071
2070
2070
2070
2070
2067
2067
2067
2071
2071
2071
2069
2069
2069
2069
2069
2069
2068
2068
2068
2068
2058
2058
2058
2071
2071
2071
2067
2067
2067
2070
2070
2070
2069
2069
2069
2069
2066
2066
2066
2068
2068
2068
2067
2067
2067
2071
2071
2071
2072
2072
2072
2072
2071
2071
2071
2068
2068
2068
2069
2069
2069
2068
2068
2068
2069
2069
2069
2069
2070
2070
2070
2071
2071
2071
2069
2069
2069
2068
2068
2068
2068
2068
2068
2068
2071
2071
2071
2068
2068
2068
2071
2071
2071
2067
2067
2067
2074
2074
2074
2074
2069
2069
2069
2071
2071
2071
2069
2069
2069
2065
2065
2065
2064
2064
2064
2064
2066
2066
2066
2071
2071
2071
2071
2071
2071
2065
2065
2065
2074
2074
2074
2074
2069
2069
2069
2071
2071
2071
2065
2065
2065
2067
2067
2067
2077
2077
2077
2077
2068
2068
2068
2073
2073
2073
2069
2069
2069
2067
2067
2067
2068
2068
2068
2068
2069
2069
2069
2071
2071
2071
2070
2070
2070
2070
2070
2070
2073
2073
2073
2073
2067
2067
2067
2072
2072
2072
2072
2072
2072
2067
2067
2067
2070
2070
2070
2070
2069
2069
2069
2071
2071
2071
2067
2067
2067
2070
2070
2070
2069
2069
2069
2069
2066
2066
2066
2071
2071
2071
2070
2070
2070
2067
2067
2067
2069
2069
2069
2069
2066
2066
2066
2070
2070
2070
2070
2070
2070
2068
2068
2068
2070
2070
2070
2070
2064
2064
2064
2074
2074
2074
2068
2068
2068
2068
2068
2068
2069
2069
2069
2069
2067
2067
2067
2072
2072
2072
2073
2073
2073
2067
2067
2067
2070
2070
2070
2070
2068
2068
2068
2068
2068
2068
2068
2068
2068
2071
2071
2071
2068
2068
2068
2068
2070
2070
2070
2068
2068
2068
2068
2068
2068
2070
2070
2070
2070
2070
2070
2070
2065
2065
2065
2073
2073
2073
2071
2071
2071
2068
2068
2068
2076
2076
2076
2076
2076
2076
2076
2071
2071
2071
2067
2067
2067
2071
2071
2071
2069
2069
2069
2069
2069
2069
2069
2069
2069
2069
2066
2066
2066
2069
2069
2069
2069
2069
2069
2069
2068
2068
2068
2069
2069
2069
2071
2071
2071
2072
2072
2072
2067
2067
2067
2067
2069
2069
2069
2071
2071
2071
2064
2064
2064
2065
2065
2065
2078
2078
2078
2078
2069
2069
2069
2064
2064
2064
2069
2069
2069
2067
2067
2067
2071
2071
2071
2071
2069
2069
2069
2071
2071
2071
2072
2072
2072
2068
2068
2068
2070
2070
2070
2070
2069
2069
2069
2075
2075
2075
2069
2069
2069
2064
2064
2064
2070
2070
2070
2070
2074
2074
2074
2070
2070
2070
2070
2070
2070
2070
2070
2070
2073
2073
2073
2073
2068
2068
2068
2069
2069
2069
2071
2071
2071
2068
2068
2068
2072
2072
2072
2072
2063
2063
2063
2069
2069
2069
2066
2066
2066
2068
2068
2068
2069
2069
2069
2069
2069
2069
2069
2069
2069
2069
2069
2069
2069
2068
2068
2068
2070
2070
2070
2070
2072
2072
2072
2072
2072
2072
2070
2070
2070
2070
2070
2070
2071
2071
2071
2071
2070
2070
2070
2073
2073
2073
2067
2067
2067
2069
2069
2069
2075
2075
2075
2075
2068
2068
2068
2066
2066
2066
2068
2068
2068
2067
2067
2067
2068
2068
2068
2068
2069
2069
2069
2069
2069
2069
2081
2081
2081
2070
2070
2070
2068
2068
2068
2068
2071
2071
2071
2071
2071
2071
2072
2072
2072
2065
2065
2065
2071
2071
2071
2071
2072
2072
2072
2071
2071
2071
2065
2065
2065
2071
2071
2071
2068
2068
2068
2068
2066
2066
2066
2075
2075
2075
2070
2070
2070
2068
2068
2068
2072
2072
2072
2072
2061
2061
2061
2067
2067
2067
2068
2068
2068
2064
2064
2064
2068
2068
2068
2068
2071
2071
2071
2073
2073
2073
2071
2071
2071
2062
2062
2062
2069
2069
2069
2069
2071
2071
2071
2070
2070
2070
2064
2064
2064
2067
2067
2067
2068
2068
2068
2068
2069
2069
2069
2071
2071
2071
2069
2069
2069
2070
2070
2070
2069
2069
2069
2069
2068
2068
2068
2069
2069
2069
2069
2069
2069
2068
2068
2068
2074
2074
2074
2074
2066
2066
2066
2070
2070
2070
2069
2069
2069
2068
2068
2068
2073
2073
2073
2073
2067
2067
2067
2072
2072
2072
2070
2070
2070
2067
2067
2067
2067
2067
2067
2067
2068
2068
2068
2071
2071
2071
2069
2069
2069
2067
2067
2067
2072
2072
2072
2072
2070
2070
2070
2073
2073
2073
2070
2070
2070
2072
2072
2072
2070
2070
2070
2070
2064
2064
2064
2071
2071
2071
2070
2070
2070
2068
2068
2068
2073
2073
2073
2073
2069
2069
2069
2064
2064
2064
2067
2067
2067
2068
2068
2068
2068
2068
2068
2068
2071
2071
2071
2072
2072
2072
2067
2067
2067
2069
2069
2069
2071
2071
2071
2071
2064
2064
2064
2076
2076
2076
2070
2070
2070
2068
2068
2068
2070
2070
2070
2070
2068
2068
2068
2073
2073
2073
2070
2070
2070
2069
2069
2069
2071
2071
2071
2071
2069
2069
2069
2072
2072
2072
2070
2070
2070
2069
2069
2069
2069
2069
2069
2069
2059
2059
2059
2071
2071
2071
2069
2069
2069
2067
2067
2067
2073
2073
2073
2073
2069
2069
2069
2066
2066
2066
2068
2068
2068
2069
2069
2069
2067
2067
2067
2067
2070
2070
2070
2072
2072
2072
2065
2065
2065
2075
2075
2075
2071
2071
2071
2071
2069
2069
2069
2066
2066
2066
2066
2066
2066
2072
2072
2072
2066
2066
2066
2066
2069
2069
2069
2070
2070
2070
2073
2073
2073
2065
2065
2065
2065
2065
2065
2065
2067
2067
2067
2071
2071
2071
2075
2075
2075
2069
2069
2069
2070
2070
2070
2070
2070
2070
2070
2071
2071
2071
2068
2068
2068
2067
2067
2067
2066
2066
2066
2066
2069
2069
2069
2072
2072
2072
2068
2068
2068
2069
2069
2069
2065
2065
2065
2065
2069
2069
2069
2070
2070
2070
2068
2068
2068
2070
2070
2070
2070
2070
2070
2070
2072
2072
2072
2070
2070
2070
2068
2068
2068
2069
2069
2069
2071
2071
2071
2071
2068
2068
2068
2073
2073
2073
2070
2070
2070
2067
2067
2067
2071
2071
2071
2071
2067
2067
2067
2072
2072
2072
2068
2068
2068
2070
2070
2070
2070
2070
2070
2070
2069
2069
2069
2069
2069
2069
2069
2069
2069
2066
2066
2066
2064
2064
2064
2064
2073
2073
2073
2074
2074
2074
2071
2071
2071
2063
2063
2063
2070
2070
2070
2070
2068
2068
2068
2071
2071
2071
2068
2068
2068
2070
2070
2070
2067
2067
2067
2067
2065
2065
2065
2071
2071
2071
2069
2069
2069
2068
2068
2068
2071
2071
2071
2071
2070
2070
2070
2069
2069
2069
2068
2068
2068
2069
2069
2069
2070
2070
2070
2070
2073
2073
2073
2069
2069
2069
2069
2069
2069
2069
2069
2069
2069
2069
2069
2069
2073
2073
2073
2069
2069
2069
2072
2072
2072
2068
2068
2068
2067
2067
2067
2067
2071
2071
2071
2066
2066
2066
2065
2065
2065
2070
2070
2070
2071
2071
2071
2071
2069
2069
2069
2071
2071
2071
2070
2070
2070
2068
2068
2068
2070
2070
2070
2070
2069
2069
2069
2074
2074
2074
2069
2069
2069
2068
2068
2068
2072
2072
2072
2072
2068
2068
2068
2071
2071
2071
2067
2067
2067
2065
2065
2065
2072
2072
2072
2072
2069
2069
2069
2075
2075
2075
2069
2069
2069
2070
2070
2070
2068
2068
2068
2068
2069
2069
2069
2067
2067
2067
2069
2069
2069
2065
2065
2065
2067
2067
2067
2067
2068
2068
2068
2073
2073
2073
2074
2074
2074
2069
2069
2069
2070
2070
2070
2070
2068
2068
2068
2068
2068
2068
2066
2066
2066
2067
2067
2067
2067
2067
2067
2067
2065
2065
2065
2071
2071
2071
2069
2069
2069
2063
2063
2063
2069
2069
2069
2069
2068
2068
2068
2070
2070
2070
2068
2068
2068
2069
2069
2069
2070
2070
2070
2070
2068
2068
2068
2070
2070
2070
2066
2066
2066
2067
2067
2067
2066
2066
2066
2066
2070
2070
2070
2072
2072
2072
2070
2070
2070
2068
2068
2068
2067
2067
2067
2067
2073
2073
2073
2072
2072
2072
2069
2069
2069
2073
2073
2073
2070
2070
2070
2070
2070
2070
2070
2067
2067
2067
2068
2068
2068
2069
2069
2069
2071
2071
2071
2071
2064
2064
2064
2072
2072
2072
2070
2070
2070
2068
2068
2068
2071
2071
2071
2071
2072
2072
2072
2070
2070
2070
2070
2070
2070
2069
2069
2069
2069
2069
2069
2069
2069
2069
2069
2070
2070
2070
2068
2068
2068
2069
2069
2069
2069
2069
2069
2069
2070
2070
2070
2069
2069
2069
2074
2074
2074
2067
2067
2067
2071
2071
2071
2071
2065
2065
2065
2065
2065
2065
2067
2067
2067
2063
2063
2063
2070
2070
2070
2070
2060
2060
2060
2071
2071
2071
2074
2074
2074
2069
2069
2069
2069
2069
2069
2069
2074
2074
2074
2068
2068
2068
2065
2065
2065
2073
2073
2073
2072
2072
2072
2072
2066
2066
2066
2068
2068
2068
2072
2072
2072
2069
2069
2069
2071
2071
2071
2071
2071
2071
2071
2075
2075
2075
2068
2068
2068
2066
2066
2066
2071
2071
2071
2071
2068
2068
2068
2072
2072
2072
2068
2068
2068
2065
2065
2065
2072
2072
2072
2072
2068
2068
2068
2071
2071
2071
2067
2067
2067
2069
2069
2069
2067
2067
2067
2067
2068
2068
2068
2068
2068
2068
2069
2069
2069
2069
2069
2069
2072
2072
2072
2072
2071
2071
2071
2069
2069
2069
2070
2070
2070
2066
2066
2066
2069
2069
2069
2069
2067
2067
2067
2068
2068
2068
2069
2069
2069
2069
2069
2069
2068
2068
2068
2068
2068
2068
2068
2068
2068
2068
2067
2067
2067
2069
2069
2069
2069
2069
2069
2069
2070
2070
2070
2071
2071
2071
2070
2070
2070
2068
2068
2068
2073
2073
2073
2073
2069
2069
2069
2071
2071
2071
2072
2072
2072
2067
2067
2067
2069
2069
2069
2069
2068
2068
2068
2070
2070
2070
2071
2071
2071
2069
2069
2069
2066
2066
2066
2066
2067
2067
2067
2071
2071
2071
2066
2066
2066
2070
2070
2070
2070
2070
2070
2070
2068
2068
2068
2073
2073
2073
2069
2069
2069
2071
2071
2071
2070
2070
2070
2070
2071
2071
2071
2074
2074
2074
2071
2071
2071
2069
2069
2069
2070
2070
2070
2070
2067
2067
2067
2073
2073
2073
2067
2067
2067
2070
2070
2070
2071
2071
2071
2071
2067
2067
2067
2069
2069
2069
2068
2068
2068
2065
2065
2065
2068
2068
2068
2068
2072
2072
2072
2070
2070
2070
2072
2072
2072
2070
2070
2070
2071
2071
2071
2071
2069
2069
2069
2068
2068
2068
2068
2068
2068
2070
2070
2070
2072
2072
2072
2072
2076
2076
2076
2070
2070
2070
2069
2069
2069
2065
2065
2065
2070
2070
2070
2070
2067
2067
2067
2070
2070
2070
2070
2070
2070
2068
2068
2068
2070
2070
2070
2070
2069
2069
2069
2071
2071
2071
2067
2067
2067
2067
2067
2067
2072
2072
2072
2072
2071
2071
2071
2073
2073
2073
2070
2070
2070
2070
2070
2070
2069
2069
2069
2069
2071
2071
2071
2070
2070
2070
2073
2073
2073
2071
2071
2071
2073
2073
2073
2073
2065
2065
2065
2073
2073
2073
2070
2070
2070
2065
2065
2065
2069
2069
2069
2069
2068
2068
2068
2077
2077
2077
2072
2072
2072
2068
2068
2068
2074
2074
2074
2074
2065
2065
2065
2066
2066
2066
2071
2071
2071
2069
2069
2069
2071
2071
2071
2071
2066
2066
2066
2071
2071
2071
2072
2072
2072
2065
2065
2065
2077
2077
2077
2077
2068
2068
2068
2071
2071
2071
2071
2071
2071
2065
2065
2065
2064
2064
2064
2064
2069
2069
2069
2071
2071
2071
2073
2073
2073
2072
2072
2072
2074
2074
2074
2074
2067
2067
2067
2066
2066
2066
2067
2067
2067
2071
2071
2071
2069
2069
2069
2069
2076
2076
2076
2070
2070
2070
2068
2068
2068
2070
2070
2070
2071
2071
2071
2071
2071
2071
2071
2068
2068
2068
2068
2068
2068
2070
2070
2070
2070
2070
2070
2070
2068
2068
2068
2068
2068
2068
2070
2070
2070
2070
2070
2070
2070
2070
2070
2070
2070
2070
2070
2069
2069
2069
2069
2069
2069
2070
2070
2070
2071
2071
2071
2071
2067
2067
2067
2070
2070
2070
2067
2067
2067
2067
2067
2067
2069
2069
2069
2069
2070
2070
2070
2072
2072
2072
2078
2078
2078
2068
2068
2068
2068
2068
2068
2068
2067
2067
2067
2068
2068
2068
2069
2069
2069
2064
2064
2064
2069
2069
2069
2069
2065
2065
2065
2070
2070
2070
2064
2064
2064
2067
2067
2067
2071
2071
2071
2071
2070
2070
2070
2069
2069
2069
2070
2070
2070
2068
2068
2068
2069
2069
2069
2069
2072
2072
2072
2073
2073
2073
2069
2069
2069
2069
2069
2069
2067
2067
2067
2067
2073
2073
2073
2068
2068
2068
2066
2066
2066
2070
2070
2070
2066
2066
2066
2066
2067
2067
2067
2074
2074
2074
2071
2071
2071
2068
2068
2068
2071
2071
2071
2071
2073
2073
2073
2068
2068
2068
2064
2064
2064
2069
2069
2069
2068
2068
2068
2068
2068
2068
2068
2067
2067
2067
2067
2067
2067
2072
2072
2072
2071
2071
2071
2071
2066
2066
2066
2068
2068
2068
2079
2079
2079
2072
2072
2072
2070
2070
2070
2070
2068
2068
2068
2068
2068
2068
2070
2070
2070
2069
2069
2069
2068
2068
2068
2068
2068
2068
2068
2070
2070
2070
2064
2064
2064
2071
2071
2071
2072
2072
2072
2072
2069
2069
2069
2065
2065
2065
2070
2070
2070
2062
2062
2062
2067
2067
2067
2067
2069
2069
2069
2071
2071
2071
2068
2068
2068
2072
2072
2072
2067
2067
2067
2067
2068
2068
2068
2066
2066
2066
2067
2067
2067
2071
2071
2071
2070
2070
2070
2070
2069
2069
2069
2069
2069
2069
2069
2069
2069
2067
2067
2067
2067
2067
2067
2067
2069
2069
2069
2070
2070
2070
2070
2070
2070
2065
2065
2065
2073
2073
2073
2073
2068
2068
2068
2072
2072
2072
2069
2069
2069
2070
2070
2070
2070
2070
2070
2070
2069
2069
2069
2069
2069
2069
2066
2066
2066
2068
2068
2068
2072
2072
2072
2072
2067
2067
2067
2081
2081
2081
2068
2068
2068
2067
2067
2067
2069
2069
2069
2069
2067
2067
2067
2070
2070
2070
2069
2069
2069
2070
2070
2070
2070
2070
2070
2070
2074
2074
2074
2064
2064
2064
2069
2069
2069
2068
2068
2068
2071
2071
2071
2071
2066
2066
2066
2070
2070
2070
2067
2067
2067
2066
2066
2066
2072
2072
2072
2072
2068
2068
2068
2069
2069
2069
2071
2071
2071
2067
2067
2067
2074
2074
2074
2074
2069
2069
2069
2068
2068
2068
2070
2070
2070
2066
2066
2066
2073
2073
2073
2073
2066
2066
2066
2071
2071
2071
2065
2065
2065
2070
2070
2070
2070
2070
2070
2070
2069
2069
2069
2069
2069
2069
2069
2069
2069
2073
2073
2073
2070
2070
2070
2070
2070
2070
2070
2071
2071
2071
2075
2075
2075
2069
2069
2069
2073
2073
2073
2073
2063
2063
2063
2065
2065
2065
2069
2069
2069
2071
2071
2071
2070
2070
2070
2070
2070
2070
2070
2071
2071
2071
2068
2068
2068
2070
2070
2070
2070
2070
2070
2070
2072
2072
2072
2066
2066
2066
2068
2068
2068
2067
2067
2067
2069
2069
2069
2069
2077
2077
2077
2070
2070
2070
2073
2073
2073
2067
2067
2067
2072
2072
2072
2072
2070
2070
2070
2072
2072
2072
2070
2070
2070
2071
2071
2071
2069
2069
2069
2069
2070
2070
2070
2067
2067
2067
2071
2071
2071
2068
2068
2068
2070
2070
2070
2070
2069
2069
2069
2068
2068
2068
2071
2071
2071
2066
2066
2066
2070
2070
2070
2070
2071
2071
2071
2075
2075
2075
2070
2070
2070
2073
2073
2073
2069
2069
2069
2069
2069
2069
2069
2072
2072
2072
2063
2063
2063
2070
2070
2070
2070
2070
2070
2070
2068
2068
2068
2071
2071
2071
2071
2071
2071
2074
2074
2074
2070
2070
2070
2070
2066
2066
2066
2069
2069
2069
2073
2073
2073
2074
2074
2074
2066
2066
2066
2066
2068
2068
2068
2069
2069
2069
2069
2069
2069
2065
2065
2065
2075
2075
2075
2075
2066
2066
2066
2070
2070
2070
2072
2072
2072
2069
2069
2069
2069
2069
2069
2069
2068
2068
2068
2073
2073
2073
2070
2070
2070
2068
2068
2068
2074
2074
2074
2074
2069
2069
2069
2069
2069
2069
2068
2068
2068
2065
2065
2065
2068
2068
2068
2068
2069
2069
2069
2071
2071
2071
2080
2080
2080
2069
2069
2069
2069
2069
2069
2069
2069
2069
2069
2064
2064
2064
2068
2068
2068
2066
2066
2066
2069
2069
2069
2069
2069
2069
2069
2071
2071
2071
2072
2072
2072
2071
2071
2071
2072
2072
2072
2072
2068
2068
2068
2061
2061
2061
2070
2070
2070
2069
2069
2069
2071
2071
2071
2071
2069
2069
2069
2069
2069
2069
2069
2069
2069
2068
2068
2068
2072
2072
2072
2072
2067
2067
2067
2071
2071
2071
2068
2068
2068
2066
2066
2066
2072
2072
2072
2072
2071
2071
2071
2071
2071
2071
2069
2069
2069
2065
2065
2065
2070
2070
2070
2070
2069
2069
2069
2071
2071
2071
2071
2071
2071
2069
2069
2069
2071
2071
2071
2071
2064
2064
2064
2071
2071
2071
2068
2068
2068
2065
2065
2065
2071
2071
2071
2071
2069
2069
2069
2069
2069
2069
2069
2069
2069
2069
2069
2069
2068
2068
2068
2068
2071
2071
2071
2074
2074
2074
2071
2071
2071
2070
2070
2070
2070
2070
2070
2070
2062
2062
2062
2071
2071
2071
2072
2072
2072
2068
2068
2068
2072
2072
2072
2072
2065
2065
2065
2068
2068
2068
2070
2070
2070
2068
2068
2068
2073
2073
2073
2073
2071
2071
2071
2065
2065
2065
2067
2067
2067
2068
2068
2068
2066
2066
2066
2066
2065
2065
2065
2065
2065
2065
2071
2071
2071
2067
2067
2067
2072
2072
2072
2072
2065
2065
2065
2076
2076
2076
2072
2072
2072
2072
2072
2072
2069
2069
2069
2069
2065
2065
2065
2067
2067
2067
2066
2066
2066
2068
2068
2068
2071
2071
2071
2071
2069
2069
2069
2066
2066
2066
2069
2069
2069
2069
2069
2069
2070
2070
2070
2070
2063
2063
2063
2068
2068
2068
2066
2066
2066
2068
2068
2068
2071
2071
2071
2071
2073
2073
2073
2070
2070
2070
2068
2068
2068
2066
2066
2066
2072
2072
2072
2072
2068
2068
2068
2071
2071
2071
2068
2068
2068
2071
2071
2071
2071
2071
2071
2071
2066
2066
2066
2070
2070
2070
2074
2074
2074
2069
2069
2069
2071
2071
2071
2071
2069
2069
2069
2075
2075
2075
2072
2072
2072
2064
2064
2064
2070
2070
2070
2070
2065
2065
2065
2072
2072
2072
2068
2068
2068
2066
2066
2066
2075
2075
2075
2075
2070
2070
2070
2067
2067
2067
2065
2065
2065
2074
2074
2074
2072
2072
2072
2072
2065
2065
2065
2071
2071
2071
2076
2076
2076
2068
2068
2068
2070
2070
2070
2070
2068
2068
2068
2072
2072
2072
2073
2073
2073
2070
2070
2070
2070
2070
2070
2070
2066
2066
2066
2070
2070
2070
2075
2075
2075
2067
2067
2067
2066
2066
2066
2066
2070
2070
2070
2070
2070
2070
2068
2068
2068
2064
2064
2064
2068
2068
2068
2068
2068
2068
2068
2071
2071
2071
2066
2066
2066
2068
2068
2068
2074
2074
2074
2074
2070
2070
2070
2069
2069
2069
2070
2070
2070
2071
2071
2071
2077
2077
2077
2077
2068
2068
2068
2070
2070
2070
2068
2068
2068
2069
2069
2069
2070
2070
2070
2070
2067
2067
2067
2068
2068
2068
2073
2073
2073
2068
2068
2068
2075
2075
2075
2075
2069
2069
2069
2069
2069
2069
2069
2069
2069
2072
2072
2072
2073
2073
2073
2073
2068
2068
2068
2071
2071
2071
2067
2067
2067
2066
2066
2066
2067
2067
2067
2067
2068
2068
2068
2067
2067
2067
2069
2069
2069
2070
2070
2070
2066
2066
2066
2066
2074
2074
2074
2069
2069
2069
2071
2071
2071
2069
2069
2069
2071
2071
2071
2071
2069
2069
2069
2070
2070
2070
2070
2070
2070
2069
2069
2069
2072
2072
2072
2072
2071
2071
2071
2070
2070
2070
2068
2068
2068
2067
2067
2067
2071
2071
2071
2071
2067
2067
2067
2073
2073
2073
2066
2066
2066
2072
2072
2072
2070
2070
2070
2070
2070
2070
2070
2069
2069
2069
2068
2068
2068
2062
2062
2062
2071
2071
2071
2071
2068
2068
2068
2070
2070
2070
2064
2064
2064
2068
2068
2068
2071
2071
2071
2071
2068
2068
2068
2065
2065
2065
2068
2068
2068
2070
2070
2070
2069
2069
2069
2069
2073
2073
2073
2072
2072
2072
2069
2069
2069
2070
2070
2070
2070
2070
2070
2070
2071
2071
2071
2072
2072
2072
2067
2067
2067
2068
2068
2068
2073
2073
2073
2073
2067
2067
2067
2071
2071
2071
2070
2070
2070
2067
2067
2067
2071
2071
2071
2071
2068
2068
2068
2071
2071
2071
2066
2066
2066
2069
2069
2069
2065
2065
2065
2065
2063
2063
2063
2068
2068
2068
2069
2069
2069
2066
2066
2066
2071
2071
2071
2071
2069
2069
2069
2072
2072
2072
2072
2072
2072
2066
2066
2066
2067
2067
2067
2067
2065
2065
2065
2073
2073
2073
2068
2068
2068
2068
2068
2068
2069
2069
2069
2069
2073
2073
2073
2075
2075
2075
2068
2068
2068
2070
2070
2070
2073
2073
2073
2073
2066
2066
2066
2071
2071
2071
2067
2067
2067
2070
2070
2070
2071
2071
2071
2071
2070
2070
2070
2073
2073
2073
2071
2071
2071
2072
2072
2072
2068
2068
2068
2068
2070
2070
2070
2070
2070
2070
2070
2070
2070
2069
2069
2069
2062
2062
2062
2062
2065
2065
2065
2066
2066
2066
2066
2066
2066
2069
2069
2069
2071
2071
2071
2071
2068
2068
2068
2067
2067
2067
2070
2070
2070
2067
2067
2067
2072
2072
2072
2072
2070
2070
2070
2072
2072
2072
2071
2071
2071
2066
2066
2066
2061
2061
2061
2061
2066
2066
2066
2069
2069
2069
2071
2071
2071
2071
2071
2071
2066
2066
2066
2066
2069
2069
2069
2066
2066
2066
2068
2068
2068
2071
2071
2071
2072
2072
2072
2072
2079
2079
2079
2071
2071
2071
2065
2065
2065
2068
2068
2068
2065
2065
2065
2065
2068
2068
2068
2067
2067
2067
2070
2070
2070
2069
2069
2069
2070
2070
2070
2070
2066
2066
2066
2070
2070
2070
2070
2070
2070
2068
2068
2068
2072
2072
2072
2072
2066
2066
2066
2068
2068
2068
2068
2068
2068
2068
2068
2068
2072
2072
2072
2072
2067
2067
2067
2067
2067
2067
2068
2068
2068
2067
2067
2067
2071
2071
2071
2071
2067
2067
2067
2072
2072
2072
2066
2066
2066
2069
2069
2069
2070
2070
2070
2070
2068
2068
2068
2070
2070
2070
2068
2068
2068
2062
2062
2062
2069
2069
2069
2069
2067
2067
2067
2072
2072
2072
2065
2065
2065
2069
2069
2069
2071
2071
2071
2071
2068
2068
2068
2073
2073
2073
2068
2068
2068
2069
2069
2069
2071
2071
2071
2071
2066
2066
2066
2070
2070
2070
2067
2067
2067
2071
2071
2071
2070
2070
2070
2070
2068
2068
2068
2067
2067
2067
2073
2073
2073
2066
2066
2066
2068
2068
2068
2068
2065
2065
2065
2071
2071
2071
2070
2070
2070
2071
2071
2071
2070
2070
2070
2070
2065
2065
2065
2067
2067
2067
2069
2069
2069
2068
2068
2068
2072
2072
2072
2072
2064
2064
2064
2071
2071
2071
2070
2070
2070
2067
2067
2067
2070
2070
2070
2070
2068
2068
2068
2070
2070
2070
2066
2066
2066
2068
2068
2068
2072
2072
2072
2072
2067
2067
2067
2069
2069
2069
2069
2069
2069
2068
2068
2068
2071
2071
2071
2071
2073
2073
2073
2070
2070
2070
2068
2068
2068
2068
2068
2068
2069
2069
2069
2069
2068
2068
2068
2072
2072
2072
2070
2070
2070
2067
2067
2067
2069
2069
2069
2069
2069
2069
2069
2071
2071
2071
2066
2066
2066
2070
2070
2070
2071
2071
2071
2071
2068
2068
2068
2075
2075
2075
2068
2068
2068
2068
2068
2068
2070
2070
2070
2070
2069
2069
2069
2068
2068
2068
2064
2064
2064
2067
2067
2067
2071
2071
2071
2071
2067
2067
2067
2067
2067
2067
2067
2067
2067
2070
2070
2070
2076
2076
2076
2076
2064
2064
2064
2070
2070
2070
2075
2075
2075
2072
2072
2072
2070
2070
2070
2070
2070
2070
2070
2073
2073
2073
2068
2068
2068
2068
2068
2068
2071
2071
2071
2071
2071
2071
2071
2070
2070
2070
2064
2064
2064
2067
2067
2067
2071
2071
2071
2071
2068
2068
2068
2072
2072
2072
2069
2069
2069
2065
2065
2065
2072
2072
2072
2072
2069
2069
2069
2074
2074
2074
2070
2070
2070
2070
2070
2070
