2101
2097
2097
2097
2101
2101
2101
2098
2098
2098
2093
2093
2093
2100
2100
2100
2100
2100
2100
2100
2097
2097
2097
2102
2102
2102
2093
2093
2093
2096
2096
2096
2096
2104
2104
2104
2098
2098
2098
2101
2101
2101
2097
2097
2097
2101
2101
2101
2101
2094
2094
2094
2099
2099
2099
2103
2103
2103
2096
2096
2096
2095
2095
2095
2095
2100
2100
2100
2090
2090
2090
2097
2097
2097
2097
2097
2097
2099
2099
2099
2099
2097
2097
2100
2103
2103
2103
2098
2098
2098
2102
2102
2102
2096
2096
2096
2102
2102
2102
2102
2100
2100
2100
2091
2091
2091
2097
2097
2097
2099
2099
2099
2105
2105
2105
2105
2100
2100
2100
2097
2097
2097
2095
2095
2095
2100
2100
2100
2101
2101
2101
2101
2097
2097
2097
2095
2095
2095
2098
2098
2098
2091
2091
2091
2101
2101
2101
2101
2095
2095
2095
2106
2106
2106
2100
2100
2100
2095
2095
2095
2096
2096
2096
2096
2107
2107
2107
2099
2099
2099
2103
2103
2103
2098
2098
2098
2101
2101
2101
2101
2100
2100
2100
2103
2103
2103
2099
2099
2099
2095
2095
2095
2098
2098
2098
2098
2101
2101
2101
2097
2097
2097
2092
2092
2092
2097
2097
2097
2101
2101
2101
2101
2093
2093
2093
2099
2099
2099
2100
2100
2100
2096
2096
2096
2092
2092
2092
2092
2101
2101
2101
2096
2096
2096
2104
2104
2104
2098
2098
2098
2105
2105
2105
2105
2103
2103
2103
2097
2097
2097
2102
2102
2102
2097
2097
2097
2100
2100
2100
2100
2101
2101
2101
2102
2102
2102
2097
2097
2097
2096
2096
2096
2099
2099
2099
2099
2098
2098
2098
2103
2103
2103
2102
2102
2102
2102
2102
2102
2100
2100
2100
2100
2103
2103
2103
2097
2097
2097
2103
2103
2103
2101
2101
2101
2106
2106
2106
2106
2101
2101
2101
2097
2097
2097
2095
2095
2095
2095
2095
2095
2099
2099
2099
2099
2102
2102
2102
2095
2095
2095
2100
2100
2100
2100
2100
2100
2098
2098
2098
2098
2103
2103
2103
2095
2095
2095
2097
2097
2097
2096
2096
2096
2105
2105
2105
2105
2100
2100
2100
2097
2097
2097
2095
2095
2095
2095
2095
2095
2100
2100
2100
2100
2098
2098
2098
2093
2093
2093
2097
2097
2097
2098
2098
2098
2100
2100
2100
2100
2099
2099
2099
2097
2097
2097
2103
2103
2103
2095
2095
2095
2101
2101
2101
2101
2102
2102
2102
2100
2100
2100
2103
2103
2103
2098
2098
2098
2100
2100
2100
2100
2100
2100
2100
2097
2097
2097
2104
2104
2104
2094
2094
2094
2103
2103
2103
2103
2095
2095
2095
2096
2096
2096
2101
2101
2101
2098
2098
2098
2087
2087
2087
2087
2100
2100
2100
2098
2098
2098
2099
2099
2099
2097
2097
2097
2101
2101
2101
2101
2098
2098
2098
2101
2101
2101
2097
2097
2097
2094
2094
2094
2101
2101
2101
2101
2100
2100
2100
2092
2092
2092
2097
2097
2097
2094
2094
2094
2100
2100
2100
2100
2100
2100
2100
2098
2098
2098
2106
2106
2106
2100
2100
2100
2101
2101
2101
2101
2100
2100
2100
2098
2098
2098
2100
2100
2100
2101
2101
2101
2102
2102
2102
2102
2095
2095
2095
2105
2105
2105
2096
2096
2096
2096
2096
2096
2096
2096
2096
2096
2099
2099
2099
2095
2095
2095
2102
2102
2102
2095
2095
2095
2099
2099
2099
2099
2095
2095
2095
2091
2091
2091
2102
2102
2102
2094
2094
2094
2099
2099
2099
2099
2100
2100
2100
2099
2099
2099
2108
2108
2108
2095
2095
2095
2102
2102
2102
2102
2099
2099
2099
2098
2098
2098
2101
2101
2101
2096
2096
2096
2101
2101
2101
2101
2102
2102
2102
2093
2093
2093
2102
2102
2102
2096
2096
2096
2099
2099
2099
2099
2101
2101
2101
2098
2098
2098
2100
2100
2100
2096
2096
2096
2101
2101
2101
2101
2093
2093
2093
2095
2095
2095
2099
2099
2099
2094
2094
2094
2099
2099
2099
2099
2101
2101
2101
2092
2092
2092
2099
2099
2099
2099
2099
2099
2101
2101
2101
2101
2101
2101
2101
2094
2094
2094
2102
2102
2102
2098
2098
2098
2100
2100
2100
2100
2102
2102
2102
2095
2095
2095
2100
2100
2100
2096
2096
2096
2093
2093
2093
2093
2099
2099
2099
2098
2098
2098
2106
2106
2106
2094
2094
2094
2106
2106
2106
2106
2100
2100
2100
2096
2096
2096
2101
2101
2101
2096
2096
2096
2097
2097
2097
2097
2102
2102
2102
2097
2097
2097
2098
2098
2098
2097
2097
2097
2101
2101
2101
2101
2102
2102
2102
2097
2097
2097
2103
2103
2103
2096
2096
2096
2107
2107
2107
2107
2101
2101
2101
2094
2094
2094
2096
2096
2096
2096
2096
2096
2101
2101
2101
2101
2108
2108
2108
2097
2097
2097
2101
2101
2101
2102
2102
2102
2105
2105
2105
2105
2100
2100
2100
2094
2094
2094
2101
2101
2101
2093
2093
2093
2102
2102
2102
2102
2101
2101
2101
2097
2097
2097
2097
2097
2097
2096
2096
2096
2105
2105
2105
2105
2092
2092
2092
2097
2097
2097
2101
2101
2101
2097
2097
2097
2103
2103
2103
2103
2101
2101
2101
2103
2103
2103
2109
2109
2109
2097
2097
2097
2100
2100
2100
2100
2100
2100
2100
2098
2098
2098
2101
2101
2101
2100
2100
2100
2102
2102
2102
2102
2101
2101
2101
2100
2100
2100
2098
2098
2098
2095
2095
2095
2109
2109
2109
2109
2099
2099
2099
2098
2098
2098
2104
2104
2104
2101
2101
2101
2101
2101
2101
2101
2101
2101
2101
2101
2101
2101
2101
2101
2101
2093
2093
2093
2104
2104
2104
2104
2090
2090
2090
2095
2095
2095
2098
2098
2098
2098
2098
2098
2100
2100
2100
2100
2101
2101
2101
2098
2098
2098
2100
2100
2100
2099
2099
2099
2099
2099
2099
2099
2100
2100
2100
2098
2098
2098
2098
2098
2098
2096
2096
2096
2103
2103
2103
2103
2100
2100
2100
2098
2098
2098
2089
2089
2089
2098
2098
2098
2100
2100
2100
2100
2101
2101
2101
2095
