2093
2097
2097
2097
2092
2092
2092
2096
2096
2096
2096
2095
2095
2095
2092
2092
2092
2092
2092
2092
2089
2089
2089
2095
2095
2095
2095
2103
2103
2103
2091
2091
2091
2098
2098
2098
2089
2089
2089
2094
2094
2094
2094
2095
2095
2095
2097
2097
2097
2094
2094
2094
2091
2091
2091
2095
2095
2095
2095
2087
2087
2087
2090
2090
2090
2102
2102
2102
2092
2092
2092
2096
2096
2096
2096
2093
2093
2093
2092
2092
2092
2092
2092
2084
2097
2097
2097
2091
2091
2091
2091
2091
2091
2091
2092
2092
2092
2091
2091
2091
2098
2098
2098
2093
2093
2093
2095
2095
2095
2095
2097
2097
2097
2093
2093
2093
2093
2093
2093
2092
2092
2092
2093
2093
2093
2093
2093
2093
2093
2091
2091
2091
2096
2096
2096
2090
2090
2090
2093
2093
2093
2093
2093
2093
2093
2090
2090
2090
2097
2097
2097
2094
2094
2094
2096
2096
2096
2096
2087
2087
2087
2090
2090
2090
2094
2094
2094
2085
2085
2085
2094
2094
2094
2094
2094
2094
2094
2089
2089
2089
2095
2095
2095
2091
2091
2091
2095
2095
2095
2095
2091
2091
2091
2090
2090
2090
2095
2095
2095
2094
2094
2094
2093
2093
2093
2093
2097
2097
2097
2093
2093
2093
2097
2097
2097
2091
2091
2091
2095
2095
2095
2095
2089
2089
2089
2092
2092
2092
2097
2097
2097
2094
2094
2094
2095
2095
2095
2095
2098
2098
2098
2094
2094
2094
2094
2094
2094
2091
2091
2091
2096
2096
2096
2096
2095
2095
2095
2091
2091
2091
2095
2095
2095
2091
2091
2091
2097
2097
2097
2097
2101
2101
2101
2096
2096
2096
2098
2098
2098
2093
2093
2093
2100
2100
2100
2100
2099
2099
2099
2089
2089
2089
2097
2097
2097
2088
2088
2088
2097
2097
2097
2097
2094
2094
2094
2091
2091
2091
2096
2096
2096
2085
2085
2085
2093
2093
2093
2093
2092
2092
2092
2088
2088
2088
2096
2096
2096
2091
2091
2091
2095
2095
2095
2095
2094
2094
2094
2090
2090
2090
2095
2095
2095
2095
2095
2095
2097
2097
2097
2097
2096
2096
2096
2093
2093
2093
2092
2092
2092
2094
2094
2094
2098
2098
2098
2098
2097
2097
2097
2091
2091
2091
2100
2100
2100
2092
2092
2092
2095
2095
2095
2095
2095
2095
2095
2092
2092
2092
2097
2097
2097
2088
2088
2088
2096
2096
2096
2096
2095
2095
2095
2091
2091
2091
2094
2094
2094
2092
2092
2092
2100
2100
2100
2100
2099
2099
2099
2093
2093
2093
2098
2098
2098
2091
2091
2091
2097
2097
2097
2097
2090
2090
2090
2089
2089
2089
2097
2097
2097
2092
2092
2092
2095
2095
2095
2095
2094
2094
2094
2092
2092
2092
2095
2095
2095
2092
2092
2092
2095
2095
2095
2095
2095
2095
2095
2096
2096
2096
2096
2096
2096
2090
2090
2090
2095
2095
2095
2095
2097
2097
2097
2091
2091
2091
2095
2095
2095
2096
2096
2096
2095
2095
2095
2095
2095
2095
2095
2091
2091
2091
2096
2096
2096
2088
2088
2088
2094
2094
2094
2094
2097
2097
2097
2096
2096
2096
2094
2094
2094
2093
2093
2093
2090
2090
2090
2090
2096
2096
2096
2090
2090
2090
2096
2096
2096
2093
2093
2093
2094
2094
2094
2094
2094
2094
2094
2089
2089
2089
2097
2097
2097
2088
2088
2088
2097
2097
2097
2097
2094
2094
2094
2092
2092
2092
2097
2097
2097
2092
2092
2092
2093
2093
2093
2093
2095
2095
2095
2090
2090
2090
2095
2095
2095
2092
2092
2092
2095
2095
2095
2095
2096
2096
2096
2092
2092
2092
2095
2095
2095
2090
2090
2090
2093
2093
2093
2093
2092
2092
2092
2091
2091
2091
2093
2093
2093
2090
2090
2090
2094
2094
2094
2094
2097
2097
2097
2094
2094
2094
2096
2096
2096
2091
2091
2091
2097
2097
2097
2097
2097
2097
2097
2091
2091
2091
2097
2097
2097
2090
2090
2090
2094
2094
2094
2094
2094
2094
2094
2091
2091
2091
2096
2096
2096
2088
2088
2088
2095
2095
2095
2095
2090
2090
2090
2093
2093
2093
2097
2097
2097
2089
2089
2089
2093
2093
2093
2093
2095
2095
2095
2092
2092
2092
2097
2097
2097
2095
2095
2095
2090
2090
2090
2090
2093
2093
2093
2092
2092
2092
2096
2096
2096
2093
2093
2093
2095
2095
2095
2095
2099
2099
2099
2090
2090
2090
2093
2093
2093
2093
2093
2093
2096
2096
2096
2096
2096
2096
2096
2090
2090
2090
2095
2095
2095
2088
2088
2088
2095
2095
2095
2095
2095
2095
2095
2091
2091
2091
2098
2098
2098
2093
2093
2093
2097
2097
2097
2097
2092
2092
2092
2091
2091
2091
2094
2094
2094
2091
2091
2091
2093
2093
2093
2093
2095
2095
2095
2092
2092
2092
2094
2094
2094
2095
2095
2095
2101
2101
2101
2101
2096
2096
2096
2089
2089
2089
2095
2095
2095
2082
2082
2082
2098
2098
2098
2098
2096
2096
2096
2093
2093
2093
2095
2095
2095
2090
2090
2090
2092
2092
2092
2092
2095
2095
2095
2090
2090
2090
2096
2096
2096
2092
2092
2092
2096
2096
2096
2096
2093
2093
2093
2090
2090
2090
2095
2095
2095
2093
2093
2093
2095
2095
2095
2095
2095
2095
2095
2089
2089
2089
2098
2098
2098
2092
2092
2092
2096
2096
2096
2096
2095
2095
2095
2091
2091
2091
2098
2098
2098
2091
2091
2091
2094
2094
2094
2094
2091
2091
2091
2090
2090
2090
2096
2096
2096
2088
2088
2088
2092
2092
2092
2092
2093
2093
2093
2091
2091
2091
2098
2098
2098
2093
2093
2093
2092
2092
2092
2092
2096
2096
2096
2091
2091
2091
2102
2102
2102
2089
2089
2089
2095
2095
2095
2095
2096
2096
2096
2095
2095
2095
2100
2100
2100
2093
2093
2093
2090
2090
2090
2090
2095
2095
2095
2092
2092
2092
2092
2092
2092
2092
2092
2092
2096
2096
2096
2096
2098
2098
2098
2092
2092
2092
2097
2097
2097
2094
2094
2094
2094
2094
2094
2094
2096
2096
2096
2092
2092
2092
2095
2095
2095
2088
