2162
2162
2162
2164
2164
2164
2162
2162
2162
2162
2162
2162
2162
2163
2163
2163
2164
2164
2164
2164
2164
2164
2163
2163
2163
2164
2164
2164
2164
2164
2164
2164
2163
2163
2163
2162
2162
2162
2163
2163
2163
2165
2165
2165
2165
2159
2159
2159
2162
2162
2162
2161
2161
2161
2163
2163
2163
2168
2168
2168
2168
2163
2163
2163
2161
2161
2161
2162
2162
2162
2164
2164
2164
2164
2164
2164
2164
2163
2163
2163
2162
2162
2162
2163
2163
2163
2161
2161
2161
2162
2162
2162
2161
2161
2161
2161
2161
2161
2161
2162
2162
2162
2162
2162
2162
2163
2163
2163
2163
2163
2163
2163
2162
2162
2162
2162
2162
2162
2163
2163
2163
2165
2165
2165
2163
2163
2163
2163
2162
2162
2162
2162
2162
2162
2168
2168
2168
2166
2166
2166
2165
2165
2165
2165
2164
2164
2164
2165
2165
2165
2162
2162
2162
2162
2162
2162
2163
2163
2163
2163
2164
2164
2164
2165
2165
2165
2163
2163
2163
2164
2164
2164
2160
2160
2160
2160
2163
2163
2163
2162
2162
2162
2163
2163
2163
2161
2161
2161
2169
2169
2169
2169
2163
2163
2163
2165
2165
2165
2164
2164
2164
2164
2164
2164
2163
2163
2163
2163
2165
2165
2165
2164
2164
2164
2164
2164
2164
2163
2163
2163
2164
2164
2164
2164
2159
2159
2159
2161
2161
2161
2164
2164
2164
2162
2162
2162
2159
2159
2159
2159
2166
2166
2166
2159
2159
2159
2162
2162
2162
2163
2163
2163
2164
2164
2164
2164
2163
2163
2163
2163
2163
2163
2164
2164
2164
2160
2160
2160
2163
2163
2163
2163
2165
2165
2165
2167
2167
2167
2166
2166
2166
2166
2166
2166
2162
2162
2162
2162
2164
2164
2164
2165
2165
2165
2167
2167
2167
2162
2162
2162
2164
2164
2164
2164
2162
2162
2162
2164
2164
2164
2166
2166
2166
2160
2160
2160
2164
2164
2164
2164
2165
2165
2165
2160
2160
2160
2167
2167
2167
2173
2173
2173
2160
2160
2160
2160
2162
2162
2162
2162
2162
2162
2157
2157
2157
2157
2157
2157
2162
2162
2162
2162
2163
2163
2163
2162
2162
2162
2161
2161
2161
2163
2163
2163
2166
2166
2166
2166
2159
2159
2159
2163
2163
2163
2159
2159
2159
2160
2160
2160
2166
2166
2166
2166
2162
2162
2162
2162
2162
2162
2164
2164
2164
2162
2162
2162
2163
2163
2163
2163
2162
2162
2162
2163
2163
2163
2163
2163
2163
2163
2163
2163
2162
2162
2162
2162
2159
2159
2159
2160
2160
2160
2162
2162
2162
2164
2164
2164
2163
2163
2163
2163
2162
2162
2162
2161
2161
2161
2163
2163
2163
2163
2163
2163
2164
2164
2164
2164
2163
2163
2163
2163
2163
2163
2163
2163
2163
2164
2164
2164
2163
2163
2163
2163
2163
2163
2163
2169
2169
2169
2162
2162
2162
2161
2161
2161
2159
2159
2159
2159
2163
2163
2163
2162
2162
2162
2161
2161
2161
2162
2162
2162
2161
2161
2161
2161
2159
2159
2159
2165
2165
2165
2163
2163
2163
2164
2164
2164
2165
2165
2165
2165
2163
2163
2163
2170
2170
2170
2159
2159
2159
2165
2165
2165
2163
2163
2163
2163
2163
2163
2163
2163
2163
2163
2165
2165
2165
2161
2161
2161
2161
2161
2161
2161
2163
2163
2163
2161
2161
2161
2163
2163
2163
2162
2162
2162
2162
2162
2162
2162
2154
2154
2154
2165
2165
2165
2168
2168
2168
2158
2158
2158
2164
2164
2164
2164
2164
2164
2164
2161
2161
2161
2162
2162
2162
2159
2159
2159
2161
2161
2161
2161
2164
2164
2164
2162
2162
2162
2163
2163
2163
2163
2163
2163
2167
2167
2167
2167
2163
2163
2163
2163
2163
2163
2163
2163
2163
2164
2164
2164
2161
2161
2161
2161
2161
2161
2161
2162
2162
2162
2162
2162
2162
2162
2162
2162
2163
2163
2163
2163
2163
2163
2163
2165
2165
2165
2164
2164
2164
2168
2168
2168
2169
2169
2169
2169
2165
2165
2165
2160
2160
2160
2165
2165
2165
2163
2163
2163
2164
2164
2164
2164
2162
2162
2162
2163
2163
2163
2163
2163
2163
2161
2161
2161
2163
2163
2163
2163
2163
2163
2163
2164
2164
2164
2162
2162
2162
2163
2163
2163
2160
2160
2160
2160
2161
2161
2161
2164
2164
2164
2164
2164
2164
2161
2161
2161
2164
2164
2164
2164
2167
2167
2167
2161
2161
2161
2163
2163
2163
2161
2161
2161
2164
2164
2164
2164
2153
2153
2153
2160
2160
2160
2160
2160
2160
2162
2162
2162
2165
2165
2165
2165
2160
2160
2160
2164
2164
2164
2163
2163
2163
2164
2164
2164
2163
2163
2163
2163
2161
2161
2161
2161
2161
2161
2161
2161
2161
2164
2164
2164
2161
2161
2161
2161
2166
2166
2166
2164
2164
2164
2167
2167
2167
2165
2165
2165
2163
2163
2163
2163
2162
2162
2162
2164
2164
2164
2162
2162
2162
2163
2163
2163
2164
2164
2164
2164
2163
2163
2163
2165
2165
2165
2163
2163
2163
2163
2163
2163
2163
2163
2163
2163
2163
2163
2163
2164
2164
2164
2163
2163
2163
2164
2164
2164
2164
2164
2164
2164
2163
2163
2163
2161
2161
2161
2158
2158
2158
2167
2167
2167
2166
2166
2166
2166
2163
2163
2163
2161
2161
2161
2166
2166
2166
2156
2156
2156
2161
2161
2161
2161
2163
2163
2163
2164
2164
2164
2167
2167
2167
2158
2158
2158
2164
2164
2164
2164
2163
2163
2163
2163
2163
2163
2163
2163
2163
2163
2163
2163
2162
2162
2162
2162
2162
2162
2162
2162
2162
2162
2162
2162
2162
2163
2163
2163
2163
2163
2163
2163
2160
2160
2160
2161
2161
2161
2168
2168
2168
2163
2163
2163
2160
2160
2160
2160
2162
2162
2162
2165
2165
2165
2165
2165
2165
2163
2163
2163
2163
2163
2163
2163
2164
2164
2164
2162
2162
2162
2162
2162
2162
2163
2163
2163
2164
2164
2164
2164
2162
2162
2162
2166
2166
2166
2161
2161
2161
2160
2160
2160
2164
2164
2164
2164
2162
2162
2162
2162
2162
2162
2163
2163
