{
    "parameters": [
        [
            0.013157786435934741,
            0.013289591217551782,
            0.013278725265924147,
            0.01335942355249856,
            27.603669123012548,
            27.66421126048064,
            27.74854895481255,
            27.728969751070245
        ]
    ],
    "error": [
        [
            0.45312720699737996,
            0.39369006439531123,
            0.9397118756736602,
            1.1996810567186296,
            0.5802538708862536,
            0.5983980778628539,
            1.5347208464882185,
            1.5740106066918662,
            0.1861698965054737,
            0.569655984100593,
            0.8816730318399626,
            0.7538489766269985,
            0.4030984156843561,
            0.6169132684101936,
            1.0010409328729275,
            1.448997088917525,
            0.657002691383644,
            0.04074579205848515,
            2.9794721609633856,
            0.6929317411439637,
            0.20561281654872038,
            1.1320081501737633,
            0.9022660808397316,
            2.537323583782462,
            0.15570658335193724,
            0.269122519152715,
            0.12355741007902643,
            0.6999828892563332,
            0.5106934651977594,
            0.7480858288931479,
            1.2114021389447338,
            1.6253149687389656,
            0.5396188965917554,
            0.4802008106108986,
            0.999737821672982,
            0.7702194271054652,
            0.004690265790879328,
            0.4335442830419467,
            0.15174379482502293,
            0.6524867400653517
        ]
    ],
    "avg:": [
        0.7465525509462452,
        1.071845850482298,
        0.5978369722682569,
        0.8675124264712506,
        1.0925380963873697,
        1.1943026578361693,
        0.31209235046000294,
        1.0238741004436518,
        0.6974442389952753,
        0.31061627093080013
    ]
}