2013
2013
2013
2011
2011
2011
2013
2013
2013
2013
2013
2013
2013
2011
2011
2011
2014
2014
2014
2009
2009
2009
2013
2013
2013
2012
2012
2012
2012
2013
2013
2013
2014
2014
2014
2011
2011
2011
2014
2014
2014
2011
2011
2011
2011
2016
2016
2016
2013
2013
2013
2011
2011
2011
2012
2012
2012
2010
2010
2010
2010
2010
2010
2010
2010
2010
2010
2010
2010
2010
2010
2010
2010
2012
2012
2012
2012
2010
2010
2010
2014
2014
2014
2011
2011
2011
2014
2014
2014
2014
2014
2014
2014
2014
2014
2014
2015
2015
2015
2014
2014
2014
2016
2016
2016
2009
2009
2009
2009
2010
2010
2010
2011
2011
2011
2015
2015
2015
2014
2014
2014
2011
2011
2011
2011
2010
2010
2010
2015
2015
2015
2013
2013
2013
2015
2015
2015
2011
2011
2011
2011
2012
2012
2012
2013
2013
2013
2013
2013
2013
2014
2014
2014
2013
2013
2013
2013
2010
2010
2010
2012
2012
2012
2013
2013
2013
2014
2014
2014
2011
2011
2011
2011
2012
2012
2012
2014
2014
2014
2010
2010
2010
2017
2017
2017
2013
2013
2013
2013
2011
2011
2011
2015
2015
2015
2013
2013
2013
2010
2010
2010
2011
2011
2011
2011
2010
2010
2010
2013
2013
2013
2012
2012
2012
2014
2014
2014
2013
2013
2013
2013
2012
2012
2012
2011
2011
2011
2012
2012
2012
2014
2014
2014
2014
2014
2014
2014
2011
2011
2011
2012
2012
2012
2012
2012
2012
2013
2013
2013
2013
2013
2013
2013
2013
2013
2013
2012
2012
2012
2017
2017
2017
2013
2013
2013
2011
2011
2011
2011
2013
2013
2013
2014
2014
2014
2008
2008
2008
2011
2011
2011
2016
2016
2016
2016
2012
2012
2012
2013
2013
2013
2013
2013
2013
2014
2014
2014
2011
2011
2011
2011
2012
2012
2012
2012
2012
2012
2015
2015
2015
2015
2015
2015
2013
2013
2013
2013
2005
2005
2005
2013
2013
2013
2013
2013
2013
2010
2010
2010
2014
2014
2014
2014
2011
2011
2011
2013
2013
2013
2013
2013
2013
2010
2010
2010
2016
2016
2016
2016
2010
2010
2010
2014
2014
2014
2010
2010
2010
2012
2012
2012
2010
2010
2010
2010
2011
2011
2011
2016
2016
2016
2013
2013
2013
2013
2013
2013
2009
2009
2009
2009
2012
2012
2012
2012
2012
2012
2013
2013
2013
2014
2014
2014
2012
2012
2012
2012
2011
2011
2011
2015
2015
2015
2011
2011
2011
2013
2013
2013
2014
2014
2014
2014
2011
2011
2011
2011
2011
2011
2012
2012
2012
2013
2013
2013
2011
2011
2011
2011
2015
2015
2015
2013
2013
2013
2012
2012
2012
2007
2007
2007
2011
2011
2011
2011
2010
2010
2010
2012
2012
2012
2014
2014
2014
2010
2010
2010
2012
2012
2012
2012
2012
2012
2012
2013
2013
2013
2014
2014
2014
2011
2011
2011
2011
2011
2011
2011
2013
2013
2013
2013
2013
2013
2014
2014
2014
2017
2017
2017
2010
2010
2010
2010
2013
2013
2013
2013
2013
2013
2013
2013
2013
2013
2013
2013
2010
2010
2010
2010
2013
2013
2013
2013
2013
2013
2015
2015
2015
2011
2011
2011
2011
2011
2011
2011
2012
2012
2012
2015
2015
2015
2014
2014
2014
2010
2010
2010
2013
2013
2013
2013
2012
2012
2012
2014
2014
2014
2011
2011
2011
2015
2015
2015
2013
2013
2013
2013
2011
2011
2011
2015
2015
2015
2011
2011
2011
2012
2012
2012
2013
2013
2013
2013
2008
2008
2008
2012
2012
2012
2011
2011
2011
2013
2013
2013
2015
2015
2015
2015
2011
2011
2011
2015
2015
2015
2011
2011
2011
2009
2009
2009
2010
2010
2010
2010
2011
2011
2011
2015
2015
2015
2012
2012
2012
2014
2014
2014
2011
2011
2011
2011
2010
2010
2010
2015
2015
2015
2017
2017
2017
2015
2015
2015
2014
2014
2014
2014
2009
2009
2009
2016
2016
2016
2015
2015
2015
2012
2012
2012
2013
2013
2013
2013
2008
2008
2008
2014
2014
2014
2012
2012
2012
2012
2012
2012
2012
2012
2012
2012
2011
2011
2011
2018
2018
2018
2010
2010
2010
2019
2019
2019
2011
2011
2011
2011
2013
2013
2013
2012
2012
2012
2013
2013
2013
2016
2016
2016
2012
2012
2012
2012
2012
2012
2012
2011
2011
2011
2012
2012
2012
2013
2013
2013
2011
2011
2011
2011
2013
2013
2013
2015
2015
2015
2012
2012
2012
2012
2012
2012
2014
2014
2014
2014
2012
2012
2012
2013
2013
2013
2011
2011
2011
2012
2012
2012
2009
2009
2009
2009
2013
2013
2013
2012
2012
2012
2018
2018
2018
2014
2014
2014
2012
2012
2012
2012
2011
2011
2011
2013
2013
2013
2013
2013
2013
2012
2012
2012
2011
2011
2011
2011
2009
2009
2009
2012
2012
2012
2011
2011
2011
2015
2015
2015
2014
2014
2014
2014
2009
2009
2009
2015
2015
2015
2011
2011
2011
2009
2009
2009
2014
2014
2014
2014
2013
2013
2013
2015
2015
2015
2011
2011
2011
2013
2013
2013
2012
2012
2012
2012
2012
2012
2012
2011
2011
2011
2012
2012
2012
2013
2013
2013
2013
2013
2013
2013
2009
2009
2009
2018
2018
2018
2013
2013
2013
2012
2012
2012
2015
2015
2015
2015
2010
2010
2010
2013
2013
2013
2010
2010
2010
2012
2012
2012
2012
2012
2012
2012
2010
2010
2010
2013
2013
2013
2016
2016
2016
2011
2011
2011
2011
2011
2011
2011
2012
2012
2012
2012
2012
2012
2008
2008
2008
2011
2011
2011
2010
2010
2010
2010
2013
2013
2013
2012
2012
2012
2013
2013
2013
2011
2011
2011
2012
2012
2012
2012
2007
2007
2007
2014
2014
2014
2014
2014
2014
2011
2011
2011
2012
2012
2012
2012
2010
2010
2010
2013
2013
2013
2012
2012
2012
2014
2014
2014
2011
2011
2011
2011
2011
2011
2011
2017
2017
2017
2013
2013
2013
2013
2013
2013
2011
2011
2011
2011
2013
2013
2013
2009
2009
2009
2012
2012
2012
2014
2014
2014
2013
2013
2013
2013
2013
2013
2013
2015
2015
2015
2012
2012
2012
2011
2011
2011
2011
2011
2011
2011
2011
2011
2011
2013
2013
2013
2015
2015
2015
2014
2014
2014
2012
2012
2012
2012
2011
2011
2011
2016
2016
2016
2014
2014
2014
2015
2015
2015
2010
2010
2010
2010
2011
2011
2011
2015
2015
2015
2012
2012
2012
2015
2015
2015
2011
2011
2011
2011
2017
2017
2017
2013
2013
2013
2012
2012
2012
2015
2015
2015
2014
2014
2014
2014
2013
2013
2013
2015
2015
2015
2011
2011
2011
2017
2017
2017
2015
2015
2015
2015
2010
2010
2010
2016
2016
2016
2010
2010
2010
2017
2017
2017
2013
2013
2013
2013
2014
2014
2014
2012
2012
2012
2013
2013
2013
2015
2015
2015
2008
2008
2008
2008
2012
2012
2012
2012
2012
2012
2012
2012
2012
2013
2013
2013
2011
2011
2011
2011
2012
2012
2012
2011
2011
2011
2012
2012
2012
2013
2013
2013
2014
2014
2014
2014
2011
2011
2011
2012
2012
2012
2009
2009
2009
2012
2012
2012
2011
2011
2011
2011
2013
2013
2013
2014
2014
2014
2011
2011
2011
2015
2015
2015
2013
2013
2013
2013
2013
2013
2013
2013
2013
2013
2011
2011
2011
2013
2013
2013
2012
2012
2012
2012
2015
2015
2015
2012
2012
2012
2011
2011
2011
2015
2015
2015
2008
2008
2008
2008
2012
2012
2012
2012
2012
2012
2011
2011
2011
2012
2012
2012
2009
2009
2009
2009
2010
2010
2010
2017
2017
2017
2011
2011
2011
2011
2011
2011
2014
2014
2014
2014
2011
2011
2011
2014
2014
2014
2014
2014
2014
2018
2018
2018
2012
2012
2012
2012
2011
2011
2011
2013
2013
2013
2009
2009
2009
2013
2013
2013
2013
2013
2013
2013
2010
2010
2010
2013
2013
2013
2013
2013
2013
2013
2013
2013
2012
2012
2012
2012
2013
2013
2013
2013
2013
2013
2012
2012
2012
2011
2011
2011
2011
2011
2011
2011
2011
2011
2011
2013
2013
2013
2012
2012
2012
2011
2011
2011
2009
2009
2009
2009
2012
2012
2012
2012
2012
2012
2011
2011
2011
2015
2015
2015
2013
2013
2013
2013
2011
2011
2011
2016
2016
2016
2011
2011
2011
2012
2012
2012
2011
2011
2011
2011
2011
2011
2011
2018
2018
2018
2012
2012
2012
2019
2019
2019
2012
2012
2012
2012
2010
2010
2010
2015
2015
2015
2010
2010
2010
2014
2014
2014
2012
2012
2012
2012
2008
2008
2008
2012
2012
2012
2014
2014
2014
2014
2014
2014
2012
2012
2012
2012
2011
2011
2011
2013
2013
2013
2012
2012
2012
2013
2013
2013
2012
2012
2012
2012
2013
2013
2013
2013
2013
2013
2012
2012
2012
2011
2011
2011
2013
2013
2013
2013
2009
2009
2009
2012
2012
2012
2013
2013
2013
2015
2015
2015
2013
2013
2013
2013
2011
2011
2011
2013
2013
2013
2014
2014
2014
2017
2017
2017
2010
2010
2010
2010
2009
2009
2009
2013
2013
2013
2012
2012
2012
2014
2014
2014
2014
2014
2014
2014
2014
2014
2014
2012
2012
2012
2012
2012
2012
2012
2012
2012
2011
2011
2011
2011
2016
2016
2016
2011
2011
2011
2015
2015
2015
2011
2011
2011
2010
2010
2010
2010
2011
2011
2011
2015
2015
2015
2017
2017
2017
2013
2013
2013
2009
2009
2009
2009
2011
2011
2011
2012
2012
2012
2012
2012
2012
2009
2009
2009
2009
2009
2009
2009
2010
2010
2010
2013
2013
2013
2012
2012
2012
2012
2012
2012
2014
2014
2014
2014
2011
2011
2011
2012
2012
2012
2012
2012
2012
2012
2012
2012
2008
2008
2008
2008
2012
2012
2012
2012
2012
2012
2012
2012
2012
2013
2013
2013
2013
2013
2013
2013
2011
2011
2011
2011
2011
2011
2013
2013
2013
2015
2015
2015
2011
2011
2011
2011
2010
2010
2010
2011
2011
2011
2016
2016
2016
2012
2012
2012
2011
2011
2011
2011
2009
2009
2009
2012
2012
2012
2011
2011
2011
2013
2013
2013
2013
2013
2013
2013
2013
2013
2013
2014
2014
2014
2012
2012
2012
2012
2012
2012
2012
2012
2012
2012
2010
2010
2010
2013
2013
2013
2015
2015
2015
2015
2015
2015
2010
2010
2010
2010
2012
2012
2012
2014
2014
2014
2011
2011
2011
2012
2012
2012
2011
2011
2011
2011
2013
2013
2013
2012
2012
2012
2012
2012
2012
2011
2011
2011
2012
2012
2012
2012
2013
2013
2013
2015
2015
2015
2011
2011
2011
2012
2012
2012
2011
2011
2011
2011
2011
2011
2011
2014
2014
2014
2013
2013
2013
2013
2013
2013
2012
2012
2012
2012
2011
2011
2011
2010
2010
2010
2011
2011
2011
2014
2014
2014
2010
2010
2010
2010
2016
2016
2016
2011
2011
2011
2010
2010
2010
2014
2014
2014
2011
2011
2011
2011
2012
2012
2012
2013
2013
2013
2011
2011
2011
2017
2017
2017
2009
2009
2009
2009
2012
2012
2012
2007
2007
2007
2012
2012
2012
2016
2016
2016
2008
2008
2008
2008
2012
2012
2012
2017
2017
2017
2012
2012
2012
2016
2016
2016
2014
2014
2014
2014
2010
2010
2010
2013
2013
2013
2009
2009
2009
2014
2014
2014
2011
2011
2011
2011
2011
2011
2011
2015
2015
2015
2010
2010
2010
2013
2013
2013
2011
2011
2011
2011
2008
2008
2008
2012
2012
2012
2012
2012
2012
2015
2015
2015
2013
2013
2013
2013
2014
2014
2014
2012
2012
2012
2012
2012
2012
2015
2015
2015
2011
2011
2011
2011
2013
2013
2013
2012
2012
2012
2011
2011
2011
2015
2015
2015
2017
2017
2017
2017
2011
2011
2011
2009
2009
2009
2012
2012
2012
2015
2015
2015
2011
2011
2011
2011
2013
2013
2013
2012
2012
2012
2013
2013
2013
2014
2014
2014
2013
2013
2013
2013
2010
2010
2010
2014
2014
2014
2016
2016
2016
2013
2013
2013
2009
2009
2009
2009
2013
2013
2013
2014
2014
2014
2014
2014
2014
2011
2011
2011
2011
2011
2011
2011
2008
2008
2008
2014
2014
2014
2012
2012
2012
2012
2012
2012
2013
2013
2013
2013
2002
2002
2002
2013
2013
2013
2011
2011
2011
2016
2016
2016
2010
2010
2010
2010
2008
2008
2008
2014
2014
2014
2013
2013
2013
2013
2013
2013
2011
2011
2011
2011
2010
2010
2010
2017
2017
2017
2012
2012
2012
2014
2014
2014
2012
2012
2012
2012
2010
2010
2010
2015
2015
2015
2005
2005
2005
2010
2010
2010
2014
2014
2014
2014
2009
2009
2009
2012
2012
2012
2013
2013
2013
2016
2016
2016
2009
2009
2009
2009
2013
2013
2013
2013
2013
2013
2010
2010
2010
2015
2015
2015
2011
2011
2011
2011
2010
2010
2010
2015
2015
2015
2013
2013
2013
2012
2012
2012
2014
2014
2014
2014
2010
2010
2010
2015
2015
2015
2010
2010
2010
2013
2013
2013
2016
2016
2016
2016
2011
2011
2011
2013
2013
2013
2014
2014
2014
2014
2014
2014
2014
2014
2014
2014
2011
2011
2011
2011
2011
2011
2014
2014
2014
2013
2013
2013
2012
2012
2012
2012
2012
2012
2012
2015
2015
2015
2014
2014
2014
2013
2013
2013
2012
2012
2012
2012
2013
2013
2013
2016
2016
2016
2012
2012
2012
2017
2017
2017
2011
2011
2011
2011
2010
2010
2010
2011
2011
2011
2011
2011
2011
2019
2019
2019
2012
2012
2012
2012
2012
2012
2012
2013
2013
2013
2013
2013
2013
2014
2014
2014
2012
2012
2012
2012
2009
2009
2009
2016
2016
2016
2012
2012
2012
2014
2014
2014
2013
2013
2013
2013
2010
2010
2010
2018
2018
2018
2012
2012
2012
2014
2014
2014
2014
2014
2014
2014
2011
2011
2011
2014
2014
2014
2010
2010
2010
2012
2012
2012
2012
2012
2012
2012
2010
2010
2010
2011
2011
2011
2010
2010
2010
2015
2015
2015
2012
2012
2012
2012
2011
2011
2011
2013
2013
2013
2013
2013
2013
2010
2010
2010
2014
2014
2014
2014
2009
2009
2009
2013
2013
2013
2015
2015
2015
2012
2012
2012
2011
2011
2011
2011
2010
2010
2010
2012
2012
2012
2013
2013
2013
2014
2014
2014
2012
2012
2012
2012
2010
2010
2010
2019
2019
2019
2013
2013
2013
2011
2011
2011
2008
2008
2008
2008
2011
2011
2011
2013
2013
2013
2013
2013
2013
2015
2015
2015
2011
2011
2011
2011
2010
2010
2010
2013
2013
2013
2012
2012
2012
2014
2014
2014
2014
2014
2014
2014
2012
2012
2012
2013
2013
2013
2014
2014
2014
2013
2013
2013
2013
2013
2013
2013
2010
2010
2010
2013
2013
2013
2011
2011
2011
2016
2016
2016
2011
2011
2011
2011
2012
2012
2012
2012
2012
2012
2011
2011
2011
2008
2008
2008
2012
2012
2012
2012
2013
2013
2013
2012
2012
2012
2013
2013
2013
2012
2012
2012
2012
2012
2012
2012
2013
2013
2013
2012
2012
2012
2015
2015
2015
2015
2015
2015
2014
2014
2014
2014
2011
2011
2011
2011
2011
2011
2012
2012
2012
2016
2016
2016
2012
2012
2012
2012
2010
2010
2010
2013
2013
2013
2011
2011
2011
2014
2014
2014
2012
2012
2012
2012
2013
2013
2013
2015
2015
2015
2014
2014
2014
2011
2011
2011
2011
2011
2011
2011
2010
2010
2010
2013
2013
2013
2017
2017
2017
2012
2012
2012
2011
2011
2011
2011
2013
2013
2013
2010
2010
2010
2012
2012
2012
2017
2017
2017
2010
2010
2010
2010
2012
2012
2012
2012
2012
2012
2014
2014
2014
2014
2014
2014
2011
2011
2011
2011
2009
2009
2009
2010
2010
2010
2011
2011
2011
2013
2013
2013
2013
2013
2013
2013
2011
2011
2011
2012
2012
2012
2012
2012
2012
2014
2014
2014
2016
2016
2016
2016
2014
2014
2014
2013
2013
2013
2016
2016
2016
2016
2016
2016
2012
2012
2012
2012
2010
2010
2010
2011
2011
2011
2011
2011
2011
2013
2013
2013
2010
2010
2010
2010
2012
2012
2012
2014
2014
2014
2016
2016
2016
2014
2014
2014
2012
2012
2012
2012
2010
2010
2010
2013
2013
2013
2012
2012
2012
2012
2012
2012
2010
2010
2010
2010
2013
2013
2013
2012
2012
2012
2014
2014
2014
2012
2012
2012
2009
2009
2009
2009
2013
2013
2013
2009
2009
2009
2013
2013
2013
2014
2014
2014
2013
2013
2013
2013
2012
2012
2012
2011
2011
2011
2013
2013
2013
2011
2011
2011
2012
2012
2012
2012
2013
2013
2013
2016
2016
2016
2014
2014
2014
2015
2015
2015
2011
2011
2011
2011
2015
2015
2015
2014
2014
2014
2011
2011
2011
2013
2013
2013
2012
2012
2012
2012
2012
2012
2012
2018
2018
2018
2008
2008
2008
2008
2008
2008
2011
2011
2011
2011
2011
2011
2011
2014
2014
2014
2008
2008
2008
2009
2009
2009
2012
2012
2012
2012
2012
2012
2012
2013
2013
2013
2012
2012
2012
2015
2015
2015
2008
2008
2008
2008
2012
2012
2012
2007
2007
2007
2011
2011
2011
2012
2012
2012
2014
2014
2014
2014
2012
2012
2012
2017
2017
2017
2013
2013
2013
2014
2014
2014
2012
2012
2012
2012
2011
2011
2011
2014
2014
2014
2016
2016
2016
2014
2014
2014
2013
2013
2013
2013
2014
2014
2014
2014
2014
2014
2013
2013
2013
2012
2012
2012
2012
2012
2012
2012
2011
2011
2011
2017
2017
2017
2012
2012
2012
2016
2016
2016
2012
2012
2012
2012
2011
2011
2011
2012
2012
2012
2013
2013
2013
2012
2012
2012
2011
2011
2011
2011
2011
2011
2011
2012
2012
2012
2010
2010
2010
2016
2016
2016
2008
2008
2008
2008
2012
2012
2012
2016
2016
2016
2011
2011
2011
2015
2015
2015
2010
2010
2010
2010
2012
2012
2012
2012
2012
2012
2013
2013
2013
2011
2011
2011
2010
2010
2010
2010
2010
2010
2010
2012
2012
2012
2010
2010
2010
2015
2015
2015
2012
2012
2012
2012
2013
2013
2013
2014
2014
2014
2012
2012
2012
2013
2013
2013
2011
2011
2011
2011
2015
2015
2015
2015
2015
2015
2012
2012
2012
2012
2012
2012
2013
2013
2013
2013
2009
2009
2009
2013
2013
2013
2013
2013
2013
2013
2013
2013
2013
2013
2013
2013
2008
2008
2008
2012
2012
2012
2013
2013
2013
2012
2012
2012
2012
2012
2012
2012
2011
2011
2011
2014
2014
2014
2011
2011
2011
2014
2014
2014
2013
2013
2013
2013
2011
2011
2011
2010
2010
2010
2013
2013
2013
2014
2014
2014
2009
2009
2009
2009
2011
2011
2011
2012
2012
2012
2016
2016
2016
2013
2013
2013
2012
2012
2012
2012
2011
2011
2011
2012
2012
2012
2012
2012
2012
2011
2011
2011
2012
2012
2012
2012
2011
2011
2011
2013
2013
2013
2013
2013
2013
2016
2016
2016
2014
2014
2014
2014
2017
2017
2017
2015
2015
2015
2013
2013
2013
2011
2011
2011
2013
2013
2013
2013
2015
2015
2015
2014
2014
2014
2010
2010
2010
2014
2014
2014
2014
2014
2014
2014
2011
2011
2011
2014
2014
2014
2010
2010
2010
2016
2016
2016
2012
2012
2012
2012
2011
2011
2011
2013
2013
2013
2009
2009
2009
2009
2009
2009
2014
2014
2014
2014
2011
2011
2011
2015
2015
2015
2008
2008
2008
2011
2011
2011
2009
2009
2009
2009
2019
2019
2019
2014
2014
2014
2014
2014
2014
2014
2014
2014
2012
2012
2012
2012
2005
2005
2005
2013
2013
2013
2013
2013
2013
2011
2011
2011
2011
2011
2011
2011
2010
2010
2010
2012
2012
2012
2013
2013
2013
2016
2016
2016
2013
2013
2013
2013
2011
2011
2011
2012
2012
2012
2013
2013
2013
2014
2014
2014
2011
2011
2011
2011
2010
2010
2010
2016
2016
2016
2010
2010
2010
2013
2013
2013
2010
2010
2010
2010
2010
2010
2010
2011
2011
2011
2011
2011
2011
2012
2012
2012
2013
2013
2013
2013
2007
2007
2007
2013
2013
2013
2010
2010
2010
2013
2013
2013
2014
2014
2014
2014
2013
2013
2013
2011
2011
2011
2010
2010
2010
2016
2016
2016
2012
2012
2012
2012
2013
2013
2013
2014
2014
2014
2012
2012
2012
2011
2011
2011
2012
2012
2012
2012
2010
2010
2010
2015
2015
2015
2012
2012
2012
2017
2017
2017
2015
2015
2015
2015
2010
2010
2010
2010
2010
2010
2012
2012
2012
2013
2013
2013
2014
2014
2014
2014
2012
2012
2012
2013
2013
2013
2013
2013
2013
2015
2015
2015
2011
2011
2011
2011
2011
2011
2011
2013
2013
2013
2015
2015
2015
2013
2013
2013
2013
2013
2013
2013
2012
2012
2012
2015
2015
2015
2012
2012
2012
2017
2017
2017
2022
2022
2022
2022
2015
2015
2015
2012
2012
2012
2012
2012
2012
2016
2016
2016
2019
2019
2019
2019
2013
2013
2013
2014
2014
2014
2011
2011
2011
2013
2013
2013
2013
2013
2013
2013
2012
2012
2012
2012
2012
2012
2010
2010
2010
2014
2014
2014
2013
2013
2013
2013
2012
2012
2012
2021
2021
2021
2015
2015
2015
2013
2013
2013
2012
2012
2012
2012
2010
2010
2010
2014
2014
2014
2009
2009
2009
2015
2015
2015
2009
2009
2009
2009
2015
2015
2015
2016
2016
2016
2010
2010
2010
2013
2013
2013
2012
2012
2012
2012
2010
2010
2010
2015
2015
2015
2013
2013
2013
2014
2014
2014
2013
2013
2013
2013
2016
2016
2016
2013
2013
2013
2012
2012
2012
2007
2007
2007
2012
2012
2012
2012
2012
2012
2012
2012
2012
2012
2012
2012
2012
2012
2012
2012
2012
2012
2012
2012
2011
2011
2011
2012
2012
2012
2013
2013
2013
2013
2013
2013
2011
2011
2011
2011
2009
2009
2009
2010
2010
2010
2010
2010
2010
2013
2013
2013
2015
2015
2015
2015
2012
2012
2012
2013
2013
2013
2012
2012
2012
2012
2012
2012
2011
2011
2011
2011
2010
2010
2010
2012
2012
2012
2011
2011
2011
2015
2015
2015
2015
2015
2015
2015
2009
2009
2009
2014
2014
2014
2014
2014
2014
2014
2014
2014
2013
2013
2013
2013
2006
2006
2006
2013
2013
2013
2012
2012
2012
2014
2014
2014
2009
2009
2009
2009
2012
2012
2012
2013
2013
2013
2011
2011
2011
2016
2016
2016
2012
2012
2012
2012
2012
2012
2012
2013
2013
2013
2011
2011
2011
2014
2014
2014
2011
2011
2011
2011
2012
2012
2012
2011
2011
2011
2015
2015
2015
2012
2012
2012
2012
2012
2012
2012
2013
2013
2013
2014
2014
2014
2013
2013
2013
2012
2012
2012
2011
2011
2011
2011
2013
2013
2013
2012
2012
2012
2010
2010
2010
2012
2012
2012
2014
2014
2014
2014
2010
2010
2010
2015
2015
2015
2009
2009
2009
2015
2015
2015
2014
2014
2014
2014
2012
2012
2012
2014
2014
2014
2014
2014
2014
2011
2011
2011
2017
2017
2017
2017
2011
2011
2011
2014
2014
2014
2017
2017
2017
2017
2017
2017
2003
2003
2003
2003
2012
2012
2012
2016
2016
2016
2013
2013
2013
2013
2013
2013
2013
2013
2013
2013
2014
2014
2014
2014
2014
2014
2014
2014
2014
2013
2013
2013
2012
2012
2012
2012
2012
2012
2012
2013
2013
2013
2013
2013
2013
2012
2012
2012
2012
2012
2012
2012
2011
2011
2011
2014
2014
2014
2013
2013
2013
2016
2016
2016
2012
2012
2012
2012
2011
2011
2011
2015
2015
2015
2012
2012
2012
2013
2013
2013
2011
2011
2011
2011
2010
2010
2010
2016
2016
2016
2013
2013
2013
2012
2012
2012
2016
2016
2016
2016
2012
2012
2012
2013
2013
2013
2013
2013
2013
2013
2013
2013
2015
2015
2015
2015
2011
2011
2011
2010
2010
2010
2010
2010
2010
2016
2016
2016
2013
2013
2013
2013
2011
2011
2011
2011
2011
2011
2013
2013
2013
2014
2014
2014
2013
2013
2013
2013
2011
2011
2011
2013
2013
2013
2012
2012
2012
2011
2011
2011
2014
2014
2014
2014
2010
2010
2010
2012
2012
2012
2012
2012
2012
2015
2015
2015
2012
2012
2012
2012
2013
2013
2013
2012
2012
2012
2011
2011
2011
2011
2011
2011
2013
2013
2013
2013
2011
2011
2011
2010
2010
2010
2014
2014
2014
2015
2015
2015
2015
2015
2015
2015
2010
2010
2010
2012
2012
2012
2012
2012
2012
2014
2014
2014
2012
2012
2012
2012
2013
2013
2013
2012
2012
2012
2009
2009
2009
2013
2013
2013
2012
2012
2012
2012
2010
2010
2010
2015
2015
2015
2011
2011
2011
2013
2013
2013
2013
2013
2013
2013
2013
2013
2013
2011
2011
2011
2010
2010
2010
2015
2015
2015
2013
2013
2013
2013
2010
2010
2010
2013
2013
2013
2011
2011
2011
2020
2020
2020
2013
2013
2013
2013
2010
2010
2010
2013
2013
2013
2012
2012
2012
2011
2011
2011
2012
2012
2012
2012
2009
2009
2009
2016
2016
2016
2012
2012
2012
2018
2018
2018
2014
2014
2014
2014
2011
2011
2011
2015
2015
2015
2013
2013
2013
2011
2011
2011
2010
2010
2010
2010
2012
2012
2012
2011
2011
2011
2012
2012
2012
2014
2014
2014
2012
2012
2012
2012
2012
2012
2012
2012
2012
2012
2011
2011
2011
2014
2014
2014
2011
2011
2011
2011
2011
2011
2011
2012
2012
2012
2012
2012
2012
2015
2015
2015
2012
2012
2012
2012
2014
2014
2014
2013
2013
2013
2012
2012
2012
2006
2006
2006
2012
2012
2012
2012
2012
2012
2012
2013
2013
2013
2012
2012
2012
2013
2013
2013
2011
2011
2011
2011
2012
2012
2012
2015
2015
2015
2013
2013
2013
2012
2012
2012
2014
2014
2014
2014
2008
2008
2008
2017
2017
2017
2011
2011
2011
2015
2015
2015
2010
2010
2010
2010
2012
2012
2012
2014
2014
2014
2010
2010
2010
2014
2014
2014
2010
2010
2010
2010
2011
2011
2011
2013
2013
2013
2008
2008
2008
2012
2012
2012
2010
2010
2010
2010
2011
2011
2011
2013
2013
2013
2011
2011
2011
2011
2011
2011
2011
2011
2011
2011
2010
2010
2010
2015
2015
2015
2012
2012
2012
2010
2010
2010
2011
2011
2011
2011
2009
2009
2009
2013
2013
2013
2013
2013
2013
2013
2013
2013
2011
2011
2011
2011
2011
2011
2011
2018
2018
2018
2014
2014
2014
2014
2014
2014
2013
2013
2013
2013
2011
2011
2011
2017
2017
2017
2012
2012
2012
2016
2016
2016
2016
2016
2016
2016
2012
2012
2012
2011
2011
2011
2015
2015
2015
2014
2014
2014
2013
2013
2013
2013
2018
2018
2018
2013
2013
2013
2007
2007
2007
2014
2014
2014
2011
2011
2011
2011
2011
2011
2011
2018
2018
2018
2011
2011
2011
2011
2011
2011
2017
2017
2017
2017
2012
2012
2012
2012
2012
2012
2013
2013
2013
2016
2016
2016
2012
2012
2012
2012
2017
2017
2017
2013
2013
2013
2012
2012
2012
2015
2015
2015
2009
2009
2009
2009
2009
2009
2009
2015
2015
2015
2011
2011
2011
2015
2015
2015
2010
2010
2010
2010
2010
2010
2010
2012
2012
2012
2011
2011
2011
2013
2013
2013
2012
2012
2012
2012
2011
2011
2011
2014
2014
2014
2010
2010
2010
2014
2014
2014
2011
2011
2011
2011
2010
2010
2010
2013
2013
2013
2017
2017
2017
2014
2014
2014
2011
2011
2011
2011
2011
2011
2011
2014
2014
2014
2011
2011
2011
2013
2013
2013
2013
2013
2013
2013
2012
2012
2012
2013
2013
2013
2013
2013
2013
2014
2014
2014
2013
2013
2013
2013
2013
2013
2013
2014
2014
2014
2009
2009
2009
2015
2015
2015
2012
2012
2012
2012
2011
2011
2011
2014
2014
2014
2012
2012
2012
2009
2009
2009
2013
2013
2013
2013
2011
2011
2011
2011
2011
2011
2010
2010
2010
2011
2011
2011
2016
2016
2016
2016
2012
2012
2012
2015
2015
2015
2014
2014
2014
2013
2013
2013
2010
2010
2010
2010
2010
2010
2010
2014
2014
2014
2008
2008
2008
2015
2015
2015
2012
2012
2012
2012
2011
2011
2011
2013
2013
2013
2011
2011
2011
2014
2014
2014
2011
2011
2011
2011
2011
2011
2011
2012
2012
2012
2013
2013
2013
2013
2013
2013
2013
2013
2013
2013
2009
2009
2009
2012
2012
2012
2013
2013
2013
2018
2018
2018
2011
2011
2011
2011
2015
2015
2015
2012
2012
2012
2011
2011
2011
2018
2018
2018
2012
2012
2012
2012
2009
2009
2009
2015
2015
2015
2013
2013
2013
2012
2012
2012
2012
2012
2012
2012
2009
2009
2009
2013
2013
2013
2013
2013
2013
2013
2013
2013
2016
2016
2016
2016
2012
2012
2012
2006
2006
2006
2011
2011
2011
2013
2013
2013
2012
2012
2012
2012
2011
2011
2011
2013
2013
2013
2009
2009
2009
2012
2012
2012
2015
2015
2015
2015
2010
2010
2010
2013
2013
2013
2014
2014
2014
2012
2012
2012
2009
2009
2009
2009
2010
2010
2010
2012
2012
2012
2016
2016
2016
2017
2017
2017
2013
2013
2013
2013
2011
2011
2011
2011
2011
2011
2012
2012
2012
2010
2010
2010
2012
2012
2012
2012
2009
2009
2009
2013
2013
2013
2012
2012
2012
2014
2014
2014
2018
2018
2018
2018
2011
2011
2011
2017
2017
2017
2011
2011
2011
2012
2012
2012
2014
2014
2014
2014
2011
2011
2011
2007
2007
2007
2012
2012
2012
2012
2012
2012
2011
2011
2011
2011
2010
2010
2010
2012
2012
2012
2014
2014
2014
2014
2014
2014
2012
2012
2012
2012
2011
2011
2011
2012
2012
2012
2009
2009
2009
2011
2011
2011
2012
2012
2012
2012
2010
2010
2010
2011
2011
2011
2012
2012
2012
2014
2014
2014
2011
2011
2011
2011
2014
2014
2014
2013
2013
2013
2013
2013
2013
2014
2014
2014
2012
2012
2012
2012
2010
2010
2010
2014
2014
2014
2012
2012
2012
2015
2015
2015
2012
2012
2012
2012
2011
2011
2011
2012
2012
2012
2008
2008
2008
2014
2014
2014
2015
2015
2015
2015
2012
2012
2012
2012
2012
2012
2013
2013
2013
2016
2016
2016
2012
2012
2012
2012
2012
2012
2012
2014
2014
2014
2012
2012
2012
2014
2014
2014
2016
2016
2016
2016
2009
2009
2009
2015
2015
2015
2006
2006
2006
2013
2013
2013
2006
2006
2006
2006
2012
2012
2012
2013
2013
2013
2013
2013
2013
2013
2013
2013
2008
2008
2008
2008
2009
2009
2009
2013
2013
2013
2015
2015
2015
2012
2012
2012
2011
2011
2011
2011
2010
2010
2010
2011
2011
2011
2011
2011
2011
2012
2012
2012
2012
2012
2012
2012
2014
2014
2014
2013
2013
2013
2012
2012
2012
2014
2014
2014
2009
2009
2009
2009
2012
2012
2012
2009
2009
2009
2012
2012
2012
2013
2013
2013
2014
2014
2014
2014
2010
2010
2010
2017
2017
2017
2009
2009
2009
2013
2013
2013
2015
2015
2015
2015
2009
2009
2009
2012
2012
2012
2017
2017
2017
2014
2014
2014
2012
2012
2012
2012
2010
2010
2010
2011
2011
2011
2009
2009
2009
2013
2013
2013
2014
2014
2014
2014
2012
2012
2012
2013
2013
2013
2013
2013
2013
2016
2016
2016
2010
2010
2010
2010
2012
2012
2012
2013
2013
2013
2014
2014
2014
2010
2010
2010
2011
2011
2011
2011
2012
2012
2012
2014
2014
2014
2013
2013
2013
2012
2012
2012
2012
2012
2012
2012
2011
2011
2011
2014
2014
2014
2013
2013
2013
2013
2013
2013
2013
2013
2013
2013
2011
2011
2011
2015
2015
2015
2012
2012
2012
2013
2013
2013
2010
2010
2010
2010
2013
2013
2013
2016
2016
2016
2015
2015
2015
2013
2013
2013
2014
2014
2014
2014
2012
2012
2012
2012
2012
2012
2012
2012
2012
2014
2014
2014
2013
2013
2013
2013
2013
2013
2013
2013
2013
2013
2011
2011
2011
2012
2012
2012
2013
2013
2013
2013
2008
2008
2008
2015
2015
2015
2013
2013
2013
2009
2009
2009
2014
2014
2014
2014
2011
2011
2011
2013
2013
2013
2012
2012
2012
2018
2018
2018
2013
2013
2013
2013
2015
2015
2015
2014
2014
2014
2013
2013
2013
2012
2012
2012
2013
2013
2013
2013
2009
2009
2009
2012
2012
2012
2013
2013
2013
2014
2014
2014
2011
2011
2011
2011
2011
2011
2011
2012
2012
2012
2012
2012
2012
2012
2012
2012
2009
2009
2009
2009
2011
2011
2011
2013
2013
2013
2018
2018
2018
2013
2013
2013
2012
2012
2012
2012
2011
2011
2011
2014
2014
2014
2011
2011
2011
2013
2013
2013
2013
2013
2013
2013
2011
2011
2011
2012
2012
2012
2014
2014
2014
2018
2018
2018
2015
2015
2015
2015
2016
2016
2016
2013
2013
2013
2014
2014
2014
2008
2008
2008
2013
2013
2013
2013
2009
2009
2009
2015
2015
2015
2012
2012
2012
2012
2012
2012
2012
2012
2012
2012
2010
2010
2010
2014
2014
2014
2013
2013
2013
2011
2011
2011
2011
2011
2011
2011
2011
2011
2011
2015
2015
2015
2012
2012
2012
2014
2014
2014
2011
2011
2011
2011
2009
2009
2009
2015
2015
2015
2010
2010
2010
2015
2015
2015
2011
2011
2011
2011
2011
2011
2011
2014
2014
2014
2015
2015
2015
2015
2015
2015
2012
2012
2012
2012
2011
2011
2011
2012
2012
2012
2016
2016
2016
2011
2011
2011
2012
2012
2012
2012
2011
2011
2011
2013
2013
2013
2010
2010
2010
2014
2014
2014
2013
2013
2013
2013
2011
2011
2011
2014
2014
2014
2014
2014
2014
2013
2013
2013
2006
2006
2006
2006
2013
2013
2013
2009
2009
2009
2013
2013
2013
2009
2009
2009
2013
2013
2013
2013
2010
2010
2010
2016
2016
2016
2014
2014
2014
2013
2013
2013
2011
2011
2011
2011
2011
2011
2011
2013
2013
2013
2012
2012
2012
2013
2013
2013
2012
2012
2012
2012
2011
2011
2011
2009
2009
2009
2014
2014
2014
2013
2013
2013
2011
2011
2011
2011
2011
2011
2011
2012
2012
2012
2011
2011
2011
2016
2016
2016
2011
2011
2011
2011
2014
2014
2014
2014
2014
2014
2013
2013
2013
2014
2014
2014
2009
2009
2009
2009
2011
2011
2011
2013
2013
2013
2012
2012
2012
2012
2012
2012
2014
2014
2014
2014
2012
2012
2012
2012
2012
2012
2014
2014
2014
2013
2013
2013
2012
2012
2012
2012
2011
2011
2011
2014
2014
2014
2013
2013
2013
2016
2016
2016
2012
2012
2012
2012
2010
2010
2010
2009
2009
2009
2011
2011
2011
2012
2012
2012
2011
2011
2011
2011
2011
2011
2011
2011
2011
2011
2009
2009
2009
2011
2011
2011
2010
2010
2010
2010
2013
2013
2013
2013
2013
2013
2014
2014
2014
2016
2016
2016
2012
2012
2012
2012
2013
2013
2013
2015
2015
2015
2013
2013
2013
2021
2021
2021
2014
2014
2014
2014
2010
2010
2010
2013
2013
2013
2012
2012
2012
2012
2012
2012
2013
2013
2013
2013
2010
2010
2010
2010
2010
2010
2014
2014
2014
2014
2014
2014
2014
2014
2014
2014
2008
2008
2008
2015
2015
2015
2013
2013
2013
2012
2012
2012
2010
2010
2010
2010
2010
2010
2010
2015
2015
2015
2012
2012
2012
2013
2013
2013
2010
2010
2010
2010
2010
2010
2010
2014
2014
2014
2014
2014
2014
2015
2015
2015
2012
2012
2012
2012
2010
2010
2010
2014
2014
2014
2009
2009
2009
2017
2017
2017
2013
2013
2013
2013
2012
2012
2012
2014
2014
2014
2014
2014
2014
2014
2014
2014
2011
2011
2011
2011
2013
2013
2013
2013
2013
2013
2013
2013
2013
2012
2012
2012
2010
2010
2010
2010
2014
2014
2014
2015
2015
2015
2009
2009
2009
2011
2011
2011
2013
2013
2013
2013
2012
2012
2012
2011
2011
2011
2011
2011
2011
2013
2013
2013
2009
2009
2009
2009
2012
2012
2012
2013
2013
2013
2011
2011
2011
2010
2010
2010
2014
2014
2014
2014
2015
2015
2015
2011
2011
2011
2013
2013
2013
2014
2014
2014
2012
2012
2012
2012
2013
2013
2013
2014
2014
2014
2014
2014
2014
2013
2013
2013
2013
2013
2013
2013
2011
2011
2011
2014
2014
2014
2012
2012
2012
2014
2014
2014
2014
2014
2014
2014
2014
2014
2014
2013
2013
2013
2011
2011
2011
2016
2016
2016
2009
2009
2009
2009
2013
2013
2013
2015
2015
2015
2014
2014
2014
2013
2013
2013
2011
2011
2011
2011
2011
2011
2011
2013
2013
2013
2014
2014
2014
2014
2014
2014
2011
2011
2011
2011
2005
2005
2005
2016
2016
2016
2013
2013
2013
2015
2015
2015
2009
2009
2009
2009
2010
2010
2010
2017
2017
2017
2011
2011
2011
2013
2013
2013
2013
2013
2013
2013
2012
2012
2012
2013
2013
2013
2009
2009
2009
2013
2013
2013
2014
2014
2014
2014
2012
2012
2012
2015
2015
2015
2009
2009
2009
2010
2010
2010
2012
2012
2012
2012
2012
2012
2012
2013
2013
2013
2012
2012
2012
2012
2012
2012
2013
2013
2013
2013
2013
2013
2013
2014
2014
2014
2011
2011
2011
2014
2014
2014
2010
2010
2010
2010
2013
2013
2013
2014
2014
2014
2012
2012
2012
2014
2014
2014
2012
2012
2012
2012
2009
2009
2009
2016
2016
2016
2013
2013
2013
2014
2014
2014
2012
2012
2012
2012
2012
2012
2012
2013
2013
2013
2009
2009
2009
2012
2012
2012
2014
2014
2014
2014
2010
2010
2010
2016
2016
2016
2012
2012
2012
2014
2014
2014
2015
2015
2015
2015
2011
2011
2011
2017
2017
2017
2007
2007
2007
2014
2014
2014
2011
2011
2011
2011
2012
2012
2012
2012
2012
2012
2004
2004
2004
2012
2012
2012
2001
2001
2001
2001
2009
2009
2009
2014
2014
2014
2016
2016
2016
2013
2013
2013
2008
2008
2008
2008
2011
2011
2011
2013
2013
2013
2014
2014
2014
2015
2015
2015
2012
2012
2012
2012
2010
2010
2010
2013
2013
2013
2013
2013
2013
2011
2011
2011
2011
2011
2011
2011
2011
2011
2011
2014
2014
2014
2013
2013
2013
2013
2013
2013
2012
2012
2012
2012
2012
2012
2012
2011
2011
2011
2014
2014
2014
2014
2014
2014
2010
2010
2010
2010
2012
2012
2012
2013
2013
2013
2012
2012
2012
2015
2015
2015
2008
2008
2008
2008
2013
2013
2013
2013
2013
2013
2011
2011
2011
2013
2013
2013
2012
2012
2012
2012
2011
2011
2011
2011
2011
2011
2013
2013
2013
2014
2014
2014
2014
2014
2014
2014
2013
2013
2013
2015
2015
2015
2009
2009
2009
2014
2014
2014
2011
2011
2011
2011
2012
2012
2012
2014
2014
2014
2012
2012
2012
2012
2012
2012
2010
2010
2010
2010
2008
2008
2008
2005
2005
2005
2009
2009
2009
2008
2008
2008
2011
2011
2011
2011
2009
2009
2009
2013
2013
2013
2014
2014
2014
2006
2006
2006
2009
2009
2009
2009
2011
2011
2011
2013
2013
2013
2014
2014
2014
2015
2015
2015
2010
2010
2010
2010
2011
2011
2011
2016
2016
2016
2012
2012
2012
2014
2014
2014
2014
2014
2014
2014
2010
2010
2010
2015
2015
2015
2012
2012
2012
2013
2013
2013
2007
2007
2007
2007
2012
2012
2012
2014
2014
2014
2012
2012
2012
2012
2012
2012
2011
2011
2011
2011
2010
2010
2010
2013
2013
2013
2010
2010
2010
2013
2013
2013
2010
2010
2010
2010
2012
2012
2012
2010
2010
2010
2012
2012
2012
2013
2013
2013
2012
2012
2012
2012
2015
2015
2015
2014
2014
2014
2008
2008
2008
2014
2014
2014
2012
2012
2012
2012
2009
2009
2009
2016
2016
2016
2012
2012
2012
2011
2011
2011
2014
2014
2014
2014
2017
2017
2017
2010
2010
2010
2013
2013
2013
2016
2016
2016
2014
2014
2014
2014
2011
2011
2011
2015
2015
2015
2013
2013
2013
2011
2011
2011
2017
2017
2017
2017
2012
2012
2012
2013
2013
2013
2011
2011
2011
2011
2011
2011
2014
2014
2014
2014
2011
2011
2011
2017
2017
2017
2014
2014
2014
2014
2014
2014
2010
2010
2010
2010
2013
2013
2013
2014
2014
2014
2012
2012
2012
2014
2014
2014
2017
2017
2017
2017
2012
2012
2012
2013
2013
2013
2011
2011
2011
2013
2013
2013
2011
2011
2011
2011
2011
2011
2011
2013
2013
2013
2011
2011
2011
2014
2014
2014
2012
2012
2012
2012
2014
2014
2014
2012
2012
2012
2014
2014
2014
2012
2012
2012
2011
2011
2011
2011
2011
2011
2011
2014
2014
2014
2012
2012
2012
2012
2012
2012
2010
2010
2010
2010
2014
2014
2014
2008
2008
2008
2013
2013
2013
2014
2014
2014
2015
2015
2015
2015
2009
2009
2009
2010
2010
2010
2015
2015
2015
2012
2012
2012
2010
2010
2010
2010
2012
2012
2012
2016
2016
2016
2013
2013
2013
2012
2012
2012
2012
2012
2012
2012
2012
2012
2012
2011
2011
2011
2012
2012
2012
2014
2014
2014
2013
2013
2013
2013
2013
2013
2013
2016
2016
2016
2017
2017
2017
2014
2014
2014
2013
2013
2013
2013
2011
2011
2011
2014
2014
2014
2013
2013
2013
2012
2012
2012
2014
2014
2014
2014
2008
2008
2008
2011
2011
2011
2014
2014
2014
2015
2015
2015
2018
2018
2018
2018
2013
2013
2013
2012
2012
2012
2012
2012
2012
2013
2013
2013
2012
2012
2012
2012
2012
2012
2012
2011
2011
2011
2011
2011
2011
2015
2015
2015
2010
2010
2010
2010
2013
2013
2013
2011
2011
2011
2012
2012
2012
2013
2013
2013
2014
2014
2014
2014
2012
2012
2012
2013
2013
2013
2010
2010
2010
2014
2014
2014
2010
2010
2010
2010
2012
2012
2012
2012
2012
2012
2012
2012
2012
2012
2012
2012
2012
2012
2012
2012
2014
2014
2014
2016
2016
2016
2014
2014
2014
2013
2013
2013
2014
2014
2014
2014
2012
2012
2012
2014
2014
2014
2015
2015
2015
2016
2016
2016
2013
2013
2013
2013
2010
2010
2010
2012
2012
2012
2012
2012
2012
2010
2010
2010
2009
2009
2009
2009
2013
2013
2013
2011
2011
2011
2009
2009
2009
2013
2013
2013
2012
2012
2012
2012
2012
2012
2012
2017
2017
2017
2011
2011
2011
2012
2012
2012
2012
2012
2012
2012
2014
2014
2014
2012
2012
2012
2009
2009
2009
2015
2015
2015
2016
2016
2016
2016
2012
2012
2012
2016
2016
2016
2013
2013
2013
2015
2015
2015
2011
2011
2011
2011
2013
2013
2013
2011
2011
2011
2006
2006
2006
2013
2013
2013
2010
2010
2010
2010
2013
2013
2013
2009
2009
2009
2014
2014
2014
2013
2013
2013
2010
2010
2010
2010
2012
2012
2012
2012
2012
2012
2012
2012
2012
2010
2010
2010
2013
2013
2013
2013
2005
2005
2005
2014
2014
2014
2009
2009
2009
2015
2015
2015
2011
2011
2011
2011
2015
2015
2015
2012
2012
2012
2014
2014
2014
2013
2013
2013
2011
2011
2011
2011
2013
2013
2013
2011
2011
2011
2013
2013
2013
2014
2014
2014
2014
2014
2014
2014
2009
2009
2009
2015
2015
2015
2013
2013
2013
2012
2012
2012
2014
2014
2014
2011
2011
2011
2011
2010
2010
2010
2014
2014
2014
2011
2011
2011
2014
2014
2014
2012
2012
2012
2012
2012
2012
2012
2015
2015
2015
2011
2011
2011
2013
2013
2013
2013
2013
2013
2013
2010
2010
2010
2014
2014
2014
2011
2011
2011
2011
2011
2011
2012
2012
2012
2012
2007
2007
2007
2014
2014
2014
2012
2012
2012
2014
2014
2014
2012
2012
2012
2012
2009
2009
2009
2013
2013
2013
2013
2013
2013
2015
2015
2015
2014
2014
2014
2014
2010
2010
2010
2010
2010
2010
2012
2012
2012
2013
2013
2013
2011
2011
2011
2011
2011
2010
2010
2011
2011
2011
2015
2015
2015
2018
2018
2018
2014
2014
2014
2012
2012
2012
2012
2012
2012
2012
2012
2012
2012
2011
2011
2011
2014
2014
2014
2014
2014
2014
2014
2010
2010
2010
2013
2013
2013
2013
2013
2013
2015
2015
2015
2011
2011
2011
2011
2018
2018
2018
2013
2013
2013
2014
2014
2014
2014
2014
2014
2011
2011
2011
2011
2012
2012
2012
2011
2011
2011
2013
2013
2013
2014
2014
2014
2012
2012
2012
2012
2008
2008
2008
2013
2013
2013
2008
2008
2008
2013
2013
2013
2011
2011
2011
2011
2011
2011
2011
2014
2014
2014
2014
2014
2014
2011
2011
2011
2012
2012
2012
2011
2011
2011
2011
2014
2014
2014
2012
2012
2012
2014
2014
2014
2009
2009
2009
2012
2012
2012
2012
2011
2011
2011
2013
2013
2013
2012
2012
2012
2017
2017
2017
2011
2011
2011
2011
2010
2010
2010
2011
2011
2011
2011
2011
2011
2010
2010
2010
2015
2015
2015
2015
2012
2012
2012
2013
2013
2013
2013
2013
2013
2014
2014
2014
2016
2016
2016
2016
2009
2009
2009
2010
2010
2010
2014
2014
2014
2010
2010
2010
2010
2010
2010
2010
2013
2013
2013
2013
2013
2013
2010
2010
2010
2018
2018
2018
2013
2013
2013
2013
2010
2010
2010
2013
2013
2013
2009
2013
2013
2013
2014
2014
2014
2015
2015
2015
2010
2010
2010
2010
2005
2005
2005
2012
2012
2012
2010
2010
2010
2014
2014
2014
2009
2009
2009
2009
2012
2012
2012
2010
2010
2010
2010
2010
2010
2013
2013
2013
2010
2010
2010
2010
2012
2012
2012
2010
2010
2010
2013
2013
2013
2015
2015
2015
2011
2011
2011
2011
2011
2011
2011
2009
2009
2009
2012
2012
2012
2015
2015
2015
2013
2013
2013
2013
2012
2012
2012
2016
2016
2016
2011
2011
2011
2013
2013
2013
2011
2011
2011
2011
2011
2011
2011
2012
2012
2012
2010
2010
2010
2013
2013
2013
2012
2012
2012
2012
2011
2011
2011
2016
2016
2016
2013
2013
2013
2011
2011
2011
2017
2017
2017
2013
2013
2013
2013
2014
2014
2014
2012
2012
2012
2011
2011
2011
2012
2012
2012
2011
2011
2011
2011
2011
2011
2011
2011
2011
2011
2011
2011
2011
2013
2013
2013
2014
2014
2014
2014
2011
2011
2011
2007
2007
2007
2013
2013
2013
2011
2011
2011
2012
2012
2012
2012
2009
2009
2009
2010
2010
2010
2011
2011
2011
2017
2017
2017
2012
2012
2012
2012
2011
2011
2011
2014
2014
2014
2013
2013
2013
2011
2011
2011
2016
2016
2016
2016
2010
2010
2010
2013
2013
2013
2010
2010
2010
2018
2018
2012
2013
2013
2013
2013
2013
2013
2013
2010
2010
2010
2010
2010
2010
2012
2012
2012
2011
2011
2011
2014
2014
2014
2014
2013
2013
2013
2014
2014
2014
2012
2012
2012
2014
2014
2014
2013
2013
2013
2013
2012
2012
2012
2016
2016
2016
2015
2015
2015
2015
2015
2015
2013
2013
2013
2013
2011
2011
2011
2014
2014
2014
2012
2012
2012
2014
2014
2014
2011
2011
2011
2011
2010
2010
2010
2013
2013
2013
2013
2013
2013
2011
2011
2011
2013
2013
2013
2013
2013
2013
2013
2015
2015
2015
2013
2013
2013
2019
2019
2019
2010
2010
2010
2010
2009
2009
2009
2012
2012
2013
2009
2009
2009
2015
2015
2015
2013
2013
2013
2016
2016
2016
2016
2010
2010
2010
2014
2014
2014
2014
2014
2014
2014
2014
2014
2013
2013
2013
2013
2012
2012
2012
2015
2015
2015
2009
2009
2009
2014
2014
2014
2015
2015
2015
2015
2012
2012
2012
2014
2014
2014
2019
2019
2019
2013
2013
2013
2010
2010
2010
2010
2014
2014
2014
2014
2014
2014
2010
2010
2010
2014
2014
2014
2015
2015
2015
2015
2012
2012
2012
2013
2013
2013
2014
2014
2014
2014
2014
2014
2010
2010
2010
2010
2011
2011
2011
2014
2014
2014
2012
2012
2012
2011
2011
2011
2013
2013
2013
2013
2012
2012
2012
2010
2010
2010
2013
2013
2013
2012
2012
2012
2013
2013
2013
2011
2011
2011
2011
2010
2010
2010
2012
2012
2012
2016
2016
2016
2014
2014
2014
2012
2012
2012
2012
2010
2010
2010
2013
2013
2013
2013
2013
2013
2013
2013
2013
2010
2010
2010
2010
2014
2014
2014
2012
2012
2012
2012
2012
2012
2010
2010
2010
2013
2013
2013
2013
2009
2009
2009
2012
2012
2012
2012
2012
2012
2014
2014
2014
2010
2010
2010
2010
2013
2013
2013
2009
2009
2009
2012
2012
2012
2012
2012
2012
2018
2018
2018
2018
2011
2011
2011
2012
2012
2012
2015
2015
2015
2016
2017
2017
2017
2013
2013
2013
2012
2012
2012
2012
2009
2009
2009
2013
2013
2013
2015
2015
2015
2014
2014
2014
2011
2011
2011
2011
2013
2013
2013
2015
2015
2015
2010
2010
2010
2005
2005
2005
2013
2013
2013
2013
2009
2009
2009
2014
2014
2014
2013
2013
2013
2015
2015
2015
2012
2012
2012
2012
2011
2011
2011
2013
2013
2013
2013
2013
2013
2014
2014
2014
2013
2013
2013
2013
2010
2010
2010
2014
2014
2014
2011
2011
2011
2014
2014
2014
2013
2013
2013
2013
2010
2010
2010
2013
2013
2013
2011
2011
2011
2014
2014
2014
2011
2011
2011
2011
2011
2011
2011
2014
2013
2013
2014
2014
2014
2013
2013
2013
2013
2013
2013
2014
2014
2014
2014
2013
2013
2013
2011
2011
2011
2010
2010
2010
2014
2014
2014
2013
2013
2013
2013
2015
2015
2015
2015
2015
2015
2014
2014
2014
2013
2013
2013
2013
2013
2013
2013
2007
2007
2007
2014
2014
2014
2013
2013
2013
2014
2014
2014
2006
2006
2006
2006
2011
2011
2011
2011
2011
2011
2012
2012
2012
2015
2015
2015
2017
2017
2017
2017
2012
2012
2012
2010
2010
2010
2010
2010
2010
2013
2013
2013
2014
2014
2014
2014
2012
2012
2012
2015
2015
2015
2012
2012
2012
2013
2013
2013
2011
2011
2011
2011
2009
2009
2009
2012
2012
2012
2013
2013
2013
2015
2015
2015
2014
2014
2014
2014
2009
2009
2009
2014
2014
2014
2012
2012
2012
2011
2011
2011
2011
2011
2011
2011
2006
2006
2006
2012
2012
2012
2011
2011
2011
2018
2018
2018
2013
2013
2013
2013
2013
2013
2013
2012
2012
2012
2012
2012
2012
2013
2013
2013
2011
2011
2011
2011
2010
2010
2010
2018
2018
2018
2012
2012
2012
2014
2014
2014
2012
2012
2012
2012
2012
2012
2012
2012
2012
2012
2012
2012
2012
2013
2013
2013
2015
2015
2015
2015
2009
2009
2009
2015
2015
2015
2009
2009
2009
2013
2013
2013
2012
2012
2012
2012
2010
2010
2010
2011
2011
2011
2014
2014
2014
2013
2013
2013
2011
2011
2011
2011
2009
2009
2009
2018
2018
2018
2013
2013
2013
2013
2013
2013
2013
2013
2013
2013
2019
2019
2019
2010
2010
2010
2011
2011
2011
2014
2014
2014
2012
2012
2012
2012
2009
2009
2009
2012
2012
2012
2011
2011
2011
2014
2014
2014
2010
2010
2010
2010
2014
2014
2014
2016
2016
2016
2012
2012
2012
2011
2011
2011
2009
2009
2009
2009
2009
2009
2009
2013
2013
2013
2010
2010
2010
2014
2014
2014
2012
2012
2012
2012
2012
2012
2012
2014
2014
2014
2010
2010
2010
2010
2010
2010
2009
2009
2009
2009
2012
2012
2012
2014
2014
2014
2009
2009
2009
2012
2012
2012
2014
2014
2014
2014
2011
2011
2011
2012
2012
2012
2011
2011
2011
2014
2014
2014
2011
2011
2011
2011
2013
2013
2013
2014
2014
2014
2010
2010
2010
2010
2010
2010
2013
2013
2013
2013
2015
2015
2015
2013
2013
2013
2014
2014
2014
2011
2011
2011
2010
2010
2010
2010
2013
2013
2013
2014
2014
2014
2013
2013
2013
2013
2013
2013
2011
2011
2011
2011
2011
2011
2011
2013
2013
2013
2012
2012
2012
2013
2013
2013
2013
2013
2013
2013
2012
2012
2012
2011
2011
2011
2013
2013
2013
2014
2014
2014
2013
2013
2013
2013
2011
2011
2011
2012
2012
2012
2015
2015
2015
2012
2012
2012
2012
2012
2012
2012
2012
2012
2012
2014
2014
2014
2012
2012
2012
2015
2015
2015
2012
2012
2012
2012
2012
2012
2012
2013
2013
2013
2012
2012
2012
2010
2010
2010
2011
2011
2011
2011
2016
2016
2016
2014
2014
2014
2012
2012
2012
2014
2014
2014
2013
2013
2013
2013
2011
2011
2011
2010
2010
2010
2014
2014
2014
2015
2015
2015
2014
2014
2014
2014
2012
2012
2012
2018
2018
2018
2012
2012
2012
2013
2013
2013
2011
2011
2011
2011
2010
2010
2010
2013
2013
2013
2008
2008
2008
2015
2015
2015
2012
2012
2012
2012
2010
2010
2010
2015
2015
2015
2009
2009
2009
2013
2013
2013
2011
2011
2011
2011
2011
2011
2011
2013
2013
2013
2012
2012
2012
2013
2013
2013
2011
2011
2011
2011
2012
2012
2012
2014
2014
2014
2010
2010
2010
2015
2015
2015
2014
2014
2014
2014
2005
2005
2005
2014
2014
2014
2011
2011
2011
2012
2012
2012
2014
2014
2014
2014
2010
2010
2010
2014
2014
2014
2011
2011
2011
2014
2014
2014
2013
2013
2013
2013
2013
2013
2013
2016
2016
2016
2014
2014
2014
2014
2014
2014
2013
2013
2013
2013
2012
2012
2012
2014
2014
2014
2010
2010
2010
2012
2012
2012
2012
2012
2012
2012
2010
2010
2010
2013
2013
2013
2005
2005
2005
2012
2012
2012
2010
2010
2010
2010
2011
2011
2011
2013
2013
2013
2010
2010
2010
2016
2016
2016
2012
2012
2012
2012
2012
2012
2012
2013
2013
2013
2011
2011
2011
2016
2016
2016
2013
2013
2013
2013
2009
2009
2009
2014
2014
2014
2013
2013
2013
2010
2010
2010
2007
2007
2007
2007
2010
2010
2010
2013
2013
2013
2011
2011
2011
2013
2013
2013
2012
2012
2012
2012
2010
2010
2010
2012
2012
2012
2014
2014
2014
2013
2013
2013
2011
2011
2011
2011
2012
2012
2012
2014
2014
2014
2006
2006
2006
2013
2013
2013
2010
2010
2010
2010
2012
2012
2012
2011
2011
2011
2009
2009
2009
2013
2013
2013
2012
2012
2012
2012
2014
2014
2014
2014
2014
2014
2012
2012
2012
2011
2011
2011
2012
2012
2012
2012
2009
2009
2009
2011
2011
2011
2012
2012
2012
2009
2009
2009
2012
2012
2012
2012
2014
2014
2014
2015
2015
2015
2015
2015
2015
2012
2012
2012
2009
2009
2009
2009
2015
2015
2015
2015
2015
2015
2012
2012
2012
2012
2012
2012
2009
2009
2009
2009
2012
2012
2012
2011
2011
2011
2010
2010
2010
2014
2014
2014
2010
2010
2010
2010
2012
2012
2012
2011
2011
2011
2009
2009
2009
2013
2013
2013
2013
2013
2013
2013
2011
2011
2011
2011
2011
2011
2009
2009
2009
2016
2016
2016
2013
2013
2013
2013
2009
2009
2009
2014
2014
2014
2016
2016
2016
2011
2011
2011
2011
2011
2011
2011
2011
2011
2011
2013
2013
2013
2012
2012
2012
2013
2013
2013
2013
2013
2013
2013
2012
2012
2012
2012
2012
2012
2012
2012
2012
2013
2013
2013
2016
2016
2016
2016
2011
2011
2011
2017
2017
2017
2013
2013
2013
2015
2015
2015
2009
2009
2009
2009
2011
2011
2011
2016
2016
2016
2012
2012
2012
2014
2014
2014
2012
2012
2012
2012
2011
2011
2011
2013
2013
2013
2011
2011
2011
2013
2013
2013
2010
2010
2010
2010
2012
2012
2012
2013
2013
2013
2006
2006
2006
2014
2014
2014
2012
2012
2012
2012
2011
2011
2011
2014
2014
2014
2013
2013
2013
2011
2011
2011
2012
2012
2012
2012
2005
2005
2005
2014
2014
2014
2011
2011
2011
2014
2014
2014
2007
2007
2007
2007
2009
2009
2009
2012
2012
2012
2014
2014
2014
2013
2013
2013
2015
2015
2015
2015
2010
2010
2010
2018
2018
2018
2014
2014
2014
2014
2014
2014
2015
2015
2015
2015
2010
2010
2010
2015
2015
2015
2011
2011
2011
2014
2014
2014
2011
2011
2011
2011
2009
2009
2009
2011
2011
2011
2016
2016
2016
2013
2013
2013
2012
2012
2012
2012
2011
2011
2011
2013
2013
2013
2016
2016
2016
2014
2014
2014
2011
2011
2011
2011
2010
2010
2010
2011
2011
2011
2012
2012
2012
2011
2011
2011
2013
2013
2013
2013
2013
2013
2013
2012
2012
2012
2008
2008
2008
2013
2013
2013
2015
2015
2015
2015
2012
2012
2012
2015
2015
2015
2011
2011
2011
2016
2016
2016
2010
2010
2010
2010
2009
2009
2009
2010
2010
2010
2012
2012
2012
2015
2015
2015
2012
2012
2012
2012
2011
2011
2011
2012
2012
2012
2009
2009
2009
2013
2013
2013
2011
2011
2011
2011
2013
2013
2013
2016
2016
2016
2017
2017
2017
2014
2014
2014
2013
2013
2013
2013
2010
2010
2010
2011
2011
2011
2009
2009
2009
2011
2011
2011
2012
2012
2012
2012
2012
2012
2012
2012
2012
2012
2012
2012
2012
2012
2012
2012
2013
2013
2013
2013
2012
2012
2012
2013
2013
2013
2012
2012
2012
2014
2014
2014
2013
2013
2013
2013
2012
2012
2012
2012
2012
2012
2013
2013
2013
2013
2013
2013
2017
2017
2017
2017
2012
2012
2012
2013
2013
2013
2012
2012
2012
2012
2012
2012
2008
2008
2008
2008
2011
2011
2011
2014
2014
2014
2012
2012
2012
2014
2014
2014
2015
2015
2015
2015
2012
2012
2012
2012
2012
2012
2010
2010
2010
2014
2014
2014
2013
2013
2013
2013
2012
2012
2012
2013
2013
2013
2010
2010
2010
2012
2012
2012
2011
2011
2011
2011
2011
2011
2011
2014
2014
2014
2012
2012
2012
2013
2013
2013
2013
2013
2013
2013
2013
2013
2013
2013
2013
2013
2012
2012
2012
2009
2009
2009
2011
2011
2011
2011
2013
2013
2013
2012
2012
2012
2012
2012
2012
2013
2013
2013
2015
2015
2015
2015
2009
2009
2009
2017
2017
2017
2011
2011
2011
2013
2013
2013
2012
2012
2012
2012
2011
2011
2011
2012
2012
2012
2011
2011
2011
2013
2013
2013
2011
2011
2011
2011
2011
2011
2011
2016
2016
2016
2013
2013
2013
2013
2013
2013
2014
2014
2014
2014
2018
2018
2018
2010
2010
2010
2010
2010
2010
2015
2015
2015
2012
2012
2012
2012
2010
2010
2010
2011
2011
2011
2009
2009
2009
2016
2016
2016
2012
2012
2012
2012
2018
2018
2018
2013
2013
2013
2011
2011
2011
2014
2014
2014
2016
2016
2016
2016
2015
2015
2015
2013
2013
2013
2014
2014
2014
2015
2015
2015
2012
2012
2012
2012
2011
2011
2011
2014
2014
2014
2010
2010
2010
2013
2013
2013
2012
2012
2012
2012
2011
2011
2011
2006
2006
2006
2012
2012
2012
2016
2016
2016
2015
2015
2015
2015
2013
2013
2013
2014
2014
2014
2008
2008
2008
2014
2014
2014
2013
2013
2013
2013
2010
2010
2010
2013
2013
2013
2015
2015
2015
2012
2012
2012
2010
2010
2010
2010
2012
2012
2012
2013
2013
2013
2010
2010
2010
2013
2013
2013
2011
2011
2011
2011
2010
2010
2010
2013
2013
2013
2013
2013
2013
2016
2016
2016
2010
2010
2010
2010
2015
2015
2015
2012
2012
2012
2009
2009
2009
2011
2011
2011
2014
2014
2014
2014
2011
2011
2011
2013
2013
2013
2010
2010
2010
2013
2013
2013
2012
2012
2012
2012
2011
2011
2011
2012
2012
2012
2014
2014
2014
2012
2012
2012
2011
2011
2011
2011
2011
2011
2011
2011
2011
2011
2013
2013
2013
2012
2012
2012
2011
2011
2011
2011
2013
2013
2013
2014
2014
2014
2005
2005
2005
2011
2011
2011
2013
2013
2013
2013
2013
2013
2013
2014
2014
2014
2014
2014
2014
2015
2015
2015
2013
2013
2013
2013
2016
2016
2016
2013
2013
2013
2011
2011
2011
2015
2015
2015
2010
2010
2010
2010
2004
2004
2004
2011
2011
2011
2011
2011
2011
2013
2013
2013
2009
2009
2009
2009
2013
2013
2013
2012
2012
2012
2013
2013
2013
2013
2013
2013
2015
2015
2015
2015
2010
2010
2010
2016
2016
2016
2013
2013
2013
2014
2014
2014
2011
2011
2011
2011
2012
2012
2012
2013
2013
2013
2012
2012
2012
2014
2014
2014
2011
2011
2011
2011
2012
2012
2012
2009
2009
2009
2010
2010
2010
2013
2013
2013
2013
2013
2013
2013
2012
2012
2012
2016
2016
2016
2013
2013
2013
2013
2013
2013
2012
2012
2012
2012
2010
2010
2010
2013
2013
2013
2011
2011
2011
2016
2016
2016
2012
2012
2012
2012
2015
2015
2015
2014
2014
2014
2014
2014
2014
2020
2020
2020
2012
2012
2012
2012
2010
2010
2010
2014
2014
2014
2012
2012
2012
2015
2015
2015
2011
2011
2011
2011
2012
2012
2012
2009
2009
2009
2011
2011
2011
2011
2011
2011
2015
2015
2015
2015
2012
2012
2012
2012
2012
2012
2014
2014
2014
2012
2012
2012
2012
2012
2012
2012
2011
2011
2011
2013
2013
2013
2012
2012
2012
2014
2014
2014
2014
2014
2014
2014
2009
2009
2009
2013
2013
2013
2014
2014
2014
2012
2012
2012
2012
2012
2012
2012
2009
2009
2009
2014
2014
2014
2011
2011
2011
2013
2013
2013
2012
2012
2012
2012
2012
2012
2012
2013
2013
2013
2012
2012
2012
2015
2015
2015
2016
2016
2016
2016
2012
2012
2012
2012
2012
2012
2013
2013
2013
2014
2014
2014
2010
2010
2010
2010
2011
2011
2011
2016
2016
2016
2013
2013
2013
2014
2014
2014
2013
2013
2013
2013
2010
2010
2010
2013
2013
2013
2008
2008
2008
2014
2014
2014
2012
2012
2012
2012
2015
2015
2015
