2053
2053
2053
2053
2054
2054
2054
2051
2051
2051
2053
2053
2053
2051
2051
2051
2054
2054
2054
2054
2052
2052
2052
2050
2050
2050
2054
2054
2054
2052
2052
2052
2051
2051
2051
2051
2053
2053
2053
2049
2049
2049
2054
2054
2054
2052
2052
2052
2048
2048
2048
2048
2056
2056
2056
2048
2048
2048
2058
2058
2058
2048
2048
2048
2054
2054
2054
2054
2054
2054
2054
2050
2050
2050
2054
2054
2054
2052
2052
2052
2054
2054
2054
2054
2052
2052
2052
2049
2049
2049
2055
2055
2055
2053
2053
2053
2055
2055
2055
2055
2053
2053
2053
2050
2050
2050
2053
2053
2053
2049
2049
2049
2050
2050
2050
2050
2053
2053
2053
2052
2052
2052
2055
2055
2055
2053
2053
2053
2053
2053
2053
2053
2050
2050
2050
2052
2052
2052
2057
2057
2057
2050
2050
2050
2053
2053
2053
2053
2055
2055
2055
2050
2050
2050
2056
2056
2056
2052
2052
2052
2055
2055
2055
2055
2054
2054
2054
2049
2049
2049
2055
2055
2055
2050
2050
2050
2055
2055
2055
2055
2052
2052
2052
2049
2049
2049
2057
2057
2057
2045
2045
2045
2052
2052
2052
2052
2051
2051
2051
2052
2052
2052
2053
2053
2053
2049
2049
2049
2054
2054
2054
2054
2055
2055
2055
2049
2049
2049
2053
2053
2053
2050
2050
2050
2051
2051
2051
2051
2055
2055
2055
2051
2051
2051
2057
2057
2057
2051
2051
2051
2053
2053
2053
2053
2055
2055
2055
2050
2050
2050
2055
2055
2055
2051
2051
2051
2052
2052
2052
2052
2060
2060
2060
2049
2049
2049
2057
2057
2057
2051
2051
2051
2051
2051
2051
2051
2053
2053
2053
2049
2049
2049
2054
2054
2054
2048
2048
2048
2054
2054
2054
2054
2054
2054
2054
2051
2051
2051
2053
2053
2053
2049
2049
2049
2051
2051
2051
2051
2054
2054
2054
2050
2050
2050
2056
2056
2056
2051
2051
2051
2050
2050
2050
2050
2053
2053
2053
2051
2051
2051
2053
2053
2053
2051
2051
2051
2053
2053
2053
2053
2053
2053
2053
2048
2048
2048
2052
2052
2052
2053
2053
2053
2046
2046
2046
2046
2059
2059
2059
2053
2053
2053
2053
2053
2053
2049
2049
2049
2054
2054
2054
2054
2054
2054
2054
2048
2048
2048
2053
2053
2053
2053
2053
2053
2054
2054
2054
2054
2055
2055
2055
2051
2051
2051
2055
2055
2055
2047
2047
2047
2054
2054
2054
2054
2054
2054
2054
2050
2050
2050
2059
2059
2059
2046
2046
2046
2055
2055
2055
2055
2057
2057
2057
2047
2047
2047
2053
2053
2053
2055
2055
2055
2052
2052
2052
2052
2054
2054
2054
2050
2050
2050
2061
2061
2061
2050
2050
2050
2054
2054
2054
2054
2053
2053
2053
2049
2049
2049
2055
2055
2055
2052
2052
2052
2045
2045
2045
2045
2052
2052
2052
2051
2051
2051
2053
2053
2053
2051
2051
2051
2054
2054
2054
2054
2055
2055
2055
2052
2052
2052
2054
2054
2054
2043
2043
2043
2057
2057
2057
2057
2052
2052
2052
2049
2049
2049
2058
2058
2058
2052
2052
2052
2051
2051
2051
2051
2055
2055
2055
2044
2044
2044
2057
2057
2057
2052
2052
2052
2053
2053
2053
2053
2055
2055
2055
2049
2049
2049
2055
2055
2055
2050
2050
2050
2054
2054
2054
2054
2058
2058
2058
2046
2046
2046
2056
2056
2056
2049
2049
2049
2055
2055
2055
2055
2058
2058
2058
2049
2049
2049
2053
2053
2053
2053
2053
2053
2054
2054
2054
2054
2053
2053
2053
2049
2049
2049
2055
2055
2055
2050
2050
2050
2055
2055
2055
2055
2056
2056
2056
2050
2050
2050
2052
2052
2052
2048
2048
2048
2055
2055
2055
2055
2055
2055
2055
2049
2049
2049
2053
2053
2053
2050
2050
2050
2052
2052
2052
2052
2055
2055
2055
2053
2053
2053
2056
2056
2056
2053
2053
2053
2056
2056
2056
2056
2055
2055
2055
2049
2049
2049
2052
2052
2052
2046
2046
2046
2054
2054
2054
2054
2054
2054
2054
2053
2053
2053
2057
2057
2057
2052
2052
2052
2051
2051
2051
2051
2055
2055
2055
2049
2049
2049
2059
2059
2059
2051
2051
2051
2053
2053
2053
2053
2053
2053
2053
2043
2043
2043
2055
2055
2055
2050
2050
2050
2053
2053
2053
2053
2052
2052
2052
2056
2056
2056
2055
2055
2055
2047
2047
2047
2053
2053
2053
2053
2053
2053
2053
2049
2049
2049
2055
2055
2055
2047
2047
2047
2054
2054
2054
2054
2053
2053
2053
2050
2050
2050
2053
2053
2053
2052
2052
2052
2053
2053
2053
2053
2055
2055
2055
2047
2047
2047
2054
2054
2054
2049
2049
2049
2056
2056
2056
2056
2056
2056
2056
2051
2051
2051
2053
2053
2053
2052
2052
2052
2052
2052
2052
2052
2051
2051
2051
2050
2050
2050
2057
2057
2057
2049
2049
2049
2050
2050
2050
2050
2055
2055
2055
2055
2055
2055
2055
2055
2055
2048
2048
2048
2053
2053
2053
2053
2052
2052
2052
2048
2048
2048
2055
2055
2055
2050
2050
2050
2055
2055
2055
2055
2053
2053
2053
2052
2052
2052
2056
2056
2056
2049
2049
2049
2054
2054
2054
2054
2055
2055
2055
2048
2048
2048
2053
2053
2053
2053
2053
2053
2057
2057
2057
2057
2055
2055
2055
2053
2053
2053
2062
2062
2062
2050
2050
2050
2051
2051
2051
2051
2057
2057
2057
2049
2049
2049
2053
2053
2053
2049
2049
2049
2055
2055
2055
2055
2054
2054
2054
2052
2052
2052
2053
2053
2053
2048
2048
2048
2052
2052
2052
2052
2057
2057
2057
2052
2052
2052
2053
2053
2053
2050
2050
2050
2055
2055
2055
2055
2057
2057
2057
2049
2049
2049
2050
2050
2050
2049
2049
2049
2055
2055
2055
2055
2056
2056
2056
2052
2052
2052
2058
2058
2058
2050
2050
2050
2055
2055
2055
2055
2055
2055
2055
2048
2048
2048
2054
2054
2054
2049
2049
2049
2053
2053
2053
2053
2056
2056
2056
2049
2049
2049
2057
2057
2057
2050
2050
2050
2054
2054
2054
2054
2053
2053
2053
2045
2045
2045
2052
2052
2052
2054
2054
2054
2054
2054
2054
2054
2049
2049
2049
2052
2052
2052
2053
2053
2053
2048
2048
2048
2055
2055
2055
2055
2054
2054
2054
2048
2048
2048
2055
2055
2055
2051
2051
2051
2056
2056
2056
2056
2055
2055
2055
2049
2049
2049
2055
2055
2055
2059
2059
2059
2053
2053
2053
2053
2053
2053
2053
2049
2049
2049
2055
2055
2055
2050
2050
2050
2044
2044
2044
2044
2056
2056
2056
2051
2051
2051
2055
2055
2055
2044
2044
2044
2053
2053
2053
2053
2056
2056
2056
2051
2051
2051
2058
2058
2058
2050
2050
2050
2056
2056
2056
2056
2054
2054
2054
2051
2051
2051
2057
2057
2057
2049
2049
2049
2055
2055
2055
2055
2056
2056
2056
2052
2052
2052
2051
2051
2051
2049
2049
2049
2054
2054
2054
2054
2053
2053
2053
2049
2049
2049
2056
2056
2056
2051
2051
2051
2057
2057
2057
2057
2052
2052
2052
2052
2052
2052
2054
2054
2054
2051
2051
2051
2055
2055
2055
2055
2056
2056
2056
2048
2048
2048
2054
2054
2054
2048
2048
2048
2053
2053
2053
2053
2052
2052
2052
2048
2048
2048
2056
2056
2056
2051
2051
2051
2055
2055
2055
2055
2052
2052
2052
2056
2056
2056
2054
2054
2054
2046
2046
2046
2054
2054
2054
2054
2053
2053
2053
2051
2051
2051
2055
2055
2055
2054
2054
2054
2052
2052
2052
2052
2054
2054
2054
2051
2051
2051
2055
2055
2055
2048
2048
2048
2056
2056
2056
2056
2050
2050
2050
2055
2055
2055
2053
2053
2053
2051
2051
2051
2055
2055
2055
2055
2056
2056
2056
2049
2049
2049
2056
2056
2056
2051
2051
2051
2056
2056
2056
2056
2054
2054
2054
2050
2050
2050
2054
2054
2054
2051
2051
2051
2054
2054
2054
2054
2050
2050
2050
2052
2052
2052
2055
2055
2055
2048
2048
2048
2054
2054
2054
2054
2054
2054
2054
2051
2051
2051
2056
2056
2056
2049
2049
2049
2058
2058
2058
2058
2055
2055
2055
2047
2047
2047
2056
2056
2056
2049
2049
2049
2055
2055
2055
2055
2052
2052
2052
2051
2051
2051
2051
2051
2051
2049
2049
2049
2052
2052
2052
2052
2053
2053
2053
2049
2049
2049
2056
2056
2056
2055
2055
2055
2055
2055
2055
2055
2055
2055
2055
2051
2051
2051
2056
2056
2056
2050
2050
2050
2053
2053
2053
2053
2053
2053
2053
2051
2051
2051
2054
2054
2054
2049
2049
2049
2053
2053
2053
2053
2058
2058
2058
2054
2054
2054
2053
2053
2053
2046
2046
2046
2056
2056
2056
2056
2052
2052
2052
2054
2054
2054
2055
2055
2055
2049
2049
2049
2056
2056
2056
2056
2053
2053
2053
2051
2051
2051
2053
2053
2053
2049
2049
2049
2054
2054
2054
2054
2055
2055
2055
2046
2046
2046
2053
2053
2053
2050
2050
2050
2057
2057
2057
2057
2048
2048
2048
2048
2048
2048
2056
2056
2056
2047
2047
2047
2054
2054
2054
2054
2055
2055
2055
2052
2052
2052
2053
2053
2053
2048
2048
2048
2057
2057
2057
2057
2055
2055
2055
2049
2049
2049
2053
2053
2053
2047
2047
2047
2055
2055
2055
2055
2054
2054
2054
2050
2050
2050
2051
2051
2051
2049
2049
2049
2056
2056
2056
2056
2053
2053
2053
2054
2054
2054
2054
2054
2054
2055
2055
2055
2055
2055
2055
2055
2053
2053
2053
2050
2050
2050
2056
2056
2056
2049
2049
2049
2052
2052
2052
2052
2053
2053
2053
2055
2055
2055
2053
2053
2053
2053
2053
2053
2055
2055
2055
2055
2053
2053
2053
2051
2051
2051
2052
2052
2052
2048
2048
2048
2053
2053
2053
2053
2056
2056
2056
2048
2048
2048
2053
2053
2053
2050
2050
2050
2055
2055
2055
2055
2054
2054
2054
2049
2049
2049
2058
2058
2058
2046
2046
2046
2057
2057
2057
2057
2057
2057
2057
2048
2048
2048
2057
2057
2057
2051
2051
2051
2048
2048
2048
2048
2054
2054
2054
2052
2052
2052
2056
2056
2056
2050
2050
2050
2054
2054
2054
2054
2053
2053
2053
2049
2049
2049
2056
2056
2056
2050
2050
2050
2055
2055
2055
2055
2056
2056
2056
2048
2048
2048
2056
2056
2056
2049
2049
2049
2053
2053
2053
2053
2052
2052
2052
2056
2056
2056
2054
2054
2054
2040
2040
2040
2052
2052
2052
2052
2055
2055
2055
2048
2048
2048
2055
2055
2055
2046
2046
2046
2055
2055
2055
2055
2054
2054
2054
2050
2050
2050
2053
2053
2053
2050
2050
2050
2054
2054
2054
2054
2055
2055
2055
2046
2046
2046
2056
2056
2056
2050
2050
2050
2054
2054
2054
2054
2050
2050
2050
2047
2047
2047
2058
2058
2058
2051
2051
2051
2046
2046
2046
2046
2056
2056
2056
2051
2051
2051
2051
2051
2051
2047
2047
2047
2068
2068
2068
2068
2054
2054
2054
2051
2051
2051
2056
2056
2056
2047
2047
2047
2052
2052
2052
2052
2055
2055
2055
2050
2050
2050
2051
2051
2051
2050
2050
2050
2050
2050
2050
2050
2049
2049
2049
2050
2050
2050
2052
2052
2052
2052
2052
2052
2054
2054
2054
2054
2053
2053
2053
2049
2049
2049
2056
2056
2056
2053
2053
2053
2055
2055
2055
2055
2054
2054
2054
2051
2051
2051
2054
2054
2054
2050
2050
2050
2055
2055
2055
2055
2055
2055
2055
2050
2050
2050
2056
2056
2056
2052
2052
2052
2057
2057
2057
2057
2057
2057
2057
2048
2048
2048
2053
2053
2053
2052
2052
2052
2057
2057
2057
2057
2055
2055
2055
2045
2045
2045
2051
2051
2051
2051
2051
2051
2055
2055
2055
2055
2051
2051
2051
2049
2049
2049
2053
2053
2053
2050
2050
2050
2053
2053
2053
2053
2054
2054
2054
2047
2047
2047
2055
2055
2055
2052
2052
2052
2054
2054
2054
2054
2052
2052
2052
2047
2047
2047
2052
2052
2052
2051
2051
2051
2051
2051
2051
2051
2050
2050
2050
2052
2052
2052
2053
2053
2053
2050
2050
2050
2057
2057
2057
2057
2056
2056
2056
2047
2047
2047
2052
2052
2052
2055
2055
2055
2058
2058
2058
2058
2054
2054
2054
2048
2048
2048
2053
2053
2053
2052
2052
2052
2053
2053
2053
2053
2058
2058
2058
2048
2048
2048
2054
2054
2054
2050
2050
2050
2055
2055
2055
2055
2054
2054
2054
2049
2049
2049
2054
2054
2054
2051
2051
2051
2053
2053
2053
2053
2053
2053
2053
2050
2050
2050
2055
2055
2055
2050
2050
2050
2050
2050
2050
2050
2054
2054
2054
2050
2050
2050
2053
2053
2053
2053
2053
2053
2053
2053
2053
2053
2055
2055
2055
2050
2050
2050
2057
2057
2057
2050
2050
2050
2055
2055
2055
2055
2055
2055
2055
2049
2049
2049
2056
2056
2056
2049
2049
2049
2057
2057
2057
2057
2055
2055
2055
2047
2047
2047
2053
2053
2053
2045
2045
2045
2053
2053
2053
2053
2053
2053
2053
2049
2049
2049
2054
2054
2054
2053
2053
2053
2053
2053
2053
2053
2054
2054
2054
2048
2048
2048
2054
2054
2054
2051
2051
2051
2055
2055
2055
2055
2052
2052
2052
2052
2052
2052
2055
2055
2055
2051
2051
2051
2058
2058
2058
2058
2054
2054
2054
2047
2047
2047
2056
2056
2056
2052
2052
2052
2051
2051
2051
2051
2049
2049
2049
2047
2047
2047
2062
2062
2062
2047
2047
2047
2050
2050
2050
2050
2054
2054
2054
2052
2052
2052
2057
2057
2057
2052
2052
2052
2051
2051
2051
2051
2053
2053
2053
2052
2052
2052
2056
2056
2056
2048
2048
2048
2054
2054
2054
2054
2054
2054
2054
2051
2051
2051
2058
2058
2058
2049
2049
2049
2055
2055
2055
2055
2054
2054
2054
2049
2049
2049
2053
2053
2053
2053
2053
2053
2055
2055
2055
2055
2059
2059
2059
2053
2053
2053
2056
2056
2056
2047
2047
2047
2054
2054
2054
2054
2055
2055
2055
2051
2051
2051
2057
2057
2057
2054
2054
2054
2056
2056
2056
2056
2058
2058
2058
2049
2049
2049
2054
2054
2054
2048
2048
2048
2054
2054
2054
2054
2057
2057
2057
2046
2046
2046
2055
2055
2055
2048
2048
2048
2054
2054
2054
2054
2057
2057
2057
2052
2052
2052
2053
2053
2053
2050
2050
2050
2058
2058
2058
2058
2055
2055
2055
2051
2051
2051
2056
2056
2056
2055
2055
2055
2055
2055
2055
2055
2052
2052
2052
2047
2047
2047
2055
2055
2055
2048
2048
2048
2054
2054
2054
2054
2056
2056
2056
2052
2052
2052
2053
2053
2053
2052
2052
2052
2053
2053
2053
2053
2059
2059
2059
2052
2052
2052
2052
2052
2052
2047
2047
2047
2057
2057
2057
2057
2052
2052
2052
2050
2050
2050
2056
2056
2056
2051
2051
2051
2050
2050
2050
2050
2054
2054
2054
2048
2048
2048
2054
2054
2054
2049
2049
2049
2055
2055
2055
2055
2051
2051
2051
2047
2047
2047
2057
2057
2057
2050
2050
2050
2058
2058
2058
2058
2052
2052
2052
2045
2045
2045
2059
2059
2059
2051
2051
2051
2052
2052
2052
2052
2055
2055
2055
2051
2051
2051
2052
2052
2052
2046
2046
2046
2056
2056
2056
2056
2056
2056
2056
2049
2049
2049
2056
2056
2056
2049
2049
2049
2055
2055
2055
2055
2053
2053
2053
2047
2047
2047
2053
2053
2053
2052
2052
2052
2055
2055
2055
2055
2051
2051
2051
2051
2051
2051
2052
2052
2052
2048
2048
2048
2054
2054
2054
2054
2057
2057
2057
2045
2045
2045
2054
2054
2054
2050
2050
2050
2054
2054
2054
2054
2059
2059
2059
2049
2049
2049
2054
2054
2054
2050
2050
2050
2055
2055
2055
2055
2056
2056
2056
2050
2050
2050
2055
2055
2055
2050
2050
2050
2051
2051
2051
2051
2056
2056
2056
2049
2049
2049
2055
2055
2055
2049
2049
2049
2055
2055
2055
2055
2057
2057
2057
2050
2050
2050
2055
2055
2055
2050
2050
2050
2054
2054
2054
2054
2055
2055
2055
2049
2049
2049
2055
2055
2055
2045
2045
2045
2056
2056
2056
2056
2056
2056
2056
2051
2051
2051
2061
2061
2061
2051
2051
2051
2055
2055
2055
2055
2053
2053
2053
2050
2050
2050
2055
2055
2055
2049
2049
2049
2055
2055
2055
2055
2052
2052
2052
2052
2052
2052
2053
2053
2053
2048
2048
2048
2054
2054
2054
2054
2055
2055
2055
2050
2050
2050
2052
2052
2052
2050
2050
2050
2064
2064
2064
2064
2055
2055
2055
2049
2049
2049
2053
2053
2053
2047
2047
2047
2055
2055
2055
2055
2055
2055
2055
2049
2049
2049
2053
2053
2053
2050
2050
2050
2053
2053
2053
2053
2051
2051
2051
2050
2050
2050
2054
2054
2054
2052
2052
2052
2055
2055
2055
2055
2051
2051
2051
2052
2052
2052
2054
2054
2054
2048
2048
2048
2055
2055
2055
2055
2054
2054
2054
2046
2046
2046
2055
2055
2055
2053
2053
2053
2055
2055
2055
2055
2054
2054
2054
2050
2050
2050
2053
2053
2053
2049
2049
2049
2052
2052
2052
2052
2056
2056
2056
2052
2052
2052
2054
2054
2054
2049
2049
2049
2053
2053
2053
2053
2054
2054
2054
2049
2049
2049
2057
2057
2057
2049
2049
2049
2054
2054
2054
2054
2055
2055
2055
2048
2048
2048
2043
2043
2043
2052
2052
2052
2054
2054
2054
2054
2054
2054
2054
2049
2049
2049
2056
2056
2056
2051
2051
2051
2052
2052
2052
2052
2052
2052
2052
2051
2051
2051
2061
2061
2061
2050
2050
2050
2054
2054
2054
2054
2057
2057
2057
2046
2046
2046
2051
2051
2051
2053
2053
2053
2055
2055
2055
2055
2053
2053
2053
2048
2048
2048
2054
2054
2054
2054
2054
2054
2055
2055
2055
2055
2054
2054
2054
2051
2051
2051
2057
2057
2057
2051
2051
2051
2054
2054
2054
2054
2057
2057
2057
2049
2049
2049
2054
2054
2054
2049
2049
2049
2054
2054
2054
2054
2055
2055
2055
2049
2049
2049
2054
2054
2054
2049
2049
2049
2054
2054
2054
2054
2053
2053
2053
2049
2049
2049
2057
2057
2057
2054
2054
2054
2052
2052
2052
2052
2055
2055
2055
2047
2047
2047
2054
2054
2054
2053
2053
2053
2055
2055
2055
2055
2052
2052
2052
2051
2051
2051
2053
2053
2053
2051
2051
2051
2054
2054
2054
2054
2054
2054
2054
2048
2048
2048
2054
2054
2054
2052
2052
2052
2056
2056
2056
2056
2051
2051
2051
2052
2052
2052
2056
2056
2056
2047
2047
2047
2057
2057
2057
2057
2058
2058
2058
2050
2050
2050
2053
2053
2053
2053
2053
2053
2051
2051
2051
2051
2053
2053
2053
2049
2049
2049
2054
2054
2054
2049
2049
2049
2059
2059
2059
2059
2054
2054
2054
2051
2051
2051
2054
2054
2054
2049
2049
2049
2054
2054
2054
2054
2052
2052
2052
2051
2051
2051
2054
2054
2054
2049
2049
2049
2056
2056
2056
2056
2054
2054
2054
2045
2045
2045
2054
2054
2054
2056
2056
2056
2057
2057
2057
2057
2054
2054
2054
2050
2050
2050
2055
2055
2055
2048
2048
2048
2054
2054
2054
2054
2053
2053
2053
2050
2050
2050
2057
2057
2057
2050
2050
2050
2051
2051
2051
2051
2054
2054
2054
2048
2048
2048
2056
2056
2056
2050
2050
2050
2052
2052
2052
2052
2055
2055
2055
2049
2049
2049
2059
2059
2059
2048
2048
2048
2048
2048
2048
2048
2053
2053
2053
2050
2050
2050
2055
2055
2055
2049
2049
2049
2054
2054
2054
2054
2058
2058
2058
2050
2050
2050
2051
2051
2051
2051
2051
2051
2055
2055
2055
2055
2057
2057
2057
2054
2054
2054
2056
2056
2056
2050
2050
2050
2054
2054
2054
2054
2052
2052
2052
2048
2048
2048
2057
2057
2057
2050
2050
2050
2051
2051
2051
2051
2054
2054
2054
2052
2052
2052
2053
2053
2053
2050
2050
2050
2058
2058
2058
2058
2055
2055
2055
2050
2050
2050
2056
2056
2056
2053
2053
2053
2055
2055
2055
2055
2054
2054
2054
2050
2050
2050
2054
2054
2054
2050
2050
2050
2052
2052
2052
2052
2053
2053
2053
2045
2045
2045
2056
2056
2056
2050
2050
2050
2050
2050
2050
2050
2051
2051
2051
2052
2052
2052
2052
2052
2052
2047
2047
2047
2058
2058
2058
2058
2054
2054
2054
2053
2053
2053
2054
2054
2054
2051
2051
2051
2053
2053
2053
2053
2059
2059
2059
2048
2048
2048
2055
2055
2055
2051
2051
2051
2053
2053
2053
2053
2049
2049
2049
2052
2052
2052
2055
2055
2055
2049
2049
2049
2053
2053
2053
2053
2056
2056
2056
2050
2050
2050
2055
2055
2055
2048
2048
2048
2055
2055
2055
2055
2054
2054
2054
2048
2048
2048
2057
2057
2057
2048
2048
2048
2055
2055
2055
2055
2055
2055
2055
2047
2047
2047
2054
2054
2054
2055
2055
2055
2053
2053
2053
2053
2052
2052
2052
2052
2052
2052
2055
2055
2055
2048
2048
2048
2053
2053
2053
2053
2058
2058
2058
2048
2048
2048
2054
2054
2054
2050
2050
2050
2056
2056
2056
2056
2058
2058
2058
2049
2049
2049
2055
2055
2055
2052
2052
2052
2055
2055
2055
2055
2054
2054
2054
2053
2053
2053
2054
2054
2054
2049
2049
2049
2055
2055
2055
2055
2055
2055
2055
2050
2050
2050
2056
2056
2056
2051
2051
2051
2055
2055
2055
2055
2056
2056
2056
2051
2051
2051
2056
2056
2056
2051
2051
2051
2055
2055
2055
2055
2053
2053
2053
2047
2047
2047
2057
2057
2057
2049
2049
2049
2053
2053
2053
2053
2059
2059
2059
2050
2050
2050
2055
2055
2055
2051
2051
2051
2054
2054
2054
2054
2053
2053
2053
2048
2048
2048
2042
2042
2042
2051
2051
2051
2055
2055
2055
2055
2048
2048
2048
2054
2054
2054
2055
2055
2055
2048
2048
2048
2054
2054
2054
2054
2053
2053
2053
2049
2049
2049
2048
2048
2048
2051
2051
2051
2059
2059
2059
2059
2055
2055
2055
2047
2047
2047
2055
2055
2055
2054
2054
2054
2054
2054
2054
2054
2052
2052
2052
2049
2049
2049
2052
2052
2052
2049
2049
2049
2052
2052
2052
2052
2058
2058
2058
2052
2052
2052
2049
2049
2049
2051
2051
2051
2053
2053
2053
2053
2053
2053
2053
2047
2047
2047
2059
2059
2059
2052
2052
2052
2050
2050
2050
2050
2053
2053
2053
2052
2052
2052
2053
2053
2053
2052
2052
2052
2058
2058
2058
2058
2053
2053
2053
2050
2050
2050
2055
2055
2055
2052
2052
2052
2056
2056
2056
2056
2051
2051
2051
2052
2052
2052
2053
2053
2053
2051
2051
2051
2054
2054
2054
2054
2052
2052
2052
2053
2053
2053
2057
2057
2057
2051
2051
2051
2056
2056
2056
2056
2054
2054
2054
2051
2051
2051
2050
2050
2050
2051
2051
2051
2055
2055
2055
2055
2054
2054
2054
2047
2047
2047
2054
2054
2054
2051
2051
2051
2053
2053
2053
2053
2055
2055
2055
2049
2049
2049
2055
2055
2055
2052
2052
2052
2055
2055
2055
2055
2054
2054
2054
2046
2046
2046
2051
2051
2051
2052
2052
2052
2061
2061
2061
2061
2052
2052
2052
2048
2048
2048
2053
2053
2053
2054
2054
2054
2055
2055
2055
2055
2055
2055
2055
2050
2050
2050
2053
2053
2053
2049
2049
2049
2054
2054
2054
2054
2053
2053
2053
2051
2051
2051
2055
2055
2055
2052
2052
2052
2046
2046
2046
2046
2059
2059
2059
2050
2050
2050
2055
2055
2055
2050
2050
2050
2051
2051
2051
2051
2056
2056
2056
2048
2048
2048
2052
2052
2052
2047
2047
2047
2058
2058
2058
2058
2055
2055
2055
2050
2050
2050
2056
2056
2056
2048
2048
2048
2055
2055
2055
2055
2054
2054
2054
2051
2051
2051
2055
2055
2055
2050
2050
2050
2055
2055
2055
2055
2056
2056
2056
2055
2055
2055
2052
2052
2052
2055
2055
2055
2053
2053
2053
2053
2053
2053
2053
2049
2049
2049
2058
2058
2058
2048
2048
2048
2056
2056
2056
2056
2055
2055
2055
2047
2047
2047
2056
2056
2056
2051
2051
2051
2053
2053
2053
2053
2051
2051
2051
2051
2051
2051
2050
2050
2050
2051
2051
2051
2053
2053
2053
2053
2049
2049
2049
2053
2053
2053
2056
2056
2056
2049
2049
2049
2052
2052
2052
2052
2055
2055
2055
2054
2054
2054
2054
2054
2054
2043
2043
2043
2053
2053
2053
2053
2054
2054
2054
2050
2050
2050
2053
2053
2053
2049
2049
2049
2058
2058
2058
2058
2052
2052
2052
2049
2049
2049
2054
2054
2054
2050
2050
2050
2053
2053
2053
2053
2052
2052
2052
2050
2050
2050
2050
2050
2050
2049
2049
2049
2054
2054
2054
2054
2054
2054
2054
2047
2047
2047
2053
2053
2053
2047
2047
2047
2059
2059
2059
2059
2049
2049
2049
2052
2052
2052
2055
2055
2055
2054
2054
2054
2055
2055
2055
2055
2055
2055
2055
2053
2053
2053
2056
2056
2056
2050
2050
2050
2055
2055
2055
2055
2056
2056
2056
2050
2050
2050
2056
2056
2056
2050
2050
2050
2056
2056
2056
2056
2054
2054
2054
2046
2046
2046
2052
2052
2052
2055
2055
2055
2049
2049
2049
2049
2054
2054
2054
2051
2051
2051
2054
2054
2054
2048
2048
2048
2056
2056
2056
2056
2055
2055
2055
2050
2050
2050
2051
2051
2051
2052
2052
2052
2055
2055
2055
2055
2054
2054
2054
2051
2051
2051
2055
2055
2055
2047
2047
2047
2056
2056
2056
2056
2053
2053
2053
2054
2054
2054
2055
2055
2055
2047
2047
2047
2056
2056
2056
2056
2054
2054
2054
2048
2048
2048
2050
2050
2050
2050
2050
2050
2058
2058
2058
2058
2053
2053
2053
2050
2050
2050
2055
2055
2055
2051
2051
2051
2053
2053
2053
2053
2060
2060
2060
2050
2050
2050
2055
2055
2055
2051
2051
2051
2055
2055
2055
2055
2050
2050
2050
2051
2051
2051
2058
2058
2058
2049
2049
2049
2056
2056
2056
2056
2055
2055
2055
2049
2049
2049
2052
2052
2052
2055
2055
2055
2057
2057
2057
2057
2056
2056
2056
2052
2052
2052
2051
2051
2051
2049
2049
2049
2051
2051
2051
2051
2054
2054
2054
2047
2047
2047
2055
2055
2055
2051
2051
2051
2055
2055
2055
2055
2050
2050
2050
2047
2047
2047
2056
2056
2056
2049
2049
2049
2053
2053
2053
2053
2050
2050
2050
2053
2053
2053
2054
2054
2054
2050
2050
2050
2055
2055
2055
2055
2057
2057
2057
2049
2049
2049
2054
2054
2054
2051
2051
2051
2053
2053
2053
2053
2055
2055
2055
2051
2051
2051
2056
2056
2056
2049
2049
2049
2052
2052
2052
2052
2054
2054
2054
2049
2049
2049
2055
2055
2055
2047
2047
2047
2055
2055
2055
2055
2053
2053
2053
2051
2051
2051
2055
2055
2055
2049
2049
2049
2058
2058
2058
2058
2055
2055
2055
2056
2056
2056
2055
2055
2055
2055
2055
2055
2056
2056
2056
2056
2056
2056
2056
2051
2051
2051
2053
2053
2053
2049
2049
2049
2056
2056
2056
2056
2054
2054
2054
2044
2044
2044
2056
2056
2056
2048
2048
2048
2053
2053
2053
2053
2048
2048
2048
2053
2053
2053
2056
2056
2056
2049
2049
2049
2054
2054
2054
2054
2055
2055
2055
2049
2049
2049
2051
2051
2051
2050
2050
2050
2055
2055
2055
2055
2053
2053
2053
2049
2049
2049
2056
2056
2056
2051
2051
2051
2056
2056
2056
2056
2053
2053
2053
2048
2048
2048
2057
2057
2057
2050
2050
2050
2055
2055
2055
2055
2053
2053
2053
2052
2052
2052
2056
2056
2056
2048
2048
2048
2055
2055
2055
2055
2051
2051
2051
2050
2050
2050
2055
2055
2055
2049
2049
2049
2052
2052
2052
2052
2055
2055
2055
2051
2051
2051
2054
2054
2054
2051
2051
2051
2060
2060
2060
2060
2051
2051
2051
2051
2051
2051
2055
2055
2055
2050
2050
2050
2054
2054
2054
2054
2056
2056
2056
2050
2050
2050
2050
2050
2050
2051
2051
2051
2053
2053
2053
2053
2054
2054
2054
2053
2053
2053
2055
2055
2055
2051
2051
2051
2054
2054
2054
2054
2055
2055
2055
2050
2050
2050
2054
2054
2054
2051
2051
2051
2055
2055
2055
2055
2053
2053
2053
2049
2049
2049
2055
2055
2055
2052
2052
2052
2051
2051
2051
2051
2053
2053
2053
2049
2049
2049
2055
2055
2055
2050
2050
2050
2053
2053
2053
2053
2051
2051
2051
2054
2054
2054
2057
2057
2057
2048
2048
2048
2047
2047
2047
2047
2056
2056
2056
2051
2051
2051
2055
2055
2055
2055
2055
2055
2055
2055
2055
2055
2054
2054
2054
2054
2054
2054
2057
2057
2057
2050
2050
2050
2055
2055
2055
2055
2053
2053
2053
2053
2053
2053
2056
2056
2056
2048
2048
2048
2055
2055
2055
2055
2054
2054
2054
2055
2055
2055
2053
2053
2053
2051
2051
2051
2052
2052
2052
2052
2051
2051
2051
2050
2050
2050
2058
2058
2058
2051
2051
2051
2049
2049
2049
2049
2054
2054
2054
2051
2051
2051
2053
2053
2053
2052
2052
2052
2056
2056
2056
2056
2054
2054
2054
2048
2048
2048
2053
2053
2053
2049
2049
2049
2055
2055
2055
2055
2055
2055
2055
2049
2049
2049
2055
2055
2055
2050
2050
2050
2055
2055
2055
2055
2052
2052
2052
2047
2047
2047
2055
2055
2055
2052
2052
2052
2053
2053
2053
2053
2055
2055
2055
2049
2049
2049
2054
2054
2054
2049
2049
2049
2053
2053
2053
2053
2056
2056
2056
2051
2051
2051
2054
2054
2054
2050
2050
2050
2053
2053
2053
2053
2055
2055
2055
2049
2049
2049
2055
2055
2055
2049
2049
2049
2052
2052
2052
2052
2051
2051
2051
2045
2045
2045
2056
2056
2056
2050
2050
2050
2055
2055
2055
2055
2051
2051
2051
2050
2050
2050
2054
2054
2054
2049
2049
2049
2057
2057
2057
2057
2054
2054
2054
2051
2051
2051
2053
2053
2053
2049
2049
2049
2056
2056
2056
2056
2056
2056
2056
2051
2051
2051
2052
2052
2052
2049
2049
2049
2056
2056
2056
2056
2049
2049
2049
2047
2047
2047
2055
2055
2055
2050
2050
2050
2056
2056
2056
2056
2056
2056
2056
2056
2056
2056
2051
2051
2051
2050
2050
2050
2058
2058
2058
2058
2051
2051
2051
2049
2049
2049
2052
2052
2052
2049
2049
2049
2055
2055
2055
2055
2055
2055
2055
2050
2050
2050
2054
2054
2054
2051
2051
2051
2055
2055
2055
2055
2058
2058
2058
2049
2049
2049
2052
2052
2052
2050
2050
2050
2054
2054
2054
2054
2054
2054
2054
2050
2050
2050
2055
2055
2055
2049
2049
2049
2053
2053
2053
2053
2053
2053
2053
2051
2051
2051
2056
2056
2056
2050
2050
2050
2052
2052
2052
2052
2053
2053
2053
2051
2051
2051
2057
2057
2057
2051
2051
2051
2053
2053
2053
2053
2051
2051
2051
2051
2051
2051
2057
2057
2057
2048
2048
2048
2055
2055
2055
2055
2053
2053
2053
2053
2053
2053
2057
2057
2057
2051
2051
2051
2052
2052
2052
2052
2054
2054
2054
2052
2052
2052
2054
2054
2054
2049
2049
2049
2052
2052
2052
2052
2055
2055
2055
2050
2050
2050
2055
2055
2055
2047
2047
2047
2054
2054
2054
2054
2051
2051
2051
2050
2050
2050
2055
2055
2055
2051
2051
2051
2052
2052
2052
2052
2052
2052
2052
2048
2048
2048
2055
2055
2055
2050
2050
2050
2053
2053
2053
2053
2053
2053
2053
2053
2053
2053
2055
2055
2055
2049
2049
2049
2051
2051
2051
2051
2053
2053
2053
2050
2050
2050
2057
2057
2057
2050
2050
2050
2051
2051
2051
2051
2054
2054
2054
2050
2050
2050
2055
2055
2055
2048
2048
2048
2053
2053
2053
2053
2052
2052
2052
2051
2051
2051
2057
2057
2057
2055
2055
2055
2053
2053
2053
2053
2053
2053
2053
2051
2051
2051
2055
2055
2055
2047
2047
2047
2057
2057
2057
2057
2051
2051
2051
2050
2050
2050
2055
2055
2055
2053
2053
2053
2055
2055
2055
2055
2053
2053
2053
2051
2051
2051
2056
2056
2056
2050
2050
2050
2061
2061
2061
2061
2054
2054
2054
2049
2049
2049
2052
2052
2052
2056
2056
2056
2057
2057
2057
2057
2057
2057
2057
2049
2049
2049
2049
2049
2049
2050
2050
2050
2059
2059
2059
2059
2052
2052
2052
2049
2049
2049
2056
2056
2056
2050
2050
2050
2054
2054
2054
2054
2054
2054
2054
2050
2050
2050
2055
2055
2055
2051
2051
2051
2057
2057
2057
2057
2056
2056
2056
2047
2047
2047
2049
2049
2049
2047
2047
2047
2058
2058
2058
2058
2054
2054
2054
2050
2050
2050
2054
2054
2054
2050
2050
2050
2053
2053
2053
2053
2056
2056
2056
2049
2049
2049
2053
2053
2053
2047
2047
2047
2055
2055
2055
2055
2058
2058
2058
2053
2053
2053
2059
2059
2059
2051
2051
2051
2051
2051
2051
2051
2053
2053
2053
2050
2050
2050
2056
2056
2056
2051
2051
2051
2053
2053
2053
2053
2050
2050
2050
2050
2050
2050
2054
2054
2054
2051
2051
2051
2052
2052
2052
2052
2052
2052
2052
2046
2046
2046
2052
2052
2052
2049
2049
2049
2058
2058
2058
2058
2054
2054
2054
2047
2047
2047
2053
2053
2053
2048
2048
2048
2055
2055
2055
2055
2056
2056
2056
2049
2049
2049
2056
2056
2056
2051
2051
2051
2055
2055
2055
2055
2055
2055
2055
2055
2055
2055
2061
2061
2061
2049
2049
2049
2051
2051
2051
2051
2053
2053
2053
2047
2047
2047
2054
2054
2054
2050
2050
2050
2055
2055
2055
2055
2053
2053
2053
2050
2050
2050
2054
2054
2054
2049
2049
2049
2053
2053
2053
2053
2058
2058
2058
2049
2049
2049
2059
2059
2059
2051
2051
2051
2053
2053
2053
2053
2055
2055
2055
2044
2044
2044
2054
2054
2054
2049
2049
2049
2055
2055
2055
2055
2058
2058
2058
2052
2052
2052
2052
2052
2052
2045
2045
2045
2053
2053
2053
2053
2053
2053
2053
2047
2047
2047
2051
2051
2051
2049
2049
2049
2054
2054
2054
2054
2056
2056
2056
2050
2050
2050
2055
2055
2055
2050
2050
2050
2054
2054
2054
2054
2056
2056
2056
2049
2049
2049
2053
2053
2053
2057
2057
2057
2055
2055
2055
2055
2053
2053
2053
2051
2051
2051
2054
2054
2054
2048
2048
2048
2052
2052
2052
2052
2052
2052
2052
2047
2047
2047
2053
2053
2053
2050
2050
2050
2056
2056
2056
2056
2056
2056
2056
2051
2051
2051
2056
2056
2056
2049
2049
2049
2053
2053
2053
2053
2054
2054
2054
2048
2048
2048
2055
2055
2055
2045
2045
2045
2049
2049
2049
2049
2055
2055
2055
2052
2052
2052
2056
2056
2056
2049
2049
2049
2055
2055
2055
2055
2056
2056
2056
2049
2049
2049
2055
2055
2055
2052
2052
2052
2055
2055
2055
2055
2053
2053
2053
2050
2050
2050
2050
2050
2050
2049
2049
2049
2054
2054
2054
2054
2055
2055
2055
2047
2047
2047
2053
2053
2053
2051
2051
2051
2060
2060
2060
2060
2055
2055
2055
2048
2048
2048
2053
2053
2053
2051
2051
2051
2056
2056
2056
2056
2053
2053
2053
2050
2050
2050
2058
2058
2058
2052
2052
2052
2052
2052
2052
2052
2056
2056
2056
2055
2055
2055
2058
2058
2058
2048
2048
2048
2050
2050
2050
2050
2050
2050
2050
2052
2052
2052
2057
2057
2057
2051
2051
2051
2054
2054
2054
2054
2053
2053
2053
2049
2049
2049
2055
2055
2055
2050
2050
2050
2054
2054
2054
2054
2054
2054
2054
2050
2050
2050
2053
2053
2053
2050
2050
2050
2054
2054
2054
2054
2053
2053
2053
2050
2050
2050
2051
2051
2051
2045
2045
2045
2051
2051
2051
2051
2052
2052
2052
2051
2051
2051
2057
2057
2057
2050
2050
2050
2054
2054
2054
2054
2054
2054
2054
2048
2048
2048
2056
2056
2056
2051
2051
2051
2055
2055
2055
2055
2056
2056
2056
2048
2048
2048
2051
2051
2051
2051
2051
2051
2052
2052
2052
2052
2053
2053
2053
2051
2051
2051
2052
2052
2052
2049
2049
2049
2054
2054
2054
2054
2052
2052
2052
2048
2048
2048
2057
2057
2057
2051
2051
2051
2057
2057
2057
2057
2051
2051
2051
2047
2047
2047
2052
2052
2052
2052
2052
2052
2060
2060
2060
2060
2054
2054
2054
2050
2050
2050
2058
2058
2058
2051
2051
2051
2053
2053
2053
2053
2055
2055
2055
2054
2054
2054
2053
2053
2053
2049
2049
2049
2053
2053
2053
2053
2051
2051
2051
2049
2049
2049
2065
2065
2065
2052
2052
2052
2054
2054
2054
2054
2066
2066
2066
2049
2049
2049
2053
2053
2053
2050
2050
2050
2053
2053
2053
2053
2056
2056
2056
2053
2053
2053
2056
2056
2056
2049
2049
2049
2052
2052
2052
2052
2056
2056
2056
2048
2048
2048
2050
2050
2050
2049
2049
2049
2052
2052
2052
2052
2053
2053
2053
2047
2047
2047
2052
2052
2052
2051
2051
2051
2054
2054
2054
2054
2054
2054
2054
2048
2048
2048
2055
2055
2055
2050
2050
2050
2052
2052
2052
2052
2047
2047
2047
2045
2045
2045
2052
2052
2052
2047
2047
2047
2056
2056
2056
2056
2056
2056
2056
2051
2051
2051
2054
2054
2054
2051
2051
2051
2053
2053
2053
2053
2055
2055
2055
2047
2047
2047
2055
2055
2055
2049
2049
2049
2055
2055
2055
2055
2053
2053
2053
2051
2051
2051
2059
2059
2059
2052
2052
2052
2058
2058
2058
2058
2054
2054
2054
2051
2051
2051
2054
2054
2054
2049
2049
2049
2055
2055
2055
2055
2053
2053
2053
2050
2050
2050
2055
2055
2055
2051
2051
2051
2055
2055
2055
2055
2060
2060
2060
2051
2051
2051
2051
2051
2051
2047
2047
2047
2055
2055
2055
2055
2057
2057
2057
2052
2052
2052
2053
2053
2053
2050
2050
2050
2053
2053
2053
2053
2054
2054
2054
2052
2052
2052
2054
2054
2054
2048
2048
2048
2049
2049
2049
2049
2055
2055
2055
2046
2046
2046
2056
2056
2056
2047
2047
2047
2055
2055
2055
2055
2057
2057
2057
2052
2052
2052
2056
2056
2056
2048
2048
2048
2052
2052
2052
2052
2053
2053
2053
2045
2045
2045
2055
2055
2055
2050
2050
2050
2054
2054
2054
2054
2053
2053
2053
2051
2051
2051
2057
2057
2057
2050
2050
2050
2055
2055
2055
2055
2054
2054
2054
2050
2050
2050
2053
2053
2053
2051
2051
2051
2054
2054
2054
2054
2053
2053
2053
2050
2050
2050
2055
2055
2055
2050
2050
2050
2055
2055
2055
2055
2050
2050
2050
2047
2047
2047
2056
2056
2056
2052
2052
2052
2053
2053
2053
2053
2052
2052
2052
2050
2050
2050
2050
2050
2050
2050
2050
2050
2056
2056
2056
2056
2055
2055
2055
2054
2054
2054
2056
2056
2056
2049
2049
2049
2049
2049
2049
2049
2055
2055
2055
2051
2051
2051
2052
2052
2052
2049
2049
2049
2056
2056
2056
2056
2051
2051
2051
2048
2048
2048
2053
2053
2053
2052
2052
2052
2054
2054
2054
2054
2054
2054
2054
2048
2048
2048
2054
2054
2054
2051
2051
2051
2055
2055
2055
2055
2054
2054
2054
2050
2050
2050
2054
2054
2054
2050
2050
2050
2057
2057
2057
2057
2055
2055
2055
2050
2050
2050
2050
2050
2050
2051
2051
2051
2054
2054
2054
2054
2053
2053
2053
2051
2051
2051
2054
2054
2054
2051
2051
2051
2061
2061
2061
2061
2055
2055
2055
2049
2049
2049
2055
2055
2055
2044
2044
2044
2054
2054
2054
2054
2058
2058
2058
2051
2051
2051
2054
2054
2054
2048
2048
2048
2051
2051
2051
2051
2055
2055
2055
2050
2050
2050
2054
2054
2054
2049
2049
2049
2050
2050
2050
2050
2052
2052
2052
2050
2050
2050
2055
2055
2055
2049
2049
2049
2057
2057
2057
2057
2054
2054
2054
2051
2051
2051
2053
2053
2053
2049
2049
2049
2055
2055
2055
2055
2053
2053
2053
2051
2051
2051
2054
2054
2054
2050
2050
2050
2053
2053
2053
2053
2053
2053
2053
2050
2050
2050
2055
2055
2055
2048
2048
2048
2053
2053
2053
2053
2052
2052
2052
2048
2048
2048
2055
2055
2055
2051
2051
2051
2054
2054
2054
2054
2054
2054
2054
2050
2050
2050
2056
2056
2056
2050
2050
2050
2058
2058
2058
2058
2054
2054
2054
2049
2049
2049
2056
2056
2056
2047
2047
2047
2054
2054
2054
2054
2053
2053
2053
2050
2050
2050
2053
2053
2053
2051
2051
2051
2054
2054
2054
2054
2054
2054
2054
2049
2049
2049
2055
2055
2055
2049
2049
2049
2053
2053
2053
2053
2052
2052
2052
2048
2048
2048
2054
2054
2054
2053
2053
2053
2053
2053
2053
2053
2052
2052
2052
2051
2051
2051
2055
2055
2055
2052
2052
2052
2053
2053
2053
2053
2056
2056
2056
2047
2047
2047
2055
2055
2055
2051
2051
2051
2055
2055
2055
2055
2055
2055
2055
2047
2047
2047
2054
2054
2054
2060
2060
2060
2053
2053
2053
2053
2055
2055
2055
2050
2050
2050
2055
2055
2055
2051
2051
2051
2053
2053
2053
2053
2054
2054
2054
2050
2050
2050
2055
2055
2055
2050
2050
2050
2050
2050
2050
2050
2057
2057
2057
2047
2047
2047
2053
2053
2053
2054
2054
2054
2055
2055
2055
2055
2053
2053
2053
2051
2051
2051
2056
2056
2056
2051
2051
2051
2053
2053
2053
2053
2053
2053
2053
2049
2049
2049
2054
2054
2054
2050
2050
2050
2052
2052
2052
2052
2052
2052
2052
2048
2048
2048
2056
2056
2056
2050
2050
2050
2054
2054
2054
2054
2052
2052
2052
2050
2050
2050
2053
2053
2053
2049
2049
2049
2053
2053
2053
2053
2054
2054
2054
2050
2050
2050
2052
2052
2052
2050
2050
2050
2059
2059
2059
2059
2053
2053
2053
2048
2048
2048
2054
2054
2054
2051
2051
2051
2055
2055
2055
2055
2051
2051
2051
2052
2052
2052
2057
2057
2057
2046
2046
2046
2051
2051
2051
2051
2055
2055
2055
2049
2049
2049
2053
2053
2053
2050
2050
2050
2057
2057
2057
2057
2053
2053
2053
2048
2048
2048
2051
2051
2051
2050
2050
2050
2055
2055
2055
2055
2052
2052
2052
2048
2048
2048
2056
2056
2056
2050
2050
2050
2060
2060
2060
2060
2055
2055
2055
2048
2048
2048
2050
2050
2050
2049
2049
2049
2056
2056
2056
2056
2054
2054
2054
2047
2047
2047
2057
2057
2057
2051
2051
2051
2054
2054
2054
2054
2054
2054
2054
2052
2052
2052
2055
2055
2055
2047
2047
2047
2055
2055
2055
2055
2054
2054
2054
2052
2052
2052
2049
2049
2049
2050
2050
2050
2056
2056
2056
2056
2053
2053
2053
2047
2047
2047
2054
2054
2054
2052
2052
2052
2058
2058
2058
2058
2052
2052
2052
2048
2048
2048
2057
2057
2057
2052
2052
2052
2056
2056
2056
2056
2056
2056
2056
2052
2052
2052
2056
2056
2056
2050
2050
2050
2055
2055
2055
2055
2052
2052
2052
2051
2051
2051
2055
2055
2055
2052
2052
2052
2055
2055
2055
2055
2053
2053
2053
2050
2050
2050
2057
2057
2057
2047
2047
2047
2052
2052
2052
2052
2052
2052
2052
2050
2050
2050
2055
2055
2055
2051
2051
2051
2058
2058
2058
2058
2053
2053
2053
2050
2050
2050
2057
2057
2057
2049
2049
2049
2052
2052
2052
2052
2055
2055
2055
2054
2054
2054
2055
2055
2055
2051
2051
2051
2055
2055
2055
2055
2052
2052
2052
2048
2048
2048
2055
2055
2055
2052
2052
2052
2053
2053
2053
2053
2055
2055
2055
2051
2051
2051
2052
2052
2052
2048
2048
2048
2053
2053
2053
2053
2053
2053
2053
2058
2058
2058
2053
2053
2053
2050
2050
2050
2057
2057
2057
2057
2050
2050
2050
2049
2049
2049
2052
2052
2052
2049
2049
2049
2052
2052
2052
2052
2054
2054
2054
2049
2049
2049
2057
2057
2057
2049
2049
2049
2053
2053
2053
2053
2055
2055
2055
2050
2050
2050
2054
2054
2054
2049
2049
2049
2061
2061
2061
2061
2053
2053
2053
2049
2049
2049
2055
2055
2055
2053
2053
2053
2054
2054
2054
2054
2058
2058
2058
2050
2050
2050
2048
2048
2048
2051
2051
2051
2045
2045
2045
2045
2052
2052
2052
2048
2048
2048
2056
2056
2056
2053
2053
2053
2055
2055
2055
2055
2053
2053
2053
2048
2048
2048
2054
2054
2054
2046
2046
2046
2054
2054
2054
2054
2058
2058
2058
2051
2051
2051
2054
2054
2054
2050
2050
2050
2054
2054
2054
2054
2052
2052
2052
2046
2046
2046
2054
2054
2054
2048
2048
2048
2055
2055
2055
2055
2055
2055
2055
2045
2045
2045
2056
2056
2056
2051
2051
2051
2055
2055
2055
2055
2054
2054
2054
2050
2050
2050
2051
2051
2051
2048
2048
2048
2056
2056
2056
2056
2055
2055
2055
2047
2047
2047
2061
2061
2061
2050
2050
2050
2054
2054
2054
2054
2051
2051
2051
2047
2047
2047
2054
2054
2054
2047
2047
2047
2056
2056
2056
2056
2053
2053
2053
2048
2048
2048
2053
2053
2053
2057
2057
2057
2056
2056
2056
2056
2050
2050
2050
2047
2047
2047
2058
2058
2058
2054
2054
2054
2056
2056
2056
2056
2053
2053
2053
2048
2048
2048
2053
2053
2053
2049
2049
2049
2051
2051
2051
2051
2052
2052
2052
2049
2049
2049
2054
2054
2054
2035
2035
2035
2054
2054
2054
2054
2052
2052
2052
2053
2053
2053
2056
2056
2056
2050
2050
2050
2051
2051
2051
2051
2052
2052
2052
2051
2051
2051
2056
2056
2056
2050
2050
2050
2056
2056
2056
2056
2054
2054
2054
2051
2051
2051
2054
2054
2054
2048
2048
2048
2054
2054
2054
2054
2055
2055
2055
2054
2054
2054
2056
2056
2056
2053
2053
2053
2056
2056
2056
2056
2054
2054
2054
2050
2050
2050
2055
2055
2055
2052
2052
2052
2053
2053
2053
2053
2053
2053
2053
2051
2051
2051
2056
2056
2056
2049
2049
2049
2056
2056
2056
2056
2061
2061
2061
2050
2050
2050
2056
2056
2056
2047
2047
2047
2051
2051
2051
2051
2055
2055
2055
2051
2051
2051
2057
2057
2057
2050
2050
2050
2054
2054
2054
2054
2054
2054
2054
2045
2045
2045
2054
2054
2054
2048
2048
2048
2055
2055
2055
2055
2060
2060
2060
2048
2048
2048
2050
2050
2050
2047
2047
2047
2054
2054
2054
2054
2054
2054
2054
2051
2051
2051
2053
2053
2053
2051
2051
2051
2056
2056
2056
2056
2056
2056
2056
2049
2049
2049
2055
2055
2055
2048
2048
2048
2054
2054
2054
2054
2052
2052
2052
2048
2048
2048
2052
2052
2052
2051
2051
2051
2056
2056
2056
2056
2052
2052
2052
2051
2051
2051
2059
2059
2059
2050
2050
2050
2051
2051
2051
2051
2057
2057
2057
2047
2047
2047
2054
2054
2054
2051
2051
2051
2052
2052
2052
2052
2055
2055
2055
2048
2048
2048
2053
2053
2053
2046
2046
2046
2050
2050
2050
2050
2051
2051
2051
2051
2051
2051
2055
2055
2055
2054
2054
2054
2055
2055
2055
2055
2053
2053
2053
2048
2048
2048
2055
2055
2055
2051
2051
2051
2057
2057
2057
2057
2056
2056
2056
2050
2050
2050
2053
2053
2053
2049
2049
2049
2052
2052
2052
2052
2060
2060
2060
2052
2052
2052
2058
2058
2058
2046
2046
2046
2050
2050
2050
2050
2052
2052
2052
2051
2051
2051
2053
2053
2053
2050
2050
2050
2054
2054
2054
2054
2054
2054
2054
2047
2047
2047
2051
2051
2051
2051
2051
2051
2054
2054
2054
2054
2055
2055
2055
2050
2050
2050
2054
2054
2054
2053
2053
2053
2054
2054
2054
2054
2052
2052
2052
2050
2050
2050
2054
2054
2054
2050
2050
2050
2054
2054
2054
2054
2053
2053
2053
2048
2048
2048
2052
2052
2052
2052
2052
2052
2057
2057
2057
2057
2056
2056
2056
2049
2049
2049
2058
2058
2058
2052
2052
2052
2049
2049
2049
2049
2053
2053
2053
2050
2050
2050
2055
2055
2055
2050
2050
2050
2054
2054
2054
2054
2052
2052
2052
2046
2046
2046
2052
2052
2052
2050
2050
2050
2056
2056
2056
2056
2055
2055
2055
2052
2052
2052
2055
2055
2055
2049
2049
2049
2046
2046
2046
2046
2054
2054
2054
2050
2050
2050
2054
2054
2054
2052
2052
2052
2055
2055
2055
2055
2051
2051
2051
2048
2048
2048
2053
2053
2053
2050
2050
2050
2055
2055
2055
2055
2050
2050
2050
2049
2049
2049
2053
2053
2053
2055
2055
2055
2062
2062
2062
2062
2048
2048
2048
2050
2050
2050
2055
2055
2055
2048
2048
2048
2054
2054
2054
2054
2053
2053
2053
2048
2048
2048
2053
2053
2053
2051
2051
2051
2055
2055
2055
2055
2052
2052
2052
2048
2048
2048
2054
2054
2054
2055
2055
2055
2057
2057
2057
2057
2051
2051
2051
2049
2049
2049
2055
2055
2055
2054
2054
2054
2055
2055
2055
2055
2055
2055
2055
2052
2052
2052
2052
2052
2052
2050
2050
2050
2054
2054
2054
2054
2053
2053
2053
2055
2055
2055
2057
2057
2057
2051
2051
2051
2054
2054
2054
2054
2052
2052
2052
2047
2047
2047
2053
2053
2053
2054
2054
2054
2054
2054
2054
2054
2050
2050
2050
2050
2050
2050
2054
2054
2054
2049
2049
2049
2053
2053
2053
2053
2057
2057
2057
2052
2052
2052
2059
2059
2059
2049
2049
2049
2052
2052
2052
2052
2054
2054
2054
2051
2051
2051
2054
2054
2054
2049
2049
2049
2055
2055
2055
2055
2051
2051
2051
2051
2051
2051
2057
2057
2057
2045
2045
2045
2054
2054
2054
2054
2059
2059
2059
2050
2050
2050
2061
2061
2061
2047
2047
2047
2055
2055
2055
2055
2053
2053
2053
2049
2049
2049
2054
2054
2054
2050
2050
2050
2058
2058
2058
2058
2055
2055
2055
2052
2052
2052
2057
2057
2057
2047
2047
2047
2054
2054
2054
2054
2049
2049
2049
2045
2045
2045
2054
2054
2054
2045
2045
2045
2056
2056
2056
2056
2054
2054
2054
2051
2051
2051
2053
2053
2053
2048
2048
2048
2049
2049
2049
2049
2055
2055
2055
2047
2047
2047
2054
2054
2054
2048
2048
2048
2054
2054
2054
2054
2050
2050
2050
2049
2049
2049
2051
2051
2051
2054
2054
2054
2057
2057
2057
2057
2055
2055
2055
2051
2051
2051
2051
2051
2051
2051
2051
2051
2053
2053
2053
2053
2054
2054
2054
2049
2049
2049
2055
2055
2055
2049
2049
2049
2055
2055
2055
2055
2050
2050
2050
2046
2046
2046
2053
2053
2053
2055
2055
2055
2056
2056
2056
2056
2054
2054
2054
2057
2057
2057
2058
2058
2058
2050
2050
2050
2053
2053
2053
2053
2053
2053
2053
2043
2043
2043
2054
2054
2054
2050
2050
2050
2056
2056
2056
2056
2058
2058
2058
2046
2046
2046
2056
2056
2056
2046
2046
2046
2050
2050
2050
2050
2055
2055
2055
2049
2049
2049
2067
2067
2067
2050
2050
2050
2054
2054
2054
2054
2050
2050
2050
2050
2050
2050
2053
2053
2053
2051
2051
2051
2048
2048
2048
2048
2052
2052
2052
2055
2055
2055
2060
2060
2060
2055
2055
2055
2052
2052
2052
2052
2054
2054
2054
2050
2050
2050
2059
2059
2059
2049
2049
2049
2055
2055
2055
2055
2054
2054
2054
2048
2048
2048
2054
2054
2054
2049
2049
2049
2052
2052
2052
2052
2053
2053
2053
2048
2048
2048
2051
2051
2051
2055
2055
2055
2056
2056
2056
2056
2049
2049
2049
2049
2049
2049
2054
2054
2054
2051
2051
2051
2054
2054
2054
2054
2054
2054
2054
2051
2051
2051
2052
2052
2052
2049
2049
2049
2053
2053
2053
2053
2057
2057
2057
2053
2053
2053
2057
2057
2057
2050
2050
2050
2051
2051
2051
2051
2054
2054
2054
2050
2050
2050
2053
2053
2053
2052
2052
2052
2055
2055
2055
2055
2049
2049
2049
2051
2051
2051
2055
2055
2055
2050
2050
2050
2055
2055
2055
2055
2053
2053
2053
2046
2046
2046
2051
2051
2051
2053
2053
2053
2061
2061
2061
2061
2051
2051
2051
2049
2049
2049
2055
2055
2055
2052
2052
2052
2053
2053
2053
2053
2056
2056
2056
2048
2048
2048
2055
2055
2055
2049
2049
2049
2054
2054
2054
2054
2058
2058
2058
2051
2051
2051
2055
2055
2055
2048
2048
2048
2052
2052
2052
2052
2053
2053
2053
2053
2053
2053
2056
2056
2056
2051
2051
2051
2054
2054
2054
2054
2053
2053
2053
2048
2048
2048
2054
2054
2054
2054
2054
2054
2054
2054
2054
2054
2054
2054
2054
2054
2054
2054
2062
2062
2062
2050
2050
2050
2061
2061
2061
2061
2057
2057
2057
2049
2049
2049
2055
2055
2055
2051
2051
2051
2059
2059
2059
2059
2053
2053
2053
2049
2049
2049
2053
2053
2053
2043
2043
2043
2053
2053
2053
2053
2056
2056
2056
2051
2051
2051
2054
2054
2054
2047
2047
2047
2052
2052
2052
2052
2053
2053
2053
2049
2049
2049
2056
2056
2056
2050
2050
2050
2057
2057
2057
2057
2051
2051
2051
2048
2048
2048
2054
2054
2054
2048
2048
2048
2054
2054
2054
2054
2054
2054
2054
2052
2052
2052
2059
2059
2059
2049
2049
2049
2055
2055
2055
2055
2053
2053
2053
2051
2051
2051
2052
2052
2052
2048
2048
2048
2056
2056
2056
2056
2054
2054
2054
2050
2050
2050
2053
2053
2053
2050
2050
2050
2054
2054
2054
2054
2057
2057
2057
2051
2051
2051
2055
2055
2055
2049
2049
2049
2053
2053
2053
2053
2056
2056
2056
2050
2050
2050
2054
2054
2054
2051
2051
2051
2056
2056
2056
2056
2054
2054
2054
2051
2051
2051
2055
2055
2055
2052
2052
2052
2053
2053
2053
2053
2055
2055
2055
2052
2052
2052
2056
2056
2056
2052
2052
2052
2053
2053
2053
2053
2059
2059
2059
2051
2051
2051
2054
2054
2054
2051
2051
2051
2054
2054
2054
2054
2053
2053
2053
2048
2048
2048
2047
2047
2047
2050
2050
2050
2053
2053
2053
2053
2057
2057
2057
2048
2048
2048
2053
2053
2053
2047
2047
2047
2054
2054
2054
2054
2054
2054
2054
2052
2052
2052
2056
2056
2056
2049
2049
2049
2055
2055
2055
2055
2053
2053
2053
2048
2048
2048
2057
2057
2057
2049
2049
2049
2056
2056
2056
2056
2056
2056
2056
2052
2052
2052
2058
2058
2058
2052
2052
2052
2053
2053
2053
2053
2054
2054
2054
2050
2050
2050
2055
2055
2055
2048
2048
2048
2055
2055
2055
2055
2056
2056
2056
2049
2049
2049
2055
2055
2055
2053
2053
2053
2056
2056
2056
2056
2059
2059
2059
2051
2051
2051
2054
2054
2054
2047
2047
2047
2053
2053
2053
2053
2056
2056
2056
2050
2050
2050
2055
2055
2055
2052
2052
2052
2054
2054
2054
2054
2056
2056
2056
2049
2049
2049
2053
2053
2053
2047
2047
2047
2053
2053
2053
2053
2059
2059
2059
2051
2051
2051
2055
2055
2055
2047
2047
2047
2051
2051
2051
2051
2055
2055
2055
2049
2049
2049
2051
2051
2051
2050
2050
2050
2054
2054
2054
2054
2053
2053
2053
2049
2049
2049
2054
2054
2054
2051
2051
2051
2056
2056
2056
2056
2054
2054
2054
2050
2050
2050
2051
2051
2051
2046
2046
2046
2056
2056
2056
2056
2054
2054
2054
2050
2050
2050
2053
2053
2053
2049
2049
2049
2055
2055
2055
2055
2053
2053
2053
2048
2048
2048
2056
2056
2056
2050
2050
2050
2057
2057
2057
2057
2064
2064
2064
2052
2052
2052
2056
2056
2056
2053
2053
2053
2050
2050
2050
2050
2057
2057
2057
2050
2050
2050
2053
2053
2053
2050
2050
2050
2054
2054
2054
2054
2052
2052
2052
2049
2049
2049
2054
2054
2054
2051
2051
2051
2056
2056
2056
2056
2058
2058
2058
2051
2051
2051
2055
2055
2055
2050
2050
2050
2052
2052
2052
2052
2054
2054
2054
2050
2050
2050
2054
2054
2054
2048
2048
2048
2055
2055
2055
2055
2054
2054
2054
2051
2051
2051
2059
2059
2059
2049
2049
2049
2055
2055
2055
2055
2056
2056
2056
2065
2065
2065
2056
2056
2056
2052
2052
2052
2050
2050
2050
2050
2053
2053
2053
2050
2050
2050
2053
2053
2053
2050
2050
2050
2055
2055
2055
2055
2057
2057
2057
2049
2049
2049
2054
2054
2054
2048
2048
2048
2055
2055
2055
2055
2051
2051
2051
2051
2051
2051
2057
2057
2057
2052
2052
2052
2054
2054
2054
2054
2053
2053
2053
2050
2050
2050
2054
2054
2054
2048
2048
2048
2055
2055
2055
2055
2059
2059
2059
2050
2050
2050
2054
2054
2054
2049
2049
2049
2054
2054
2054
2054
2052
2052
2052
2049
2049
2049
2050
2050
2050
2046
2046
2046
2054
2054
2054
2054
2054
2054
2054
2046
2046
2046
2054
2054
2054
2051
2051
2051
2055
2055
2055
2055
2053
2053
2053
2049
2049
2049
2055
2055
2055
2048
2048
2048
2055
2055
2055
2055
2057
2057
2057
2049
2049
2049
2048
2048
2048
2046
2046
2046
2050
2050
2050
2050
2055
2055
2055
2049
2049
2049
2055
2055
2055
2048
2048
2048
2053
2053
2053
2053
2055
2055
2055
2053
2053
2053
2056
2056
2056
2048
2048
2048
2054
2054
2054
2054
2051
2051
2051
2049
2049
2049
2049
2049
2049
2049
2049
2049
2050
2050
2050
2050
2054
2054
2054
2050
2050
2050
2054
2054
2054
2050
2050
2050
2060
2060
2060
2060
2053
2053
2053
2048
2048
2048
2056
2056
2056
2050
2050
2050
2058
2058
2058
2058
2056
2056
2056
2048
2048
2048
2055
2055
2055
2044
2044
2044
2054
2054
2054
2054
2055
2055
2055
2049
2049
2049
2052
2052
2052
2050
2050
2050
2052
2052
2052
2052
2055
2055
2055
2051
2051
2051
2052
2052
2052
2050
2050
2050
2052
2052
2052
2052
2055
2055
2055
2046
2046
2046
2052
2052
2052
2048
2048
2048
2052
2052
2052
2052
2054
2054
2054
2050
2050
2050
2053
2053
2053
2050
2050
2050
2052
2052
2052
2052
2054
2054
2054
2050
2050
2050
2056
2056
2056
2049
2049
2049
2056
2056
2056
2056
2055
2055
2055
2051
2051
2051
2054
2054
2054
2047
2047
2047
2051
2051
2051
2051
2058
2058
2058
2051
2051
2051
2056
2056
2056
2051
2051
2051
2053
2053
2053
2053
2054
2054
2054
2051
2051
2051
2053
2053
2053
2050
2050
2050
2055
2055
2055
2055
2051
2051
2051
2050
2050
2050
2053
2053
2053
2049
2049
2049
2057
2057
2057
2057
2053
2053
2053
2053
2053
2053
2055
2055
2055
2045
2045
2045
2054
2054
2054
2054
2052
2052
2052
2052
2052
2052
2055
2055
2055
2049
2049
2049
2054
2054
2054
2054
2055
2055
2055
2051
2051
2051
2053
2053
2053
2049
2049
2049
2052
2052
2052
2052
2057
2057
2057
2051
2051
2051
2055
2055
2055
2046
2046
2046
2056
2056
2056
2056
2053
2053
2053
2048
2048
2048
2057
2057
2057
2050
2050
2050
2053
2053
2053
2053
2051
2051
2051
2048
2048
2048
2052
2052
2052
2047
2047
2047
2053
2053
2053
2053
2055
2055
2055
2058
2058
2058
2056
2056
2056
2052
2052
2052
2054
2054
2054
2054
2054
2054
2054
2049
2049
2049
2053
2053
2053
2048
2048
2048
2053
2053
2053
2053
2057
2057
2057
2050
2050
2050
2056
2056
2056
2047
2047
2047
2050
2050
2050
2050
2055
2055
2055
2046
2046
2046
2053
2053
2053
2049
2049
2049
2052
2052
2052
2052
2052
2052
2052
2050
2050
2050
2054
2054
2054
2048
2048
2048
2054
2054
2054
2054
2053
2053
2053
2048
2048
2048
2059
2059
2059
2055
2055
2055
2059
2059
2059
2059
2054
2054
2054
2049
2049
2049
2055
2055
2055
2048
2048
2048
2056
2056
2056
2056
2054
2054
2054
2049
2049
2049
2053
2053
2053
2051
2051
2051
2054
2054
2054
2054
2049
2049
2049
2048
2048
2048
2052
2052
2052
2047
2047
2047
2052
2052
2052
2052
2054
2054
2054
2048
2048
2048
2055
2055
2055
2046
2046
2046
2053
2053
2053
2053
2053
2053
2053
2053
2053
2053
2053
2053
2053
2051
2051
2051
2054
2054
2054
2054
2050
2050
2050
2051
2051
2051
2056
2056
2056
2054
2054
2054
2040
2040
2040
2040
2055
2055
2055
2047
2047
2047
2054
2054
2054
2051
2051
2051
2052
2052
2052
2052
2052
2052
2052
2050
2050
2050
2054
2054
2054
2050
2050
2050
2058
2058
2058
2058
2053
2053
2053
2047
2047
2047
2053
2053
2053
2040
2040
2040
2053
2053
2053
2053
2057
2057
2057
2049
2049
2049
2056
2056
2056
2051
2051
2051
2053
2053
2053
2053
2055
2055
2055
2048
2048
2048
2055
2055
2055
2049
2049
2049
2049
2049
2049
2049
2052
2052
2052
2052
2052
2052
2051
2051
2051
2049
2049
2049
2054
2054
2054
2054
2053
2053
2053
2052
2052
2052
2054
2054
2054
2050
2050
2050
2054
2054
2054
2054
2054
2054
2054
2049
2049
2049
2054
2054
2054
2051
2051
2051
