2157
2157
2158
2158
2158
2158
2155
2155
2155
2158
2158
2158
2156
2156
2156
2157
2157
2157
2159
2159
2159
2159
2161
2161
2161
2156
2156
2156
2160
2160
2160
2147
2147
2147
2157
2157
2157
2157
2159
2159
2159
2158
2158
2158
2157
2157
2157
2157
2157
2157
2157
2157
2157
2157
2158
2158
2158
2156
2156
2156
2159
2159
2159
2157
2157
2157
2162
2162
2162
2162
2159
2159
2159
2148
2148
2148
2160
2160
2160
2157
2157
2157
2159
2159
2159
2159
2157
2157
2157
2157
2157
2157
2154
2154
2154
2155
2155
2155
2164
2164
2164
2164
2158
2158
2158
2157
2157
2157
2157
2157
2157
2162
2162
2162
2159
2159
2159
2159
2160
2160
2160
2157
2157
2157
2157
2157
2157
2163
2163
2163
2160
2160
2160
2160
2161
2161
2161
2161
2161
2161
2155
2155
2155
2159
2159
2159
2157
2157
2157
2157
2158
2158
2158
2158
2158
2158
2158
2158
2158
2155
2155
2155
2162
2162
2162
2162
2157
2157
2157
2161
2161
2161
2157
2157
2157
2156
2156
2156
2155
2155
2155
2155
2158
2158
2158
2160
2160
2160
2157
2157
2157
2155
2155
2155
2156
2156
2156
2156
2158
2158
2158
2158
2158
2158
2156
2156
2156
2157
2157
2157
2158
2158
2158
2158
2152
2152
2152
2158
2158
2158
2155
2155
2155
2157
2157
2157
2159
2159
2159
2159
2157
2157
2157
2155
2155
2155
2167
2167
2167
2154
2154
2154
2157
2157
2157
2157
2157
2157
2157
2159
2159
2159
2157
2157
2157
2156
2156
2156
2148
2148
2148
2148
2158
2158
2158
2158
2158
2158
2158
2158
2158
2157
2157
2157
2161
2161
2161
2161
2155
2155
2155
2158
2158
2158
2156
2156
2156
2159
2159
2159
2155
2155
2155
2155
2159
2159
2159
2154
2154
2154
2158
2158
2158
2157
2157
2157
2158
2158
2158
2158
2159
2159
2159
2157
2157
2157
2157
2157
2157
2156
2156
2156
2158
2158
2158
2158
2153
2153
2153
2166
2166
2166
2151
2151
2151
2154
2154
2154
2161
2161
2161
2161
2156
2156
2156
2159
2159
2159
2153
2153
2153
2157
2157
2157
2158
2158
2158
2158
2157
2157
2157
2159
2159
2159
2159
2159
2159
2156
2156
2156
2158
2158
2158
2158
2157
2157
2157
2155
2155
2155
2159
2159
2159
2153
2153
2153
2162
2162
2162
2162
2155
2155
2155
2159
2159
2159
2159
2159
2159
2158
2158
2158
2160
2160
2160
2160
2143
2143
2143
2157
2157
2157
2158
2158
2158
2157
2157
2157
2150
2150
2150
2150
2161
2161
2161
2162
2162
2162
2160
2160
2160
2156
2156
2156
2160
2160
2160
2160
2157
2157
2157
2157
2157
2157
2158
2158
2158
2157
2157
2157
2159
2159
2159
2159
2158
2158
2158
2156
2156
2156
2158
2158
2158
2157
2157
2157
2157
2157
2157
2157
2156
2156
2156
2160
2160
2160
2158
2158
2158
2157
2157
2157
2160
2160
2160
2160
2155
2155
2155
2158
2158
2158
2157
2157
2157
2158
2158
2158
2158
2158
2158
2158
2157
2157
2157
2158
2158
2158
2159
2159
2159
2154
2154
2154
2157
2157
2157
2157
2153
2153
2153
2160
2160
2160
2154
2154
2154
2156
2156
2156
2157
2157
2157
2157
2156
2156
2156
2159
2159
2159
2160
2160
2160
2160
2160
2160
2157
2157
2157
2157
2153
2153
2153
2157
2157
2157
2157
2157
2157
2158
2158
2158
2157
2157
2157
2157
2162
2162
2162
2155
2155
2155
2157
2157
2157
2157
2157
2157
2161
2161
2161
2161
2154
2154
2154
2153
2153
2153
2159
2159
2159
2155
2155
2155
2160
2160
2160
2160
2157
2157
2157
2160
2160
2160
2155
2155
2155
2159
2159
2159
2159
2159
2159
2159
2157
2157
2157
2159
2159
2159
2155
2155
2155
2153
2153
2153
2158
2158
2158
2158
2155
2155
2155
2164
2164
2164
2156
2156
2156
2160
2160
2160
2156
2156
2156
2156
2156
2156
2156
2159
2159
2159
2157
2157
2157
2155
2155
2155
2156
2156
2156
2156
2156
2156
2156
2157
2157
2157
2157
2157
2157
2159
2159
2159
2158
2158
2158
2158
2155
2155
2155
2154
2154
2154
2157
2157
2157
2157
2157
2157
2162
2162
2162
2162
2159
2159
2159
2160
2160
2160
2155
2155
2155
2158
2158
2158
2155
2155
2155
2155
2156
2156
2156
2158
2158
2158
2161
2161
2161
2157
2157
2157
2159
2159
2159
2159
2155
2155
2155
2160
2160
2160
2159
2159
2159
2155
2155
2155
2162
2162
2162
2162
2157
2157
2157
2159
2159
2159
2153
2153
2153
2158
2158
2158
2157
2157
2157
2157
2156
2156
2156
2158
2158
2158
2153
2153
2153
2158
2158
2158
2157
2157
2157
2157
2158
2158
2158
2158
2158
2158
2154
2154
2154
2157
2157
2157
2157
2157
2157
2157
2157
2157
2157
2158
2158
2158
2157
2157
2157
2163
2163
2163
2159
2159
2159
2159
2162
2162
2162
2159
2159
2159
2157
2157
2157
2156
2156
2156
2158
2158
2158
2158
2151
2151
2151
2159
2159
2159
2148
2148
2148
2156
2156
2156
2159
2159
2159
2159
2153
2153
2153
2160
2160
2160
2159
2159
2159
2154
2154
2154
2166
2166
2166
2166
2158
2158
2158
2160
2160
2160
2158
2158
2158
2158
2158
2158
2158
2158
2158
2158
2157
2157
2157
2160
2160
2160
2155
2155
2155
2157
2157
2157
2159
2159
2159
2159
2154
2154
2154
2160
2160
2160
2159
2159
2159
2160
2160
2160
2159
2159
2159
2159
2157
2157
2157
2157
2157
2157
2167
2167
2167
2158
2158
2158
2160
2160
2160
2160
2159
2159
2159
2157
2157
2157
2157
2157
2157
2161
2161
2161
2158
2158
2158
2158
2162
2162
2162
2155
2155
2155
2157
2157
2157
2159
2159
2159
2154
2154
2154
2154
2160
2160
2160
2161
2161
2161
2157
2157
2157
2155
2155
2155
2153
2153
2153
2153
2157
2157
2157
2159
2159
2159
2158
2158
2158
2158
2158
2158
2157
2157
2157
2157
2157
2157
2157
2154
2154
2154
2157
2157
2157
2159
2159
2159
2159
2159
2159
2159
2155
2155
2155
2161
2161
2161
2157
2157
2157
2159
2159
2159
2155
2155
2155
2155
2158
2158
2158
2160
2160
2160
2163
2163
2163
2158
2158
2158
2161
2161
2161
2161
2158
2158
2158
2162
2162
2162
2154
2154
2154
2159
2159
2159
2159
2159
2159
2159
2157
2157
2157
2158
2158
2158
2160
2160
2160
2159
2159
2159
2162
2162
2162
2162
2160
2160
2160
2159
2159
2159
2158
2158
2158
2157
2157
2157
2159
2159
2159
2159
2154
2154
2154
2160
2160
2160
2154
2154
2154
2157
2157
2157
2164
2164
2164
2164
2156
2156
2156
2158
2158
2158
2155
2155
2155
2160
2160
2160
2154
2154
2154
2154
2156
2156
2156
2157
2157
2157
2159
2159
2159
2156
2156
2156
2158
2158
2158
2158
2154
2154
2154
2157
2157
2157
2158
2158
2158
2156
2156
2156
2159
2159
2159
2159
2155
2155
2155
2157
2157
2157
2162
2162
2162
2155
2155
2155
2160
2160
2160
2160
2157
2157
2157
2159
2159
2159
2155
2155
2155
2157
2157
2157
2159
2159
2159
2159
2158
2158
2158
2158
2158
2158
2157
2157
2157
2156
2156
2156
2159
2159
2159
2159
2159
2159
2159
2160
2160
2160
2159
2159
2159
2154
2154
2154
2161
2161
2161
2161
2157
2157
2157
2159
2159
2159
2157
2157
2157
2157
2157
2157
2157
2157
2157
2157
2157
2157
2157
2159
2159
2159
2156
2156
2156
2158
2158
2158
2158
2158
2158
2158
2151
2151
2151
2160
2160
2160
2157
2157
2157
2160
2160
2160
2157
2157
2157
2157
2156
2156
2156
2157
2157
2157
2157
2157
2157
2157
2157
2157
2160
2160
2160
2160
2157
2157
2157
2157
2157
2157
2160
2160
2160
2158
2158
2158
2159
2159
2159
2159
2158
2158
2158
2159
2159
2159
2154
2154
2154
2158
2158
2158
2159
2159
2159
2159
2157
2157
2157
2159
2159
2159
2157
2157
2157
2157
2157
2157
2160
2160
2160
2160
2157
2157
2157
2156
2156
2156
2156
2156
2156
2159
2159
2159
2157
2157
2157
2157
2163
2163
2163
2157
2157
2157
2156
2156
2156
2162
2162
2162
2156
2156
2156
2156
2156
2156
2156
2160
2160
2160
2155
2155
2155
2156
2156
2156
2157
2157
2157
2157
2154
2154
2154
2162
2162
2162
2158
2158
2158
2157
2157
2157
2163
2163
2163
2163
2157
2157
2157
2159
2159
2159
2158
2158
2158
2158
2158
2158
2158
2158
2158
2158
2158
2158
2158
2153
2153
2153
2155
2155
2155
2158
2158
2158
2166
2166
2166
2166
2156
2156
2156
2169
2169
2169
2157
2157
2157
2157
2157
2157
2160
2160
2160
2160
2155
2155
2155
2158
2158
2158
2163
2163
2163
2155
2155
2155
2163
2163
2163
2163
2155
2155
2155
2160
2160
2160
2161
2161
2161
2158
2158
2158
2157
2157
2157
2157
2158
2158
2158
2157
2157
2157
2158
2158
2158
2154
2154
2154
2158
2158
2158
2158
2157
2157
2157
2157
2157
2157
2159
2159
2159
2158
2158
2158
2160
2160
2160
2160
2164
2164
2164
2158
2158
2158
2156
2156
2156
2156
2156
2156
2164
2164
2164
2164
2160
2160
2160
2152
2152
2152
2157
2157
2157
2161
2161
2161
2159
2159
2159
2159
2158
2158
2158
2154
2154
2154
2160
2160
2160
2158
2158
2158
2158
2158
2158
2158
2159
2159
2159
2158
2158
2158
2153
2153
2153
2162
2162
2162
2155
2155
2155
2155
2158
2158
2158
2158
2158
2158
2162
2162
2162
2157
2157
2157
2158
2158
2158
2158
2156
2156
2156
2159
2159
2159
2153
2153
2153
2156
2156
2156
2158
2158
2158
2158
2157
2157
2157
2159
2159
2159
2155
2155
2155
2164
2164
2164
2158
2158
2158
2158
2154
2154
2154
2159
2159
2159
2157
2157
2157
2163
2163
2163
2159
2159
2159
2159
2157
2157
2157
2161
2161
2161
2158
2158
2158
2161
2161
2161
2160
2160
2160
2160
2155
2155
2155
2161
2161
2161
2155
2155
2155
2160
2160
2160
2156
2156
2156
2156
2157
2157
2157
2159
2159
2159
2159
2159
2159
2158
2158
2158
2163
2163
2163
2163
2156
2156
2156
2154
2154
2154
2157
2157
2157
2159
2159
2159
2160
2160
2160
2160
2155
2155
2155
2158
2158
2158
2155
2155
2155
2159
2159
2159
2156
2156
2156
2156
2157
2157
2157
2157
2157
2157
2157
2157
2157
2157
2157
2157
2158
2158
2158
2158
2152
2152
2152
2160
2160
2160
2159
2159
2159
2158
2158
2158
2157
2157
2157
2157
2155
2155
2155
2159
2159
2159
2154
2154
2154
2163
2163
2163
2155
2155
2155
2155
2160
2160
2160
2158
2158
2158
2161
2161
2161
2155
2155
2155
2157
2157
2157
2157
2160
2160
2160
2155
2155
2155
2159
2159
2159
2158
2158
2158
2160
2160
2160
2160
2151
2151
2151
2162
2162
2162
2152
2152
2152
2159
2159
2159
2156
2156
2156
2156
2157
2157
2157
2159
2159
2159
2162
2162
2162
2159
2159
2159
2160
2160
2160
2160
2154
2154
2154
2160
2160
2160
2145
2145
2145
2157
2157
2157
2158
2158
2158
2158
2157
2157
2157
2157
2157
2157
2167
2167
2167
2153
2153
2153
2159
2159
2159
2159
2159
2159
2159
2157
2157
2157
2156
2156
2156
2154
2154
2154
2156
2156
2156
2156
2156
2156
2156
2159
2159
2159
2158
2158
2158
2155
2155
2155
2162
2162
2162
2162
2162
2162
2162
2160
2160
2160
2156
2156
2156
2157
2157
2157
2161
2161
2161
2161
2161
2161
2161
2159
2159
2159
2153
2153
2153
2158
2158
2158
2157
2157
2157
2157
2157
2157
2157
2164
2164
2164
2156
2156
2156
2155
2155
2155
2161
2161
2161
2161
2160
2160
2160
2153
2153
2153
2158
2158
2158
2156
2156
2156
2160
2160
2160
2160
2158
2158
2158
2155
2155
2155
2156
2156
2156
2157
2157
2157
2158
2158
2158
2158
2157
2157
2157
2157
2157
2157
2165
2165
2165
2157
2157
2157
2157
2157
2157
2157
2154
2154
2154
2158
2158
2158
2154
2154
2154
2158
2158
2158
2159
2159
2159
2159
2158
2158
2158
2158
2158
2158
2158
2158
2158
2152
2152
2152
2160
2160
2160
2160
2159
2159
2159
2161
2161
2161
2157
2157
2157
2155
2155
2155
2162
2162
2162
2162
2161
2161
2161
2161
2161
2161
2157
2157
2157
2153
2153
2153
2165
2165
2165
2165
2159
2159
2159
2157
2157
2157
2157
2157
2157
2158
2158
2158
2155
2155
2155
2155
2155
2155
2155
2157
2157
2157
2158
2158
2158
2155
2155
2155
2159
2159
2159
2159
2157
2157
2157
2158
2158
2158
2155
2155
2155
2157
2157
2157
2158
2158
2158
2158
2154
2154
2154
2159
2159
2159
2156
2156
2156
2157
2157
2157
2158
2158
2158
2158
2160
2160
2160
2158
2158
2158
2150
2150
2150
2159
2159
2159
2157
2157
2157
2157
2153
2153
2153
2160
2160
2160
2155
2155
2155
2152
2152
2152
2155
2155
2155
2155
2159
2159
2159
2159
2159
2159
2157
2157
2157
2158
2158
2158
2159
2159
2159
2159
2158
2158
2158
2161
2161
2161
2156
2156
2156
2159
2159
2159
2159
2159
2159
2159
2157
2157
2157
2156
2156
2156
2158
2158
2158
2153
2153
2153
2161
2161
2161
2161
2151
2151
2151
2154
2154
2154
2157
2157
2157
2156
2156
2156
2163
2163
2163
2163
2155
2155
2155
2159
2159
2159
2159
2159
2159
2157
2157
2157
2153
2153
2153
2153
2155
2155
2155
2158
2158
2158
2161
2161
2161
2154
2154
2154
2159
2159
2159
2159
2158
2158
2158
2155
2155
2155
2159
2159
2159
2156
2156
2156
2157
2157
2157
2157
2158
2158
2158
2156
2156
2156
2160
2160
2160
2156
2156
2156
2160
2160
2160
2160
2157
2157
2157
2156
2156
2156
2157
2157
2157
2161
2161
2161
2158
2158
2158
2158
2157
2157
2157
2158
2158
2158
2155
2155
2155
2157
2157
2157
2157
2157
2157
2157
2157
2157
2157
2160
2160
2160
2159
2159
2159
2157
2157
2157
2157
2157
2157
2157
2155
2155
2155
2160
2160
2160
2155
2155
2155
2148
2148
2148
2160
2160
2160
2160
2155
2155
2155
2162
2162
2162
2157
2157
2157
2158
2158
2158
2157
2157
2157
2157
2154
2154
2154
2157
2157
2157
2157
2157
2157
2157
2157
2157
2158
2158
2158
2158
2158
2158
2158
2160
2160
2160
2158
2158
2158
2157
2157
2157
2159
2159
2159
2159
2157
2157
2157
2158
2158
2158
2160
2160
2160
2157
2157
2157
2158
2158
2158
2158
2158
2158
2158
2157
2157
2157
2156
2156
2156
2158
2158
2158
2162
2162
2162
2162
2163
2163
2163
2156
2156
2156
2158
2158
2158
2159
2159
2159
2160
2160
2160
2160
2159
2159
2159
2157
2157
2157
2159
2159
2159
2159
2159
2159
2159
2159
2159
2159
2157
2157
2157
2159
2159
2159
2162
2162
2162
2157
2157
2157
2160
2160
2160
2160
2154
2154
2154
2158
2158
2158
2157
2157
2157
2155
2155
2155
2159
2159
2159
2159
2159
2159
2159
2159
2159
2159
2159
2159
2159
2153
2153
2153
2156
2156
2156
2156
2164
2164
2164
2158
2158
2158
2159
2159
2159
2157
2157
2157
2161
2161
2161
2161
2157
2157
2157
2160
2160
2160
2158
2158
2158
2159
2159
2159
2160
2160
2160
2160
2157
2157
2157
2156
2156
2156
2159
2159
2159
2156
2156
2156
2161
2161
2161
2161
2158
2158
2158
2156
2156
2156
2156
2156
2156
2157
2157
2157
2162
2162
2162
2162
2158
2158
2158
2161
2161
2161
2156
2156
2156
2156
2156
2156
2158
2158
2158
2158
2159
2159
2159
2157
2157
2157
2158
2158
2158
2157
2157
2157
2160
2160
2160
2160
2157
2157
2157
2158
2158
2158
2157
2157
2157
2163
2163
2163
2158
2158
2158
2158
2155
2155
2155
2158
2158
2158
2157
2157
2157
2161
2161
2161
2158
2158
2158
2158
2156
2156
2156
2156
2156
2156
2160
2160
2160
2165
2165
2165
2155
2155
2155
2155
2159
2159
2159
2158
2158
2158
2153
2153
2153
2156
2156
2156
2163
2163
2163
2163
2160
2160
2160
2159
2159
2159
2159
2159
2159
2158
2158
2158
2159
2159
2159
2159
2159
2159
2159
2160
2160
2160
2155
2155
2155
2156
2156
2156
2157
2157
2157
2157
2158
2158
2158
2161
2161
2161
2157
2157
2157
2157
2157
2157
2158
2158
2158
2158
2158
2158
2158
2160
2160
2160
2156
2156
2156
2158
2158
2158
2159
2159
2159
2159
2154
2154
2154
2159
2159
2159
2155
2155
2155
2154
2154
2154
2160
2160
2160
2160
2159
2159
2159
2159
2159
2159
2159
2159
2159
2155
2155
2155
2157
2157
2157
2157
2157
2157
2157
2157
2157
2157
2162
2162
2162
2160
2160
2160
2159
2159
2159
2159
2155
2155
2155
2160
2160
2160
2158
2158
2158
2161
2161
2161
2159
2159
2159
2159
2159
2159
2159
2158
2158
2158
2158
2158
2158
2166
2166
2166
2159
2159
2159
2159
2159
2159
2159
2159
2159
2159
2157
2157
2157
2157
2157
2157
2161
2161
2161
2161
2159
2159
2159
2160
2160
2160
2154
2154
2154
2160
2160
2160
2160
2160
2160
2160
2156
2156
2156
2162
2162
2162
2157
2157
2157
2153
2153
2153
2163
2163
2163
2163
2157
2157
2157
2157
2157
2157
2159
2159
2159
2157
2157
2157
2159
2159
2159
2159
2159
2159
2159
2163
2163
2163
2158
2158
2158
2156
2156
2156
2159
2159
2159
2159
2157
2157
2157
2160
2160
2160
2156
2156
2156
2161
2161
2161
2157
2157
2157
2157
2156
2156
2156
2160
2160
2160
2159
2159
2159
2158
2158
2158
2157
2157
2157
2157
2153
2153
2153
2158
2158
2158
2157
2157
2157
2157
2157
2157
2158
2158
2158
2158
2157
2157
2157
2160
2160
2160
2155
2155
2155
2167
2167
2167
2159
2159
2159
2159
2157
2157
2157
2158
2158
2158
2160
2160
2160
2162
2162
2162
2160
2160
2160
2160
2160
2160
2160
2161
2161
2161
2157
2157
2157
2152
2152
2152
2160
2160
2160
2160
2155
2155
2155
2155
2155
2155
2158
2158
2158
2154
2154
2154
2158
2158
2158
2158
2157
2157
2157
2162
2162
2162
2159
2159
2159
2158
2158
2158
2170
2170
2170
2170
2159
2159
2159
2156
2156
2156
2157
2157
2157
2156
2156
2156
2161
2161
2161
2161
2158
2158
2158
2160
2160
2160
2159
2159
2159
2152
2152
2152
2162
2162
2162
2162
2159
2159
2159
2157
2157
2157
2159
2159
2159
2159
2159
2159
2159
2159
2159
2159
2155
2155
2155
2158
2158
2158
2155
2155
2155
2158
2158
2158
2159
2159
2159
2159
2161
2161
2161
2156
2156
2156
2163
2163
2163
2156
2156
2156
2160
2160
2160
2160
2158
2158
2158
2159
2159
2159
2157
2157
2157
2157
2157
2157
2156
2156
2156
2156
2157
2157
2157
2159
2159
2159
2158
2158
2158
2163
2163
2163
2159
2159
2159
2159
2165
2165
2165
2157
2157
2157
2158
2158
2158
2155
2155
2155
2158
2158
2158
2158
2159
2159
2159
2159
2159
2159
2157
2157
2157
2160
2160
2160
2162
2162
2162
2162
2156
2156
2156
2159
2159
2159
2157
2157
2157
2157
2157
2157
2156
2156
2156
2156
2156
2156
2156
2159
2159
2159
2157
2157
2157
2159
2159
2159
2160
2160
2160
2160
2157
2157
2157
2157
2157
2157
2160
2160
2160
2156
2156
2156
2161
2161
2161
2161
2159
2159
2159
2160
2160
2160
2161
2161
2161
2157
2157
2157
2159
2159
2159
2159
2161
2161
2161
2157
2157
2157
2156
2156
2156
2160
2160
2160
2154
2154
2154
2154
2157
2157
2157
2158
2158
2158
2170
2170
2170
2157
2157
2157
2162
2162
2162
2162
2158
2158
2158
2159
2159
2159
2150
2150
2150
2156
2156
2156
2157
2157
2157
2157
2156
2156
2156
2159
2159
2159
2157
2157
2157
2153
2153
2153
2156
2156
2156
2156
2159
2159
2159
2156
2156
2156
2158
2158
2158
2158
2158
2158
2158
2158
2158
2158
2153
2153
2153
2162
2162
2162
2159
2159
2159
2157
2157
2157
2158
2158
2158
2158
2155
2155
2155
2161
2161
2161
2156
2156
2156
2160
2160
2160
2156
2156
2156
2156
2159
2159
2159
2155
2155
2155
2160
2160
2160
2156
2156
2156
2156
2156
2156
2156
2158
2158
2158
2159
2159
2159
2157
2157
2157
2159
2159
2159
2162
2162
2162
2162
2155
2155
2155
2157
2157
2157
2158
2158
2158
2159
2159
2159
2157
2157
2157
2157
2158
2158
2158
2163
2163
2163
2160
2160
2160
2160
2160
2160
2157
2157
2157
2157
2157
2157
2157
2158
2158
2158
2159
2159
2159
2159
2159
2159
2154
2154
2154
2154
2159
2159
2159
2160
2160
2160
2157
2157
2157
2160
2160
2160
2155
2155
2155
2155
2159
2159
2159
2156
2156
2156
2160
2160
2160
2161
2161
2161
2157
2157
2157
2157
2158
2158
2158
2159
2159
2159
2156
2156
2156
2146
2146
2146
2153
2153
2153
2153
2158
2158
2158
2160
2160
2160
2157
2157
2157
2152
2152
2152
2158
2158
2158
2158
2157
2157
2157
2158
2158
2158
2158
2158
2158
2156
2156
2156
2157
2157
2157
2157
2158
2158
2158
2157
2157
2157
2157
2157
2157
2160
2160
2160
2159
2159
2159
2159
2157
2157
2157
2159
2159
2159
2156
2156
2156
2159
2159
2159
2157
2157
2157
2157
2157
2157
2157
2159
2159
2159
2159
2159
2159
2160
2160
2160
2152
2152
2152
2152
2157
2157
2157
2158
2158
2158
2155
2155
2155
2161
2161
2161
2154
2154
2154
2154
2159
2159
2159
2159
2159
2159
2154
2154
2154
2163
2163
2163
2159
2159
2159
2159
2156
2156
2156
2160
2160
2160
2159
2159
2159
2156
2156
2156
2155
2155
2155
2155
2156
2156
2156
2157
2157
2157
2157
2157
2157
2160
2160
2160
2158
2158
2158
2158
2156
2156
2156
2167
2167
2167
2157
2157
2157
2161
2161
2161
2157
2157
2157
2157
2157
2157
2157
2158
2158
2158
2157
2157
2157
2159
2159
2159
2158
2158
2158
2158
2156
2156
2156
2160
2160
2160
2156
2156
2156
2161
2161
2161
2158
2158
2158
2158
2156
2156
2156
2160
2160
2160
2154
2154
2154
2161
2161
2161
2161
2161
2161
2161
2157
2157
2157
2159
2159
2159
2158
2158
2158
2161
2161
2161
2157
2157
2157
2157
2155
2155
2155
2158
2158
2158
2158
2158
2158
2164
2164
2164
2155
2155
2155
2155
2156
2156
2156
2159
2159
2159
2156
2156
2156
2160
2160
2160
2159
2159
2159
2159
2155
2155
2155
2160
2160
2160
2158
2158
2158
2154
2154
2154
2156
2156
2156
2156
2157
2157
2157
2161
2161
2161
2157
2157
2157
2156
2156
2156
2154
2154
2154
2154
2153
2153
2153
2159
2159
2159
2156
2156
2156
2159
2159
2159
2154
2154
2154
2154
2155
2155
2155
2161
2161
2161
2153
2153
2153
2163
2163
2163
2156
2156
2156
2156
2154
2154
2154
2156
2156
2156
2158
2158
2158
2159
2159
2159
2159
2159
2159
2159
2156
2156
2156
2158
2158
2158
2154
2154
2154
2160
2160
2160
2156
2156
2156
2156
2158
2158
2158
2164
2164
2164
2162
2162
2162
2159
2159
2159
2158
2158
2158
2158
2158
2158
2158
2157
2157
2157
2161
2161
2161
2157
2157
2157
2159
2159
2159
2159
2156
2156
2156
2159
2159
2159
2159
2159
2159
2159
2159
2159
2161
2161
2161
2161
2154
2154
2154
2157
2157
2157
2158
2158
2158
2157
2157
2157
2155
2155
2155
2155
2156
2156
2156
2159
2159
2159
2157
2157
2157
2160
2160
2160
2152
2152
2152
2152
2156
2156
2156
2159
2159
2159
2157
2157
2157
2161
2161
2161
2155
2155
2155
2155
2158
2158
2158
2160
2160
2160
2158
2158
2158
2160
2160
2160
2154
2154
2154
2154
2158
2158
2158
2157
2157
2157
2157
2157
2157
2159
2159
2159
2159
2159
2159
2159
2156
2156
2156
2159
2159
2159
2158
2158
2158
2158
2158
2158
2158
2158
2158
2158
2157
2157
2157
2160
2160
2160
2160
2160
2160
2153
2153
2153
2158
2158
2158
2158
2149
2149
2149
2163
2163
2163
2155
2155
2155
2156
2156
2156
2158
2158
2158
2158
2164
2164
2164
2159
2159
2159
2158
2158
2158
2161
2161
2161
2158
2158
2158
2158
2156
2156
2156
2157
2157
2157
2158
2158
2158
2158
2158
2158
2155
2155
2155
2155
2155
2155
2155
2164
2164
2164
2159
2159
2159
2155
2155
2155
2154
2154
2154
2154
2159
2159
2159
2163
2163
2163
2161
2161
2161
2157
2157
2157
2159
2159
2159
2159
2157
2157
2157
2161
2161
2161
2156
2156
2156
2159
2159
2159
2156
2156
2156
2156
2158
2158
2158
2158
2158
2158
2157
2157
2157
2159
2159
2159
2156
2156
2156
2156
2155
2155
2155
2161
2161
2161
2155
2155
2155
2162
2162
2162
2155
2155
2155
2155
2158
2158
2158
2160
2160
2160
2157
2157
2157
2161
2161
2161
2157
2157
2157
2157
2158
2158
2158
2157
2157
2157
2157
2157
2157
2157
2157
2157
2158
2158
2158
2158
2159
2159
2159
2157
2157
2157
2159
2159
2159
2157
2157
2157
2155
2155
2155
2155
2161
2161
2161
2158
2158
2158
2159
2159
2159
2161
2161
2161
2152
2152
2152
2152
2154
2154
2154
2158
2158
2158
2158
2158
2158
2154
2154
2154
2156
2156
2156
2156
2159
2159
2159
2145
2145
2145
2158
2158
2158
2154
2154
2154
2159
2159
2159
2159
2158
2158
2158
2161
2161
2161
2153
2153
2153
2164
2164
2164
2159
2159
2159
2159
2158
2158
2158
2162
2162
2162
2157
2157
2157
2160
2160
2160
2153
2153
2153
2153
2159
2159
2159
2160
2160
2160
2158
2158
2158
2160
2160
2160
2156
2156
2156
2156
2160
2160
2160
2159
2159
2159
2158
2158
2158
2158
2158
2158
2156
2156
2156
2156
2156
2156
2156
2163
2163
2163
2157
2157
2157
2160
2160
2160
2154
2154
2154
2154
2157
2157
2157
2158
2158
2158
2158
2158
2158
2158
2158
2158
2157
2157
2157
2157
2153
2153
2153
2160
2160
2160
2160
2160
2160
2155
2155
2155
2159
2159
2159
2159
2158
2158
2158
2161
2161
2161
2153
2153
2153
2160
2160
2160
2153
2153
2153
2153
2156
2156
2156
2159
2159
2159
2155
2155
2155
2158
2158
2158
2155
2155
2155
2155
2156
2156
2156
2156
2156
2156
2158
2158
2158
2157
2157
2157
2158
2158
2158
2158
2159
2159
2159
2157
2157
2157
2157
2157
2157
2157
2157
2157
2155
2155
2155
2155
2156
2156
2156
2157
2157
2157
2158
2158
2158
2158
2158
2158
2157
2157
2157
2157
2157
2157
2157
2159
2159
2159
2158
2158
2158
2158
2158
2158
2157
2157
2157
2157
2156
2156
2156
2161
2161
2161
2157
2157
2157
2159
2159
2159
2158
2158
2158
2158
2157
2157
2157
2158
2158
2158
2155
2155
2155
2160
2160
2160
2154
2154
2154
2154
2156
2156
2156
2159
2159
2159
2157
2157
2157
2159
2159
2159
2152
2152
2152
2152
2160
2160
2160
2155
2155
2155
2156
2156
2156
2157
2157
2157
2160
2160
2160
2160
2156
2156
2156
2155
2155
2155
2155
2155
2155
2161
2161
2161
2158
2158
2158
2158
2157
2157
2157
2162
2162
2162
2154
2154
2154
2158
2158
2158
2157
2157
2157
2157
2160
2160
2160
2154
2154
2154
2160
2160
2160
2158
2158
2158
2158
2158
2158
2158
2157
2157
2157
2160
2160
2160
2157
2157
2157
2164
2164
2164
2154
2154
2154
2154
2159
2159
2159
2157
2157
2157
2159
2159
2159
2160
2160
2160
2154
2154
2154
2154
2157
2157
2157
2157
2157
2157
2161
2161
2161
2160
2160
2160
2157
2157
2157
2157
2158
2158
2158
2156
2156
2156
2155
2155
2155
2158
2158
2158
2155
2155
2155
2155
2156
2156
2156
2161
2161
2161
2159
2159
2159
2158
2158
2158
2157
2157
2157
2157
2157
2157
2157
2158
2158
2158
2159
2159
2159
2157
2157
2157
2156
2156
2156
2156
2160
2160
2160
2157
2157
2157
2160
2160
2160
2156
2156
2156
2158
2158
2158
2158
2159
2159
2159
2157
2157
2157
2158
2158
2158
2162
2162
2162
2156
2156
2156
2156
2154
2154
2154
2157
2157
2157
2157
2157
2157
2159
2159
2159
2157
2157
2157
2157
2158
2158
2158
2160
2160
2160
2157
2157
2157
2150
2150
2150
2157
2157
2157
2157
2165
2165
2165
2163
2163
2163
2156
2156
2156
2159
2159
2159
2151
2151
2151
2151
2155
2155
2155
2162
2162
2162
2157
2157
2157
2157
2157
2157
2152
2152
2152
2152
2155
2155
2155
2160
2160
2160
2159
2159
2159
2161
2161
2161
2150
2150
2150
2150
2158
2158
2158
2154
2154
2154
2161
2161
2161
2156
2156
2156
2154
2154
2154
2154
2158
2158
2158
2154
2154
2154
2156
2156
2156
2157
2157
2157
2159
2159
2159
2159
2156
2156
2156
2162
2162
2162
2156
2156
2156
2159
2159
2159
2155
2155
2155
2155
2156
2156
2156
2160
2160
2160
2155
2155
2155
2161
2161
2161
2156
2156
2156
2156
2159
2159
2159
2160
2160
2160
2154
2154
2154
2160
2160
2160
2156
2156
2156
2156
2156
2156
2156
2161
2161
2161
2154
2154
2154
2157
2157
2157
2156
2156
2156
2156
2156
2156
2156
2165
2165
2165
2161
2161
2161
2160
2160
2160
2154
2154
2154
2154
2154
2154
2154
2159
2159
2159
2158
2158
2158
2156
2156
2156
2162
2162
2162
2162
2159
2159
2159
2158
2158
2158
2158
2158
2158
2155
2155
2155
2156
2156
2156
2156
2157
2157
2157
2158
2158
2158
2159
2159
2159
2160
2160
2160
2159
2159
2159
2159
2162
2162
2162
2156
2156
2156
2161
2161
2161
2158
2158
2158
2158
2158
2158
2158
2161
2161
2161
2158
2158
2158
2158
2158
2158
2160
2160
2160
2158
2158
2158
2158
2160
2160
2160
2158
2158
2158
2155
2155
2155
2159
2159
2159
2155
2155
2155
2155
2158
2158
2158
2161
2161
2161
2154
2154
2154
2163
2163
2163
2157
2157
2157
2157
2162
2162
2162
2158
2158
2158
2157
2157
2157
2157
2157
2157
2158
2158
2158
2158
2159
2159
2159
2163
2163
2163
2158
2158
2158
2156
2156
2156
2160
2160
2160
2160
2158
2158
2158
2156
2156
2156
2156
2156
2156
2160
2160
2160
2159
2159
2159
2159
2158
2158
2158
2156
2156
2156
2158
2158
2158
2156
2156
2156
2155
2155
2155
2155
2157
2157
2157
2152
2152
2152
2157
2157
2157
2160
2160
2160
2157
2157
2157
2157
2153
2153
2153
2164
2164
2164
2158
2158
2158
2162
2162
2162
2160
2160
2160
2160
2159
2159
2159
2151
2151
2151
2157
2157
2157
2155
2155
2155
2160
2160
2160
2160
2157
2157
2157
2160
2160
2160
2157
2157
2157
2159
2159
2159
2156
2156
2156
2156
2153
2153
2153
2158
2158
2158
2159
2159
2159
2161
2161
2161
2157
2157
2157
2157
2154
2154
2154
2160
2160
2160
2151
2151
2151
2153
2153
2153
2155
2155
2155
2155
2158
2158
2158
2162
2162
2162
2153
2153
2153
2161
2161
2161
2153
2153
2153
2153
2157
2157
2157
2159
2159
2159
2155
2155
2155
2161
2161
2161
2154
2154
2154
2154
2158
2158
2158
2157
2157
2157
2163
2163
2163
2161
2161
2161
2157
2157
2157
2157
2157
2157
2157
2159
2159
2159
2153
2153
2153
2159
2159
2159
2157
2157
2157
2157
2159
2159
2159
2164
2164
2164
2147
2147
2147
2159
2159
2159
2157
2157
2157
2157
2159
2159
2159
2158
2158
2158
2158
2158
2158
2162
2162
2162
2158
2158
2158
2158
2157
2157
2157
2157
2157
2157
2157
2157
2157
2157
2157
2157
2157
2157
2157
2157
2160
2160
2160
2158
2158
2158
2158
2158
2158
2165
2165
2165
2160
2160
2160
2160
2151
2151
2151
2157
2157
2157
2156
2156
2156
2159
2159
2159
2160
2160
2160
2160
2154
2154
2154
2161
2161
2161
2155
2155
2155
2161
2161
2161
2156
2156
2156
2156
2155
2155
2155
2161
2161
2161
2156
2156
2156
2159
2159
2159
2157
2157
2157
2157
2150
2150
2150
2156
2156
2156
2159
2159
2159
2158
2158
2158
2160
2160
2160
2160
2155
2155
2155
2159
2159
2159
2156
2156
2156
2156
2156
2156
2159
2159
2159
2159
2155
2155
2155
2159
2159
2159
2155
2155
2155
2162
2162
2162
2157
2157
2157
2157
2162
2162
2162
2158
2158
2158
2155
2155
2155
2160
2160
2160
2156
2156
2156
2156
2157
2157
2157
2160
2160
2160
2156
2156
2156
2163
2163
2163
2158
2158
2158
2158
2157
2157
2157
2158
2158
2158
2156
2156
2156
2160
2160
2160
2156
2156
2156
2156
2158
2158
2158
2157
2157
2157
2158
2158
2158
2157
2157
2157
2156
2156
2156
2156
2151
2151
2151
2155
2155
2155
2161
2161
2161
2151
2151
2151
2163
2163
2163
2163
2158
2158
2158
2160
2160
2160
2156
2156
2156
2167
2167
2167
2161
2161
2161
2161
2157
2157
2157
2159
2159
2159
2158
2158
2158
2159
2159
2159
2155
2155
2155
2155
2156
2156
2156
2160
2160
2160
2156
2156
2156
2155
2155
2155
2155
2155
2155
2155
2151
2151
2151
2159
2159
2159
2157
2157
2157
2155
2155
2155
2156
2156
2156
2156
2158
2158
2158
2159
2159
2159
2156
2156
2156
2162
2162
2162
2153
2153
2153
2153
2162
2162
2162
2158
2158
2158
2158
2158
2158
2165
2165
2165
2156
2156
2156
2156
2158
2158
2158
2160
2160
2160
2158
2158
2158
2156
2156
2156
2155
2155
2155
2155
2156
2156
2156
2158
2158
2158
2159
2159
2159
2159
2159
2159
2159
2159
2159
2159
2157
2157
2157
2153
2153
2153
2159
2159
2159
2163
2163
2163
2157
2157
2157
2157
2158
2158
2158
2159
2159
2159
2158
2158
2158
2159
2159
2159
2154
2154
2154
2154
2156
2156
2156
2158
2158
2158
2157
2157
2157
2159
2159
2159
2156
2156
2156
2156
2159
2159
2159
2156
2156
2156
2158
2158
2158
2160
2160
2160
2156
2156
2156
2156
2159
2159
2159
2160
2160
2160
2157
2157
2157
2159
2159
2159
2158
2158
2158
2158
2157
2157
2157
2157
2157
2157
2160
2160
2160
2160
2160
2160
2156
2156
2156
2156
2156
2156
2156
2160
2160
2160
2157
2157
2157
2160
2160
2160
2154
2154
2154
2154
2156
2156
2156
2157
2157
2157
2157
2157
2157
2161
2161
2161
2157
2157
2157
2157
2157
2157
2157
2165
2165
2165
2157
2157
2157
2160
2160
2160
2157
2157
2157
2157
2156
2156
2156
2160
2160
2160
2159
2159
2159
2156
2156
2156
2160
2160
2160
2160
2155
2155
2155
2159
2159
2159
2152
2152
2152
2159
2159
2159
2155
2155
2155
2155
2159
2159
2159
2157
2157
2157
2157
2157
2157
2160
2160
2160
2157
2157
2157
2157
2157
2157
2157
2156
2156
2156
2157
2157
2157
2157
2157
2157
2156
2156
2156
2156
2158
2158
2158
2150
2150
2150
2159
2159
2159
2159
2159
2159
2154
2154
2154
2154
2157
2157
2157
2165
2165
2165
2159
2159
2159
2157
2157
2157
2156
2156
2156
2156
2156
2156
2156
2156
2156
2156
2158
2158
2158
2158
2158
2158
2158
2158
2158
2158
2160
2160
2160
2155
2155
2155
2156
2156
2156
2160
2160
2160
2154
2154
2154
2154
2162
2162
2162
2157
2157
2157
2162
2162
2162
2157
2157
2157
2166
2166
2166
2166
2157
2157
2157
2153
2153
2153
2156
2156
2156
2160
2160
2160
2157
2157
2157
2157
2157
2157
2157
2158
2158
2158
2156
2156
2156
2160
2160
2160
2160
2160
2160
2160
2155
2155
2155
2156
2156
2156
2158
2158
2158
2159
2159
2159
2159
2159
2159
2159
2157
2157
2157
2156
2156
2156
2159
2159
2159
2158
2158
2158
2158
2158
2158
2158
2154
2154
2154
2158
2158
2158
2156
2156
2156
2159
2159
2159
2160
2160
2160
2160
2156
2156
2156
2161
2161
2161
2155
2155
2155
2161
2161
2161
2161
2161
2161
2161
2157
2157
2157
2158
2158
2158
2160
2160
2160
2158
2158
2158
2152
2152
2152
2152
2158
2158
2158
2157
2157
2157
2155
2155
2155
2158
2158
2158
2161
2161
2161
2161
2153
2153
2153
2163
2163
2163
2156
2156
2156
2162
2162
2162
2150
2150
2150
2150
2159
2159
2159
2162
2162
2162
2156
2156
2156
2155
2155
2155
2160
2160
2160
2160
2158
2158
2158
2154
2154
2154
2157
2157
2157
2161
2161
2161
2158
2158
2158
2158
2161
2161
2161
2157
2157
2157
2156
2156
2156
2157
2157
2157
2157
2157
2157
2157
2157
2157
2157
2157
2157
2157
2158
2158
2158
2162
2162
2162
2158
2158
2158
2158
2161
2161
2161
2155
2155
2155
2158
2158
2158
2164
2164
2164
2155
2155
2155
2155
2159
2159
2159
2158
2158
2158
2159
2159
2159
2160
2160
2160
2157
2157
2157
2157
2157
2157
2157
2158
2158
2158
2158
2158
2158
2158
2158
2158
2156
2156
2156
2156
2156
2156
2156
2158
2158
2158
2157
2157
2157
2161
2161
2161
2157
2157
2157
2157
2153
2153
2153
2160
2160
2160
2157
2157
2157
2154
2154
2154
2156
2156
2156
2156
2157
2157
2157
2153
2153
2153
2156
2156
2156
2163
2163
2163
2151
2151
2151
2151
2156
2156
2156
2159
2159
2159
2156
2156
2156
2158
2158
2158
2158
2158
2158
2158
2157
2157
2157
2160
2160
2160
2157
2157
2157
2163
2163
2163
2158
2158
2158
2158
2156
2156
2156
2156
2156
2156
2159
2159
2159
2158
2158
2158
2157
2157
2157
2157
2155
2155
2155
2159
2159
2159
2157
2157
2157
2161
2161
2161
2157
2157
2157
2157
2156
2156
2156
2157
2157
2157
2158
2158
2158
2160
2160
2160
2154
2154
2154
2154
2157
2157
2157
2158
2158
2158
2161
2161
2161
2158
2158
2158
2157
2157
2157
2157
2157
2157
2157
2159
2159
2159
2159
2159
2159
2162
2162
2162
2155
2155
2155
2155
2159
2159
2159
2158
2158
2158
2152
2152
2152
2159
2159
2159
2157
2157
2157
2157
2159
2159
2159
2158
2158
2158
2150
2150
2150
2155
2155
2155
2155
2155
2155
2155
2157
2157
2157
2158
2158
2158
2162
2162
2162
2158
2158
2158
2157
2157
2157
2157
2156
2156
2156
2161
2161
2161
2156
2156
2156
2158
2158
2158
2157
2157
2157
2157
2154
2154
2154
2161
2161
2161
2159
2159
2159
2157
2157
2157
2154
2154
2154
2154
2156
2156
2156
2161
2161
2161
2157
2157
2157
2157
2157
2157
2156
2156
2156
2156
2158
2158
2158
2158
2158
2158
2156
2156
2156
2156
2156
2156
2155
2155
2155
2155
2156
2156
2156
2157
2157
2157
2156
2156
2156
2158
2158
2158
2158
2158
2158
2158
2159
2159
2159
2154
2154
2154
2159
2159
2159
2158
2158
2158
2157
2157
2157
2157
2155
2155
2155
2160
2160
2160
2153
2153
2153
2162
2162
2162
2155
2155
2155
2155
2157
2157
2157
2167
2167
2167
2156
2156
2156
2156
2156
2156
2161
2161
2161
2161
2156
2156
2156
2161
2161
2161
2158
2158
2158
2159
2159
2159
2153
2153
2153
2153
2156
2156
2156
2159
2159
2159
2158
2158
2158
2158
2158
2158
2156
2156
2156
2156
2159
2159
2159
2159
2159
2159
2158
2158
2158
2160
2160
2160
2158
2158
2158
2158
2159
2159
2159
2154
2154
2154
2160
2160
2160
2159
2159
2159
2156
2156
2156
2156
2157
2157
2157
2157
2157
2157
2155
2155
2155
2157
2157
2157
2156
2156
2156
2156
2155
2155
2155
2165
2165
2165
2158
2158
2158
2159
2159
2159
2156
2156
2156
2156
2159
2159
2159
2157
2157
2157
2158
2158
2158
2161
2161
2161
2158
2158
2158
2158
2160
2160
2160
2154
2154
2154
2158
2158
2158
2158
2158
2158
2155
2155
2155
2155
2157
2157
2157
2152
2152
2152
2153
2153
2153
2161
2161
2161
2160
2160
2160
2160
2163
2163
2163
2157
2157
2157
2158
2158
2158
2159
2159
2159
2152
2152
2152
2152
2161
2161
2161
2156
2156
2156
2157
2157
2157
2159
2159
2159
2157
2157
2157
2157
2159
2159
2159
2159
2159
2159
2156
2156
2156
2157
2157
2157
2162
2162
2162
2162
2157
2157
2157
2160
2160
2160
2157
2157
2157
2153
2153
2153
2159
2159
2159
2159
2161
2161
2161
2158
2158
2158
2154
2154
2154
2155
2155
2155
2160
2160
2160
2160
2159
2159
2159
2159
2159
2159
2158
2158
2158
2155
2155
2155
2156
2156
2156
2156
2160
2160
2160
2158
2158
2158
2159
2159
2159
2156
2156
2156
2156
2156
2156
2156
2171
2171
2171
2160
2160
2160
2154
2154
2154
2162
2162
2162
2158
2158
2158
2158
2159
2159
2159
2162
2162
2162
2157
2157
2157
2152
2152
2152
2156
2156
2156
2156
2158
2158
2158
2159
2159
2159
2157
2157
2157
2159
2159
2159
2155
2155
2155
2155
2157
2157
2157
2157
2157
2157
2156
2156
2156
2160
2160
2160
2155
2155
2155
2155
2159
2159
2159
2157
2157
2157
2150
2150
2150
2159
2159
2159
2157
2157
2157
2157
2157
2157
2157
2157
2157
2157
2162
2162
2162
2161
2161
2161
2155
2155
2155
2155
2159
2159
2159
2157
2157
2157
2164
2164
2164
2155
2155
2155
2157
2157
2157
2157
2157
2157
2157
2158
2158
2158
2156
2156
2156
2157
2157
2157
2156
2156
2156
2156
2158
2158
2158
2160
2160
2160
2158
2158
2158
2162
2162
2162
2154
2154
2154
2154
2157
2157
2157
2159
2159
2159
2160
2160
2160
2164
2164
2164
2157
2157
2157
2157
2157
2157
2157
2157
2157
2157
2154
2154
2154
2160
2160
2160
2157
2157
2157
2157
2156
2156
2156
2155
2155
2155
2158
2158
2158
2157
2157
2157
2157
2157
2157
2157
2159
2159
2159
2157
2157
2157
2158
2158
2158
2157
2157
2157
2157
2157
2157
2157
2154
2154
2154
2161
2161
2161
2153
2153
2153
2157
2157
2157
2159
2159
2159
2159
2156
2156
2156
2162
2162
2162
2157
2157
2157
2154
2154
2154
2158
2158
2158
2158
2159
2159
2159
2160
2160
2160
2158
2158
2158
2159
2159
2159
2158
2158
2158
2158
2158
2158
2158
2159
2159
2159
2157
2157
2157
2158
2158
2158
2157
2157
2157
2157
2158
2158
2158
2159
2159
2159
2159
2159
2159
2158
2158
2158
2157
2157
2157
2157
2156
2156
2156
2166
2166
2166
2153
2153
2153
2164
2164
2164
2152
2152
2152
2152
2159
2159
2159
2161
2161
2161
2155
2155
2155
2159
2159
2159
2155
2155
2155
2155
2159
2159
2159
2158
2158
2158
2157
2157
2157
2156
2156
2156
2153
2153
2153
2153
2156
2156
2156
2156
2156
2156
2161
2161
2161
2159
2159
2159
2167
2167
2167
2167
2149
2149
2149
2160
2160
2160
2161
2161
2161
2157
2157
2157
2155
2155
2155
2155
2160
2160
2160
2156
2156
2156
2154
2154
2154
2160
2160
2160
2157
2157
2157
2157
2151
2151
2151
2156
2156
2156
2156
2156
2156
2156
2156
2156
2157
2157
2157
2157
2159
2159
2159
2159
2159
2159
2161
2161
2161
2155
2155
2155
2156
2156
2156
2156
2159
2159
2159
2158
2158
2158
2158
2158
2158
2154
2154
2154
2158
2158
2158
2158
2157
2157
2157
2161
2161
2161
2155
2155
2155
2164
2164
2164
2157
2157
2157
2157
2157
2157
2157
2160
2160
2160
2158
2158
2158
2157
2157
2157
2158
2158
2158
2158
2159
2159
2159
2158
2158
2158
2148
2148
2148
2158
2158
2158
2159
2159
2159
2159
2159
2159
2159
2157
2157
2157
2160
2160
2160
2158
2158
2158
2157
2157
2157
2157
2155
2155
2155
2158
2158
2158
2159
2159
2159
2161
2161
2161
2158
2158
2158
2158
2159
2159
2159
2162
2162
2162
2154
2154
2154
2158
2158
2158
2156
2156
2156
2156
2156
2156
2156
2157
2157
2157
2158
2158
2158
2159
2159
2159
2157
2157
2157
2157
2157
2157
2157
2159
2159
2159
2157
2157
2157
2159
2159
2159
2156
2156
2156
2156
2155
2155
2155
2159
2159
2159
2154
2154
2154
2159
2159
2159
2156
2156
2156
2156
2161
2161
2161
2158
2158
2158
2158
2158
2158
2159
2159
2159
2158
2158
2158
2158
2154
2154
2154
2159
2159
2159
2157
2157
2157
2161
2161
2161
2156
2156
2156
2156
2157
2157
2157
2158
2158
2158
2162
2162
2162
2160
2160
2160
2162
2162
2162
2162
2158
2158
2158
2159
2159
2159
2157
2157
2157
2159
2159
2159
2155
2155
2155
2155
2158
2158
2158
2158
2158
2158
2158
2158
2158
2160
2160
2160
2157
2157
2157
2157
2158
2158
2158
2156
2156
2156
2157
2157
2157
2159
2159
2159
2157
2157
2157
2157
2159
2159
2159
2158
2158
2158
2156
2156
2156
2158
2158
2158
2151
2151
2151
2151
2157
2157
2157
2158
2158
2158
2156
2156
2156
2156
2156
2156
2160
2160
2160
2160
2159
2159
2159
2159
2159
2159
2158
2158
2158
2157
2157
2157
2158
2158
2158
2158
2154
2154
2154
2162
2162
2162
2156
2156
2156
2159
2159
2159
2153
2153
2153
2153
2160
2160
2160
2157
2157
2157
2160
2160
2160
2157
2157
2157
2158
2158
2158
2158
2164
2164
2164
2158
2158
2158
2157
2157
2157
2162
2162
2162
2153
2153
2153
2153
2167
2167
2167
2160
2160
2160
2158
2158
2158
2158
2158
2158
2156
2156
2156
2156
2157
2157
2157
2157
2157
2157
2157
2157
2157
2159
2159
2159
2155
2155
2155
2155
2158
2158
2158
2161
2161
2161
2163
2163
2163
2158
2158
2158
2156
2156
2156
2156
2159
2159
2159
2161
2161
2161
2159
2159
2159
2158
2158
2158
2154
2154
2154
2154
2161
2161
2161
2160
2160
2160
2156
2156
2156
2163
2163
2163
2152
2152
2152
2152
2156
2156
2156
2159
2159
2159
2158
2158
2158
2143
2143
2143
2159
2159
2159
2159
2161
2161
2161
2157
2157
2157
2157
2157
2157
2163
2163
2163
2156
2156
2156
2156
2155
2155
2155
2164
2164
2164
2154
2154
2154
2154
2154
2154
2156
2156
2156
2156
2157
2157
2157
2159
2159
2159
2161
2161
2161
2155
2155
2155
2157
2157
2157
2157
2156
2156
2156
2157
2157
2157
2155
2155
2155
2162
2162
2162
2155
2155
2155
2155
2155
2155
2155
2156
2156
2156
2161
2161
2161
2158
2158
2158
2154
2154
2154
2154
2158
2158
2158
2158
2158
2158
2160
2160
2160
2158
2158
2158
2156
2156
2156
2156
2158
2158
2158
2156
2156
2156
2157
2157
2157
2158
2158
2158
2156
2156
2156
2156
2157
2157
2157
2158
2158
2158
2156
2156
2156
2158
2158
2158
2157
2157
2157
2157
2158
2158
2158
2158
2158
2158
2156
2156
2156
2160
2160
2160
2156
2156
2156
2156
2156
2156
2156
2159
2159
2159
2157
2157
2157
2158
2158
2158
2157
2157
2157
2157
2156
2156
2156
2158
2158
2158
2159
2159
2159
2158
2158
2158
2156
2156
2156
2156
2157
2157
2157
2156
2156
2156
2158
2158
2158
2159
2159
2159
2157
2157
2157
2157
2158
2158
2158
2160
2160
2160
2156
2156
2156
2158
2158
2158
2154
2154
2154
2154
2155
2155
2155
2157
2157
2157
2159
2159
2159
2158
2158
2158
2161
2161
2161
2161
2157
2157
2157
2159
2159
2159
2157
2157
2157
2158
2158
2158
2154
2154
2154
2154
2156
2156
2156
2164
2164
2164
2154
2154
2154
2160
2160
2160
2153
2153
2153
2153
2158
2158
2158
2159
2159
2159
2155
2155
2155
2161
2161
2161
2152
2152
2152
2152
2157
2157
2157
2158
2158
2158
2157
2157
2157
2156
2156
2156
2156
2156
2156
2156
2156
2156
2156
2156
2156
2156
2156
2156
2156
2155
2155
2155
2158
2158
2158
2158
2157
2157
2157
2158
2158
2158
2159
2159
2159
2155
2155
2155
2157
2157
2157
2157
2161
2161
2161
2162
2162
2162
2157
2157
2157
2162
2162
2162
2153
2153
2153
2153
2157
2157
2157
2156
2156
2156
2158
2158
2158
2162
2162
2162
2158
2158
2158
2158
2160
2160
2160
2157
2157
2157
2159
2159
2159
2162
2162
2162
2156
2156
2156
2156
2159
2159
2159
2158
2158
2158
2158
2158
2158
2158
2158
2158
2158
2158
2158
2158
2156
2156
2156
2156
2156
2156
2158
2158
2158
2160
2160
2160
2158
2158
2158
2158
2158
2158
2158
2156
2156
2156
2151
2151
2151
2163
2163
2163
2157
2157
2157
2157
2157
2157
2157
2158
2158
2158
2159
2159
2159
2160
2160
2160
2159
2159
2159
2159
2157
2157
2157
2163
2163
2163
2158
2158
2158
2162
2162
2162
2155
2155
2155
2155
2159
2159
2159
2159
2159
2159
2161
2161
2161
2160
2160
2160
2155
2155
2155
2155
2156
2156
2156
2158
2158
2158
2157
2157
2157
2158
2158
2158
2155
2155
2155
2155
2156
2156
2156
2163
2163
2163
2157
2157
2157
2154
2154
2154
2156
2156
2156
2156
2156
2156
2156
2160
2160
2160
2156
2156
2156
2160
2160
2160
2157
2157
2157
2157
2159
2159
2159
2154
2154
2154
2156
2156
2156
2160
2160
2160
2157
2157
2157
2157
2155
2155
2155
2161
2161
2161
2156
2156
2156
2158
2158
2158
2153
2153
2153
2153
2158
2158
2158
2159
2159
2159
2159
2159
2159
2160
2160
2160
2153
2153
2153
2153
2151
2151
2151
2160
2160
2160
2159
2159
2159
2157
2157
2157
2153
2153
2153
2153
2160
2160
2160
2159
2159
2159
2158
2158
2158
2156
2156
2156
2156
2156
2156
2156
2158
2158
2158
2156
2156
2156
2159
2159
2159
2155
2155
2155
2156
2156
2156
2156
2153
2153
2153
2158
2158
2158
2159
2159
2159
2153
2153
2153
2156
2156
2156
2156
2159
2159
2159
2163
2163
2163
2154
2154
2154
2163
2163
2163
2151
2151
2151
2151
2155
2155
2155
2157
2157
2157
2160
2160
2160
2159
2159
2159
2156
2156
2156
2156
2158
2158
2158
2158
2158
2158
2158
2158
2158
2158
2158
2158
2158
2158
2158
2158
2155
2155
2155
2158
2158
2158
2157
2157
2157
2159
2159
2159
2155
2155
2155
2155
2156
2156
2156
2159
2159
2159
2161
2161
2161
2160
2160
2160
2156
2156
2156
2156
2158
2158
2158
2160
2160
2160
2153
2153
2153
2162
2162
2162
2157
2157
2157
2157
2157
2157
2157
2160
2160
2160
2157
2157
2157
2160
2160
2160
2159
2159
2159
2159
2157
2157
2157
2151
2151
2151
2155
2155
2155
2158
2158
2158
2157
2157
2157
2157
2156
2156
2156
2157
2157
2157
2155
2155
2155
2157
2157
2157
2155
2155
2155
2155
2165
2165
2165
2150
2150
2150
2160
2160
2160
2156
2156
2156
2158
2158
2158
2158
2157
2157
2157
2158
2158
2158
2159
2159
2159
2161
2161
2161
2163
2163
2163
2163
2157
2157
2157
2158
2158
2158
2158
2158
2158
2159
2159
2159
2156
2156
2156
2156
2158
2158
2158
2159
2159
2159
2157
2157
2157
2159
2159
2159
2155
2155
2155
2155
2152
2152
2152
2158
2158
2158
2158
2158
2158
2159
2159
2159
2158
2158
2158
2158
2157
2157
2157
2157
2157
2157
2157
2157
2157
2162
2162
2162
2156
2156
2156
2156
2150
2150
2150
2156
2156
2156
2159
2159
2159
2162
2162
2162
2155
2155
2155
2155
2153
2153
2153
2158
2158
2158
2157
2157
2157
2156
2156
2156
2158
2158
2158
2158
2157
2157
2157
2159
2159
2159
2156
2156
2156
2160
2160
2160
2154
2154
2154
2154
2163
2163
2163
2156
2156
2156
2160
2160
2160
2158
2158
2158
2159
2159
2159
2159
2155
2155
2155
2164
2164
2164
2156
2156
2156
2166
2166
2166
2152
2152
2152
2152
2156
2156
2156
2158
2158
2158
2161
2161
2161
2160
2160
2160
2159
2159
2159
2159
2157
2157
2157
2157
2157
2157
2155
2155
2155
2158
2158
2158
2154
2154
2154
2154
2159
2159
2159
2159
2159
2159
2159
2159
2159
2169
2169
2169
2155
2155
2155
2155
2158
2158
2158
2159
2159
2159
2155
2155
2155
2157
2157
2157
2156
2156
2156
2156
2165
2165
2165
2160
2160
2160
2155
2155
2155
2157
2157
2157
2160
2160
2160
2160
2157
2157
2157
2158
2158
2158
2158
2158
2158
2157
2157
2157
2160
2160
2160
2160
2156
2156
2156
2159
2159
2159
2158
2158
2158
2158
2158
2158
2157
2157
2157
2157
2159
2159
2159
2158
2158
2158
2156
2156
2156
2158
2158
2158
2157
2157
2157
2157
2154
2154
2154
2161
2161
2161
2154
2154
2154
2161
2161
2161
2155
2155
2155
2155
2159
2159
2159
2155
2155
2155
2162
2162
2162
2157
2157
2157
2160
2160
2160
2160
2157
2157
2157
2159
2159
2159
2156
2156
2156
2161
2161
2161
2158
2158
2158
2158
2157
2157
2157
2159
2159
2159
2157
2157
2157
2159
2159
2159
2160
2160
2160
2160
2155
2155
2155
2161
2161
2161
2158
2158
2158
2158
2158
2158
2157
2157
2157
2157
2162
2162
2162
2157
2157
2157
2154
2154
2154
2159
2159
2159
2157
2157
2157
2157
2165
2165
2165
2157
2157
2157
2153
2153
2153
2158
2158
2158
2153
2153
2153
2153
2152
2152
2152
2159
2159
2159
2155
2155
2155
2154
2154
2154
2157
2157
2157
2157
2159
2159
2159
2159
2159
2159
2158
2158
2158
2157
2157
2157
2156
2156
2156
2156
2158
2158
2158
2156
2156
2156
2163
2163
2163
2158
2158
2158
2156
2156
2156
2156
2159
2159
2159
2155
2155
2155
2159
2159
2159
2160
2160
2160
2159
2159
2159
2159
2157
2157
2157
2156
2156
2156
2162
2162
2162
2160
2160
2160
2154
2154
2154
2154
2157
2157
2157
2159
2159
2159
2153
2153
2153
2160
2160
2160
2158
2158
2158
2158
2156
2156
2156
2159
2159
2159
2158
2158
2158
2159
2159
2159
2155
2155
2155
2155
2156
2156
2156
2160
2160
2160
2156
2156
2156
2161
2161
2161
2156
2156
2156
2156
2159
2159
2159
2158
2158
2158
2156
2156
2156
2157
2157
2157
2158
2158
2158
2158
2156
2156
2156
2158
2158
2158
2159
2159
2159
2159
2159
2159
2158
2158
2158
2158
2156
2156
2156
2162
2162
2162
2157
2157
2157
2157
2157
2157
2157
2157
2157
2157
2155
2155
2155
2163
2163
2163
2157
2157
2157
2158
2158
2158
2161
2161
2161
2161
2159
2159
2159
2160
2160
2160
2158
2158
2158
2156
2156
2156
2158
2158
2158
2158
2154
2154
2154
2164
2164
2164
2157
2157
2157
2158
2158
2158
2154
2154
2154
2154
2167
2167
2167
2160
2160
2160
2155
2155
2155
2164
2164
2164
2151
2151
2151
2151
2157
2157
2157
2156
2156
2156
2157
2157
2157
2159
2159
2159
2162
2162
2162
2162
2158
2158
2158
2159
2159
2159
2157
2157
2157
2153
2153
2153
2155
2155
2155
2155
2157
2157
2157
2160
2160
2160
2157
2157
2157
2157
2157
2157
2157
2157
2157
2157
2156
2156
2156
2159
2159
2159
2158
2158
2158
2159
2159
2159
2157
2157
2157
2157
2155
2155
2155
2162
2162
2162
2148
2148
2148
2157
2157
2157
2157
2157
2157
2157
2158
2158
2158
2157
2157
2157
2160
2160
2160
2158
2158
2158
2151
2151
2151
2151
2155
2155
2155
2159
2159
2159
2161
2161
2161
2159
2159
2159
2156
2156
2156
2156
2155
2155
2155
2157
2157
2157
2156
2156
2156
2157
2157
2157
2156
2156
2156
2156
2159
2159
2159
2154
2154
2154
2158
2158
2158
2158
2158
2158
2156
2156
2156
2156
2159
2159
2159
2159
2159
2159
2153
2153
2153
2161
2161
2161
2154
2154
2154
2154
2157
2157
2157
2160
2160
2160
2155
2155
2155
2161
2161
2161
2158
2158
2158
2158
2158
2158
2158
2159
2159
2159
2157
2157
2157
2158
2158
2158
2157
2157
2157
2157
2157
2157
2157
2162
2162
2162
2157
2157
2157
2157
2157
2157
2152
2152
2152
2152
2156
2156
2156
2156
2156
2156
2159
2159
2159
2157
2157
2157
2157
2157
2157
2157
2158
2158
2158
2162
2162
2162
2156
2156
2156
2156
2156
2156
2157
2157
2157
2157
2156
2156
2156
2156
2156
2156
2156
2156
2156
2155
2155
2155
2154
2154
2154
2154
2157
2157
2157
2159
2159
2159
2157
2157
2157
2159
2159
2159
2153
2153
2153
2153
2155
2155
2155
2157
2157
2157
2157
2157
2157
2155
2155
2155
2156
2156
2156
2156
2159
2159
2159
2157
2157
2157
2154
2154
2154
2158
2158
2158
2159
2159
2159
2159
2153
2153
2153
2154
2154
2154
2155
2155
2155
2157
2157
2157
2157
2157
2157
2157
2158
2158
2158
2158
2158
2158
2158
2158
2158
2161
2161
2161
2162
2162
2162
2162
2156
2156
2156
2156
2156
2156
2164
2164
2164
2159
2159
2159
2157
2157
2157
2157
2159
2159
2159
2158
2158
2158
2159
2159
2159
2160
2160
2160
2156
2156
2156
2156
2157
2157
2157
2157
2157
2157
2154
2154
2154
2159
2159
2159
2157
2157
2157
2157
2155
2155
2155
2159
2159
2159
2157
2157
2157
2160
2160
2160
2157
2157
2157
2157
2158
2158
2158
2155
2155
2155
2160
2160
2160
2161
2161
2161
2156
2156
2156
2156
2155
2155
2155
2161
2161
2161
2158
2158
2158
2161
2161
2161
2152
2152
2152
2152
2157
2157
2157
2159
2159
2159
2158
2158
2158
2161
2161
2161
2152
2152
2152
2152
2157
2157
2157
2155
2155
2155
2159
2159
2159
2159
2159
2159
2155
2155
2155
2155
2159
2159
2159
2163
2163
2163
2155
2155
2155
2164
2164
2164
2153
2153
2153
2153
2156
2156
2156
2157
2157
2157
2156
2156
2156
2158
2158
2158
2152
2152
2152
2152
2155
2155
2155
2160
2160
2160
2158
2158
2158
2158
2158
2158
2154
2154
2154
2154
2153
2153
2153
2158
2158
2158
2157
2157
2157
2151
2151
2151
2157
2157
2157
2157
2155
2155
2155
2158
2158
2158
2158
2158
2158
2156
2156
2156
2159
2159
2159
2159
2160
2160
2160
2160
2160
2160
2153
2153
2153
2159
2159
2159
2158
2158
2158
2158
2154
2154
2154
2158
2158
2158
2156
2156
2156
2163
2163
2163
2157
2157
2157
2157
2159
2159
2159
2159
2159
2159
2153
2153
2153
2157
2157
2157
2158
2158
2158
2158
2158
2158
2158
2157
2157
2157
2157
2157
2157
2159
2159
2159
2157
2157
2157
2157
2157
2157
2157
2160
2160
2160
2150
2150
2150
2160
2160
2160
2154
2154
2154
2154
2157
2157
2157
2161
2161
2161
2165
2165
2165
2157
2157
2157
2156
2156
2156
2156
2155
2155
2155
2157
2157
2157
2159
2159
2159
2158
2158
2158
2158
2158
2158
2158
2157
2157
2157
2158
2158
2158
2158
2158
2158
2158
2158
2158
2156
2156
2156
2156
2151
2151
2151
2158
2158
2158
2157
2157
2157
2158
2158
2158
2156
2156
2156
2156
2159
2159
2159
2159
2159
2159
2159
2159
2159
2158
2158
2158
2156
2156
2156
2156
2155
2155
2155
2156
2156
2156
2162
2162
2162
2158
2158
2158
2158
2158
2158
2158
2157
2157
2157
2159
2159
2159
2153
2153
2153
2157
2157
2157
2155
2155
2155
2155
2156
2156
2156
2147
2147
2147
2156
2156
2156
2159
2159
2159
2158
2158
2158
2158
2154
2154
2154
2161
2161
2161
2154
2154
2154
2157
2157
2157
2157
2157
2157
2157
2157
2157
2157
2153
2153
2153
2157
2157
2157
2158
2158
2158
2157
2157
2157
2157
2156
2156
2156
2160
2160
2160
2157
2157
2157
2163
2163
2163
2151
2151
2151
2151
2157
2157
2157
2159
2159
2159
2156
2156
2156
2157
2157
2157
2155
2155
2155
2155
2157
2157
2157
2159
2159
2159
2158
2158
2158
2157
2157
2157
2162
2162
2162
2162
2156
2156
2156
2156
2156
2156
2159
2159
2159
2157
2157
2157
2160
2160
2160
2160
2153
2153
2153
2158
2158
2158
2157
2157
2157
2159
2159
2159
2153
2153
2153
2153
2158
2158
2158
2158
2158
2158
2157
2157
2157
2160
2160
2160
2157
2157
2157
2157
2159
2159
2159
2160
2160
2160
2156
2156
2156
2159
2159
2159
2159
2159
2159
2159
2159
2159
2159
2158
2158
2158
2157
2157
2157
2156
2156
2156
2154
2154
2154
2154
2161
2161
2161
2157
2157
2157
2159
2159
2159
2156
2156
2156
2155
2155
2155
2155
2157
2157
2157
2157
2157
2157
2153
2153
2153
2159
2159
2159
2155
2155
2155
2155
2154
2154
2154
2158
2158
2158
2157
2157
2157
2157
2157
2157
2152
2152
2152
2152
2156
2156
2156
2157
2157
2157
2157
2157
2157
2164
2164
2164
2157
2157
2157
2157
2161
2161
2161
2158
2158
2158
2167
2167
2167
2163
2163
2163
2155
2155
2155
2155
2161
2161
2161
2161
2161
2161
2156
2156
2156
2159
2159
2159
2157
2157
2157
2157
2163
2163
2163
2159
2159
2159
2155
2155
2155
2160
2160
2160
2154
2154
2154
2154
2156
2156
2156
2160
2160
2160
2158
2158
2158
2151
2151
2151
2154
2154
2154
2154
2159
2159
2159
2158
2158
2158
2155
2155
2155
2160
