2029
2026
2026
2026
2026
2026
2026
2027
2027
2027
2025
2025
2025
2027
2027
2027
2027
2028
2028
2028
2025
2025
2025
2028
2028
2028
2017
2017
2017
2027
2027
2027
2027
2029
2029
2029
2024
2024
2024
2027
2027
2027
2024
2024
2024
2023
2023
2023
2023
2028
2028
2028
2012
2012
2012
2029
2029
2029
2027
2027
2027
2027
2027
2027
2027
2020
2020
2020
2023
2023
2023
2029
2029
2029
2023
2023
2023
2026
2026
2026
2026
2027
2027
2027
2027
2027
2027
2027
2024
2024
2024
2026
2026
2026
2025
2025
2025
2020
2020
2020
2020
2027
2027
2027
2027
2027
2027
2028
2028
2028
2025
2025
2025
2025
2025
2025
2025
2025
2025
2025
2025
2025
2025
2028
2028
2028
2022
2022
2022
2030
2030
2030
2030
2031
2031
2031
2025
2025
2025
2028
2028
2028
2029
2029
2029
2031
2031
2031
2031
2032
2032
2032
2025
2025
2025
2031
2031
2031
2028
2028
2028
2027
2027
2027
2027
2028
2028
2028
2030
2030
2030
2027
2027
2027
2025
2025
2025
2025
2025
2025
2025
2026
2026
2026
2024
2024
2024
2027
2027
2027
2020
2020
2020
2030
2030
2030
2030
2026
2026
2026
2026
2026
2026
2031
2031
2031
2026
2026
2026
2025
2025
2025
2025
2021
2021
2021
2031
2031
2031
2027
2027
2027
2026
2026
2026
2029
2029
2029
2029
2022
2022
2022
2026
2026
2026
2029
2029
2029
2022
2022
2022
2027
2027
2027
2027
2028
2028
2028
2025
2025
2025
2029
2029
2029
2021
2021
2021
2028
2028
2028
2028
2026
2026
2026
2027
2027
2027
2034
2034
2034
2028
2028
2028
2027
2027
2027
2027
2027
2027
2027
2019
2019
2019
2027
2027
2027
2025
2025
2025
2030
2030
2030
2030
2028
2028
2028
2026
2026
2026
2028
2028
2028
2023
2023
2023
2030
2030
2030
2030
2031
2031
2031
2024
2024
2024
2029
2029
2029
2025
2025
2025
2027
2027
2027
2027
2029
2029
2029
2024
2024
2024
2026
2026
2026
2026
2026
2026
2023
2023
2023
2023
2029
2029
2029
2024
2024
2024
2025
2025
2025
2029
2029
2029
2036
2036
2036
2036
2035
2035
2035
2029
2029
2029
2031
2031
2031
2024
2024
2024
2028
2028
2028
2028
2027
2027
2027
2026
2026
2026
2028
2028
2028
2023
2023
2023
2025
2025
2025
2025
2026
2026
2026
2026
2026
2026
2029
2029
2029
2028
2028
2028
2028
2028
2028
2028
2029
2029
2029
2026
2026
2026
2032
2032
2032
2029
2029
2029
2031
2031
2031
2031
2029
2029
2029
2031
2031
2031
2030
2030
2030
2033
2033
2033
2029
2029
2029
2029
2031
2031
2031
2025
2025
2025
2028
2028
2028
2027
2027
2027
2029
2029
2029
2029
2029
2029
2029
2024
2024
2024
2030
2030
2030
2027
2027
2027
2028
2028
2028
2028
2025
2025
2025
2026
2026
2026
2019
2019
2019
2024
2024
2024
2027
2027
2027
2027
2023
2023
2023
2023
2023
2023
2027
2027
2027
2021
2021
2021
2040
2040
2040
2040
2028
2028
2028
2025
2025
2025
2027
2027
2027
2029
2029
2029
2029
2029
2029
2029
2030
2030
2030
2026
2026
2026
2027
2027
2027
2024
2024
2024
2030
2030
2030
2030
2029
2029
2029
2031
2031
2031
2029
2029
2029
2018
2018
2018
2028
2028
2028
2028
2026
2026
2026
2027
2027
2027
2024
2024
2024
2020
2020
2020
2019
2019
2019
2019
2030
2030
2030
2025
2025
2025
2028
2028
2028
2027
2027
2027
2029
2029
2029
2029
2027
2027
2027
2024
2024
2024
2032
2032
2032
2025
2025
2025
2028
2028
2028
2028
2029
2029
2029
2024
2024
2024
2028
2028
2028
2021
2021
2021
2025
2025
2025
2025
2027
2027
2027
2024
2024
2024
2025
2025
2025
2023
2023
2023
2031
2031
2031
2031
2029
2029
2029
2027
2027
2027
2029
2029
2029
2025
2025
2025
2029
2029
2029
2029
2026
2026
2026
2025
2025
2025
2029
2029
2029
2024
2024
2024
2025
2025
2025
2025
2030
2030
2030
2025
2025
2025
2028
2028
2028
2025
2025
2025
2031
2031
2031
2031
2030
2030
2030
2021
2021
2021
2029
2029
2029
2026
2026
2026
2029
2029
2029
2029
2028
2028
2028
2025
2025
2025
2030
2030
2030
2021
2021
2021
2023
2023
2023
2023
2025
2025
2025
2024
2024
2024
2027
2027
2027
2022
2022
2022
2030
2030
2030
2030
2028
2028
2028
2026
2026
2026
2028
2028
2028
2023
2023
2023
2031
2031
2031
2031
2027
2027
2027
2031
2031
2031
2026
2026
2026
2022
2022
2022
2025
2025
2025
2025
2028
2028
2028
2023
2023
2023
2029
2029
2029
2027
2027
2027
2025
2025
2025
2025
2028
2028
2028
2026
2026
2026
2028
2028
2028
2026
2026
2026
2028
2028
2028
2028
2029
2029
2029
2024
2024
2024
2029
2029
2029
2026
2026
2026
2029
2029
2029
2029
2026
2026
2026
2022
2022
2022
2028
2028
2028
2022
2022
2022
2029
2029
2029
2029
2028
2028
2028
2028
2028
2028
2029
2029
2029
2021
2021
2021
2031
2031
2031
2031
2028
2028
2028
2026
2026
2026
2035
2035
2035
2025
2025
2025
2029
2029
2029
2029
2027
2027
2027
2024
2024
2024
2028
2028
2028
2025
2025
2025
2028
2028
2028
2028
2032
2032
2032
2028
2028
2028
2027
2027
2027
2025
2025
2025
2032
2032
2032
2032
2027
2027
2027
2025
2025
2025
2023
2023
2023
2026
2026
2026
2023
2023
2023
2023
2023
2023
2023
2028
2028
2028
2026
2026
2026
2020
2020
2020
2030
2030
2030
2030
2027
2027
2027
2027
2027
2027
2029
2029
2029
2025
2025
2025
2029
2029
2029
2029
2027
2027
2027
2026
2026
2026
2029
2029
2029
2024
2024
2024
2028
2028
2028
2028
2028
2028
2028
2026
2026
2026
2030
2030
2030
2023
2023
2023
2026
2026
2026
2026
2026
2026
2026
2021
2021
2021
2026
2026
2026
2022
2022
2022
2029
2029
2029
2029
2032
2032
2032
2025
2025
2025
2031
2031
2031
2025
2025
2025
2030
2030
2030
2030
2026
2026
2026
