2072
2072
2068
2068
2068
2068
2067
2067
2067
2071
2071
2071
2068
2068
2068
2069
2069
2069
2070
2070
2070
2070
2067
2067
2067
2068
2068
2068
2069
2069
2069
2069
2069
2069
2071
2071
2071
2071
2067
2067
2067
2070
2070
2070
2069
2069
2069
2068
2068
2068
2072
2072
2072
2072
2071
2071
2071
2065
2065
2065
2070
2070
2070
2069
2069
2069
2070
2070
2070
2070
2065
2065
2065
2072
2072
2072
2071
2071
2071
2069
2069
2069
2069
2072
2072
2072
2072
2072
2072
2068
2068
2068
2067
2067
2067
2070
2070
2070
2069
2069
2069
2066
2066
2066
2066
2074
2074
2074
2067
2067
2067
2065
2065
2065
2071
2071
2071
2069
2069
2069
2069
2070
2070
2070
2070
2070
2070
2071
2071
2071
2071
2071
2071
2069
2069
2069
2069
2069
2069
2069
2071
2071
2071
2077
2077
2077
2068
2068
2068
2069
2069
2069
2069
2071
2071
2071
2079
2079
2079
2069
2069
2069
2073
2073
2073
2066
2066
2066
2066
2069
2069
2069
2070
2070
2070
2068
2068
2068
2068
2068
2068
2071
2071
2071
2071
2069
2069
2069
2070
2070
2070
2067
2067
2067
2070
2070
2070
2067
2067
2067
2067
2070
2070
2070
2071
2071
2071
2065
2065
2065
2072
2072
2072
2060
2060
2060
2060
2068
2068
2068
2071
2071
2071
2058
2058
2058
2067
2067
2067
2069
2069
2069
2069
2063
2063
2063
2070
2070
2070
2071
2071
2071
2068
2068
2068
2067
2067
2067
2067
2069
2069
2069
2076
2076
2076
2067
2067
2067
2068
2068
2068
2071
2071
2071
2071
2069
2069
2069
2070
2070
2070
2068
2068
2068
2069
2069
2069
2064
2064
2064
2064
2068
2068
2068
2068
2068
2068
2068
2068
2068
2069
2069
2069
2072
2072
2072
2072
2067
2067
2067
2070
2070
2070
2068
2068
2068
2071
2071
2071
2072
2072
2072
2072
2065
2065
2065
2075
2075
2075
2070
2070
2070
2069
2069
2069
2065
2065
2065
2065
2069
2069
2069
2070
2070
2070
2068
2068
2068
2068
2068
2068
2070
2070
2070
2070
2071
2071
2071
2072
2072
2072
2068
2068
2068
2069
2069
2069
2071
2071
2071
2071
2076
2076
2076
2071
2071
2071
2067
2067
2067
2077
2077
2077
2066
2066
2066
2066
2068
2068
2068
2067
2067
2067
2067
2067
2067
2069
2069
2069
2068
2068
2068
2068
2069
2069
2069
2066
2066
2066
2069
2069
2069
2066
2066
2066
2069
2069
2069
2069
2065
2065
2065
2068
2068
2068
2072
2072
2072
2072
2072
2072
2056
2056
2056
2056
2075
2075
2075
2067
2067
2067
2069
2069
2069
2066
2066
2066
2068
2068
2068
2068
2071
2071
2071
2071
2071
2071
2067
2067
2067
2069
2069
2069
2068
2068
2068
2068
2067
2067
2067
2068
2068
2068
2059
2059
2059
2070
2070
2070
2067
2067
2067
2067
2068
2068
2068
2071
2071
2071
2071
2071
2071
2075
2075
2075
2068
2068
2068
2068
2069
2069
2069
2077
2077
2077
2069
2069
2069
2070
2070
2070
2069
2069
2069
2069
2065
2065
2065
2068
2068
2068
2068
2068
2068
2070
2070
2070
2071
2071
2071
2071
2067
2067
2067
2068
2068
2068
2068
2068
2068
2071
2071
2071
2067
2067
2067
2067
2069
2069
2069
2068
2068
2068
2068
2068
2068
2071
2071
2071
2069
2069
2069
2069
2066
2066
2066
2064
2064
2064
2067
2067
2067
2067
2067
2067
2067
2067
2067
2067
2070
2070
2070
2071
2071
2071
2070
2070
2070
2069
2069
2069
2063
2063
2063
2063
2068
2068
2068
2068
2068
2068
2071
2071
2071
2070
2070
2070
2070
2070
2070
2070
2070
2070
2070
2070
2070
2070
2068
2068
2068
2071
2071
2071
2065
2065
2065
2065
2070
2070
2070
2070
2070
2070
2065
2065
2065
2074
2074
2074
2077
2077
2077
2077
2071
2071
2071
2066
2066
2066
2068
2068
2068
2076
2076
2076
2068
2068
2068
2068
2067
2067
2067
2071
2071
2071
2069
2069
2069
2073
2073
2073
2070
2070
2070
2070
2067
2067
2067
2073
2073
2073
2068
2068
2068
2071
2071
2071
2066
2066
2066
2066
2073
2073
2073
2070
2070
2070
2068
2068
2068
2071
2071
2071
2072
2072
2072
2072
2071
2071
2071
2069
2069
2069
2064
2064
2064
2067
2067
2067
2069
2069
2069
2069
2070
2070
2070
2071
2071
2071
2068
2068
2068
2071
2071
2071
2067
2067
2067
2067
2069
2069
2069
2070
2070
2070
2062
2062
2062
2070
2070
2070
2067
2067
2067
2067
2070
2070
2070
2072
2072
2072
2070
2070
2070
2078
2078
2078
2066
2066
2066
2066
2063
2063
2063
2074
2074
2074
2073
2073
2073
2068
2068
2068
2068
2068
2068
2068
2065
2065
2065
2070
2070
2070
2071
2071
2071
2067
2067
2067
2069
2069
2069
2069
2069
2069
2069
2071
2071
2071
2069
2069
2069
2067
2067
2067
2067
2067
2067
2067
2068
2068
2068
2081
2081
2081
2069
2069
2069
2070
2070
2070
2069
2069
2069
2069
2067
2067
2067
2072
2072
2072
2069
2069
2069
2067
2067
2067
2064
2064
2064
2064
2074
2074
2074
2068
2068
2068
2071
2071
2071
2068
2068
2068
2073
2073
2073
2073
2067
2067
2067
2071
2071
2071
2067
2067
2067
2070
2070
2070
2070
2070
2070
2070
2071
2071
2071
2068
2068
2068
2068
2068
2068
2069
2069
2069
2067
2067
2067
2067
2067
2067
2067
2068
2068
2068
2069
2069
2069
2070
2070
2070
2071
2071
2071
2071
2071
2071
2071
2060
2060
2060
2065
2065
2065
2068
2068
2068
2069
2069
2069
2069
2062
2062
2062
2069
2069
2069
2069
2069
2069
2064
2064
2064
2068
2068
2068
2068
2068
2068
2068
2070
2070
2070
2070
2070
2070
2068
2068
2068
2065
2065
2065
2065
2070
2070
2070
2070
2070
2070
2066
2066
2066
2072
2072
2072
2070
2070
2070
2070
2061
2061
2061
2069
2069
2069
2064
2064
2064
2073
2073
2073
2066
2066
2066
2066
2074
2074
2074
2070
2070
2070
2068
2068
2068
2069
2069
2069
2069
2069
2069
