2162
2162
2166
2166
2166
2166
2164
2164
2164
2161
2161
2161
2161
2161
2161
2162
2162
2162
2167
2167
2167
2167
2166
2166
2166
2161
2161
2161
2163
2163
2163
2162
2162
2162
2165
2165
2165
2165
2169
2169
2169
2159
2159
2159
2164
2164
2164
2162
2162
2162
2165
2165
2165
2165
2164
2164
2164
2165
2165
2165
2167
2167
2167
2166
2166
2166
2167
2167
2167
2167
2164
2164
2164
2163
2163
2163
2167
2167
2167
2162
2162
2162
2163
2161
2161
2161
2165
2165
2165
2165
2165
2165
2165
2157
2157
2157
2167
2167
2167
2158
2158
2158
2166
2166
2166
2166
2164
2164
2164
2165
2165
2165
2166
2166
2166
2163
2163
2163
2162
2162
2162
2162
2166
2166
2166
2160
2160
2160
2166
2166
2166
2162
2162
2162
2164
2164
2164
2164
2170
2170
2170
2161
2161
2161
2166
2166
2166
2162
2162
2162
2166
2166
2166
2166
2174
2174
2174
2167
2167
2167
2165
2165
2165
2165
2165
2165
2167
2167
2167
2167
2164
2164
2164
2163
2163
2163
2165
2165
2165
2163
2163
2163
2164
2164
2164
2164
2163
2163
2163
2163
2163
2163
2166
2166
2166
2163
2163
2163
2162
2162
2162
2162
2164
2164
2164
2164
2164
2164
2165
2165
2165
2161
2161
2161
2166
2166
2166
2166
2162
2162
2162
2160
2160
2160
2167
2167
2167
2159
2159
2159
2165
2165
2165
2165
2167
2167
2167
2163
2163
2163
2164
2164
2164
2163
2163
2163
2166
2166
2166
2166
2166
2166
2166
2163
2163
2163
2165
2165
2165
2161
2161
2161
2167
2167
2167
2167
2164
2164
2164
2162
2162
2162
2166
2166
2166
2163
2163
2163
2167
2167
2167
2167
2162
2162
2162
2165
2165
2165
2163
2163
2163
2163
2163
2163
2165
2165
2165
2165
2166
2166
2166
2164
2164
2164
2167
2167
2167
2164
2164
2164
2162
2162
2162
2162
2167
2167
2167
2162
2162
2162
2165
2165
2165
2163
2163
2163
2165
2165
2165
2165
2162
2162
2162
2159
2159
2159
2166
2166
2166
2162
2162
2162
2167
2167
2167
2167
2167
2167
2167
2163
2163
2163
2165
2165
2165
2162
2162
2162
2168
2168
2168
2168
2163
2163
2163
2163
2163
2163
2160
2160
2160
2163
2163
2163
2164
2164
2164
2164
2167
2167
2167
2162
2162
2162
2165
2165
2165
2162
2162
2162
2166
2166
2166
2166
2167
2167
2167
2161
2161
2161
2166
2166
2166
2161
2161
2161
2164
2164
2164
2164
2168
2168
2168
2156
2156
2156
2160
2160
2160
2164
2164
2164
2166
2166
2166
2166
2168
2168
2168
2160
2160
2160
2163
2163
2163
2166
2166
2166
2162
2162
2162
2162
2164
2164
2164
2165
2165
2165
2165
2165
2165
2161
2161
2161
2166
2166
2166
2166
2167
2167
2167
2161
2161
2161
2162
2162
2162
2162
2162
2162
2164
2164
2164
2164
2164
2164
2164
2163
2163
2163
2165
2165
2165
2161
2161
2161
2169
2169
2169
2169
2159
2159
2159
2158
2158
2158
2169
2169
2169
2165
2165
2165
2168
2168
2168
2168
2166
2166
2166
2166
2166
2166
2167
2167
2167
2162
2162
2162
2174
2174
2174
2174
2165
2165
2165
2162
2162
2162
2166
2166
2166
2161
2161
2161
2166
2166
2166
2166
2164
2164
2164
2161
2161
2161
2166
2166
2166
2161
2161
2161
2165
2165
2165
2165
2169
2169
2169
2168
2168
2168
2166
2166
2166
2163
2163
2163
2166
2166
2166
2166
2165
2165
2165
2160
2160
2160
2165
2165
2165
2161
2161
2161
2165
2165
2165
2165
2164
2164
2164
2162
2162
2162
2166
2166
2166
2160
2160
2160
2166
2166
2166
2166
2164
2164
2164
2165
2165
2165
2166
2166
2166
2163
2163
2163
2168
2168
2168
2168
2167
2167
2167
2163
2163
2163
2167
2167
2167
2161
2161
2161
2169
2169
2169
2169
2166
2166
2166
2160
2160
2160
2165
2165
2165
2169
2169
2169
2163
2163
2163
2163
2163
2163
2163
2163
2163
2163
2167
2167
2167
2163
2163
2163
2163
2163
2163
2163
2165
2165
2165
2162
2162
2162
2166
2166
2166
2160
2160
2160
2168
2168
2168
2168
2166
2166
2166
2167
2167
2167
2167
2167
2167
2165
2165
2165
2168
2168
2168
2168
2163
2163
2163
2167
2167
2167
2167
2167
2167
2164
2164
2164
2170
2170
2170
2170
2165
2165
2165
2163
2163
2163
2166
2166
2166
2162
2162
2162
2167
2167
2167
2167
2167
2167
2167
2161
2161
2161
2166
2166
2166
2165
2165
2165
2170
2170
2170
2170
2164
2164
2164
2162
2162
2162
2168
2168
2168
2162
2162
2162
2165
2165
2165
2165
2168
2168
2168
2164
2164
2164
2166
2166
2166
2165
2165
2165
2167
2167
2167
2167
2166
2166
2166
2162
2162
2162
2166
2166
2166
2161
2161
2161
2166
2166
2166
2166
2164
2164
2164
2166
2166
2166
2167
2167
2167
2161
2161
2161
2167
2167
2167
2167
2172
2172
2172
2163
2163
2163
2168
2168
2168
2159
2159
2159
2167
2167
2167
2167
2166
2166
2166
2162
2162
2162
2167
2167
2167
2158
2158
2158
2166
2166
2166
2166
2166
2166
2166
2163
2163
2163
2159
2159
2159
2162
2162
2162
2166
2166
2166
2166
2165
2165
2165
2162
2162
2162
2166
2166
2166
2162
2162
2162
2169
2169
2169
2169
2169
2169
2169
2160
2160
2160
2165
2165
2165
2163
2163
2163
2167
2167
2167
2167
2166
2166
2166
2167
2167
2167
2169
2169
2169
2168
2168
2168
2170
2170
2170
2170
2166
2166
2166
2161
2161
2161
2166
2166
2166
2158
2158
2158
2169
2169
2169
2169
2166
2166
2166
2162
2162
2162
2165
2165
2165
2161
2161
2161
2167
2167
2167
2167
2165
2165
2165
2165
2165
2165
2157
2157
2157
2162
2162
2162
2166
2166
2166
2166
2166
2166
2166
2161
2161
2161
2161
2161
2161
2161
2161
2161
2172
2172
2172
2172
2164
2164
2164
2161
2161
2161
2167
2167
2167
2156
2156
2156
2164
2164
2164
2164
2165
2165
2165
2160
2160
2160
2161
2161
2161
2161
2161
2161
2166
2166
