2120
2120
2120
2120
2120
2120
2120
2120
2122
2122
2122
2122
2121
2121
2121
2124
2124
2124
2122
2122
2122
2116
2116
2116
2125
2125
2125
2125
2123
2123
2123
2117
2117
2117
2123
2123
2123
2121
2121
2121
2123
2123
2123
2123
2129
2129
2129
2117
2117
2117
2122
2122
2122
2121
2121
2121
2122
2122
2122
2122
2119
2119
2119
2118
2118
2118
2125
2125
2125
2120
2120
2120
2123
2123
2123
2123
2124
2124
2124
2118
2118
2118
2125
2125
2125
2120
2120
2120
2124
2124
2124
2124
2121
2121
2121
2115
2115
2115
2119
2119
2119
2121
2121
2121
2126
2126
2126
2126
2123
2123
2123
2121
2121
2121
2121
2121
2121
2121
2121
2121
2120
2120
2120
2120
2127
2127
2127
2113
2113
2113
2125
2125
2125
2122
2122
2122
2121
2121
2121
2121
2122
2122
2122
2118
2118
2118
2119
2119
2119
2119
2119
2119
2117
2117
2117
2117
2122
2122
2122
2119
2119
2119
2126
2126
2126
2122
2122
2122
2123
2123
2123
2123
2124
2124
2124
2116
2116
2116
2122
2122
2122
2121
2121
2121
2123
2123
2123
2123
2124
2124
2124
2120
2120
2120
2124
2124
2124
2118
2118
2118
2128
2128
2128
2128
2121
2121
2121
2119
2119
2119
2122
2122
2122
2122
2122
2122
2125
2125
2125
2125
2126
2126
2126
2122
2122
2122
2123
2123
2123
2122
2122
2122
2121
2121
2121
2121
2123
2123
2123
2119
2119
2119
2115
2115
2115
2122
2122
2122
2125
2125
2125
2125
2123
2123
2123
2119
2119
2119
2123
2123
2123
2119
2119
2119
2123
2123
2123
2123
2119
2119
2119
2118
2118
2118
2123
2123
2123
2118
2118
2118
2126
2126
2126
2126
2116
2116
2116
2121
2121
2121
2122
2122
2122
2112
2112
2112
2125
2125
2125
2125
2124
2124
2124
2119
2119
2119
2123
2123
2123
2121
2121
2121
2121
2121
2121
2121
2121
2121
2121
2118
2118
2118
2125
2125
2125
2120
2120
2120
2124
2124
2124
2124
2124
2124
2124
2123
2123
2123
2124
2124
2124
2118
2118
2118
2119
2119
2119
2119
2125
2125
2125
2119
2119
2119
2128
2128
2128
2123
2123
2123
2128
2128
2128
2128
2124
2124
2124
2118
2118
2118
2124
2124
2124
2121
2121
2121
2124
2124
2124
2124
2128
2128
2128
2118
2118
2118
2122
2122
2122
2122
2122
2122
2125
2125
2125
2125
2124
2124
2124
2123
2123
2123
2113
2113
2113
2126
2126
2126
2128
2128
2128
2128
2123
2123
2123
2118
2118
2118
2125
2125
2125
2118
2118
2118
2123
2123
2123
2123
2124
2124
2124
2118
2118
2118
2122
2122
2122
2118
2118
2118
2123
2123
2123
2123
2126
2126
2126
2118
2118
2118
2119
2119
2119
2129
2129
2129
2124
2124
2124
2124
2119
2119
2119
2122
2122
2122
2123
2123
2123
2113
2113
2113
2122
2122
2122
2122
2124
2124
2124
2116
2116
2116
2123
2123
2123
2123
2123
2123
2124
2124
2124
2124
2124
2124
2124
2123
2123
2123
2120
2120
2120
2121
2121
2121
2122
2122
2122
2122
2120
2120
2120
2116
2116
2116
2117
2117
2117
2116
2116
2116
2120
2120
2120
2120
2123
2123
2123
2119
2119
2119
2122
2122
2122
2120
2120
2120
2122
2122
2122
2122
2124
2124
2124
2119
2119
2119
2122
2122
2122
2119
2119
2119
2123
2123
2123
2123
2117
2117
2117
2121
2121
2121
2122
2122
2122
2120
2120
2120
2125
2125
2125
2125
2125
2125
2125
2116
2116
2116
2122
2122
2122
2119
2119
2119
2125
2125
2125
2125
2123
2123
2123
2117
2117
2117
2123
2123
2123
2120
2120
2120
2123
2123
2123
2123
2125
2125
2125
2117
2117
2117
2125
2125
2125
2127
2127
2127
2118
2118
2118
2118
2121
2121
2121
2119
2119
2119
2123
2123
2123
2127
2127
2127
2121
2121
2121
2121
2121
2121
2121
2116
2116
2116
2121
2121
2121
2124
2124
2124
2121
2121
2121
2121
2122
2122
2122
2121
2121
2121
2123
2123
2123
2119
2119
2119
2124
2124
2124
2124
2120
2120
2120
2120
2120
2120
2116
2116
2116
2122
2122
2122
2127
2127
2127
2127
2113
2113
2113
2118
2118
2118
2116
2116
2116
2122
2122
2122
2118
2118
2118
2118
2121
2121
2121
2118
2118
2118
2123
2123
2123
2117
2117
2117
2126
2126
2126
2126
2122
2122
2122
2120
2120
2120
2124
2124
2124
2119
2119
2119
2124
2124
2124
2124
2124
2124
2124
2119
2119
2119
2123
2123
2123
2122
2122
2122
2122
2122
2122
2122
2121
2121
2121
2115
2115
2115
2125
2125
2125
2119
2119
2119
2124
2124
2124
2124
2119
2119
2119
2121
2121
2121
2121
2121
2121
2121
2121
2121
2122
2122
2122
2122
2123
2123
2123
2119
2119
2119
2124
2124
2124
2119
2119
2119
2127
2127
2127
2127
2121
2121
2121
2119
2119
2119
2121
2121
2121
2120
2120
2120
2123
2123
2123
2123
2119
2119
2119
2117
2117
2117
2120
2120
2120
2116
2116
2116
2122
2122
2122
2122
2121
2121
2121
2117
2117
2117
2124
2124
2124
2112
2112
2112
2126
2126
2126
2126
2121
2121
2121
2121
2121
2121
2123
2123
2123
2121
2121
2121
2124
2124
2124
2124
2125
2125
2125
2115
2115
2115
2122
2122
2122
2120
2120
2120
2119
2119
2119
2119
2116
2116
2116
2120
2120
2120
2126
2126
2126
2120
2120
2120
2125
2125
2125
2125
2124
2124
2124
2117
2117
2117
2123
2123
2123
2122
2122
2122
2121
2121
2121
2121
2122
2122
2122
2115
2115
2115
2119
2119
2119
2121
2121
2121
2122
2122
2122
2122
2121
2121
2121
2113
2113
2113
2119
2119
2119
2128
2128
2128
2115
2115
2115
2115
2122
2122
2122
2118
2118
2118
2121
2121
2121
2119
2119
2119
2124
2124
2124
2124
2125
2125
2125
2118
2118
2118
2123
2123
2123
2120
2120
2120
2125
2125
2125
2125
2117
2117
2117
2119
2119
2119
2122
2122
2122
2123
2123
2123
2122
2122
2122
2122
2123
2123
2123
2119
2119
2119
2124
2124
2124
2117
2117
2117
2119
2119
2119
2119
2122
2122
2122
2120
2120
2120
2124
2124
2124
2119
2119
2119
2121
2121
2121
2121
2121
2121
2121
2119
2119
2119
2124
2124
2124
2119
2119
2119
2121
2121
2121
2121
2120
2120
2120
2118
2118
2118
2120
2120
2120
2118
2118
2118
2120
2120
2120
2120
2119
2119
2119
2117
2117
2117
2126
2126
2126
2119
2119
2119
2124
2124
2124
2124
2123
2123
2123
2119
2119
2119
2121
2121
2121
2122
2122
2122
2125
2125
2125
2125
2118
2118
2118
2116
2116
2116
2123
2123
2123
2117
2117
2117
2129
2129
2129
2129
2121
2121
2121
2122
2122
2122
2115
2115
2115
2126
2126
2126
2120
2120
2120
2120
2123
2123
2123
2120
2120
2120
2121
2121
2121
2121
2121
2121
2122
2122
2122
2122
2119
2119
2119
2126
2126
2126
2122
2122
2122
2120
2120
2120
2123
2123
2123
2123
2122
2122
2122
2117
2117
2117
2122
2122
2122
2117
2117
2117
2121
2121
2121
2121
2122
2122
2122
2118
2118
2118
2126
2126
2126
2116
2116
2116
2124
2124
2124
2124
2117
2117
2117
2115
2115
2115
2123
2123
2123
2121
2121
2121
2122
2122
2122
2122
2120
2120
2120
2112
2112
2112
2127
2127
2127
2120
2120
2120
2127
2127
2127
2127
2122
2122
2122
2118
2118
2118
2119
2119
2119
2120
2120
2120
2119
2119
2119
2119
2123
2123
2123
2120
2120
2120
2122
2122
2122
2120
2120
2120
2123
2123
2123
2123
2122
2122
2122
2119
2119
2119
2120
2120
2120
2121
2121
2121
2128
2128
2128
2128
2123
2123
2123
2115
2115
2115
2127
2127
2127
2119
2119
2119
2123
2123
2123
2123
2125
2125
2125
2115
2115
2115
2119
2119
2119
2116
2116
2116
2119
2119
2119
2119
2125
2125
2125
2121
2121
2121
2128
2128
2128
2116
2116
2116
2121
2121
2121
2121
2124
2124
2124
2117
2117
2117
2124
2124
2124
2119
2119
2119
2124
2124
2124
2124
2122
2122
2122
2116
2116
2116
2124
2124
2124
2121
2121
2121
2125
2125
2125
2125
2119
2119
2119
2117
2117
2117
2132
2132
2132
2116
2116
2116
2125
2125
2125
2125
2125
2125
2125
2119
2119
2119
2122
2122
2122
2120
2120
2120
2122
2122
2122
2122
2123
2123
2123
2118
2118
2118
2124
2124
2124
2121
2121
2121
2125
2125
2125
2125
2125
2125
2125
2113
2113
2113
2128
2128
2128
2119
2119
2119
2120
2120
2120
2120
2122
2122
2122
2118
2118
2118
2124
2124
2124
2121
2121
2121
2121
2121
2121
2121
2123
2123
2123
2117
2117
2117
2124
2124
2124
2119
2119
2119
2122
2122
2122
2122
2120
2120
2120
2118
2118
2118
2124
2124
2124
2120
2120
2120
2123
2123
2123
2123
2121
2121
2121
2116
2116
2116
2122
2122
2122
2113
2113
2113
2118
2118
2118
2118
2122
2122
2122
2121
2121
2121
2121
2121
2121
2121
2121
2121
2122
2122
2122
2122
2121
2121
2121
2119
2119
2119
2123
2123
2123
2123
2123
2123
2123
2123
2123
2123
2120
2120
2120
2119
2119
2119
2125
2125
2125
2120
2120
2120
2127
2127
2127
2127
2123
2123
2123
2119
2119
2119
2121
2121
2121
2120
2120
2120
2121
2121
2121
2121
2123
2123
2123
2118
2118
2118
2122
2122
2122
2121
2121
2121
2122
2122
2122
2122
2123
2123
2123
2119
2119
2119
2119
2119
2119
2124
2124
2124
2121
2121
2121
2121
2122
2122
2122
2122
2122
2122
2118
2118
2118
2115
2115
2115
2125
2125
2125
2125
2123
2123
2123
2119
2119
2119
2123
2123
2123
2121
2121
2121
2124
2124
2124
2124
2123
2123
2123
2120
2120
2120
2119
2119
2119
2122
2122
2122
2124
2124
2124
2124
2120
2120
2120
2120
2120
2120
2121
2121
2121
2122
2122
2122
2123
2123
2123
2123
2115
2115
2115
2118
2118
2118
2119
2119
2119
2121
2121
2121
2116
2116
2116
2116
2117
2117
2117
2122
2122
2122
2119
2119
2119
2123
2123
2123
2124
2124
2124
2124
2119
2119
2119
2119
2119
2119
2123
2123
2123
2120
2120
2120
2124
2124
2124
2124
2121
2121
2121
2114
2114
2114
2127
2127
2127
2119
2119
2119
2125
2125
2125
2125
2128
2128
2128
2117
2117
2117
2118
2118
2118
2121
2121
2121
2122
2122
2122
2122
2123
2123
2123
2119
2119
2119
2120
2120
2120
2123
2123
2123
2121
2121
2121
2121
2121
2121
2121
2117
2117
2117
2124
2124
2124
2119
2119
2119
2123
2123
2123
2123
2117
2117
2117
2131
2131
2131
2125
2125
2125
2125
2125
2125
2122
2122
2122
2122
2121
2121
2121
2116
2116
2116
2127
2127
2127
2115
2115
2115
2126
2126
2126
2126
2123
2123
2123
2117
2117
2117
2124
2124
2124
2119
2119
2119
2122
2122
2122
2122
2120
2120
2120
2117
2117
2117
2115
2115
2115
2123
2123
2123
2123
2123
2123
2123
2124
2124
2124
2120
2120
2120
2126
2126
2126
2118
2118
2118
2122
2122
2122
2122
2123
2123
2123
2117
2117
2117
2123
2123
2123
2119
2119
2119
2124
2124
2124
2124
2122
2122
2122
2119
2119
2119
2125
2125
2125
2120
2120
2120
2121
2121
2121
2121
2116
2116
2116
2116
2116
2116
2125
2125
2125
2117
2117
2117
2125
2125
2125
2125
2124
2124
2124
2119
2119
2119
2123
2123
2123
2120
2120
2120
2124
2124
2124
2124
2122
2122
2122
2117
2117
2117
2124
2124
2124
2120
2120
2120
2124
2124
2124
2124
2124
2124
2124
2121
2121
2121
2125
2125
2125
2119
2119
2119
2121
2121
2121
2121
2124
2124
2124
2120
2120
2120
2127
2127
2127
2120
2120
2120
2116
2116
2116
2116
2121
2121
2121
2119
2119
2119
2123
2123
2123
2120
2120
2120
2123
2123
2123
2123
2119
2119
2119
2119
2119
2119
2121
2121
2121
2123
2123
2123
2122
2122
2122
2122
2123
2123
2123
2117
2117
2117
2121
2121
2121
2117
2117
2117
2120
2120
2120
2120
2122
2122
2122
2119
2119
2119
2123
2123
2123
2121
2121
2121
2122
2122
2122
2122
2123
2123
2123
2118
2118
2118
2123
2123
2123
2121
2121
2121
2124
2124
2124
2124
2123
2123
2123
2123
2123
2123
2119
2119
2119
2119
2119
2119
2119
2119
2119
2119
2119
2119
2119
2119
2119
2119
2119
2119
2119
2118
2118
2118
2117
2117
2117
2117
2122
2122
2122
2119
2119
2119
2123
2123
2123
2121
2121
2121
2123
2123
2123
2123
2127
2127
2127
2117
2117
2117
2123
2123
2123
2119
2119
2119
2121
2121
2121
2121
2124
2124
2124
2121
2121
2121
2123
2123
2123
2121
2121
2121
2124
2124
2124
2124
2119
2119
2119
2118
2118
2118
2124
2124
2124
2119
2119
2119
2122
2122
2122
2122
2119
2119
2119
2119
2119
2119
2124
2124
2124
2122
2122
2122
2120
2120
2120
2120
2124
2124
2124
2119
2119
2119
2123
2123
2123
2117
2117
2117
2125
2125
2125
2125
2123
2123
2123
2121
2121
2121
2120
2120
2120
2115
2115
2115
2129
2129
2129
2129
2123
2123
2123
2116
2116
2116
2124
2124
2124
2120
2120
2120
2124
2124
2124
2124
2123
2123
2123
2118
2118
2118
2123
2123
2123
2116
2116
2116
2117
2117
2117
2117
2121
2121
2121
2117
2117
2117
2123
2123
2123
2120
2120
2120
2122
2122
2122
2122
2116
2116
2116
2111
2111
2111
2121
2121
2121
2120
2120
2120
2131
2131
2131
2131
2124
2124
2124
2121
2121
2121
2119
2119
2119
2122
2122
2122
2123
2123
2123
2123
2121
2121
2121
2119
2119
2119
2122
2122
2122
2121
2121
2121
2123
2123
2123
2123
2120
2120
2120
2120
2120
2120
2122
2122
2122
2119
2119
2119
2122
2122
2122
2122
2121
2121
2121
2125
2125
2125
2122
2122
2122
2115
2115
2115
2126
2126
2126
2126
2124
2124
2124
2119
2119
2119
2124
2124
2124
2118
2118
2118
2124
2124
2124
2124
2123
2123
2123
2119
2119
2119
2124
2124
2124
2120
2120
2120
2123
2123
2123
2123
2120
2120
2120
2114
2114
2114
2128
2128
2128
2115
2115
2115
2120
2120
2120
2120
2120
2120
2120
2118
2118
2118
2122
2122
2122
2118
2118
2118
2119
2119
2119
2119
2122
2122
2122
2120
2120
2120
2124
2124
2124
2121
2121
2121
2127
2127
2127
2127
2119
2119
2119
2122
2122
2122
2123
2123
2123
2121
2121
2121
2126
2126
2126
2126
2127
2127
2127
2112
2112
2112
2123
2123
2123
2118
2118
2118
2115
2115
2115
2115
2121
2121
2121
2119
2119
2119
2124
2124
2124
2121
2121
2121
2123
2123
2123
2123
2124
2124
2124
2118
2118
2118
2123
2123
2123
2121
2121
2121
2121
2121
2121
2121
2124
2124
2124
2114
2114
2114
2126
2126
2126
2118
2118
2118
2121
2121
2121
2121
2117
2117
2117
2113
2113
2113
2118
2118
2118
2121
2121
2121
2120
2120
2120
2120
2121
2121
2121
2119
2119
2119
2122
2122
2122
2120
2120
2120
2125
2125
2125
2125
2117
2117
2117
2123
2123
2123
2120
2120
2120
2117
2117
2117
2125
2125
2125
2125
2122
2122
2122
2115
2115
2115
2124
2124
2124
2121
2121
2121
2123
2123
2123
2123
2122
2122
2122
2118
2118
2118
2123
2123
2123
2119
2119
2119
2127
2127
2127
2127
2115
2115
2115
2122
2122
2122
2122
2122
2122
2119
2119
2119
2125
2125
2125
2125
2123
2123
2123
2118
2118
2118
2125
2125
2125
2120
2120
2120
2126
2126
2126
2126
2121
2121
2121
2116
2116
2116
2122
2122
2122
2121
2121
2121
2123
2123
2123
2123
2125
2125
2125
2116
2116
2116
2120
2120
2120
2120
2120
2120
2123
2123
2123
2123
2123
2123
2123
2118
2118
2118
2123
2123
2123
2116
2116
2116
2128
2128
2128
2128
2124
2124
2124
2113
2113
2113
2122
2122
2122
2123
2123
2123
2124
2124
2124
2124
2128
2128
2128
2117
2117
2117
2130
2130
2130
2123
2123
2123
2122
2122
2122
2122
2118
2118
2118
2115
2115
2115
2127
2127
2127
2121
2121
2121
2120
2120
2120
2120
2125
2125
2125
2119
2119
2119
2119
2119
2119
2119
2119
2119
2119
2119
2119
2119
2120
2120
2120
2119
2119
2119
2121
2121
2121
2120
2120
2120
2122
2122
2122
2122
2123
2123
2123
2125
2125
2125
2121
2121
2121
2121
2121
2121
2124
2124
2124
2124
2121
2121
2121
2118
2118
2118
2123
2123
2123
2119
2119
2119
2128
2128
2128
2128
2122
2122
2122
2119
2119
2119
2123
2123
2123
2119
2119
2119
2121
2121
2121
2121
2125
2125
2125
2129
2129
2129
2124
2124
2124
2117
2117
2117
2124
2124
2124
2124
2121
2121
2121
2124
2124
2124
2126
2126
2126
2117
2117
2117
2118
2118
2118
2118
2124
2124
2124
2117
2117
2117
2123
2123
2123
2123
2123
2123
2123
2123
2123
2123
2123
2123
2123
2119
2119
2119
2124
2124
2124
2121
2121
2121
2123
2123
2123
2123
2122
2122
2122
2116
2116
2116
2114
2114
2114
2126
2126
2126
2120
2120
2120
2120
2122
2122
2122
2117
2117
2117
2123
2123
2123
2119
2119
2119
2121
2121
2121
2121
2123
2123
2123
2118
2118
2118
2121
2121
2121
2120
2120
2120
2123
2123
2123
2123
2122
2122
2122
2122
2122
2122
2122
2122
2122
2116
2116
2116
2126
2126
2126
2126
2125
2125
2125
2112
2112
2112
2123
2123
2123
2116
2116
2116
2120
2120
2120
2120
2123
2123
2123
2115
2115
2115
2127
2127
2127
2120
2120
2120
2123
2123
2123
2123
2127
2127
2127
2116
2116
2116
2121
2121
2121
2121
2121
2121
2121
2121
2121
2121
2121
2121
2121
2119
2119
2119
2119
2119
2119
2121
2121
2121
2116
2116
2116
2116
2124
2124
2124
2117
2117
2117
2121
2121
2121
2119
2119
2119
2123
2123
2123
2123
2119
2119
2119
2119
2119
2119
2122
2122
2122
2120
2120
2120
2123
2123
2123
2123
2120
2120
2120
2121
2121
2121
2115
2115
2115
2122
2122
2122
2127
2127
2127
2127
2122
2122
2122
2116
2116
2116
2125
2125
2125
2119
2119
2119
2121
2121
2121
2121
2121
2121
2121
2120
2120
2120
2127
2127
2127
2119
2119
2119
2121
2121
2121
2121
2124
2124
2124
2115
2115
2115
2123
2123
2123
2128
2128
2128
2122
2122
2122
2122
2124
2124
2124
2119
2119
2119
2124
2124
2124
2119
2119
2119
2121
2121
2121
2121
2121
2121
2121
2121
2121
2121
2120
2120
2120
2120
2120
2120
2123
2123
2123
2123
2127
2127
2127
2113
2113
2113
2130
2130
2130
2118
2118
2118
2122
2122
2122
2122
2124
2124
2124
2117
2117
2117
2122
2122
2122
2121
2121
2121
2118
2118
2118
2118
2123
2123
2123
2121
2121
2121
2124
2124
2124
2121
2121
2121
2122
2122
2122
2122
2123
2123
2123
2115
2115
2115
2125
2125
2125
2119
2119
2119
2124
2124
2124
2124
2123
2123
2123
2117
2117
2117
2119
2119
2119
2118
2118
2118
2120
2120
2120
2120
2123
2123
2123
2118
2118
2118
2122
2122
2122
2121
2121
2121
2122
2122
2122
2122
2121
2121
2121
2119
2119
2119
2124
2124
2124
2121
2121
2121
2122
2122
2122
2122
2125
2125
2125
2118
2118
2118
2119
2119
2119
2112
2112
2112
2128
2128
2128
2128
2119
2119
2119
2120
2120
2120
2122
2122
2122
2115
2115
2115
2123
2123
2123
2123
2124
2124
2124
2117
2117
2117
2123
2123
2123
2119
2119
2119
2123
2123
2123
2123
2128
2128
2128
2116
2116
2116
2122
2122
2122
2120
2120
2120
2122
2122
2122
2122
2126
2126
2126
2119
2119
2119
2125
2125
2125
2120
2120
2120
2127
2127
2127
2127
2126
2126
2126
2119
2119
2119
2121
2121
2121
2120
2120
2120
2124
2124
2124
2124
2120
2120
2120
2118
2118
2118
2120
2120
2120
2122
2122
2122
2121
2121
2121
2121
2122
2122
2122
2120
2120
2120
2121
2121
2121
2121
2121
2121
2125
2125
2125
2125
2128
2128
2128
2118
2118
2118
2125
2125
2125
2119
2119
2119
2123
2123
2123
2123
2123
2123
2123
2113
2113
2113
2126
2126
2126
2119
2119
2119
2124
2124
2124
2124
2121
2121
2121
2121
2121
2121
2117
2117
2117
2126
2126
2126
2121
2121
2121
2121
2123
2123
2123
2118
2118
2118
2123
2123
2123
2119
2119
2119
2123
2123
2123
2123
2125
2125
2125
2117
2117
2117
2126
2126
2126
2121
2121
2121
2128
2128
2128
2128
2124
2124
2124
2117
2117
2117
2128
2128
2128
2124
2124
2124
2125
2125
2125
2125
2121
2121
2121
2120
2120
2120
2124
2124
2124
2121
2121
2121
2121
2121
2121
2121
2123
2123
2123
2118
2118
2118
2124
2124
2124
2120
2120
2120
2122
2122
2122
2122
2125
2125
2125
2120
2120
2120
2125
2125
2125
2130
2130
2130
2125
2125
2125
2125
2123
2123
2123
2118
2118
2118
2122
2122
2122
2120
2120
2120
2120
2120
2120
2120
2123
2123
2123
2117
2117
2117
2123
2123
2123
2119
2119
2119
2122
2122
2122
2122
2124
2124
2124
2119
2119
2119
2121
2121
2121
2122
2122
2122
2123
2123
2123
2123
2121
2121
2121
2117
2117
2117
2122
2122
2122
2118
2118
2118
2125
2125
2125
2125
2125
2125
2125
2117
2117
2117
2122
2122
2122
2123
2123
2123
2121
2121
2121
2121
2123
2123
2123
2117
2117
2117
2126
2126
2126
2119
2119
2119
2121
2121
2121
2121
2123
2123
2123
2121
2121
2121
2122
2122
2122
2122
2122
2122
2118
2118
2118
2118
2121
2121
2121
2116
2116
2116
2125
2125
2125
2121
2121
2121
2121
2121
2121
2121
2123
2123
2123
2118
2118
2118
2125
2125
2125
2118
2118
2118
2122
2122
2122
2122
2126
2126
2126
2113
2113
2113
2118
2118
2118
2118
2118
2118
2117
2117
2117
2117
2122
2122
2122
2121
2121
2121
2124
2124
2124
2122
2122
2122
2123
2123
2123
2123
2124
2124
2124
2121
2121
2121
2125
2125
2125
2126
2126
2126
2120
2120
2120
2120
2122
2122
2122
2113
2113
2113
2124
2124
2124
2127
2127
2127
2120
2120
2120
2120
2123
2123
2123
2120
2120
2120
2122
2122
2122
2120
2120
2120
2124
2124
2124
2124
2125
2125
2125
2119
2119
2119
2124
2124
2124
2121
2121
2121
2124
2124
2124
2124
2127
2127
2127
2117
2117
2117
2125
2125
2125
2125
2125
2125
2125
2125
2125
2125
2121
2121
2121
2115
2115
2115
2126
2126
2126
2117
2117
2117
2125
2125
2125
2125
2122
2122
2122
2117
2117
2117
2122
2122
2122
2119
2119
2119
2121
2121
2121
2121
2127
2127
2127
2117
2117
2117
2123
2123
2123
2123
2123
2123
2124
2124
2124
2124
2126
2126
2126
2117
2117
2117
2116
2116
2116
2124
2124
2124
2117
2117
2117
2117
2123
2123
2123
2118
2118
2118
2124
2124
2124
2121
2121
2121
2123
2123
2123
2123
2124
2124
2124
2118
2118
2118
2123
2123
2123
2120
2120
2120
2122
2122
2122
2122
2119
2119
2119
2121
2121
2121
2121
2121
2121
2122
2122
2122
2121
2121
2121
2121
2139
2139
2139
2115
2115
2115
2122
2122
2122
2123
2123
2123
2123
2123
2123
2123
2122
2122
2122
2118
2118
2118
2123
2123
2123
2120
2120
2120
2122
2122
2122
2122
2129
2129
2129
2119
2119
2119
2123
2123
2123
2122
2122
2122
2122
2122
2122
2122
2121
2121
2121
2118
2118
2118
2123
2123
2123
2120
2120
2120
2122
2122
2122
2122
2122
2122
2122
2120
2120
2120
2120
2120
2120
2120
2120
2120
2127
2127
2127
2127
2122
2122
2122
2121
2121
2121
2131
2131
2131
2121
2121
2121
2124
2124
2124
2124
2125
2125
2125
2115
2115
2115
2124
2124
2124
2120
2120
2120
2123
2123
2123
2123
2121
2121
2121
2118
2118
2118
2122
2122
2122
2119
2119
2119
2120
2120
2120
2120
2118
2118
2118
2116
2116
2116
2124
2124
2124
2126
2126
2126
2125
2125
2125
2125
2120
2120
2120
2115
2115
2115
2125
2125
2125
2116
2116
2116
2124
2124
2124
2124
2121
2121
2121
2118
2118
2118
2123
2123
2123
2121
2121
2121
2123
2123
2123
2123
2122
2122
2122
2120
2120
2120
2124
2124
2124
2117
2117
2117
2123
2123
2123
2123
2115
2115
2115
2124
2124
2124
2122
2122
2122
2120
2120
2120
2119
2119
2119
2119
2122
2122
2122
2121
2121
2121
2126
2126
2126
2122
2122
2122
2119
2119
2119
2119
2122
2122
2122
2119
2119
2119
2126
2126
2126
2121
2121
2121
2124
2124
2124
2124
2127
2127
2127
2118
2118
2118
2125
2125
2125
2116
2116
2116
2125
2125
2125
2125
2121
2121
2121
2120
2120
2120
2122
2122
2122
2119
2119
2119
2117
2117
2117
2117
2121
2121
2121
2114
2114
2114
2123
2123
2123
2124
2124
2124
2120
2120
2120
2120
2122
2122
2122
2115
2115
2115
2124
2124
2124
2120
2120
2120
2124
2124
2124
2124
2122
2122
2122
2117
2117
2117
2124
2124
2124
2116
2116
2116
2125
2125
2125
2125
2123
2123
2123
2119
2119
2119
2125
2125
2125
2120
2120
2120
2125
2125
2125
2125
2127
2127
2127
2114
2114
2114
2126
2126
2126
2119
2119
2119
2130
2130
2130
2130
2121
2121
2121
2118
2118
2118
2125
2125
2125
2120
2120
2120
2118
2118
2118
2118
2121
2121
2121
2119
2119
2119
2120
2120
2120
2121
2121
2121
2122
2122
2122
2122
2117
2117
2117
2119
2119
2119
2121
2121
2121
2117
2117
2117
2124
2124
2124
2124
2125
2125
2125
2120
2120
2120
2125
2125
2125
2119
2119
2119
2127
2127
2127
2127
2122
2122
2122
2118
2118
2118
2123
2123
2123
2120
2120
2120
2122
2122
2122
2122
2126
2126
2126
2118
2118
2118
2124
2124
2124
2120
2120
2120
2122
2122
2122
2122
2118
2118
2118
2123
2123
2123
2118
2118
2118
2123
2123
2123
2117
2117
2117
2117
2121
2121
2121
2117
2117
2117
2124
2124
2124
2124
2124
2124
2124
2124
2124
2124
2122
2122
2122
2120
2120
2120
2122
2122
2122
2120
2120
2120
2124
2124
2124
2124
2120
2120
2120
2119
2119
2119
2123
2123
2123
2123
2123
2123
2124
2124
2124
2124
2123
2123
2123
2119
2119
2119
2121
2121
2121
2122
2122
2122
2123
2123
2123
2123
2130
2130
2130
2119
2119
2119
2125
2125
2125
2119
2119
2119
2129
2129
2129
2129
2124
2124
2124
2118
2118
2118
2124
2124
2124
2123
2123
2123
2123
2123
2123
2123
2120
2120
2120
2119
2119
2119
2124
2124
2124
2120
2120
2120
2120
2120
2120
2120
2124
2124
2124
2121
2121
2121
2123
2123
2123
2120
2120
2120
2124
2124
2124
2124
2125
2125
2125
2120
2120
2120
2120
2120
2120
2117
2117
2117
2122
2122
2122
2122
2124
2124
2124
2115
2115
2115
2126
2126
2126
2122
2122
2122
2126
2126
2126
2126
2123
2123
2123
2118
2118
2118
2124
2124
2124
2121
2121
2121
2124
2124
2124
2124
2122
2122
2122
2119
2119
2119
2122
2122
2122
2121
2121
2121
2123
2123
2123
2123
2115
2115
2115
2122
2122
2122
2119
2119
2119
2123
2123
2123
2119
2119
2119
2119
2122
2122
2122
2118
2118
2118
2128
2128
2128
2120
2120
2120
2122
2122
2122
2122
2122
2122
2122
2119
2119
2119
2124
2124
2124
2121
2121
2121
2124
2124
2124
2124
2120
2120
2120
2119
2119
2119
2133
2133
2133
2120
2120
2120
2121
2121
2121
2121
2124
2124
2124
2119
2119
2119
2121
2121
2121
2119
2119
2119
2118
2118
2118
2118
2121
2121
2121
2120
2120
2120
2121
2121
2121
2118
2118
2118
2131
2131
2131
2131
2121
2121
2121
2120
2120
2120
2121
2121
2121
2121
2121
2121
2120
2120
2120
2120
2121
2121
2121
2118
2118
2118
2122
2122
2122
2121
2121
2121
2127
2127
2127
2127
2125
2125
2125
2117
2117
2117
2125
2125
2125
2122
2122
2122
2125
2125
2125
2125
2122
2122
2122
2119
2119
2119
2125
2125
2125
2122
2122
2122
2126
2126
2126
2126
2124
2124
2124
2117
2117
2117
2123
2123
2123
2121
2121
2121
2127
2127
2127
2127
2121
2121
2121
2120
2120
2120
2126
2126
2126
2119
2119
2119
2124
2124
2124
2124
2123
2123
2123
2116
2116
2116
2123
2123
2123
2121
2121
2121
2124
2124
2124
2124
2117
2117
2117
2126
2126
2126
2119
2119
2119
2119
2119
2119
2120
2120
2120
2120
2121
2121
2121
2119
2119
2119
2122
2122
2122
2121
2121
2121
2121
2121
2121
2121
2123
2123
2123
2120
2120
2120
2124
2124
2124
2119
2119
2119
2123
2123
2123
2123
2126
2126
2126
2114
2114
2114
2123
2123
2123
2121
2121
2121
2123
2123
2123
2123
2126
2126
2126
2112
2112
2112
2122
2122
2122
2119
2119
2119
2114
2114
2114
2114
2122
2122
2122
2119
2119
2119
2121
2121
2121
2122
2122
2122
2123
2123
2123
2123
2126
2126
2126
2114
2114
2114
2123
2123
2123
2121
2121
2121
2123
2123
2123
2123
2122
2122
2122
2117
2117
2117
2122
2122
2122
2115
2115
2115
2126
2126
2126
2126
2121
2121
2121
2121
2121
2121
2121
2121
2121
2113
2113
2113
2128
2128
2128
2128
2127
2127
2127
2122
2122
2122
2123
2123
2123
2119
2119
2119
2123
2123
2123
2123
2122
2122
2122
2118
2118
2118
2119
2119
2119
2119
2119
2119
2127
2127
2127
2127
2124
2124
2124
2117
2117
2117
2123
2123
2123
2121
2121
2121
2123
2123
2123
2123
2124
2124
2124
2115
2115
2115
2122
2122
2122
2116
2116
2116
2121
2121
2121
2121
2129
2129
2129
2113
2113
2113
2123
2123
2123
2125
2125
2125
2119
2119
2119
2119
2123
2123
2123
2119
2119
2119
2122
2122
2122
2121
2121
2121
2123
2123
2123
2123
2122
2122
2122
2119
2119
2119
2124
2124
2124
2119
2119
2119
2123
2123
2123
2123
2117
2117
2117
2119
2119
2119
2121
2121
2121
2119
2119
2119
2126
2126
2126
2126
2123
2123
2123
2116
2116
2116
2121
2121
2121
2122
2122
2122
2124
2124
2124
2124
2123
2123
2123
2117
2117
2117
2122
2122
2122
2120
2120
2120
2123
2123
2123
2123
2126
2126
2126
2117
2117
2117
2126
2126
2126
2118
2118
2118
2119
2119
2119
2119
2122
2122
2122
2113
2113
2113
2123
2123
2123
2119
2119
2119
2123
2123
2123
2123
2121
2121
2121
2119
2119
2119
2124
2124
2124
2119
2119
2119
2122
2122
2122
2122
2125
2125
2125
2116
2116
2116
2121
2121
2121
2121
2121
2121
2123
2123
2123
2123
2120
2120
2120
2120
2120
2120
2116
2116
2116
2124
2124
2124
2125
2125
2125
2125
2120
2120
2120
2119
2119
2119
2121
2121
2121
2121
2121
2121
2121
2121
2121
2121
2123
2123
2123
2121
2121
2121
2120
2120
2120
2119
2119
2119
2121
2121
2121
2121
2127
2127
2127
2114
2114
2114
2119
2119
2119
2122
2122
2122
2120
2120
2120
2120
2122
2122
2122
2117
2117
2117
2123
2123
2123
2120
2120
2120
2122
2122
2122
2122
2122
2122
2122
2117
2117
2117
2120
2120
2120
2120
2120
2120
2123
2123
2123
2123
2121
2121
2121
2120
2120
2120
2119
2119
2119
2119
2119
2119
2129
2129
2129
2129
2123
2123
2123
2116
2116
2116
2126
2126
2126
2114
2114
2114
2127
2127
2127
2127
2122
2122
2122
2119
2119
2119
2123
2123
2123
2120
2120
2120
2120
2120
2120
2120
2124
2124
2124
2114
2114
2114
2123
2123
2123
2120
2120
2120
2124
2124
2124
2124
2116
2116
2116
2115
2115
2115
2121
2121
2121
2123
2123
2123
2125
2125
2125
2125
2121
2121
2121
2118
2118
2118
2125
2125
2125
2120
2120
2120
2120
2120
2120
2120
2121
2121
2121
2120
2120
2120
2125
2125
2125
2121
2121
2121
2122
2122
2122
2122
2124
2124
2124
2114
2114
2114
2126
2126
2126
2121
2121
2121
2120
2120
2120
2120
2119
2119
2119
2116
2116
2116
2123
2123
2123
2119
2119
2119
2124
2124
2124
2124
2126
2126
2126
2117
2117
2117
2125
2125
2125
2115
2115
2115
2122
2122
2122
2122
2118
2118
2118
2119
2119
2119
2118
2118
2118
2123
2123
2123
2124
2124
2124
2124
2120
2120
2120
2117
2117
2117
2123
2123
2123
2126
2126
2126
2122
2122
2122
2122
2120
2120
2120
2118
2118
2118
2122
2122
2122
2121
2121
2121
2125
2125
2125
2125
2120
2120
2120
2120
2120
2120
2121
2121
2121
2121
2121
2121
2112
2112
2112
2112
2125
2125
2125
2119
2119
2119
2121
2121
2121
2122
2122
2122
2122
2122
2122
2122
2125
2125
2125
2120
2120
2120
2118
2118
2118
2119
2119
2119
2125
2125
2125
2125
2122
2122
2122
2118
2118
2118
2121
2121
2121
2118
2118
2118
2123
2123
2123
2123
2122
2122
2122
2119
2119
2119
2121
2121
2121
2119
2119
2119
2122
2122
2122
2122
2129
2129
2129
2114
2114
2114
2124
2124
2124
2120
2120
2120
2122
2122
2122
2122
2123
2123
2123
2116
2116
2116
2119
2119
2119
2120
2120
2120
2118
2118
2118
2118
2122
2122
2122
2121
2121
2121
2121
2121
2121
2119
2119
2119
2122
2122
2122
2122
2115
2115
2115
2123
2123
2123
2121
2121
2121
2116
2116
2116
2124
2124
2124
2124
2118
2118
2118
2118
2118
2118
2125
2125
2125
2115
2115
2115
2123
2123
2123
2123
2125
2125
2125
2114
2114
2114
2128
2128
2128
2118
2118
2118
2125
2125
2125
2125
2121
2121
2121
2117
2117
2117
2126
2126
2126
2121
2121
2121
2116
2116
2116
2116
2120
2120
2120
2120
2120
2120
2124
2124
2124
2121
2121
2121
2125
2125
2125
2125
2123
2123
2123
2117
2117
2117
2121
2121
2121
2120
2120
2120
2124
2124
2124
2124
2121
2121
2121
2120
2120
2120
2118
2118
2118
2122
2122
2122
2120
2120
2120
2120
2123
2123
2123
2117
2117
2117
2119
2119
2119
2127
2127
2127
2127
2127
2127
2127
2122
2122
2122
2119
2119
2119
2121
2121
2121
2120
2120
2120
2123
2123
2123
2123
2121
2121
2121
2119
2119
2119
2121
2121
2121
2119
2119
2119
2121
2121
2121
2121
2124
2124
2124
2119
2119
2119
2124
2124
2124
2122
2122
2122
2121
2121
2121
2121
2124
2124
2124
2119
2119
2119
2127
2127
2127
2123
2123
2123
2119
2119
2119
2119
2123
2123
2123
2120
2120
2120
2124
2124
2124
2118
2118
2118
2119
2119
2119
2119
2121
2121
2121
2113
2113
2113
2121
2121
2121
2118
2118
2118
2123
2123
2123
2123
2128
2128
2128
2112
2112
2112
2124
2124
2124
2120
2120
2120
2122
2122
2122
2122
2125
2125
2125
2120
2120
2120
2120
2120
2120
2120
2120
2120
2122
2122
2122
2122
2122
2122
2122
2119
2119
2119
2121
2121
2121
2119
2119
2119
2121
2121
2121
2121
2123
2123
2123
2118
2118
2118
2121
2121
2121
2119
2119
2119
2124
2124
2124
2124
2125
2125
2125
2119
2119
2119
2121
2121
2121
2119
2119
2119
2123
2123
2123
2123
2124
2124
2124
2119
2119
2119
2124
2124
2124
2123
2123
2123
2123
2123
2123
2123
2123
2123
2123
2125
2125
2125
2122
2122
2122
2116
2116
2116
2128
2128
2128
2128
2122
2122
2122
2118
2118
2118
2122
2122
2122
2118
2118
2118
2122
2122
2122
2122
2123
2123
2123
2117
2117
2117
2121
2121
2121
2119
2119
2119
2123
2123
2123
2123
2121
2121
2121
2120
2120
2120
2120
2120
2120
2121
2121
2121
2121
2121
2121
2121
2121
2121
2121
2119
2119
2119
2125
2125
2125
2115
2115
2115
2124
2124
2124
2124
2122
2122
2122
2117
2117
2117
2124
2124
2124
2123
2123
2123
2119
2119
2119
2119
2122
2122
2122
2113
2113
2113
2120
2120
2120
2119
2119
2119
2120
2120
2120
2120
2118
2118
2118
2116
2116
2116
2122
2122
2122
2119
2119
2119
2129
2129
2129
2129
2125
2125
2125
2122
2122
2122
2122
2122
2122
2119
2119
2119
2121
2121
2121
2121
2120
2120
2120
2117
2117
2117
2119
2119
2119
2122
2122
2122
2122
2122
2122
2122
2124
2124
2124
2116
2116
2116
2124
2124
2124
2120
2120
2120
2121
2121
2121
2121
2119
2119
2119
2118
2118
2118
2123
2123
2123
2121
2121
2121
2124
2124
2124
2124
2126
2126
2126
2117
2117
2117
2121
2121
2121
2125
2125
2125
2119
2119
2119
2119
2125
2125
2125
2111
2111
2111
2121
2121
2121
2119
2119
2119
2123
2123
2123
2123
2122
2122
2122
2116
2116
2116
2122
2122
2122
2130
2130
2130
2116
2116
2116
2116
2124
2124
2124
2118
2118
2118
2122
2122
2122
2120
2120
2120
2124
2124
2124
2124
2124
2124
2124
2115
2115
2115
2126
2126
2126
2120
2120
2120
2122
2122
2122
2122
2122
2122
2122
2119
2119
2119
2123
2123
2123
2122
2122
2122
2119
2119
2119
2119
2123
2123
2123
2121
2121
2121
2123
2123
2123
2122
2122
2122
2118
2118
2118
2118
2129
2129
2129
2124
2124
2124
2119
2119
2119
2118
2118
2118
2126
2126
2126
2126
2124
2124
2124
2121
2121
2121
2127
2127
2127
2122
2122
2122
2119
2119
2119
2119
2121
2121
2121
2118
2118
2118
2129
2129
2129
2118
2118
2118
2127
2127
2127
2127
2124
2124
2124
2117
2117
2117
2123
2123
2123
2115
2115
2115
2124
2124
2124
2124
2120
2120
2120
2120
2120
2120
2122
2122
2122
2118
2118
2118
2123
2123
2123
2123
2120
2120
2120
2120
2120
2120
2122
2122
2122
2122
2122
2122
2120
2120
2120
2120
2122
2122
2122
2119
2119
2119
2129
2129
2129
2119
2119
2119
2121
2121
2121
2121
2126
2126
2126
2123
2123
2123
2123
2123
2123
2120
2120
2120
2126
2126
2126
2126
2122
2122
2122
2117
2117
2117
2122
2122
2122
2118
2118
2118
2120
2120
2120
2120
2125
2125
2125
2116
2116
2116
2122
2122
2122
2121
2121
2121
2121
2121
2121
2121
2121
2121
2121
2118
2118
2118
2119
2119
2119
2120
2120
2120
2123
2123
2123
2123
2122
2122
2122
2118
2118
2118
2123
2123
2123
2118
2118
2118
2122
2122
2122
2122
2123
2123
2123
2117
2117
2117
2121
2121
2121
2122
2122
2122
2123
2123
2123
2123
2125
2125
2125
2114
2114
2114
2125
2125
2125
2116
2116
2116
2121
2121
2121
2121
2122
2122
2122
2120
2120
2120
2120
2120
2120
2113
2113
2113
2123
2123
2123
2123
2124
2124
2124
2113
2113
2113
2126
2126
2126
2120
2120
2120
2120
2120
2120
2120
2124
2124
2124
2119
2119
2119
2124
2124
2124
2120
2120
2120
2119
2119
2119
2119
2123
2123
2123
2119
2119
2119
2122
2122
2122
2120
2120
2120
2121
2121
2121
2121
2121
2121
2121
2123
2123
2123
2126
2126
2126
2118
2118
2118
2122
2122
2122
2122
2113
2113
2113
2115
2115
2115
2123
2123
2123
2124
2124
2124
2120
2120
2120
2120
2120
2120
2120
2112
2112
2112
2120
2120
2120
2122
2122
2122
2126
2126
2126
2126
2121
2121
2121
2119
2119
2119
2123
2123
2123
2119
2119
2119
2120
2120
2120
2120
2125
2125
2125
2116
2116
2116
2122
2122
2122
2120
2120
2120
2121
2121
2121
2121
2126
2126
2126
2116
2116
2116
2122
2122
2122
2123
2123
2123
2122
2122
2122
2122
2120
2120
2120
2117
2117
2117
2123
2123
2123
2120
2120
2120
2118
2118
2118
2118
2121
2121
2121
2116
2116
2116
2121
2121
2121
2117
2117
2117
2119
2119
2119
2119
2126
2126
2126
2112
2112
2112
2116
2116
2116
2127
2127
2127
2118
2118
2118
2118
2124
2124
2124
2121
2121
2121
2124
2124
2124
2121
2121
2121
2132
2132
2132
2132
2121
2121
2121
2116
2116
2116
2121
2121
2121
2126
2126
2126
2118
2118
2118
2118
2121
2121
2121
2119
2119
2119
2124
2124
2124
2119
2119
2119
2122
2122
2122
2122
2124
2124
2124
2118
2118
2118
2122
2122
2122
2121
2121
2121
2121
2121
2121
2121
2123
2123
2123
2121
2121
2121
2119
2119
2119
2124
2124
2124
2123
2123
2123
2123
2126
2126
2126
2111
2111
2111
2126
2126
2126
2113
2113
2113
2128
2128
2128
2128
2123
2123
2123
2123
2123
2123
2121
2121
2121
2122
2122
2122
2123
2123
2123
2123
2122
2122
2122
2121
2121
2121
2122
2122
2122
2121
2121
2121
2125
2125
2125
2125
2126
2126
2126
2117
2117
2117
2125
2125
2125
2121
2121
2121
2123
2123
2123
2123
2120
2120
2120
2124
2124
2124
2117
2117
2117
2128
2128
2128
2117
2117
2117
2117
2122
2122
2122
2120
2120
2120
2122
2122
2122
2119
2119
2119
2124
2124
2124
2124
2122
2122
2122
2119
2119
2119
2121
2121
2121
2119
2119
2119
2122
2122
2122
2122
2121
2121
2121
2117
2117
2117
2123
2123
2123
2118
2118
2118
2121
2121
2121
2121
2126
2126
2126
2117
2117
2117
2120
2120
2120
2121
2121
2121
2122
2122
2122
2122
2122
2122
2122
2117
2117
2117
2119
2119
2119
2126
2126
2126
2123
2123
2123
2123
2122
2122
2122
2117
2117
2117
2120
2120
2120
2120
2120
2120
2123
2123
2123
2123
2120
2120
2120
2119
2119
2119
2124
2124
2124
2118
2118
2118
2123
2123
2123
2123
2121
2121
2121
2121
2121
2121
2121
2121
2121
2123
2123
2123
2121
2121
2121
2121
2120
2120
2120
2119
2119
2119
2127
2127
2127
2119
2119
2119
2121
2121
2121
2121
2127
2127
2127
2123
2123
2123
2119
2119
2119
2120
2120
2120
2118
2118
2118
2118
2122
2122
2122
2122
2122
2122
2122
2122
2122
2119
2119
2119
2122
2122
2122
2122
2121
2121
2121
2117
2117
2117
2125
2125
2125
2116
2116
2116
2124
2124
2124
2124
2125
2125
2125
2120
2120
2120
2122
2122
2122
2120
2120
2120
2127
2127
2127
2127
2120
2120
2120
2119
2119
2119
2122
2122
2122
2119
2119
2119
2126
2126
2126
2126
2122
2122
2122
2118
2118
2118
2123
2123
2123
2121
2121
2121
2122
2122
2122
2122
2116
2116
2116
2118
2118
2118
2126
2126
2126
2123
2123
2123
2122
2122
2122
2122
2132
2132
2132
2115
2115
2115
2135
2135
2135
2118
2118
2118
2127
2127
2127
2127
2123
2123
2123
2117
2117
2117
2121
2121
2121
2127
2127
2127
2117
2117
2117
2117
2124
2124
2124
2117
2117
2117
2121
2121
2121
2120
2120
2120
2123
2123
2123
2123
2119
2119
2119
2117
2117
2117
2123
2123
2123
2119
2119
2119
2123
2123
2123
2123
2125
2125
2125
2118
2118
2118
2122
2122
2122
2124
2124
2124
2119
2119
2119
2119
2125
2125
2125
2113
2113
2113
2124
2124
2124
2123
2123
2123
2118
2118
2118
2118
2124
2124
2124
2116
2116
2116
2123
2123
2123
2118
2118
2118
2114
2114
2114
2114
2126
2126
2126
2118
2118
2118
2119
2119
2119
2118
2118
2118
2123
2123
2123
2123
2118
2118
2118
2120
2120
2120
2123
2123
2123
2119
2119
2119
2122
2122
2122
2122
2122
2122
2122
2118
2118
2118
2122
2122
2122
2125
2125
2125
2120
2120
2120
2120
2121
2121
2121
2118
2118
2118
2122
2122
2122
2124
2124
2124
2125
2125
2125
2125
2121
2121
2121
2118
2118
2118
2124
2124
2124
2118
2118
2118
2123
2123
2123
2123
2124
2124
2124
2121
2121
2121
2122
2122
2122
2115
2115
2115
2123
2123
2123
2123
2119
2119
2119
2125
2125
2125
2124
2124
2124
2121
2121
2121
2120
2120
2120
2120
2125
2125
2125
2119
2119
2119
2120
2120
2120
2113
2113
2113
2120
2120
2120
2120
2123
2123
2123
2119
2119
2119
2123
2123
2123
2121
2121
2121
2122
2122
2122
2122
2122
2122
2122
2119
2119
2119
2123
2123
2123
2121
2121
2121
2123
2123
2123
2123
2123
2123
2123
2115
2115
2115
2124
2124
2124
2121
2121
2121
2123
2123
2123
2123
2123
2123
2123
2113
2113
2113
2127
2127
2127
2117
2117
2117
2129
2129
2129
2129
2126
2126
2126
2115
2115
2115
2121
2121
2121
2120
2120
2120
2119
2119
2119
2119
2128
2128
2128
2121
2121
2121
2120
2120
2120
2120
2120
2120
2121
2121
2121
2121
2129
2129
2129
2116
2116
2116
2124
2124
2124
2121
2121
2121
2122
2122
2122
2122
2124
2124
2124
2118
2118
2118
2128
2128
2128
2118
2118
2118
2123
2123
2123
2123
2124
2124
2124
2117
2117
2117
2123
2123
2123
2119
2119
2119
2123
2123
2123
2123
2121
2121
2121
2120
2120
2120
2122
2122
2122
2120
2120
2120
2124
2124
2124
2124
2124
2124
2124
2119
2119
2119
2122
2122
2122
2118
2118
2118
2124
2124
2124
2124
2123
2123
2123
2119
2119
2119
2124
2124
2124
2118
2118
2118
2119
2119
2119
2119
2127
2127
2127
2119
2119
2119
2122
2122
2122
2118
2118
2118
2129
2129
2129
2129
2123
2123
2123
2120
2120
2120
2126
2126
2126
2121
2121
2121
2117
2117
2117
2117
2122
2122
2122
2116
2116
2116
2122
2122
2122
2122
2122
2122
2123
2123
2123
2123
2123
2123
2123
2117
2117
2117
2120
2120
2120
2120
2120
2120
2121
2121
2121
2121
2124
2124
2124
2113
2113
2113
2126
2126
2126
2121
2121
2121
2119
2119
2119
2119
2119
2119
2119
2118
2118
2118
2124
2124
2124
2121
2121
2121
2119
2119
2119
2119
2122
2122
2122
2119
2119
2119
2121
2121
2121
2121
2121
2121
2122
2122
2122
2122
2125
2125
2125
2118
2118
2118
2121
2121
2121
2122
2122
2122
2124
2124
2124
2124
2129
2129
2129
2119
2119
2119
2124
2124
2124
2126
2126
2126
2125
2125
2125
2125
2122
2122
2122
2116
2116
2116
2126
2126
2126
2121
2121
2121
2121
2121
2121
2121
2123
2123
2123
2117
2117
2117
2124
2124
2124
2120
2120
2120
2124
2124
2124
2124
2122
2122
2122
2117
2117
2117
2123
2123
2123
2122
2122
2122
2123
2123
2123
2123
2122
2122
2122
2116
2116
2116
2126
2126
2126
2119
2119
2119
2123
2123
2123
2123
2121
2121
2121
2121
2121
2121
2119
2119
2119
2123
2123
2123
2123
2123
2123
2123
2126
2126
2126
2117
2117
2117
2121
2121
2121
2123
2123
2123
2124
2124
2124
2124
2122
2122
2122
2115
2115
2115
2122
2122
2122
2121
2121
2121
2124
2124
2124
2124
2120
2120
2120
2118
2118
2118
2122
2122
2122
2117
2117
2117
2121
2121
2121
2121
2129
2129
2129
2116
2116
2116
2128
2128
2128
2117
2117
2117
2119
2119
2119
2119
2121
2121
2121
2117
2117
2117
2121
2121
2121
2124
2124
2124
2117
2117
2117
2117
2123
2123
2123
2118
2118
2118
2124
2124
2124
2120
2120
2120
2124
2124
2124
2124
2121
2121
2121
2119
2119
2119
2124
2124
2124
2121
2121
2121
2121
2121
2121
2121
2119
2119
2119
2118
2118
2118
2122
2122
2122
2123
2123
2123
2122
2122
2122
2122
2127
2127
2127
2106
2106
2106
2122
2122
2122
2121
2121
2121
2117
2117
2117
2117
2116
2116
2116
2110
2110
2110
2122
2122
2122
2123
2123
2123
2122
2122
2122
2122
2123
2123
2123
2118
2118
2118
2124
2124
2124
2120
2120
2120
2117
2117
2117
2117
2123
2123
2123
2118
2118
2118
2123
2123
2123
2120
2120
2120
2122
2122
2122
2122
2121
2121
2121
2116
2116
2116
2122
2122
2122
2120
2120
2120
2123
2123
2123
2123
2122
2122
2122
2118
2118
2118
2121
2121
2121
2118
2118
2118
2129
2129
2129
2129
2121
2121
2121
2117
2117
2117
2122
2122
2122
2121
2121
2121
2125
2125
2125
2125
2122
2122
2122
2114
2114
2114
2123
2123
2123
2121
2121
2121
2121
2121
2121
2121
2120
2120
2120
2112
2112
2112
2123
2123
2123
2123
2123
2123
2127
2127
2127
2127
2123
2123
2123
2113
2113
2113
2121
2121
2121
2124
2124
2124
2116
2116
2116
2116
2121
2121
2121
2119
2119
2119
2123
2123
2123
2120
2120
2120
2125
2125
2125
2125
2120
2120
2120
2120
2120
2120
2122
2122
2122
2123
2123
2123
2122
2122
2122
2122
2129
2129
2129
2111
2111
2111
2124
2124
2124
2120
2120
2120
2122
2122
2122
2122
2121
2121
2121
2122
2122
2122
2121
2121
2121
2126
2126
2126
2119
2119
2119
2119
2122
2122
2122
2118
2118
2118
2118
2118
2118
2121
2121
2121
2126
2126
2126
2126
2121
2121
2121
2121
2121
2121
2120
2120
2120
2120
2120
2120
2121
2121
2121
2121
2123
2123
2123
2119
2119
2119
2118
2118
2118
2121
2121
2121
2131
2131
2131
2131
2119
2119
2119
2124
2124
2124
2120
2120
2120
2118
2118
2118
2124
2124
2124
2124
2123
2123
2123
2120
2120
2120
2125
2125
2125
2120
2120
2120
2121
2121
2121
2121
2122
2122
2122
2119
2119
2119
2122
2122
2122
2119
2119
2119
2125
2125
2125
2125
2115
2115
2115
2119
2119
2119
2120
2120
2120
2124
2124
2124
2121
2121
2121
2121
2123
2123
2123
2117
2117
2117
2124
2124
2124
2119
2119
2119
2122
2122
2122
2122
2121
2121
2121
2115
2115
2115
2122
2122
2122
2122
2122
2122
2122
2122
2122
2122
2132
2132
2132
2115
2115
2115
2132
2132
2132
2120
2120
2120
2120
2120
2120
2120
2124
2124
2124
2119
2119
2119
2123
2123
2123
2121
2121
2121
2125
2125
2125
2125
2121
2121
2121
2120
2120
2120
2123
2123
2123
2121
2121
2121
2127
2127
2127
2127
2120
2120
2120
2120
2120
2120
2126
2126
2126
2117
2117
2117
2121
2121
2121
2121
2121
2121
2121
2116
2116
2116
2127
2127
2127
2120
2120
2120
2118
2118
2118
2118
2119
2119
2119
2119
2119
2119
2122
2122
2122
2121
2121
2121
2122
2122
2122
2122
2117
2117
2117
2118
2118
2118
2121
2121
2121
2121
2121
2121
2123
2123
2123
2123
2124
2124
2124
2115
2115
2115
2123
2123
2123
2123
2123
2123
2121
2121
2121
2121
2121
2121
2121
2120
2120
2120
2122
2122
2122
2127
2127
2127
2112
2112
2112
2112
2123
2123
2123
2118
2118
2118
2124
2124
2124
2121
2121
2121
2124
2124
2124
2124
2123
2123
2123
2118
2118
2118
2125
2125
2125
2119
2119
2119
2123
2123
2123
2123
2123
2123
2123
2117
2117
2117
2123
2123
2123
2119
2119
2119
2125
2125
2125
2125
2120
2120
2120
2125
2125
2125
2120
2120
2120
2123
2123
2123
2120
2120
2120
2120
2123
2123
2123
2119
2119
2119
2121
2121
2121
2119
2119
2119
2123
2123
2123
2123
2127
2127
2127
2118
2118
2118
2123
2123
2123
2118
2118
2118
2124
2124
2124
2124
2124
2124
2124
2125
2125
2125
2120
2120
2120
2128
2128
2128
2124
2124
2124
2124
2127
2127
2127
2113
2113
2113
2123
2123
2123
2118
2118
2118
2124
2124
2124
2124
2122
2122
2122
2124
2124
2124
2116
2116
2116
2125
2125
2125
2121
2121
2121
2121
2121
2121
2121
2119
2119
2119
2123
2123
2123
2120
2120
2120
2120
2120
2120
2120
2123
2123
2123
2117
2117
2117
2123
2123
2123
2120
2120
2120
2121
2121
2121
2121
2122
2122
2122
2119
2119
2119
2123
2123
2123
2120
2120
2120
2123
2123
2123
2123
2119
2119
2119
2125
2125
2125
2119
2119
2119
2117
2117
2117
2124
2124
2124
2124
2124
2124
2124
2118
2118
2118
2117
2117
2117
2120
2120
2120
2124
2124
2124
2124
2125
2125
2125
2121
2121
2121
2123
2123
2123
2118
2118
2118
2124
2124
2124
2124
2124
2124
2124
2119
2119
2119
2123
2123
2123
2120
2120
2120
2131
2131
2131
2131
2123
2123
2123
2116
2116
2116
2123
2123
2123
2119
2119
2119
2123
2123
2123
2123
2121
2121
2121
2116
2116
2116
2124
2124
2124
2120
2120
2120
2126
2126
2126
2126
2122
2122
2122
2118
2118
2118
2123
2123
2123
2122
2122
2122
2120
2120
2120
2120
2121
2121
2121
2118
2118
2118
2123
2123
2123
2119
2119
2119
2125
2125
2125
2125
2129
2129
2129
2123
2123
2123
2121
2121
2121
2115
2115
2115
2121
2121
2121
2121
2128
2128
2128
2113
2113
2113
2125
2125
2125
2115
2115
2115
2122
2122
2122
2122
2125
2125
2125
2115
2115
2115
2121
2121
2121
2121
2121
2121
2131
2131
2131
2131
2121
2121
2121
2118
2118
2118
2122
2122
2122
2120
2120
2120
2122
2122
2122
2122
2125
2125
2125
2118
2118
2118
2122
2122
2122
2119
2119
2119
2124
2124
2124
2124
2117
2117
2117
2123
2123
2123
2121
2121
2121
2120
2120
2120
2122
2122
2122
2122
2122
2122
2122
2115
2115
2115
2126
2126
2126
2119
2119
2119
2125
2125
2125
2125
2123
2123
2123
2119
2119
2119
2120
2120
2120
2119
2119
2119
2120
2120
2120
2120
2122
2122
2122
2117
2117
2117
2120
2120
2120
2121
2121
2121
2124
2124
2124
2124
2126
2126
2126
2115
2115
2115
2118
2118
2118
2123
2123
2123
2119
2119
2119
2119
2126
2126
2126
2118
2118
2118
2119
2119
2119
2118
2118
2118
2116
2116
2116
2116
2124
2124
2124
2119
2119
2119
2120
2120
2120
2124
2124
2124
2122
2122
2122
2122
2123
2123
2123
2118
2118
2118
2122
2122
2122
2121
2121
2121
2123
2123
2123
2123
2121
2121
2121
2117
2117
2117
2123
2123
2123
2121
2121
2121
2123
2123
2123
2123
2124
2124
2124
2117
2117
2117
2123
2123
2123
2120
2120
2120
2122
2122
2122
2122
2121
2121
2121
2118
2118
2118
2128
2128
2128
2115
2115
2115
2128
2128
2128
2128
2128
2128
2128
2116
2116
2116
2121
2121
2121
2117
2117
2117
2120
2120
2120
2120
2119
2119
2119
2115
2115
2115
2126
2126
2126
2118
2118
2118
2122
2122
2122
2122
2125
2125
2125
2123
2123
2123
2116
2116
2116
2124
2124
2124
2122
2122
2122
2122
2122
2122
2122
2123
2123
2123
2122
2122
2122
2116
2116
2116
2130
2130
2130
2130
2123
2123
2123
2117
2117
2117
2126
2126
2126
2112
2112
2112
2123
2123
2123
2123
2124
2124
2124
2120
2120
2120
2123
2123
2123
2116
2116
2116
2123
2123
2123
2123
2122
2122
2122
2120
2120
2120
2120
2120
2120
2118
2118
2118
2124
2124
2124
2124
2125
2125
2125
2122
2122
2122
2121
2121
2121
2118
2118
2118
2124
2124
2124
2124
2120
2120
2120
2115
2115
2115
2124
2124
2124
2115
2115
2115
2126
2126
2126
2126
2122
2122
2122
2118
2118
2118
2119
2119
2119
2118
2118
2118
2124
2124
2124
2124
2123
2123
2123
2119
2119
2119
2125
2125
2125
2119
2119
2119
2122
2122
2122
2122
2116
2116
2116
2114
2114
2114
2121
2121
2121
2118
2118
2118
2126
2126
2126
2126
2128
2128
2128
2118
2118
2118
2114
2114
2114
2121
2121
2121
2127
2127
2127
2127
2126
2126
2126
2121
2121
2121
2117
2117
2117
2115
2115
2115
2125
2125
2125
2125
2122
2122
2122
2121
2121
2121
2122
2122
2122
2118
2118
2118
2122
2122
2122
2122
2123
2123
2123
2118
2118
2118
2127
2127
2127
2116
2116
2116
2119
2119
2119
2119
2111
2111
2111
2117
2117
2117
2124
2124
2124
2116
2116
2116
2123
2123
2123
2123
2123
2123
2123
2121
2121
2121
2122
2122
2122
2117
2117
2117
2124
2124
2124
2124
2124
2124
2124
2114
2114
2114
2127
2127
2127
2117
2117
2117
2124
2124
2124
2124
2121
2121
2121
2121
2121
2121
2119
2119
2119
2122
2122
2122
2122
2122
2122
2122
2124
2124
2124
2116
2116
2116
2117
2117
2117
2118
2118
2118
2122
2122
2122
2122
2127
2127
2127
2127
2127
2127
2121
2121
2121
2119
2119
2119
2124
2124
2124
2124
2124
2124
2124
2115
2115
2115
2125
2125
2125
2113
2113
2113
2122
2122
2122
2122
2120
2120
2120
2121
2121
2121
2119
2119
2119
2120
2120
2120
2121
2121
2121
2121
2128
2128
2128
2116
2116
2116
2116
2116
2116
2118
2118
2118
2125
2125
2125
2125
2122
2122
2122
2120
2120
2120
2121
2121
2121
2119
2119
2119
2122
2122
2122
2122
2124
2124
2124
2119
2119
2119
2123
2123
2123
2119
2119
2119
2124
2124
2124
2124
2123
2123
2123
2115
2115
2115
2123
2123
2123
2118
2118
2118
2121
2121
2121
2121
2121
2121
2121
2120
2120
2120
2121
2121
2121
2118
2118
2118
2123
2123
2123
2123
2125
2125
2125
2118
2118
2118
2122
2122
2122
2118
2118
2118
2119
2119
2119
2119
2122
2122
2122
2112
2112
2112
2121
2121
2121
2120
2120
2120
2124
2124
2124
2124
2119
2119
2119
2112
2112
2112
2122
2122
2122
2117
2117
2117
2123
2123
2123
2123
2128
2128
2128
2118
2118
2118
2123
2123
2123
2118
2118
2118
2117
2117
2117
2117
2126
2126
2126
2119
2119
2119
2121
2121
2121
2119
2119
2119
2123
2123
2123
2123
2117
2117
2117
2116
2116
2116
2126
2126
2126
2117
2117
2117
2120
2120
2120
2120
2123
2123
2123
2117
2117
2117
2124
2124
2124
2117
2117
2117
2120
2120
2120
2120
2121
2121
2121
2121
2121
2121
2121
2121
2121
2118
2118
2118
2124
2124
2124
2124
2124
2124
2124
2117
2117
2117
2124
2124
2124
2116
2116
2116
2121
2121
2121
2121
2119
2119
2119
2123
2123
2123
2119
2119
2119
2117
2117
2117
2122
2122
2122
2122
2118
2118
2118
2117
2117
2117
2130
2130
2130
2111
2111
2111
2126
2126
2126
2126
2125
2125
2125
2116
2116
2116
2123
2123
2123
2116
2116
2116
2120
2120
2120
2120
2124
2124
2124
2119
2119
2119
2124
2124
2124
2112
2112
2112
2126
2126
2126
2126
2124
2124
2124
2119
2119
2119
2122
2122
2122
2118
2118
2118
2123
2123
2123
2123
2120
2120
2120
2123
2123
2123
2122
2122
2122
2116
2116
2116
2123
2123
2123
2123
2122
2122
2122
2118
2118
2118
2124
2124
2124
2112
2112
2112
2124
2124
2124
2124
2122
2122
2122
2117
2117
2117
2124
2124
2124
2119
2119
2119
2119
2119
2119
2119
2123
2123
2123
2119
2119
2119
2123
2123
2123
2116
2116
2116
2124
2124
2124
2124
2123
2123
2123
2119
2119
2119
2123
2123
2123
2120
2120
2120
2120
2120
2120
2120
2129
2129
2129
2117
2117
2117
2124
2124
2124
2116
2116
2116
2127
2127
2127
2127
2126
2126
2126
2127
2127
2127
2118
2118
2118
2116
2116
2116
2127
2127
2127
2127
2122
2122
2122
2118
2118
2118
2121
2121
2121
2117
2117
2117
2123
2123
2123
2123
2123
2123
2123
2117
2117
2117
2124
2124
2124
2117
2117
2117
2122
2122
2122
2122
2121
2121
2121
2121
2121
2121
2115
2115
2115
2117
2117
2117
2122
2122
2122
2122
2121
2121
2121
2119
2119
2119
2125
2125
2125
2115
2115
2115
2125
2125
2125
2125
2124
2124
2124
2119
2119
2119
2125
2125
2125
2118
2118
2118
2122
2122
2122
2122
2123
2123
2123
2116
2116
2116
2122
2122
2122
2118
2118
2118
2122
2122
2122
2122
2122
2122
2122
2111
2111
2111
2127
2127
2127
2119
2119
2119
2121
2121
2121
2121
2121
2121
2121
2113
2113
2113
2127
2127
2127
2118
2118
2118
2119
2119
2119
2119
2123
2123
2123
2118
2118
2118
2122
2122
2122
2118
2118
2118
2121
2121
2121
2121
2121
2121
2121
2118
2118
2118
2123
2123
2123
2116
2116
2116
2124
2124
2124
2124
2126
2126
2126
2124
2124
2124
2117
2117
2117
2116
2116
2116
2121
2121
2121
2121
2128
2128
2128
2115
2115
2115
2129
2129
2129
2113
2113
2113
2122
2122
2122
2122
2123
2123
2123
2115
2115
2115
2123
2123
2123
2117
2117
2117
2122
2122
2122
2122
2120
2120
2120
2114
2114
2114
2125
2125
2125
2117
2117
2117
2122
2122
2122
2122
2124
2124
2124
2117
2117
2117
2119
2119
2119
2121
2121
2121
2119
2119
2119
2119
2125
2125
2125
2118
2118
2118
2119
2119
2119
2121
2121
2121
2120
2120
2120
2120
2122
2122
2122
2119
2119
2119
2123
2123
2123
2115
2115
2115
2123
2123
2123
2123
2121
2121
2121
2117
2117
2117
2124
2124
2124
2118
2118
2118
2123
2123
2123
2123
2121
2121
2121
2119
2119
2119
2122
2122
2122
2118
2118
2118
2124
2124
2124
2124
2124
2124
2124
2120
2120
2120
2123
2123
2123
2119
2119
2119
2123
2123
2123
2123
2124
2124
2124
2121
2121
2121
2121
2121
2121
2121
2121
2121
2122
2122
2122
2122
2124
2124
2124
2122
2122
2122
2118
2118
2118
2122
2122
2122
2123
2123
2123
2123
2121
2121
2121
2117
2117
2117
2122
2122
2122
2117
2117
2117
2126
2126
2126
2126
2121
2121
2121
2117
2117
2117
2123
2123
2123
2118
2118
2118
2122
2122
2122
2122
2123
2123
2123
2114
