2220
2224
2224
2224
2213
2213
2213
2221
2221
2221
2221
2217
2217
2217
2216
2216
2216
2217
2217
2217
2210
2210
2210
2218
2218
2218
2218
2222
2222
2222
2213
2213
2213
2224
2224
2224
2219
2219
2219
2223
2223
2223
2223
2219
2219
2219
2215
2215
2215
2220
2220
2220
2217
2217
2217
2222
2222
2222
2222
2221
2221
2221
2218
2218
2218
2223
2223
2223
2217
2217
2217
2218
2218
2218
2218
2223
2223
2223
2225
2225
2225
2224
2224
2218
2222
2222
2222
2220
2220
2220
2218
2218
2218
2218
2222
2222
2222
2218
2218
2218
2221
2221
2221
2220
2220
2220
2220
2220
2220
2220
2222
2222
2222
2221
2221
2221
2224
2224
2224
2220
2220
2220
2222
2222
2222
2222
2217
2217
2217
2216
2216
2216
2218
2218
2218
2223
2223
2223
2225
2225
2225
2225
2221
2221
2221
2217
2217
2217
2221
2221
2221
2218
2218
2218
2224
2224
2224
2224
2221
2221
2221
2225
2225
2225
2222
2222
2222
2223
2223
2223
2216
2216
2216
2216
2230
2230
2230
2221
2221
2221
2221
2221
2221
2221
2221
2221
2227
2227
2227
2227
2220
2220
2220
2219
2219
2219
2220
2220
2220
2224
2224
2224
2222
2222
2222
2222
2222
2222
2222
2221
2221
2221
2224
2224
2224
2221
2221
2221
2220
2220
2220
2220
2223
2223
2223
2217
2217
2217
2216
2216
2216
2220
2220
2220
2224
2224
2224
2224
2224
2224
2224
2214
2214
2214
2221
2221
2221
2218
2218
2218
2221
2221
2221
2221
2224
2224
2224
2219
2219
2219
2224
2224
2224
2219
2219
2219
2222
2222
2222
2222
2222
2222
2222
2218
2218
2218
2222
2222
2222
2220
2220
2220
2227
2227
2227
2227
2222
2222
2222
2220
2220
2220
2221
2221
2221
2223
2223
2223
2222
2222
2222
2222
2220
2220
2220
2227
2227
2227
2222
2222
2222
2224
2224
2224
2229
2229
2229
2229
2221
2221
2221
2223
2223
2223
2223
2223
2223
2221
2221
2221
2222
2222
2222
2222
2214
2214
2214
2215
2215
2215
2220
2220
2220
2219
2219
2219
2231
2231
2231
2231
2222
2222
2222
2220
2220
2220
2222
2222
2222
2220
2220
2220
2221
2221
2221
2221
2222
2222
2222
2218
2218
2218
2221
2221
2221
2220
2220
2220
2224
2224
2224
2224
2223
2223
2223
2219
2219
2219
2223
2223
2223
2219
2219
2219
2220
2220
2220
2220
2222
2222
2222
2219
2219
2219
2224
2224
2224
2222
2222
2222
2224
2224
2224
2224
2223
2223
2223
2222
2222
2222
2220
2220
2220
2220
2220
2220
2220
2220
2220
2220
2225
2225
2225
2213
2213
2213
2220
2220
2220
2218
2218
2218
2222
2222
2222
2222
2219
2219
2219
2221
2221
2221
2227
2227
2227
2224
2224
2224
2222
2222
2222
2222
2220
2220
2220
2220
2220
2220
2220
2220
2220
2221
2221
2221
2223
2223
2223
2223
2218
2218
2218
2219
2219
2219
2224
2224
2224
2223
2223
2223
2225
2225
2225
2225
2221
2221
2221
2220
2220
2220
2226
2226
2226
2219
2219
2219
2223
2223
2223
2223
2223
2223
2223
2225
2225
2225
2225
2225
2225
2220
2220
2220
2220
2220
2220
2220
2223
2223
2223
2222
2222
2222
2221
2221
2221
2219
2219
2219
2219
2219
2219
2219
2222
2222
2222
2221
2221
2221
2221
2221
2221
2218
2218
2218
2217
2217
2217
2217
2221
2221
2221
2218
2218
2218
2223
2223
2223
2214
2214
2214
2222
2222
2222
2222
2221
2221
2221
2218
2218
2218
2223
2223
2223
2220
2220
2220
2229
2229
2229
2229
2221
2221
2221
2220
2220
2220
2221
2221
2221
2217
2217
2217
2220
2220
2220
2220
2228
2228
2228
2217
2217
2217
2220
2220
2220
2220
2220
2220
2224
2224
2224
2224
2225
2225
2225
2227
2227
2227
2219
2219
2219
2219
2219
2219
2218
2218
2218
2218
2223
2223
2223
2219
2219
2219
2221
2221
2221
2221
2221
2221
2222
2222
2222
2222
2223
2223
2223
2220
2220
2220
2221
2221
2221
2219
2219
2219
2218
2218
2218
2218
2221
2221
2221
2215
2215
2215
2222
2222
2222
2220
2220
2220
2222
2222
2222
2222
2217
2217
2217
2217
2217
2217
2225
2225
2225
2219
2219
2219
2222
2222
2222
2222
2223
2223
2223
2221
2221
2221
2224
2224
2224
2217
2217
2217
2222
2222
2222
2222
2230
2230
2230
2225
2225
2225
2221
2221
2221
2220
2220
2220
2221
2221
2221
2221
2223
2223
2223
2219
2219
2219
2223
2223
2223
2222
2222
2222
2223
2223
2223
2223
2222
2222
2222
2217
2217
2217
2220
2220
2220
2216
2216
2216
2221
2221
2221
2221
2221
2221
2221
2220
2220
2220
2222
2222
2222
2220
2220
2220
2223
2223
2223
2223
2221
2221
2221
2225
2225
2225
2220
2220
2220
2218
2218
2218
2228
2228
2228
2228
2227
2227
2227
2219
2219
2219
2223
2223
2223
2220
2220
2220
2220
2220
2220
2220
2222
2222
2222
2219
2219
2219
2224
2224
2224
2219
2219
2219
2223
2223
2223
2223
2222
2222
2222
2221
2221
2221
2223
2223
2223
2224
2224
2224
2224
2224
2224
2224
2222
2222
2222
2215
2215
2215
2222
2222
2222
2219
2219
2219
2225
2225
2225
2225
2226
2226
2226
2217
2217
2217
2222
2222
2222
2220
2220
2220
2224
2224
2224
2224
2224
2224
2224
2221
2221
2221
2223
2223
2223
2223
2223
2223
2217
2217
2217
2217
2225
2225
2225
2221
2221
2221
2221
2221
2221
2220
2220
2220
2217
2217
2217
2217
2222
2222
2222
2216
2216
2216
2223
2223
2223
2216
2216
2216
2223
2223
2223
2223
2222
2222
2222
2221
2221
2221
2224
2224
2224
2220
2220
2220
2222
2222
2222
2222
2220
2220
2220
2222
2222
2222
2222
2222
2222
2218
2218
2218
2222
2222
2222
2222
2220
2220
2220
2215
2215
2215
2219
2219
2219
2218
2218
2218
2223
2223
2223
2223
2221
2221
2221
2217
2217
2217
2222
2222
2222
2220
2220
2220
2224
2224
2224
2224
2225
2225
2225
2218
2218
2218
2222
2222
2222
2225
