2150
2153
2153
2153
2154
2154
2154
2151
2151
2151
2149
2149
2149
2151
2151
2151
2151
2152
2152
2152
2151
2151
2151
2153
2153
2153
2156
2156
2156
2150
2150
2150
2150
2150
2150
2150
2154
2154
2154
2150
2150
2150
2150
2150
2150
2151
2151
2151
2151
2149
2149
2149
2153
2153
2153
2151
2151
2151
2153
2153
2153
2150
2150
2150
2150
2152
2152
2152
2150
2150
2150
2151
2151
2151
2150
2150
2150
2151
2151
2151
2151
2148
2148
2148
2153
2153
2153
2152
2152
2152
2152
2152
2152
2151
2151
2151
2150
2150
2150
2150
2142
2142
2142
2153
2153
2153
2151
2151
2151
2151
2151
2151
2152
2152
2152
2152
2150
2150
2150
2154
2154
2154
2147
2147
2147
2153
2153
2153
2152
2152
2152
2152
2152
2152
2152
2156
2156
2156
2150
2150
2150
2151
2151
2151
2149
2149
2149
2149
2149
2149
2149
2152
2152
2152
2151
2151
2151
2150
2150
2150
2143
2143
2143
2143
2149
2149
2149
2151
2151
2151
2151
2151
2151
2150
2150
2150
2153
2153
2153
2153
2154
2154
2154
2153
2153
2153
2149
2149
2149
2143
2143
2143
2149
2149
2149
2149
2155
2155
2155
2151
2151
2151
2152
2152
2152
2147
2147
2147
2146
2146
2146
2146
2152
2152
2152
2151
2151
2151
2153
2153
2153
2151
2151
2151
2153
2153
2153
2153
2147
2147
2147
2150
2150
2150
2152
2152
2152
2152
2152
2152
2152
2152
2152
2152
2151
2151
2151
2156
2156
2156
2149
2149
2149
2151
2151
2151
2150
2150
2150
2150
2148
2148
2148
2151
2151
2151
2151
2151
2151
2151
2151
2151
2152
2152
2152
2152
2154
2154
2154
2152
2152
2152
2154
2154
2154
2147
2147
2147
2150
2150
2150
2150
2148
2148
2148
2150
2150
2150
2151
2151
2151
2153
2153
2153
2147
2147
2147
2147
2151
2151
2151
2152
2152
2152
2153
2153
2153
2151
2151
2151
2151
2151
2151
2151
2147
2147
2147
2150
2150
2150
2156
2156
2156
2152
2152
2152
2150
2150
2150
2150
2153
2153
2153
2145
2145
2145
2151
2151
2151
2151
2151
2151
2150
2150
2150
2150
2152
2152
2152
2149
2149
2149
2149
2149
2149
2154
2154
2154
2151
2151
2151
2151
2149
2149
2149
2150
2150
2150
2155
2155
2155
2151
2151
2151
2150
2150
2150
2150
2151
2151
2151
2151
2151
2151
2152
2152
2152
2151
2151
2151
2151
2151
2151
2151
2150
2150
2150
2147
2147
2147
2151
2151
2151
2151
2151
2151
2153
2153
2153
2153
2152
2152
2152
2152
2152
2152
2150
2150
2150
2152
2152
2152
2151
2151
2151
2151
2153
2153
2153
2152
2152
2152
2152
2152
2152
2155
2155
2155
2152
2152
2152
2152
2153
2153
2153
2153
2153
2153
2152
2152
2152
2153
2153
2153
2150
2150
2150
2150
2151
2151
2151
2145
2145
2145
2144
2144
2144
2152
2152
2152
2151
2151
2151
2151
2151
2151
2151
2154
2154
2154
2153
2153
2153
2152
2152
2152
2150
2150
2150
2150
2157
2157
2157
2148
2148
2148
2150
2150
2150
2152
2152
2152
2149
2149
2149
2149
2150
2150
2150
2152
2152
2152
2152
2152
2152
2147
2147
2147
2151
2151
2151
2151
2153
2153
2153
2146
2146
2146
2150
2150
2150
2150
2150
2150
2152
2152
2152
2152
2152
2152
2152
2151
2151
2151
2151
2151
2151
2157
2157
2157
2149
2149
2149
2149
2152
2152
2152
2153
2153
2153
2151
2151
2151
2155
2155
2155
2152
2152
2152
2152
2151
2151
2151
2152
2152
2152
2150
2150
2150
2155
2155
2155
2152
2152
2152
2152
2149
2149
2149
2153
2153
2153
2152
2152
2152
2150
2150
2150
2151
2151
2151
2151
2149
2149
2149
2151
2151
2151
2150
2150
2150
2153
2153
2153
2153
2153
2153
2153
2153
2153
2153
2151
2151
2151
2152
2152
2152
2152
2152
2152
2151
2151
2151
2151
2147
2147
2147
2152
2152
2152
2151
2151
2151
2148
2148
2148
2151
2151
2151
2151
2151
2151
2151
2149
2149
2149
2152
2152
2152
2152
2152
2152
2152
2152
2152
2152
2150
2150
2150
2153
2153
2153
2152
2152
2152
2152
2152
2152
2153
2153
2153
2153
2153
2153
2153
2155
2155
2155
2152
2152
2152
2152
2152
2152
2153
2153
2153
2153
2152
2152
2152
2152
2152
2152
2151
2151
2151
2151
2151
2151
2152
2152
2152
2152
2154
2154
2154
2151
2151
2151
2151
2151
2151
2152
2152
2152
2152
2152
2152
2152
2150
2150
2150
2151
2151
2151
2146
2146
2146
2151
2151
2151
2148
2148
2148
2148
2151
2151
2151
2152
2152
2152
2150
2150
2150
2153
2153
2153
2146
2146
2146
2146
2152
2152
2152
2154
2154
2154
2150
2150
2150
2155
2155
2155
2158
2158
2158
2158
2152
2152
2152
2152
2152
2152
2150
2150
2150
2152
2152
2152
2152
2152
2152
2152
2155
2155
2155
2152
2152
2152
2155
2155
2155
2146
2146
2146
2149
2149
2149
2149
2151
2151
2151
2152
2152
2152
2146
2146
2146
2152
2152
2152
2148
2148
2148
2148
2151
2151
2151
2150
2150
2150
2151
2151
2151
2150
2150
2150
2155
2155
2155
2155
2148
2148
2148
2153
2153
2153
2145
2145
2145
2153
2153
2153
2151
2151
2151
2151
2151
2151
2151
2152
2152
2152
2148
2148
2148
2152
2152
2152
2152
2152
2152
2152
2155
2155
2155
2153
2153
2153
2151
2151
2151
2152
2152
2152
2152
2152
2152
2152
2153
2153
2153
2150
2150
2150
2147
2147
2147
2150
2150
2150
2149
2149
2149
2149
2152
2152
2152
2151
2151
2151
2154
2154
2154
2150
2150
2150
2148
2148
2148
2148
2150
2150
2150
2151
2151
2151
2149
2149
2149
2148
2148
2148
2150
2150
2150
2150
2148
2148
2148
2149
2149
2149
2151
2151
2151
2152
2152
2152
2153
2153
2153
2153
2152
2152
2152
2151
2151
2151
2154
2154
2154
2152
2152
2152
2143
2143
2143
2143
2147
2147
2147
2152
2152
2152
2153
2153
2153
2150
2150
2150
2153
2153
2153
2153
2149
2149
2149
2146
