1987
1987
1982
1982
1982
1982
1984
1984
1984
1986
1986
1986
1984
1984
1984
1983
1983
1983
1981
1981
1981
1981
1984
1984
1984
1983
1983
1983
1979
1979
1979
1981
1981
1981
1983
1983
1983
1983
1982
1982
1982
1990
1990
1990
1980
1980
1980
1986
1986
1986
1982
1982
1982
1982
1984
1984
1984
1980
1980
1980
1985
1985
1985
1985
1985
1985
1984
1984
1984
1984
1990
1990
1990
1983
1983
1983
1982
1982
1982
1984
1984
1984
1985
1987
1987
1984
1984
1984
1984
1985
1985
1985
1977
1977
1977
1989
1989
1989
1984
1984
1984
1983
1983
1983
1983
1983
1983
1983
1981
1981
1981
1983
1983
1983
1988
1988
1988
1984
1984
1984
1984
1982
1982
1982
1981
1981
1981
1990
1990
1990
1981
1981
1981
1983
1983
1983
1983
1982
1982
1982
1988
1988
1988
1983
1983
1983
1984
1984
1984
1984
1984
1984
1984
1984
1984
1984
1980
1980
1980
1988
1988
1988
1983
1983
1983
1985
1985
1985
1985
1985
1985
1985
1986
1986
1986
1982
1982
1982
1984
1984
1984
1983
1983
1983
1983
1984
1984
1984
1976
1976
1976
1981
1981
1981
1985
1985
1985
1987
1987
1987
1987
1982
1982
1982
1987
1987
1987
1981
1981
1981
1984
1984
1984
1982
1982
1982
1982
1987
1987
1987
1986
1986
1986
1982
1982
1982
1983
1983
1983
1984
1984
1984
1984
1985
1985
1985
1989
1989
1989
1982
1982
1982
1985
1985
1985
1985
1985
1985
1985
1981
1981
1981
1986
1986
1986
1986
1986
1986
1987
1987
1987
1985
1985
1985
1985
1980
1980
1980
1983
1983
1983
1984
1984
1984
1985
1985
1985
1985
1985
1985
1985
1981
1981
1981
1984
1984
1984
1985
1985
1985
1982
1982
1982
1983
1983
1983
1983
1985
1985
1985
1981
1981
1981
1985
1985
1985
1982
1982
1982
1982
1982
1982
1982
1988
1988
1988
1983
1983
1983
1983
1983
1983
1984
1984
1984
1982
1982
1982
1982
1981
1981
1981
1983
1983
1983
1982
1982
1982
1984
1984
1984
1983
1983
1983
1983
1985
1985
1985
1984
1984
1984
1984
1984
1984
1984
1984
1984
1986
1986
1986
1986
1985
1985
1985
1981
1981
1981
1984
1984
1984
1984
1984
1984
1982
1982
1982
1982
1983
1983
1983
1985
1985
1985
1982
1982
1982
1987
1987
1987
1980
1980
1980
1980
1982
1982
1982
1986
1986
1986
1984
1984
1984
1985
1985
1985
1983
1983
1983
1983
1978
1978
1978
1985
1985
1985
1985
1985
1985
1984
1984
1984
1984
1984
1984
1984
1982
1982
1982
1983
1983
1983
1983
1983
1983
1987
1987
1987
1980
1980
1980
1980
1982
1982
1982
1981
1981
1981
1984
1984
1984
1985
1985
1985
1983
1983
1983
1983
1984
1984
1984
1982
1982
1982
1985
1985
1985
1983
1983
1983
1979
1979
1979
1979
1982
1982
1982
1985
1985
1985
1982
1982
1982
1983
1983
1983
1984
1984
1984
1984
1981
1981
1981
1992
1992
1992
1985
1985
1985
1987
1987
1987
1981
1981
1981
1981
1983
1983
1983
1983
1983
1983
1985
1985
1985
1986
1986
1986
1984
1984
1984
1984
1980
1980
1980
1984
1984
1984
1986
1986
1986
1986
1986
1986
1985
1985
1985
1985
1982
1982
1982
1983
1983
1983
1985
1985
1985
1987
1987
1987
1988
1988
1988
1988
1983
1983
1983
1984
1984
1984
1983
1983
1983
1988
1988
1988
1983
1983
1983
1983
1982
1982
1982
1985
1985
1985
1982
1982
1982
1985
1985
1985
1984
1984
1984
1984
1983
1983
1983
1986
1986
1986
1984
1984
1984
1980
1980
1980
1981
1981
1981
1981
1983
1983
1983
1991
1991
1991
1983
1983
1983
1981
1981
1981
1984
1984
1984
1984
1983
1983
1983
1984
1984
1984
1985
1985
1985
1981
1981
1981
1982
1982
1982
1982
1983
1983
1983
1984
1984
1984
1982
1982
1982
1989
1989
1989
1982
1982
1982
1982
1985
1985
1985
1982
1982
1982
1982
1982
1982
1987
1987
1987
1985
1985
1985
1985
1984
1984
1984
1982
1982
1982
1979
1979
1979
1981
1981
1981
1982
1982
1982
1982
1982
1982
1982
1982
1982
1982
1983
1983
1983
1983
1983
1983
1982
1982
1982
1982
1982
1982
1982
1983
1983
1983
1987
1987
1987
1985
1985
1985
1981
1981
1981
1981
1981
1981
1981
1986
1986
1986
1987
1987
1987
1983
1983
1983
1984
1984
1984
1984
1984
1984
1984
1985
1985
1985
1983
1983
1983
1982
1982
1982
1983
1983
1983
1983
1980
1980
1980
1985
1985
1985
1984
1984
1984
1982
1982
1982
1983
1983
1983
1983
1983
1983
1983
1979
1979
1979
1984
1984
1984
1982
1982
1982
1984
1984
1984
1984
1983
1983
1983
1981
1981
1981
1983
1983
1983
1983
1983
1983
1984
1984
1984
1984
1982
1982
1982
1984
1984
1984
1982
1982
1982
1983
1983
1983
1984
1984
1984
1984
1984
1984
1984
1982
1982
1982
1981
1981
1981
1984
1984
1984
1986
1986
1986
1986
1982
1982
1982
1984
1984
1984
1984
1984
1984
1984
1984
1984
1984
1984
1984
1984
1976
1976
1976
1982
1982
1982
1982
1982
1982
1984
1984
1984
1983
1983
1983
1983
1983
1983
1983
1983
1983
1983
1983
1983
1983
1981
1981
1981
1981
1981
1981
1981
1982
1982
1982
1983
1983
1983
1983
1983
1983
1980
1980
1980
1983
1983
1983
1983
1985
1985
1985
1984
1984
1984
1983
1983
1983
1984
1984
1984
1983
1983
1983
1983
1989
1989
1989
1985
1985
1985
1983
1983
1983
1986
1986
1986
1984
1984
1984
1984
1982
1982
1982
1987
1987
1987
1984
1984
1984
1985
1985
1985
1983
1983
1983
1983
1984
1984
1984
1982
1982
1982
1984
1984
1984
1984
1984
1984
1982
1982
1982
1982
1983
1983
1983
1984
1984
1984
1982
1982
1982
1982
1982
1982
1984
1984
1984
1984
1984
1984
1984
1981
1981
1981
1982
1982
1982
1984
1984
1984
1985
1985
1985
1985
1985
1985
1985
1980
1980
1980
1985
1985
1985
1987
1987
1987
1983
1983
1983
