2160
2160
2160
2162
2162
2162
2166
2166
2166
2165
2165
2165
2161
2161
2161
2162
2162
2162
2162
2164
2164
2164
2165
2165
2165
2159
2159
2159
2158
2158
2158
2164
2164
2164
2164
2162
2162
2162
2161
2161
2161
2167
2167
2167
2162
2162
2162
2161
2161
2161
2161
2163
2163
2163
2165
2165
2165
2170
2170
2170
2162
2162
2162
2162
2162
2162
2162
2161
2161
2161
2164
2164
2164
2163
2163
2163
2161
2161
2161
2161
2161
2161
2161
2166
2166
2166
2164
2164
2164
2166
2166
2166
2156
2156
2156
2163
2163
2163
2165
2165
2165
2165
2163
2163
2163
2165
2165
2165
2155
2155
2155
2162
2162
2162
2162
2162
2162
2162
2161
2161
2161
2168
2168
2168
2156
2156
2156
2162
2162
2162
2164
2164
2164
2164
2162
2162
2162
2157
2157
2157
2162
2162
2162
2163
2163
2163
2161
2161
2161
2161
2164
2164
2164
2161
2161
2161
2163
2163
2163
2161
2161
2161
2160
2160
2160
2160
2158
2158
2158
2162
2162
2162
2161
2161
2161
2162
2162
2162
2163
2163
2163
2163
2162
2162
2162
2161
2161
2161
2158
2158
2158
2158
2158
2158
2166
2166
2166
2166
2165
2165
2165
2161
2161
2161
2162
2162
2162
2166
2166
2166
2160
2160
2160
2160
2162
2162
2162
2171
2171
2171
2162
2162
2162
2165
2165
2165
2161
2161
2161
2161
2164
2164
2164
2165
2165
2165
2165
2165
2165
2162
2162
2162
2161
2161
2161
2161
2165
2165
2165
2158
2158
2158
2162
2162
2162
2161
2161
2161
2163
2163
2163
2163
2161
2161
2161
2164
2164
2164
2164
2164
2164
2162
2162
2162
2165
2165
2165
2165
2164
2164
2164
2164
2164
2164
2162
2162
2162
2163
2163
2163
2164
2164
2164
2164
2159
2159
2159
2161
2161
2161
2165
2165
2165
2164
2164
2164
2165
2165
2165
2165
2157
2157
2157
2165
2165
2165
2163
2163
2163
2162
2162
2162
2162
2162
2162
2162
2165
2165
2165
2162
2162
2162
2162
2162
2162
2163
2163
2163
2164
2164
2164
2164
2166
2166
2166
2164
2164
2164
2162
2162
2162
2163
2163
2163
2160
2160
2160
2160
2165
2165
2165
2162
2162
2162
2162
2162
2162
2162
2162
2162
2164
2164
2164
2164
2158
2158
2158
2163
2163
2163
2162
2162
2162
2162
2162
2162
2161
2161
2161
2161
2160
2160
2160
2165
2165
2165
2163
2163
2163
2161
2161
2161
2161
2161
2161
2161
2161
2161
2161
2164
2164
2164
2164
2164
2164
2164
2164
2164
2163
2163
2163
2163
2161
2161
2161
2161
2161
2161
2163
2163
2163
2163
2163
2163
2163
2163
2163
2163
2164
2164
2164
2163
2163
2163
2163
2163
2163
2163
2163
2163
2163
2163
2163
2163
2162
2162
2162
2164
2164
2164
2161
2161
2161
2167
2167
2167
2161
2161
2161
2161
2163
2163
2163
2162
2162
2162
2163
2163
2163
2162
2162
2162
2164
2164
2164
2164
2160
2160
2160
2161
2161
2161
2167
2167
2167
2162
2162
2162
2164
2164
2164
2164
2164
2164
2164
2163
2163
2163
2160
2160
2160
2162
2162
2162
2166
2166
2166
2166
2162
2162
2162
2164
2164
2164
2164
2164
2164
2162
2162
2162
2165
2165
2165
2165
2163
2163
2163
2161
2161
2161
2163
2163
2163
2162
2162
2162
2157
2157
2157
2157
2158
2158
2158
2164
2164
2164
2162
2162
2162
2163
2163
2163
2161
2161
2161
2161
2162
2162
2162
2165
2165
2165
2163
2163
2163
2166
2166
2166
2165
2165
2165
2165
2164
2164
2164
2164
2164
2164
2163
2163
2163
2163
2163
2163
2161
2161
2161
2161
2162
2162
2162
2162
2162
2162
2163
2163
2163
2163
2163
2163
2163
2163
2163
2163
2162
2162
2162
2162
2162
2162
2163
2163
2163
2162
2162
2162
2164
2164
2164
2164
2164
2164
2164
2163
2163
2163
2163
2163
2163
2165
2165
2165
2163
2163
2163
2163
2163
2163
2163
2164
2164
2164
2161
2161
2161
2164
2164
2164
2161
2161
2161
2161
2162
2162
2162
2164
2164
2164
2159
2159
2159
2164
2164
2164
2163
2163
2163
2163
2165
2165
2165
2164
2164
2164
2159
2159
2159
2163
2163
2163
2161
2161
2161
2161
2161
2161
2161
2161
2161
2161
2167
2167
2167
2165
2165
2165
2162
2162
2162
2162
2165
2165
2165
2160
2160
2160
2160
2160
2160
2163
2163
2163
2163
2163
2163
2163
2162
2162
2162
2161
2161
2161
2161
2161
2161
2161
2161
2161
2162
2162
2162
2162
2162
2162
2162
2156
2156
2156
2161
2161
2161
2161
2161
2161
2163
2163
2163
2163
2162
2162
2162
2167
2167
2167
2161
2161
2161
2160
2160
2160
2162
2162
2162
2162
2161
2161
2161
2164
2164
2164
2163
2163
2163
2164
2164
2164
2161
2161
2161
2161
2164
2164
2164
2168
2168
2168
2161
2161
2161
2162
2162
2162
2161
2161
2161
2161
2163
2163
2163
2162
2162
2162
2161
2161
2161
2163
2163
2163
2162
2162
2162
2162
2163
2163
2163
2168
2168
2168
2165
2165
2165
2163
2163
2163
2164
2164
2164
2164
2160
2160
2160
2163
2163
2163
2164
2164
2164
2166
2166
2166
2162
2162
2162
2162
2164
2164
2164
2162
2162
2162
2166
2166
2166
2164
2164
2164
2162
2162
2162
2162
2161
2161
2161
2163
2163
2163
2158
2158
2158
2161
2161
2161
2163
2163
2163
2163
2161
2161
2161
2161
2161
2161
2163
2163
2163
2162
2162
2162
2165
2165
2165
2165
2165
2165
2165
2165
2165
2165
2163
2163
2163
2163
2163
2163
2164
2164
2164
2164
2162
2162
2162
2164
2164
2164
2164
2164
2164
2161
2161
2161
2167
2167
2167
2167
2163
2163
2163
2162
2162
2162
2163
2163
2163
2161
2161
2161
2164
2164
2164
2164
2163
2163
2163
2164
2164
2164
2160
2160
2160
2160
2160
2160
2162
2162
2162
2162
2162
2162
2162
2164
2164
2164
2162
2162
2162
2161
2161
2161
2162
2162
2162
2162
2160
2160
2160
2165
2165
2165
2167
2167
2167
2165
2165
2165
2162
2162
2162
2162
2161
2161
