{
    "e":{
        "path": "e/%s_%s_%s/ies.txt",
        "-":{
            "36":[2.03,2.06],
            "18":[0.956,0.956],
            "pos":"30"
        },
        "+":{
            "36":[-2.11,-2.11],
            "18":[-1.03,-1.03],
            "pos":"01"
        }
    },
    "d":{
        "path": "d/%s_%s_%s/ids.txt",
        "-":{
            "36":[2.09,2.09],
            "18":[0.981,0.978],
            "pos":"29"
        },
        "+":{
            "36":[-2.16,-2.16],
            "18":[-1.04,-1.05],
            "pos":"02"
        }
    },
    "c":{
        "path": "c/%s_%s_%s/",
        "-":{
            "36":[2.09,2.09],
            "18":[0.978,0.980],
            "pos":"27"
        },
        "+":{
            "36":[-2.15,-2.15],
            "18":[-1.04,-1.05],
            "pos":"04"
        }
    },
    "b":{
        "path": "b/%s_%s_%s/ibs.txt",
        "-":{
            "36":[2.08,2.07],
            "18":[0.974,0.975],
            "pos":"23"
        },
        "+":{
            "36":[-2.13,-2.13],
            "18":[-1.03,-1.03],
            "pos":"08"
        }
    },
    "a":{
        "path": "a/%s_%s_%s/ias.txt",
        "-":{
            "36":[2.07,2.08],
            "18":[0.965,0.959],
            "pos":"15"
        },
        "+":{
            "36":[-2.14,-2.13],
            "18":[-1.02,-1.02],
            "pos":"16"
        }
    }
}
