2161
2164
2164
2164
2162
2162
2162
2159
2159
2159
2161
2161
2161
2161
2160
2160
2160
2162
2162
2162
2160
2160
2160
2156
2156
2156
2162
2162
2162
2162
2159
2159
2159
2161
2161
2161
2165
2165
2165
2157
2157
2157
2158
2158
2158
2158
2162
2162
2162
2159
2159
2159
2157
2157
2157
2161
2161
2161
2152
2152
2152
2152
2162
2162
2162
2155
2155
2155
2161
2161
2161
2161
2161
2161
2161
2161
2161
2161
2161
2161
2161
2169
2169
2161
2161
2161
2161
2155
2155
2155
2162
2162
2162
2157
2157
2157
2157
2159
2159
2159
2159
2159
2159
2164
2164
2164
2163
2163
2163
2165
2165
2165
2165
2161
2161
2161
2162
2162
2162
2161
2161
2161
2161
2161
2161
2161
2161
2161
2161
2164
2164
2164
2161
2161
2161
2163
2163
2163
2158
2158
2158
2158
2158
2158
2158
2158
2158
2158
2163
2163
2163
2155
2155
2155
2161
2161
2161
2161
2161
2161
2161
2159
2159
2159
2156
2156
2156
2159
2159
2159
2156
2156
2156
2158
2158
2158
2158
2165
2165
2165
2159
2159
2159
2159
2159
2159
2160
2160
2160
2159
2159
2159
2159
2160
2160
2160
2164
2164
2164
2164
2164
2164
2160
2160
2160
2161
2161
2161
2161
2157
2157
2157
2164
2164
2164
2159
2159
2159
2160
2160
2160
2160
2160
2160
2160
2159
2159
2159
2164
2164
2164
2159
2159
2159
2161
2161
2161
2159
2159
2159
2159
2158
2158
2158
2161
2161
2161
2160
2160
2160
2158
2158
2158
2162
2162
2162
2162
2163
2163
2163
2162
2162
2162
2157
2157
2157
2160
2160
2160
2160
2160
2160
2160
2159
2159
2159
2159
2159
2159
2161
2161
2161
2161
2161
2161
2166
2166
2166
2166
2159
2159
2159
2161
2161
2161
2161
2161
2161
2160
2160
2160
2157
2157
2157
2157
2160
2160
2160
2159
2159
2159
2165
2165
2165
2157
2157
2157
2160
2160
2160
2160
2160
2160
2160
2163
2163
2163
2158
2158
2158
2159
2159
2159
2161
2161
2161
2161
2160
2160
2160
2161
2161
2161
2160
2160
2160
2162
2162
2162
2160
2160
2160
2160
2164
2164
2164
2167
2167
2167
2155
2155
2155
2163
2163
2163
2162
2162
2162
2162
2159
2159
2159
2158
2158
2158
2165
2165
2165
2162
2162
2162
2159
2159
2159
2159
2157
2157
2157
2161
2161
2161
2160
2160
2160
2163
2163
2163
2161
2161
2161
2161
2156
2156
2156
2162
2162
2162
2166
2166
2166
2169
2169
2169
2158
2158
2158
2158
2162
2162
2162
2161
2161
2161
2157
2157
2157
2160
2160
2160
2159
2159
2159
2159
2159
2159
2159
2160
2160
2160
2163
2163
2163
2161
2161
2161
2157
2157
2157
2157
2158
2158
2158
2161
2161
2161
2159
2159
2159
2158
2158
2158
2161
2161
2161
2161
2161
2161
2161
2161
2161
2161
2161
2161
2161
2169
2169
2169
2162
2162
2162
2162
2159
2159
2159
2159
2159
2159
2167
2167
2167
2162
2162
2162
2161
2161
2161
2161
2160
2160
2160
2162
2162
2162
2159
2159
2159
2156
2156
2156
2169
2169
2169
2169
2161
2161
2161
2163
2163
2163
2162
2162
2162
2153
2153
2153
2160
2160
2160
2160
2158
2158
2158
2160
2160
2160
2158
2158
2158
2162
2162
2162
2160
2160
2160
2160
2159
2159
2159
2160
2160
2160
2152
2152
2152
2159
2159
2159
2160
2160
2160
2160
2160
2160
2160
2159
2159
2159
2162
2162
2162
2162
2162
2162
2159
2159
2159
2159
2158
2158
2158
2160
2160
2160
2161
2161
2161
2161
2161
2161
2161
2161
2161
2161
2160
2160
2160
2157
2157
2157
2157
2157
2157
2161
2161
2161
2162
2162
2162
2162
2166
2166
2166
2158
2158
2158
2162
2162
2162
2159
2159
2159
2162
2162
2162
2162
2163
2163
2163
2161
2161
2161
2164
2164
2164
2160
2160
2160
2160
2160
2160
2160
2158
2158
2158
2159
2159
2159
2157
2157
2157
2163
2163
2163
2161
2161
2161
2161
2159
2159
2159
2163
2163
2163
2163
2163
2163
2162
2162
2162
2161
2161
2161
2161
2160
2160
2160
2168
2168
2168
2159
2159
2159
2163
2163
2163
2157
2157
2157
2157
2169
2169
2169
2157
2157
2157
2159
2159
2159
2162
2162
2162
2165
2165
2165
2165
2161
2161
2161
2159
2159
2159
2162
2162
2162
2164
2164
2164
2162
2162
2162
2162
2158
2158
2158
2164
2164
2164
2162
2162
2162
2164
2164
2164
2161
2161
2161
2161
2161
2161
2161
2158
2158
2158
2164
2164
2164
2165
2165
2165
2162
2162
2162
2162
2167
2167
2167
2158
2158
2158
2159
2159
2159
2164
2164
2164
2164
2164
2164
2164
2159
2159
2159
2164
2164
2164
2163
2163
2163
2166
2166
2166
2155
2155
2155
2155
2161
2161
2161
2161
2161
2161
2161
2161
2161
2163
2163
2163
2166
2166
2166
2166
2162
2162
2162
2161
2161
2161
2160
2160
2160
2161
2161
2161
2160
2160
2160
2160
2162
2162
2162
2162
2162
2162
2162
2162
2162
2160
2160
2160
2159
2159
2159
2159
2161
2161
2161
2168
2168
2168
2164
2164
2164
2157
2157
2157
2168
2168
2168
2168
2161
2161
2161
2161
2161
2161
2160
2160
2160
2159
2159
2159
2158
2158
2158
2158
2159
2159
2159
2163
2163
2163
2152
2152
2152
2163
2163
2163
2161
2161
2161
2161
2159
2159
2159
2155
2155
2155
2161
2161
2161
2161
2161
2161
2170
2170
2170
2170
2161
2161
2161
2157
2157
2157
2161
2161
2161
2166
2166
2166
2158
2158
2158
2158
2156
2156
2156
2160
2160
2160
2162
2162
2162
2159
2159
2159
2162
2162
2162
2162
2161
2161
2161
2162
2162
2162
2161
2161
2161
2163
2163
2163
2161
2161
2161
2161
2161
2161
2161
2162
2162
2162
2159
2159
2159
2161
2161
2161
2161
2161
2161
2161
2157
2157
2157
2161
2161
2161
2163
2163
2163
2155
2155
2155
2163
2163
2163
2163
2160
2160
2160
2167
2167
2167
2159
2159
2159
2159
2159
2159
2158
2158
2158
2158
2159
2159
2159
2168
2168
2168
2161
