%!PS-Adobe-3.0 EPSF-3.0
%%Title: curvas_3.eps
%%Creator: Matplotlib v3.5.2, https://matplotlib.org/
%%CreationDate: Sat Sep  3 21:01:05 2022
%%Orientation: portrait
%%BoundingBox: -1 92 614 700
%%HiResBoundingBox: -1.668750 92.465625 613.668750 699.534375
%%EndComments
%%BeginProlog
/mpldict 11 dict def
mpldict begin
/_d { bind def } bind def
/m { moveto } _d
/l { lineto } _d
/r { rlineto } _d
/c { curveto } _d
/cl { closepath } _d
/ce { closepath eofill } _d
/box {
      m
      1 index 0 r
      0 exch r
      neg 0 r
      cl
    } _d
/clipbox {
      box
      clip
      newpath
    } _d
/sc { setcachedevice } _d
%!PS-Adobe-3.0 Resource-Font
%%Creator: Converted from TrueType to Type 3 by Matplotlib.
10 dict begin
/FontName /DejaVuSans def
/PaintType 0 def
/FontMatrix [0.00048828125 0 0 0.00048828125 0 0] def
/FontBBox [-2090 -948 3673 2524] def
/FontType 3 def
/Encoding [/minus /space /period /zero /one /two /three /five /A /B /C /D /E /F /a /c /e /i /l /n /o /p /r /s /t /u] def
/CharStrings 27 dict dup begin
/.notdef 0 def
/minus{1716 0 217 557 1499 727 sc
217 727 m
1499 727 l
1499 557 l
217 557 l
217 727 l

ce} _d
/space{651 0 0 0 0 0 sc
ce} _d
/period{651 0 219 0 430 254 sc
219 254 m
430 254 l
430 0 l
219 0 l
219 254 l

ce} _d
/zero{1303 0 135 -29 1167 1520 sc
651 1360 m
547 1360 469 1309 416 1206 c
364 1104 338 950 338 745 c
338 540 364 387 416 284 c
469 182 547 131 651 131 c
756 131 834 182 886 284 c
939 387 965 540 965 745 c
965 950 939 1104 886 1206 c
834 1309 756 1360 651 1360 c

651 1520 m
818 1520 946 1454 1034 1321 c
1123 1189 1167 997 1167 745 c
1167 494 1123 302 1034 169 c
946 37 818 -29 651 -29 c
484 -29 356 37 267 169 c
179 302 135 494 135 745 c
135 997 179 1189 267 1321 c
356 1454 484 1520 651 1520 c

ce} _d
/one{1303 0 225 0 1114 1493 sc
254 170 m
584 170 l
584 1309 l
225 1237 l
225 1421 l
582 1493 l
784 1493 l
784 170 l
1114 170 l
1114 0 l
254 0 l
254 170 l

ce} _d
/two{1303 0 150 0 1098 1520 sc
393 170 m
1098 170 l
1098 0 l
150 0 l
150 170 l
227 249 331 356 463 489 c
596 623 679 709 713 748 c
778 821 823 882 848 932 c
874 983 887 1032 887 1081 c
887 1160 859 1225 803 1275 c
748 1325 675 1350 586 1350 c
523 1350 456 1339 385 1317 c
315 1295 240 1262 160 1217 c
160 1421 l
241 1454 317 1478 388 1495 c
459 1512 523 1520 582 1520 c
737 1520 860 1481 952 1404 c
1044 1327 1090 1223 1090 1094 c
1090 1033 1078 974 1055 919 c
1032 864 991 800 930 725 c
913 706 860 650 771 557 c
682 465 556 336 393 170 c

ce} _d
/three{1303 0 156 -29 1139 1520 sc
831 805 m
928 784 1003 741 1057 676 c
1112 611 1139 530 1139 434 c
1139 287 1088 173 987 92 c
886 11 742 -29 555 -29 c
492 -29 428 -23 361 -10 c
295 2 227 20 156 45 c
156 240 l
212 207 273 183 340 166 c
407 149 476 141 549 141 c
676 141 772 166 838 216 c
905 266 938 339 938 434 c
938 522 907 591 845 640 c
784 690 698 715 588 715 c
414 715 l
414 881 l
596 881 l
695 881 771 901 824 940 c
877 980 903 1037 903 1112 c
903 1189 876 1247 821 1288 c
767 1329 689 1350 588 1350 c
533 1350 473 1344 410 1332 c
347 1320 277 1301 201 1276 c
201 1456 l
278 1477 349 1493 416 1504 c
483 1515 547 1520 606 1520 c
759 1520 881 1485 970 1415 c
1059 1346 1104 1252 1104 1133 c
1104 1050 1080 980 1033 923 c
986 866 918 827 831 805 c

ce} _d
/five{1303 0 158 -29 1124 1493 sc
221 1493 m
1014 1493 l
1014 1323 l
406 1323 l
406 957 l
435 967 465 974 494 979 c
523 984 553 987 582 987 c
749 987 881 941 978 850 c
1075 759 1124 635 1124 479 c
1124 318 1074 193 974 104 c
874 15 733 -29 551 -29 c
488 -29 424 -24 359 -13 c
294 -2 227 14 158 35 c
158 238 l
218 205 280 181 344 165 c
408 149 476 141 547 141 c
662 141 754 171 821 232 c
888 293 922 375 922 479 c
922 583 888 665 821 726 c
754 787 662 817 547 817 c
493 817 439 811 385 799 c
332 787 277 768 221 743 c
221 1493 l

ce} _d
/A{1401 0 16 0 1384 1493 sc
700 1294 m
426 551 l
975 551 l
700 1294 l

586 1493 m
815 1493 l
1384 0 l
1174 0 l
1038 383 l
365 383 l
229 0 l
16 0 l
586 1493 l

ce} _d
/B{1405 0 201 0 1260 1493 sc
403 713 m
403 166 l
727 166 l
836 166 916 188 968 233 c
1021 278 1047 347 1047 440 c
1047 533 1021 602 968 646 c
916 691 836 713 727 713 c
403 713 l

403 1327 m
403 877 l
702 877 l
801 877 874 895 922 932 c
971 969 995 1026 995 1102 c
995 1177 971 1234 922 1271 c
874 1308 801 1327 702 1327 c
403 1327 l

201 1493 m
717 1493 l
871 1493 990 1461 1073 1397 c
1156 1333 1198 1242 1198 1124 c
1198 1033 1177 960 1134 906 c
1091 852 1029 818 946 805 c
1045 784 1122 739 1177 671 c
1232 604 1260 519 1260 418 c
1260 285 1215 182 1124 109 c
1033 36 904 0 737 0 c
201 0 l
201 1493 l

ce} _d
/C{1430 0 115 -29 1319 1520 sc
1319 1378 m
1319 1165 l
1251 1228 1178 1276 1101 1307 c
1024 1338 943 1354 856 1354 c
685 1354 555 1302 464 1197 c
373 1093 328 942 328 745 c
328 548 373 398 464 293 c
555 189 685 137 856 137 c
943 137 1024 153 1101 184 c
1178 215 1251 263 1319 326 c
1319 115 l
1248 67 1173 31 1094 7 c
1015 -17 932 -29 844 -29 c
618 -29 440 40 310 178 c
180 317 115 506 115 745 c
115 985 180 1174 310 1312 c
440 1451 618 1520 844 1520 c
933 1520 1017 1508 1096 1484 c
1175 1461 1250 1425 1319 1378 c

ce} _d
/D{1577 0 201 0 1456 1493 sc
403 1327 m
403 166 l
647 166 l
853 166 1004 213 1099 306 c
1195 399 1243 547 1243 748 c
1243 948 1195 1094 1099 1187 c
1004 1280 853 1327 647 1327 c
403 1327 l

201 1493 m
616 1493 l
905 1493 1118 1433 1253 1312 c
1388 1192 1456 1004 1456 748 c
1456 491 1388 302 1252 181 c
1116 60 904 0 616 0 c
201 0 l
201 1493 l

ce} _d
/E{1294 0 201 0 1163 1493 sc
201 1493 m
1145 1493 l
1145 1323 l
403 1323 l
403 881 l
1114 881 l
1114 711 l
403 711 l
403 170 l
1163 170 l
1163 0 l
201 0 l
201 1493 l

ce} _d
/F{1178 0 201 0 1059 1493 sc
201 1493 m
1059 1493 l
1059 1323 l
403 1323 l
403 883 l
995 883 l
995 713 l
403 713 l
403 0 l
201 0 l
201 1493 l

ce} _d
/a{1255 0 123 -29 1069 1147 sc
702 563 m
553 563 450 546 393 512 c
336 478 307 420 307 338 c
307 273 328 221 371 182 c
414 144 473 125 547 125 c
649 125 731 161 792 233 c
854 306 885 402 885 522 c
885 563 l
702 563 l

1069 639 m
1069 0 l
885 0 l
885 170 l
843 102 791 52 728 19 c
665 -13 589 -29 498 -29 c
383 -29 292 3 224 67 c
157 132 123 218 123 326 c
123 452 165 547 249 611 c
334 675 460 707 627 707 c
885 707 l
885 725 l
885 810 857 875 801 921 c
746 968 668 991 567 991 c
503 991 441 983 380 968 c
319 953 261 930 205 899 c
205 1069 l
272 1095 338 1114 401 1127 c
464 1140 526 1147 586 1147 c
748 1147 869 1105 949 1021 c
1029 937 1069 810 1069 639 c

ce} _d
/c{1126 0 113 -29 999 1147 sc
999 1077 m
999 905 l
947 934 895 955 842 969 c
790 984 737 991 684 991 c
565 991 472 953 406 877 c
340 802 307 696 307 559 c
307 422 340 316 406 240 c
472 165 565 127 684 127 c
737 127 790 134 842 148 c
895 163 947 184 999 213 c
999 43 l
948 19 894 1 839 -11 c
784 -23 726 -29 664 -29 c
495 -29 361 24 262 130 c
163 236 113 379 113 559 c
113 742 163 885 263 990 c
364 1095 501 1147 676 1147 c
733 1147 788 1141 842 1129 c
896 1118 948 1100 999 1077 c

ce} _d
/e{1260 0 113 -29 1151 1147 sc
1151 606 m
1151 516 l
305 516 l
313 389 351 293 419 226 c
488 160 583 127 705 127 c
776 127 844 136 910 153 c
977 170 1043 196 1108 231 c
1108 57 l
1042 29 974 8 905 -7 c
836 -22 765 -29 694 -29 c
515 -29 374 23 269 127 c
165 231 113 372 113 549 c
113 732 162 878 261 985 c
360 1093 494 1147 662 1147 c
813 1147 932 1098 1019 1001 c
1107 904 1151 773 1151 606 c

967 660 m
966 761 937 841 882 901 c
827 961 755 991 664 991 c
561 991 479 962 417 904 c
356 846 320 764 311 659 c
967 660 l

ce} _d
/i{569 0 193 0 377 1556 sc
193 1120 m
377 1120 l
377 0 l
193 0 l
193 1120 l

193 1556 m
377 1556 l
377 1323 l
193 1323 l
193 1556 l

ce} _d
/l{569 0 193 0 377 1556 sc
193 1556 m
377 1556 l
377 0 l
193 0 l
193 1556 l

ce} _d
/n{1298 0 186 0 1124 1147 sc
1124 676 m
1124 0 l
940 0 l
940 670 l
940 776 919 855 878 908 c
837 961 775 987 692 987 c
593 987 514 955 457 892 c
400 829 371 742 371 633 c
371 0 l
186 0 l
186 1120 l
371 1120 l
371 946 l
415 1013 467 1064 526 1097 c
586 1130 655 1147 733 1147 c
862 1147 959 1107 1025 1027 c
1091 948 1124 831 1124 676 c

ce} _d
/o{1253 0 113 -29 1141 1147 sc
627 991 m
528 991 450 952 393 875 c
336 798 307 693 307 559 c
307 425 335 319 392 242 c
449 165 528 127 627 127 c
725 127 803 166 860 243 c
917 320 946 426 946 559 c
946 692 917 797 860 874 c
803 952 725 991 627 991 c

627 1147 m
787 1147 913 1095 1004 991 c
1095 887 1141 743 1141 559 c
1141 376 1095 232 1004 127 c
913 23 787 -29 627 -29 c
466 -29 340 23 249 127 c
158 232 113 376 113 559 c
113 743 158 887 249 991 c
340 1095 466 1147 627 1147 c

ce} _d
/p{1300 0 186 -426 1188 1147 sc
371 168 m
371 -426 l
186 -426 l
186 1120 l
371 1120 l
371 950 l
410 1017 458 1066 517 1098 c
576 1131 647 1147 729 1147 c
865 1147 975 1093 1060 985 c
1145 877 1188 735 1188 559 c
1188 383 1145 241 1060 133 c
975 25 865 -29 729 -29 c
647 -29 576 -13 517 19 c
458 52 410 101 371 168 c

997 559 m
997 694 969 800 913 877 c
858 954 781 993 684 993 c
587 993 510 954 454 877 c
399 800 371 694 371 559 c
371 424 399 317 454 240 c
510 163 587 125 684 125 c
781 125 858 163 913 240 c
969 317 997 424 997 559 c

ce} _d
/r{842 0 186 0 842 1147 sc
842 948 m
821 960 799 969 774 974 c
750 980 723 983 694 983 c
590 983 510 949 454 881 c
399 814 371 717 371 590 c
371 0 l
186 0 l
186 1120 l
371 1120 l
371 946 l
410 1014 460 1064 522 1097 c
584 1130 659 1147 748 1147 c
761 1147 775 1146 790 1144 c
805 1143 822 1140 841 1137 c
842 948 l

ce} _d
/s{1067 0 111 -29 967 1147 sc
907 1087 m
907 913 l
855 940 801 960 745 973 c
689 986 631 993 571 993 c
480 993 411 979 365 951 c
320 923 297 881 297 825 c
297 782 313 749 346 724 c
379 700 444 677 543 655 c
606 641 l
737 613 829 573 884 522 c
939 471 967 400 967 309 c
967 205 926 123 843 62 c
761 1 648 -29 504 -29 c
444 -29 381 -23 316 -11 c
251 0 183 18 111 41 c
111 231 l
179 196 246 169 312 151 c
378 134 443 125 508 125 c
595 125 661 140 708 169 c
755 199 778 241 778 295 c
778 345 761 383 727 410 c
694 437 620 462 506 487 c
442 502 l
328 526 246 563 195 612 c
144 662 119 730 119 817 c
119 922 156 1004 231 1061 c
306 1118 412 1147 549 1147 c
617 1147 681 1142 741 1132 c
801 1122 856 1107 907 1087 c

ce} _d
/t{803 0 55 0 754 1438 sc
375 1438 m
375 1120 l
754 1120 l
754 977 l
375 977 l
375 369 l
375 278 387 219 412 193 c
437 167 488 154 565 154 c
754 154 l
754 0 l
565 0 l
423 0 325 26 271 79 c
217 132 190 229 190 369 c
190 977 l
55 977 l
55 1120 l
190 1120 l
190 1438 l
375 1438 l

ce} _d
/u{1298 0 174 -29 1112 1147 sc
174 442 m
174 1120 l
358 1120 l
358 449 l
358 343 379 263 420 210 c
461 157 523 131 606 131 c
705 131 784 163 841 226 c
899 289 928 376 928 485 c
928 1120 l
1112 1120 l
1112 0 l
928 0 l
928 172 l
883 104 831 53 772 20 c
713 -13 645 -29 567 -29 c
438 -29 341 11 274 91 c
207 171 174 288 174 442 c

637 1147 m
637 1147 l

ce} _d
end readonly def

/BuildGlyph {
 exch begin
 CharStrings exch
 2 copy known not {pop /.notdef} if
 true 3 1 roll get exec
 end
} _d

/BuildChar {
 1 index /Encoding get exch get
 1 index /BuildGlyph get exec
} _d

FontName currentdict end definefont pop
end
%%EndProlog
mpldict begin
-1.669 92.466 translate
615.337 607.069 0 0 clipbox
gsave
0 0 m
615.3375 0 l
615.3375 607.06875 l
0 607.06875 l
cl
1.000 setgray
fill
grestore
gsave
50.1375 421.684926 m
303.773864 421.684926 l
303.773864 584.74375 l
50.1375 584.74375 l
cl
1.000 setgray
fill
grestore
0.800 setlinewidth
1 setlinejoin
0 setlinecap
[] 0 setdash
0.000 setgray
gsave
/o {
gsave
newpath
translate
0.8 setlinewidth
1 setlinejoin

0 setlinecap

0 0 m
0 -3.5 l

gsave
0.000 setgray
fill
grestore
stroke
grestore
} bind def
66.1006 421.685 o
grestore
gsave
/o {
gsave
newpath
translate
0.8 setlinewidth
1 setlinejoin

0 setlinecap

0 0 m
0 -3.5 l

gsave
0.000 setgray
fill
grestore
stroke
grestore
} bind def
103.052 421.685 o
grestore
gsave
/o {
gsave
newpath
translate
0.8 setlinewidth
1 setlinejoin

0 setlinecap

0 0 m
0 -3.5 l

gsave
0.000 setgray
fill
grestore
stroke
grestore
} bind def
140.004 421.685 o
grestore
gsave
/o {
gsave
newpath
translate
0.8 setlinewidth
1 setlinejoin

0 setlinecap

0 0 m
0 -3.5 l

gsave
0.000 setgray
fill
grestore
stroke
grestore
} bind def
176.956 421.685 o
grestore
gsave
/o {
gsave
newpath
translate
0.8 setlinewidth
1 setlinejoin

0 setlinecap

0 0 m
0 -3.5 l

gsave
0.000 setgray
fill
grestore
stroke
grestore
} bind def
213.907 421.685 o
grestore
gsave
/o {
gsave
newpath
translate
0.8 setlinewidth
1 setlinejoin

0 setlinecap

0 0 m
0 -3.5 l

gsave
0.000 setgray
fill
grestore
stroke
grestore
} bind def
250.859 421.685 o
grestore
gsave
/o {
gsave
newpath
translate
0.8 setlinewidth
1 setlinejoin

0 setlinecap

0 0 m
0 -3.5 l

gsave
0.000 setgray
fill
grestore
stroke
grestore
} bind def
287.811 421.685 o
grestore
/DejaVuSans 10.000 selectfont
gsave

153.674432 406.591176 translate
0.000000 rotate
0.000000 0 m /C glyphshow
6.982422 0 m /o glyphshow
13.100586 0 m /r glyphshow
17.086914 0 m /r glyphshow
21.198242 0 m /i glyphshow
23.976562 0 m /e glyphshow
30.128906 0 m /n glyphshow
36.466797 0 m /t glyphshow
40.387695 0 m /e glyphshow
grestore
gsave
/o {
gsave
newpath
translate
0.8 setlinewidth
1 setlinejoin

0 setlinecap

-0 0 m
-3.5 0 l

gsave
0.000 setgray
fill
grestore
stroke
grestore
} bind def
50.1375 428.566 o
grestore
gsave

20.871875 424.768929 translate
0.000000 rotate
0.000000 0 m /zero glyphshow
6.362305 0 m /period glyphshow
9.541016 0 m /zero glyphshow
15.903320 0 m /zero glyphshow
grestore
gsave
/o {
gsave
newpath
translate
0.8 setlinewidth
1 setlinejoin

0 setlinecap

-0 0 m
-3.5 0 l

gsave
0.000 setgray
fill
grestore
stroke
grestore
} bind def
50.1375 453.696 o
grestore
gsave

20.871875 449.899472 translate
0.000000 rotate
0.000000 0 m /zero glyphshow
6.362305 0 m /period glyphshow
9.541016 0 m /zero glyphshow
15.903320 0 m /five glyphshow
grestore
gsave
/o {
gsave
newpath
translate
0.8 setlinewidth
1 setlinejoin

0 setlinecap

-0 0 m
-3.5 0 l

gsave
0.000 setgray
fill
grestore
stroke
grestore
} bind def
50.1375 478.827 o
grestore
gsave

20.871875 475.030014 translate
0.000000 rotate
0.000000 0 m /zero glyphshow
6.362305 0 m /period glyphshow
9.541016 0 m /one glyphshow
15.903320 0 m /zero glyphshow
grestore
gsave
/o {
gsave
newpath
translate
0.8 setlinewidth
1 setlinejoin

0 setlinecap

-0 0 m
-3.5 0 l

gsave
0.000 setgray
fill
grestore
stroke
grestore
} bind def
50.1375 503.957 o
grestore
gsave

20.871875 500.160557 translate
0.000000 rotate
0.000000 0 m /zero glyphshow
6.362305 0 m /period glyphshow
9.541016 0 m /one glyphshow
15.903320 0 m /five glyphshow
grestore
gsave
/o {
gsave
newpath
translate
0.8 setlinewidth
1 setlinejoin

0 setlinecap

-0 0 m
-3.5 0 l

gsave
0.000 setgray
fill
grestore
stroke
grestore
} bind def
50.1375 529.088 o
grestore
gsave

20.871875 525.291099 translate
0.000000 rotate
0.000000 0 m /zero glyphshow
6.362305 0 m /period glyphshow
9.541016 0 m /two glyphshow
15.903320 0 m /zero glyphshow
grestore
gsave
/o {
gsave
newpath
translate
0.8 setlinewidth
1 setlinejoin

0 setlinecap

-0 0 m
-3.5 0 l

gsave
0.000 setgray
fill
grestore
stroke
grestore
} bind def
50.1375 554.219 o
grestore
gsave

20.871875 550.421642 translate
0.000000 rotate
0.000000 0 m /zero glyphshow
6.362305 0 m /period glyphshow
9.541016 0 m /two glyphshow
15.903320 0 m /five glyphshow
grestore
gsave
/o {
gsave
newpath
translate
0.8 setlinewidth
1 setlinejoin

0 setlinecap

-0 0 m
-3.5 0 l

gsave
0.000 setgray
fill
grestore
stroke
grestore
} bind def
50.1375 579.349 o
grestore
gsave

20.871875 575.552184 translate
0.000000 rotate
0.000000 0 m /zero glyphshow
6.362305 0 m /period glyphshow
9.541016 0 m /three glyphshow
15.903320 0 m /zero glyphshow
grestore
gsave

14.793750 491.019026 translate
90.000000 rotate
0.000000 0 m /E glyphshow
6.318359 0 m /r glyphshow
10.304688 0 m /r glyphshow
14.166016 0 m /o glyphshow
20.284180 0 m /r glyphshow
grestore
1.500 setlinewidth
2 setlinecap
0.122 0.467 0.706 setrgbcolor
gsave
253.636 163.059 50.138 421.685 clipbox
290.397354 458.580467 m
235.524102 456.330002 l
118.387262 477.987619 l
63.51401 471.237426 l
stroke
grestore
1.000 0.498 0.055 setrgbcolor
gsave
253.636 163.059 50.138 421.685 clipbox
290.397354 447.901083 m
235.524102 448.68574 l
118.387262 433.337084 l
63.51401 429.096691 l
stroke
grestore
0.800 setlinewidth
0 setlinejoin
0.000 setgray
gsave
50.1375 421.684926 m
50.1375 584.74375 l
stroke
grestore
gsave
303.773864 421.684926 m
303.773864 584.74375 l
stroke
grestore
gsave
50.1375 421.684926 m
303.773864 421.684926 l
stroke
grestore
gsave
50.1375 584.74375 m
303.773864 584.74375 l
stroke
grestore
/DejaVuSans 12.000 selectfont
gsave

157.557244 590.743750 translate
0.000000 rotate
0.000000 0 m /F glyphshow
5.777344 0 m /a glyphshow
13.130859 0 m /s glyphshow
19.382812 0 m /e glyphshow
26.765625 0 m /space glyphshow
30.580078 0 m /A glyphshow
grestore
1.000 setlinewidth
0 setlinecap
0.800 setgray
gsave
57.1375 547.4 m
139.575 547.4 l
140.908333 547.4 141.575 548.066667 141.575 549.4 c
141.575 577.74375 l
141.575 579.077083 140.908333 579.74375 139.575 579.74375 c
57.1375 579.74375 l
55.804167 579.74375 55.1375 579.077083 55.1375 577.74375 c
55.1375 549.4 l
55.1375 548.066667 55.804167 547.4 57.1375 547.4 c
cl
gsave
1.000 setgray
fill
grestore
stroke
grestore
1.500 setlinewidth
1 setlinejoin
2 setlinecap
0.122 0.467 0.706 setrgbcolor
gsave
59.1375 571.65 m
69.1375 571.65 l
79.1375 571.65 l
stroke
grestore
0.000 setgray
/DejaVuSans 10.000 selectfont
gsave

87.137500 568.150000 translate
0.000000 rotate
0.000000 0 m /i glyphshow
2.778320 0 m /n glyphshow
9.116211 0 m /i glyphshow
11.894531 0 m /c glyphshow
17.392578 0 m /i glyphshow
20.170898 0 m /a glyphshow
26.298828 0 m /l glyphshow
grestore
1.000 0.498 0.055 setrgbcolor
gsave
59.1375 556.978125 m
69.1375 556.978125 l
79.1375 556.978125 l
stroke
grestore
0.000 setgray
gsave

87.137500 553.478125 translate
0.000000 rotate
0.000000 0 m /p glyphshow
6.347656 0 m /r glyphshow
10.208984 0 m /o glyphshow
16.327148 0 m /p glyphshow
22.674805 0 m /u glyphshow
29.012695 0 m /e glyphshow
35.165039 0 m /s glyphshow
40.375000 0 m /t glyphshow
44.295898 0 m /a glyphshow
grestore
gsave
354.501136 421.684926 m
608.1375 421.684926 l
608.1375 584.74375 l
354.501136 584.74375 l
cl
1.000 setgray
fill
grestore
0.800 setlinewidth
0 setlinecap
gsave
/o {
gsave
newpath
translate
0.8 setlinewidth
1 setlinejoin

0 setlinecap

0 0 m
0 -3.5 l

gsave
0.000 setgray
fill
grestore
stroke
grestore
} bind def
370.464 421.685 o
grestore
gsave
/o {
gsave
newpath
translate
0.8 setlinewidth
1 setlinejoin

0 setlinecap

0 0 m
0 -3.5 l

gsave
0.000 setgray
fill
grestore
stroke
grestore
} bind def
407.416 421.685 o
grestore
gsave
/o {
gsave
newpath
translate
0.8 setlinewidth
1 setlinejoin

0 setlinecap

0 0 m
0 -3.5 l

gsave
0.000 setgray
fill
grestore
stroke
grestore
} bind def
444.368 421.685 o
grestore
gsave
/o {
gsave
newpath
translate
0.8 setlinewidth
1 setlinejoin

0 setlinecap

0 0 m
0 -3.5 l

gsave
0.000 setgray
fill
grestore
stroke
grestore
} bind def
481.319 421.685 o
grestore
gsave
/o {
gsave
newpath
translate
0.8 setlinewidth
1 setlinejoin

0 setlinecap

0 0 m
0 -3.5 l

gsave
0.000 setgray
fill
grestore
stroke
grestore
} bind def
518.271 421.685 o
grestore
gsave
/o {
gsave
newpath
translate
0.8 setlinewidth
1 setlinejoin

0 setlinecap

0 0 m
0 -3.5 l

gsave
0.000 setgray
fill
grestore
stroke
grestore
} bind def
555.223 421.685 o
grestore
gsave
/o {
gsave
newpath
translate
0.8 setlinewidth
1 setlinejoin

0 setlinecap

0 0 m
0 -3.5 l

gsave
0.000 setgray
fill
grestore
stroke
grestore
} bind def
592.174 421.685 o
grestore
gsave

458.038068 406.591176 translate
0.000000 rotate
0.000000 0 m /C glyphshow
6.982422 0 m /o glyphshow
13.100586 0 m /r glyphshow
17.086914 0 m /r glyphshow
21.198242 0 m /i glyphshow
23.976562 0 m /e glyphshow
30.128906 0 m /n glyphshow
36.466797 0 m /t glyphshow
40.387695 0 m /e glyphshow
grestore
gsave
/o {
gsave
newpath
translate
0.8 setlinewidth
1 setlinejoin

0 setlinecap

-0 0 m
-3.5 0 l

gsave
0.000 setgray
fill
grestore
stroke
grestore
} bind def
354.501 428.566 o
grestore
gsave
/o {
gsave
newpath
translate
0.8 setlinewidth
1 setlinejoin

0 setlinecap

-0 0 m
-3.5 0 l

gsave
0.000 setgray
fill
grestore
stroke
grestore
} bind def
354.501 453.696 o
grestore
gsave
/o {
gsave
newpath
translate
0.8 setlinewidth
1 setlinejoin

0 setlinecap

-0 0 m
-3.5 0 l

gsave
0.000 setgray
fill
grestore
stroke
grestore
} bind def
354.501 478.827 o
grestore
gsave
/o {
gsave
newpath
translate
0.8 setlinewidth
1 setlinejoin

0 setlinecap

-0 0 m
-3.5 0 l

gsave
0.000 setgray
fill
grestore
stroke
grestore
} bind def
354.501 503.957 o
grestore
gsave
/o {
gsave
newpath
translate
0.8 setlinewidth
1 setlinejoin

0 setlinecap

-0 0 m
-3.5 0 l

gsave
0.000 setgray
fill
grestore
stroke
grestore
} bind def
354.501 529.088 o
grestore
gsave
/o {
gsave
newpath
translate
0.8 setlinewidth
1 setlinejoin

0 setlinecap

-0 0 m
-3.5 0 l

gsave
0.000 setgray
fill
grestore
stroke
grestore
} bind def
354.501 554.219 o
grestore
gsave
/o {
gsave
newpath
translate
0.8 setlinewidth
1 setlinejoin

0 setlinecap

-0 0 m
-3.5 0 l

gsave
0.000 setgray
fill
grestore
stroke
grestore
} bind def
354.501 579.349 o
grestore
gsave

344.923011 491.019026 translate
90.000000 rotate
0.000000 0 m /E glyphshow
6.318359 0 m /r glyphshow
10.304688 0 m /r glyphshow
14.166016 0 m /o glyphshow
20.284180 0 m /r glyphshow
grestore
1.500 setlinewidth
2 setlinecap
0.122 0.467 0.706 setrgbcolor
gsave
253.636 163.059 354.501 421.685 clipbox
596.239058 437.335479 m
541.070192 432.549088 l
421.568444 449.442015 l
366.399579 433.856326 l
stroke
grestore
1.000 0.498 0.055 setrgbcolor
gsave
253.636 163.059 354.501 421.685 clipbox
596.239058 434.920814 m
541.070192 447.412036 l
421.568444 435.183917 l
366.399579 437.27369 l
stroke
grestore
0.800 setlinewidth
0 setlinejoin
0.000 setgray
gsave
354.501136 421.684926 m
354.501136 584.74375 l
stroke
grestore
gsave
608.1375 421.684926 m
608.1375 584.74375 l
stroke
grestore
gsave
354.501136 421.684926 m
608.1375 421.684926 l
stroke
grestore
gsave
354.501136 584.74375 m
608.1375 584.74375 l
stroke
grestore
/DejaVuSans 12.000 selectfont
gsave

461.905256 590.743750 translate
0.000000 rotate
0.000000 0 m /F glyphshow
5.777344 0 m /a glyphshow
13.130859 0 m /s glyphshow
19.382812 0 m /e glyphshow
26.765625 0 m /space glyphshow
30.580078 0 m /B glyphshow
grestore
1.000 setlinewidth
0 setlinecap
0.800 setgray
gsave
361.501136 547.4 m
443.938636 547.4 l
445.27197 547.4 445.938636 548.066667 445.938636 549.4 c
445.938636 577.74375 l
445.938636 579.077083 445.27197 579.74375 443.938636 579.74375 c
361.501136 579.74375 l
360.167803 579.74375 359.501136 579.077083 359.501136 577.74375 c
359.501136 549.4 l
359.501136 548.066667 360.167803 547.4 361.501136 547.4 c
cl
gsave
1.000 setgray
fill
grestore
stroke
grestore
1.500 setlinewidth
1 setlinejoin
2 setlinecap
0.122 0.467 0.706 setrgbcolor
gsave
363.501136 571.65 m
373.501136 571.65 l
383.501136 571.65 l
stroke
grestore
0.000 setgray
/DejaVuSans 10.000 selectfont
gsave

391.501136 568.150000 translate
0.000000 rotate
0.000000 0 m /i glyphshow
2.778320 0 m /n glyphshow
9.116211 0 m /i glyphshow
11.894531 0 m /c glyphshow
17.392578 0 m /i glyphshow
20.170898 0 m /a glyphshow
26.298828 0 m /l glyphshow
grestore
1.000 0.498 0.055 setrgbcolor
gsave
363.501136 556.978125 m
373.501136 556.978125 l
383.501136 556.978125 l
stroke
grestore
0.000 setgray
gsave

391.501136 553.478125 translate
0.000000 rotate
0.000000 0 m /p glyphshow
6.347656 0 m /r glyphshow
10.208984 0 m /o glyphshow
16.327148 0 m /p glyphshow
22.674805 0 m /u glyphshow
29.012695 0 m /e glyphshow
35.165039 0 m /s glyphshow
40.375000 0 m /t glyphshow
44.295898 0 m /a glyphshow
grestore
gsave
50.1375 226.014338 m
303.773864 226.014338 l
303.773864 389.073162 l
50.1375 389.073162 l
cl
1.000 setgray
fill
grestore
0.800 setlinewidth
0 setlinecap
gsave
/o {
gsave
newpath
translate
0.8 setlinewidth
1 setlinejoin

0 setlinecap

0 0 m
0 -3.5 l

gsave
0.000 setgray
fill
grestore
stroke
grestore
} bind def
66.1006 226.014 o
grestore
gsave
/o {
gsave
newpath
translate
0.8 setlinewidth
1 setlinejoin

0 setlinecap

0 0 m
0 -3.5 l

gsave
0.000 setgray
fill
grestore
stroke
grestore
} bind def
103.052 226.014 o
grestore
gsave
/o {
gsave
newpath
translate
0.8 setlinewidth
1 setlinejoin

0 setlinecap

0 0 m
0 -3.5 l

gsave
0.000 setgray
fill
grestore
stroke
grestore
} bind def
140.004 226.014 o
grestore
gsave
/o {
gsave
newpath
translate
0.8 setlinewidth
1 setlinejoin

0 setlinecap

0 0 m
0 -3.5 l

gsave
0.000 setgray
fill
grestore
stroke
grestore
} bind def
176.956 226.014 o
grestore
gsave
/o {
gsave
newpath
translate
0.8 setlinewidth
1 setlinejoin

0 setlinecap

0 0 m
0 -3.5 l

gsave
0.000 setgray
fill
grestore
stroke
grestore
} bind def
213.907 226.014 o
grestore
gsave
/o {
gsave
newpath
translate
0.8 setlinewidth
1 setlinejoin

0 setlinecap

0 0 m
0 -3.5 l

gsave
0.000 setgray
fill
grestore
stroke
grestore
} bind def
250.859 226.014 o
grestore
gsave
/o {
gsave
newpath
translate
0.8 setlinewidth
1 setlinejoin

0 setlinecap

0 0 m
0 -3.5 l

gsave
0.000 setgray
fill
grestore
stroke
grestore
} bind def
287.811 226.014 o
grestore
gsave

153.674432 210.920588 translate
0.000000 rotate
0.000000 0 m /C glyphshow
6.982422 0 m /o glyphshow
13.100586 0 m /r glyphshow
17.086914 0 m /r glyphshow
21.198242 0 m /i glyphshow
23.976562 0 m /e glyphshow
30.128906 0 m /n glyphshow
36.466797 0 m /t glyphshow
40.387695 0 m /e glyphshow
grestore
gsave
/o {
gsave
newpath
translate
0.8 setlinewidth
1 setlinejoin

0 setlinecap

-0 0 m
-3.5 0 l

gsave
0.000 setgray
fill
grestore
stroke
grestore
} bind def
50.1375 232.895 o
grestore
gsave

20.871875 229.098341 translate
0.000000 rotate
0.000000 0 m /zero glyphshow
6.362305 0 m /period glyphshow
9.541016 0 m /zero glyphshow
15.903320 0 m /zero glyphshow
grestore
gsave
/o {
gsave
newpath
translate
0.8 setlinewidth
1 setlinejoin

0 setlinecap

-0 0 m
-3.5 0 l

gsave
0.000 setgray
fill
grestore
stroke
grestore
} bind def
50.1375 258.026 o
grestore
gsave

20.871875 254.228884 translate
0.000000 rotate
0.000000 0 m /zero glyphshow
6.362305 0 m /period glyphshow
9.541016 0 m /zero glyphshow
15.903320 0 m /five glyphshow
grestore
gsave
/o {
gsave
newpath
translate
0.8 setlinewidth
1 setlinejoin

0 setlinecap

-0 0 m
-3.5 0 l

gsave
0.000 setgray
fill
grestore
stroke
grestore
} bind def
50.1375 283.156 o
grestore
gsave

20.871875 279.359426 translate
0.000000 rotate
0.000000 0 m /zero glyphshow
6.362305 0 m /period glyphshow
9.541016 0 m /one glyphshow
15.903320 0 m /zero glyphshow
grestore
gsave
/o {
gsave
newpath
translate
0.8 setlinewidth
1 setlinejoin

0 setlinecap

-0 0 m
-3.5 0 l

gsave
0.000 setgray
fill
grestore
stroke
grestore
} bind def
50.1375 308.287 o
grestore
gsave

20.871875 304.489969 translate
0.000000 rotate
0.000000 0 m /zero glyphshow
6.362305 0 m /period glyphshow
9.541016 0 m /one glyphshow
15.903320 0 m /five glyphshow
grestore
gsave
/o {
gsave
newpath
translate
0.8 setlinewidth
1 setlinejoin

0 setlinecap

-0 0 m
-3.5 0 l

gsave
0.000 setgray
fill
grestore
stroke
grestore
} bind def
50.1375 333.417 o
grestore
gsave

20.871875 329.620511 translate
0.000000 rotate
0.000000 0 m /zero glyphshow
6.362305 0 m /period glyphshow
9.541016 0 m /two glyphshow
15.903320 0 m /zero glyphshow
grestore
gsave
/o {
gsave
newpath
translate
0.8 setlinewidth
1 setlinejoin

0 setlinecap

-0 0 m
-3.5 0 l

gsave
0.000 setgray
fill
grestore
stroke
grestore
} bind def
50.1375 358.548 o
grestore
gsave

20.871875 354.751053 translate
0.000000 rotate
0.000000 0 m /zero glyphshow
6.362305 0 m /period glyphshow
9.541016 0 m /two glyphshow
15.903320 0 m /five glyphshow
grestore
gsave
/o {
gsave
newpath
translate
0.8 setlinewidth
1 setlinejoin

0 setlinecap

-0 0 m
-3.5 0 l

gsave
0.000 setgray
fill
grestore
stroke
grestore
} bind def
50.1375 383.678 o
grestore
gsave

20.871875 379.881596 translate
0.000000 rotate
0.000000 0 m /zero glyphshow
6.362305 0 m /period glyphshow
9.541016 0 m /three glyphshow
15.903320 0 m /zero glyphshow
grestore
gsave

14.793750 295.348437 translate
90.000000 rotate
0.000000 0 m /E glyphshow
6.318359 0 m /r glyphshow
10.304688 0 m /r glyphshow
14.166016 0 m /o glyphshow
20.284180 0 m /r glyphshow
grestore
1.500 setlinewidth
2 setlinecap
0.122 0.467 0.706 setrgbcolor
gsave
253.636 163.059 50.138 226.014 clipbox
292.244938 372.39691 m
237.297783 379.667665 l
116.613581 381.661397 l
61.666426 366.054495 l
stroke
grestore
1.000 0.498 0.055 setrgbcolor
gsave
253.636 163.059 50.138 226.014 clipbox
292.244938 275.151024 m
237.297783 269.731551 l
116.613581 271.902566 l
61.666426 289.473419 l
stroke
grestore
0.800 setlinewidth
0 setlinejoin
0.000 setgray
gsave
50.1375 226.014338 m
50.1375 389.073162 l
stroke
grestore
gsave
303.773864 226.014338 m
303.773864 389.073162 l
stroke
grestore
gsave
50.1375 226.014338 m
303.773864 226.014338 l
stroke
grestore
gsave
50.1375 389.073162 m
303.773864 389.073162 l
stroke
grestore
/DejaVuSans 12.000 selectfont
gsave

157.471307 395.073162 translate
0.000000 rotate
0.000000 0 m /F glyphshow
5.777344 0 m /a glyphshow
13.130859 0 m /s glyphshow
19.382812 0 m /e glyphshow
26.765625 0 m /space glyphshow
30.580078 0 m /C glyphshow
grestore
1.000 setlinewidth
0 setlinecap
0.800 setgray
gsave
57.1375 351.729412 m
139.575 351.729412 l
140.908333 351.729412 141.575 352.396078 141.575 353.729412 c
141.575 382.073162 l
141.575 383.406495 140.908333 384.073162 139.575 384.073162 c
57.1375 384.073162 l
55.804167 384.073162 55.1375 383.406495 55.1375 382.073162 c
55.1375 353.729412 l
55.1375 352.396078 55.804167 351.729412 57.1375 351.729412 c
cl
gsave
1.000 setgray
fill
grestore
stroke
grestore
1.500 setlinewidth
1 setlinejoin
2 setlinecap
0.122 0.467 0.706 setrgbcolor
gsave
59.1375 375.979412 m
69.1375 375.979412 l
79.1375 375.979412 l
stroke
grestore
0.000 setgray
/DejaVuSans 10.000 selectfont
gsave

87.137500 372.479412 translate
0.000000 rotate
0.000000 0 m /i glyphshow
2.778320 0 m /n glyphshow
9.116211 0 m /i glyphshow
11.894531 0 m /c glyphshow
17.392578 0 m /i glyphshow
20.170898 0 m /a glyphshow
26.298828 0 m /l glyphshow
grestore
1.000 0.498 0.055 setrgbcolor
gsave
59.1375 361.307537 m
69.1375 361.307537 l
79.1375 361.307537 l
stroke
grestore
0.000 setgray
gsave

87.137500 357.807537 translate
0.000000 rotate
0.000000 0 m /p glyphshow
6.347656 0 m /r glyphshow
10.208984 0 m /o glyphshow
16.327148 0 m /p glyphshow
22.674805 0 m /u glyphshow
29.012695 0 m /e glyphshow
35.165039 0 m /s glyphshow
40.375000 0 m /t glyphshow
44.295898 0 m /a glyphshow
grestore
gsave
354.501136 226.014338 m
608.1375 226.014338 l
608.1375 389.073162 l
354.501136 389.073162 l
cl
1.000 setgray
fill
grestore
0.800 setlinewidth
0 setlinecap
gsave
/o {
gsave
newpath
translate
0.8 setlinewidth
1 setlinejoin

0 setlinecap

0 0 m
0 -3.5 l

gsave
0.000 setgray
fill
grestore
stroke
grestore
} bind def
370.464 226.014 o
grestore
gsave
/o {
gsave
newpath
translate
0.8 setlinewidth
1 setlinejoin

0 setlinecap

0 0 m
0 -3.5 l

gsave
0.000 setgray
fill
grestore
stroke
grestore
} bind def
407.416 226.014 o
grestore
gsave
/o {
gsave
newpath
translate
0.8 setlinewidth
1 setlinejoin

0 setlinecap

0 0 m
0 -3.5 l

gsave
0.000 setgray
fill
grestore
stroke
grestore
} bind def
444.368 226.014 o
grestore
gsave
/o {
gsave
newpath
translate
0.8 setlinewidth
1 setlinejoin

0 setlinecap

0 0 m
0 -3.5 l

gsave
0.000 setgray
fill
grestore
stroke
grestore
} bind def
481.319 226.014 o
grestore
gsave
/o {
gsave
newpath
translate
0.8 setlinewidth
1 setlinejoin

0 setlinecap

0 0 m
0 -3.5 l

gsave
0.000 setgray
fill
grestore
stroke
grestore
} bind def
518.271 226.014 o
grestore
gsave
/o {
gsave
newpath
translate
0.8 setlinewidth
1 setlinejoin

0 setlinecap

0 0 m
0 -3.5 l

gsave
0.000 setgray
fill
grestore
stroke
grestore
} bind def
555.223 226.014 o
grestore
gsave
/o {
gsave
newpath
translate
0.8 setlinewidth
1 setlinejoin

0 setlinecap

0 0 m
0 -3.5 l

gsave
0.000 setgray
fill
grestore
stroke
grestore
} bind def
592.174 226.014 o
grestore
gsave

458.038068 210.920588 translate
0.000000 rotate
0.000000 0 m /C glyphshow
6.982422 0 m /o glyphshow
13.100586 0 m /r glyphshow
17.086914 0 m /r glyphshow
21.198242 0 m /i glyphshow
23.976562 0 m /e glyphshow
30.128906 0 m /n glyphshow
36.466797 0 m /t glyphshow
40.387695 0 m /e glyphshow
grestore
gsave
/o {
gsave
newpath
translate
0.8 setlinewidth
1 setlinejoin

0 setlinecap

-0 0 m
-3.5 0 l

gsave
0.000 setgray
fill
grestore
stroke
grestore
} bind def
354.501 232.895 o
grestore
gsave
/o {
gsave
newpath
translate
0.8 setlinewidth
1 setlinejoin

0 setlinecap

-0 0 m
-3.5 0 l

gsave
0.000 setgray
fill
grestore
stroke
grestore
} bind def
354.501 258.026 o
grestore
gsave
/o {
gsave
newpath
translate
0.8 setlinewidth
1 setlinejoin

0 setlinecap

-0 0 m
-3.5 0 l

gsave
0.000 setgray
fill
grestore
stroke
grestore
} bind def
354.501 283.156 o
grestore
gsave
/o {
gsave
newpath
translate
0.8 setlinewidth
1 setlinejoin

0 setlinecap

-0 0 m
-3.5 0 l

gsave
0.000 setgray
fill
grestore
stroke
grestore
} bind def
354.501 308.287 o
grestore
gsave
/o {
gsave
newpath
translate
0.8 setlinewidth
1 setlinejoin

0 setlinecap

-0 0 m
-3.5 0 l

gsave
0.000 setgray
fill
grestore
stroke
grestore
} bind def
354.501 333.417 o
grestore
gsave
/o {
gsave
newpath
translate
0.8 setlinewidth
1 setlinejoin

0 setlinecap

-0 0 m
-3.5 0 l

gsave
0.000 setgray
fill
grestore
stroke
grestore
} bind def
354.501 358.548 o
grestore
gsave
/o {
gsave
newpath
translate
0.8 setlinewidth
1 setlinejoin

0 setlinecap

-0 0 m
-3.5 0 l

gsave
0.000 setgray
fill
grestore
stroke
grestore
} bind def
354.501 383.678 o
grestore
gsave

344.923011 295.348437 translate
90.000000 rotate
0.000000 0 m /E glyphshow
6.318359 0 m /r glyphshow
10.304688 0 m /r glyphshow
14.166016 0 m /o glyphshow
20.284180 0 m /r glyphshow
grestore
1.500 setlinewidth
2 setlinecap
0.122 0.467 0.706 setrgbcolor
gsave
253.636 163.059 354.501 226.014 clipbox
596.608574 295.056178 m
541.624468 287.227041 l
421.014169 298.453042 l
366.030062 284.731012 l
stroke
grestore
1.000 0.498 0.055 setrgbcolor
gsave
253.636 163.059 354.501 226.014 clipbox
596.608574 243.779727 m
541.624468 247.320666 l
421.014169 239.434776 l
366.030062 235.85851 l
stroke
grestore
0.800 setlinewidth
0 setlinejoin
0.000 setgray
gsave
354.501136 226.014338 m
354.501136 389.073162 l
stroke
grestore
gsave
608.1375 226.014338 m
608.1375 389.073162 l
stroke
grestore
gsave
354.501136 226.014338 m
608.1375 226.014338 l
stroke
grestore
gsave
354.501136 389.073162 m
608.1375 389.073162 l
stroke
grestore
/DejaVuSans 12.000 selectfont
gsave

461.405256 395.073162 translate
0.000000 rotate
0.000000 0 m /F glyphshow
5.777344 0 m /a glyphshow
13.130859 0 m /s glyphshow
19.382812 0 m /e glyphshow
26.765625 0 m /space glyphshow
30.580078 0 m /D glyphshow
grestore
1.000 setlinewidth
0 setlinecap
0.800 setgray
gsave
361.501136 351.729412 m
443.938636 351.729412 l
445.27197 351.729412 445.938636 352.396078 445.938636 353.729412 c
445.938636 382.073162 l
445.938636 383.406495 445.27197 384.073162 443.938636 384.073162 c
361.501136 384.073162 l
360.167803 384.073162 359.501136 383.406495 359.501136 382.073162 c
359.501136 353.729412 l
359.501136 352.396078 360.167803 351.729412 361.501136 351.729412 c
cl
gsave
1.000 setgray
fill
grestore
stroke
grestore
1.500 setlinewidth
1 setlinejoin
2 setlinecap
0.122 0.467 0.706 setrgbcolor
gsave
363.501136 375.979412 m
373.501136 375.979412 l
383.501136 375.979412 l
stroke
grestore
0.000 setgray
/DejaVuSans 10.000 selectfont
gsave

391.501136 372.479412 translate
0.000000 rotate
0.000000 0 m /i glyphshow
2.778320 0 m /n glyphshow
9.116211 0 m /i glyphshow
11.894531 0 m /c glyphshow
17.392578 0 m /i glyphshow
20.170898 0 m /a glyphshow
26.298828 0 m /l glyphshow
grestore
1.000 0.498 0.055 setrgbcolor
gsave
363.501136 361.307537 m
373.501136 361.307537 l
383.501136 361.307537 l
stroke
grestore
0.000 setgray
gsave

391.501136 357.807537 translate
0.000000 rotate
0.000000 0 m /p glyphshow
6.347656 0 m /r glyphshow
10.208984 0 m /o glyphshow
16.327148 0 m /p glyphshow
22.674805 0 m /u glyphshow
29.012695 0 m /e glyphshow
35.165039 0 m /s glyphshow
40.375000 0 m /t glyphshow
44.295898 0 m /a glyphshow
grestore
gsave
193.4175 37.54375 m
446.8575 37.54375 l
446.8575 203.14375 l
193.4175 203.14375 l
cl
1.000 setgray
fill
grestore
0.800 setlinewidth
0 setlinecap
gsave
/o {
gsave
newpath
translate
0.8 setlinewidth
1 setlinejoin

0 setlinecap

0 0 m
0 -3.5 l

gsave
0.000 setgray
fill
grestore
stroke
grestore
} bind def
209.368 37.5438 o
grestore
gsave

197.227644 22.950000 translate
0.000000 rotate
0.000000 0 m /minus glyphshow
8.378906 0 m /one glyphshow
14.741211 0 m /period glyphshow
17.919922 0 m /five glyphshow
grestore
gsave
/o {
gsave
newpath
translate
0.8 setlinewidth
1 setlinejoin

0 setlinecap

0 0 m
0 -3.5 l

gsave
0.000 setgray
fill
grestore
stroke
grestore
} bind def
246.291 37.5438 o
grestore
gsave

234.150721 22.950000 translate
0.000000 rotate
0.000000 0 m /minus glyphshow
8.378906 0 m /one glyphshow
14.741211 0 m /period glyphshow
17.919922 0 m /zero glyphshow
grestore
gsave
/o {
gsave
newpath
translate
0.8 setlinewidth
1 setlinejoin

0 setlinecap

0 0 m
0 -3.5 l

gsave
0.000 setgray
fill
grestore
stroke
grestore
} bind def
283.214 37.5438 o
grestore
gsave

271.073798 22.950000 translate
0.000000 rotate
0.000000 0 m /minus glyphshow
8.378906 0 m /zero glyphshow
14.741211 0 m /period glyphshow
17.919922 0 m /five glyphshow
grestore
gsave
/o {
gsave
newpath
translate
0.8 setlinewidth
1 setlinejoin

0 setlinecap

0 0 m
0 -3.5 l

gsave
0.000 setgray
fill
grestore
stroke
grestore
} bind def
320.137 37.5438 o
grestore
gsave

312.184375 22.950000 translate
0.000000 rotate
0.000000 0 m /zero glyphshow
6.362305 0 m /period glyphshow
9.541016 0 m /zero glyphshow
grestore
gsave
/o {
gsave
newpath
translate
0.8 setlinewidth
1 setlinejoin

0 setlinecap

0 0 m
0 -3.5 l

gsave
0.000 setgray
fill
grestore
stroke
grestore
} bind def
357.061 37.5438 o
grestore
gsave

349.107452 22.950000 translate
0.000000 rotate
0.000000 0 m /zero glyphshow
6.362305 0 m /period glyphshow
9.541016 0 m /five glyphshow
grestore
gsave
/o {
gsave
newpath
translate
0.8 setlinewidth
1 setlinejoin

0 setlinecap

0 0 m
0 -3.5 l

gsave
0.000 setgray
fill
grestore
stroke
grestore
} bind def
393.984 37.5438 o
grestore
gsave

386.030529 22.950000 translate
0.000000 rotate
0.000000 0 m /one glyphshow
6.362305 0 m /period glyphshow
9.541016 0 m /zero glyphshow
grestore
gsave
/o {
gsave
newpath
translate
0.8 setlinewidth
1 setlinejoin

0 setlinecap

0 0 m
0 -3.5 l

gsave
0.000 setgray
fill
grestore
stroke
grestore
} bind def
430.907 37.5438 o
grestore
gsave

422.953606 22.950000 translate
0.000000 rotate
0.000000 0 m /one glyphshow
6.362305 0 m /period glyphshow
9.541016 0 m /five glyphshow
grestore
gsave

296.856250 9.278125 translate
0.000000 rotate
0.000000 0 m /C glyphshow
6.982422 0 m /o glyphshow
13.100586 0 m /r glyphshow
17.086914 0 m /r glyphshow
21.198242 0 m /i glyphshow
23.976562 0 m /e glyphshow
30.128906 0 m /n glyphshow
36.466797 0 m /t glyphshow
40.387695 0 m /e glyphshow
grestore
gsave
/o {
gsave
newpath
translate
0.8 setlinewidth
1 setlinejoin

0 setlinecap

-0 0 m
-3.5 0 l

gsave
0.000 setgray
fill
grestore
stroke
grestore
} bind def
193.418 44.5319 o
grestore
gsave

164.151875 40.734987 translate
0.000000 rotate
0.000000 0 m /zero glyphshow
6.362305 0 m /period glyphshow
9.541016 0 m /zero glyphshow
15.903320 0 m /zero glyphshow
grestore
gsave
/o {
gsave
newpath
translate
0.8 setlinewidth
1 setlinejoin

0 setlinecap

-0 0 m
-3.5 0 l

gsave
0.000 setgray
fill
grestore
stroke
grestore
} bind def
193.418 70.054 o
grestore
gsave

164.151875 66.257175 translate
0.000000 rotate
0.000000 0 m /zero glyphshow
6.362305 0 m /period glyphshow
9.541016 0 m /zero glyphshow
15.903320 0 m /five glyphshow
grestore
gsave
/o {
gsave
newpath
translate
0.8 setlinewidth
1 setlinejoin

0 setlinecap

-0 0 m
-3.5 0 l

gsave
0.000 setgray
fill
grestore
stroke
grestore
} bind def
193.418 95.5762 o
grestore
gsave

164.151875 91.779362 translate
0.000000 rotate
0.000000 0 m /zero glyphshow
6.362305 0 m /period glyphshow
9.541016 0 m /one glyphshow
15.903320 0 m /zero glyphshow
grestore
gsave
/o {
gsave
newpath
translate
0.8 setlinewidth
1 setlinejoin

0 setlinecap

-0 0 m
-3.5 0 l

gsave
0.000 setgray
fill
grestore
stroke
grestore
} bind def
193.418 121.098 o
grestore
gsave

164.151875 117.301549 translate
0.000000 rotate
0.000000 0 m /zero glyphshow
6.362305 0 m /period glyphshow
9.541016 0 m /one glyphshow
15.903320 0 m /five glyphshow
grestore
gsave
/o {
gsave
newpath
translate
0.8 setlinewidth
1 setlinejoin

0 setlinecap

-0 0 m
-3.5 0 l

gsave
0.000 setgray
fill
grestore
stroke
grestore
} bind def
193.418 146.621 o
grestore
gsave

164.151875 142.823737 translate
0.000000 rotate
0.000000 0 m /zero glyphshow
6.362305 0 m /period glyphshow
9.541016 0 m /two glyphshow
15.903320 0 m /zero glyphshow
grestore
gsave
/o {
gsave
newpath
translate
0.8 setlinewidth
1 setlinejoin

0 setlinecap

-0 0 m
-3.5 0 l

gsave
0.000 setgray
fill
grestore
stroke
grestore
} bind def
193.418 172.143 o
grestore
gsave

164.151875 168.345924 translate
0.000000 rotate
0.000000 0 m /zero glyphshow
6.362305 0 m /period glyphshow
9.541016 0 m /two glyphshow
15.903320 0 m /five glyphshow
grestore
gsave
/o {
gsave
newpath
translate
0.8 setlinewidth
1 setlinejoin

0 setlinecap

-0 0 m
-3.5 0 l

gsave
0.000 setgray
fill
grestore
stroke
grestore
} bind def
193.418 197.665 o
grestore
gsave

164.151875 193.868111 translate
0.000000 rotate
0.000000 0 m /zero glyphshow
6.362305 0 m /period glyphshow
9.541016 0 m /three glyphshow
15.903320 0 m /zero glyphshow
grestore
gsave

158.073750 108.148437 translate
90.000000 rotate
0.000000 0 m /E glyphshow
6.318359 0 m /r glyphshow
10.304688 0 m /r glyphshow
14.166016 0 m /o glyphshow
20.284180 0 m /r glyphshow
grestore
1.500 setlinewidth
2 setlinecap
0.122 0.467 0.706 setrgbcolor
gsave
253.44 165.6 193.418 37.544 clipbox
434.229808 92.410022 m
378.069808 69.479496 l
262.205192 108.099009 l
206.045192 88.116417 l
stroke
grestore
1.000 0.498 0.055 setrgbcolor
gsave
253.44 165.6 193.418 37.544 clipbox
434.229808 61.6227 m
378.069808 83.114356 l
262.205192 47.875929 l
206.045192 59.719906 l
stroke
grestore
0.800 setlinewidth
0 setlinejoin
0.000 setgray
gsave
193.4175 37.54375 m
193.4175 203.14375 l
stroke
grestore
gsave
446.8575 37.54375 m
446.8575 203.14375 l
stroke
grestore
gsave
193.4175 37.54375 m
446.8575 37.54375 l
stroke
grestore
gsave
193.4175 203.14375 m
446.8575 203.14375 l
stroke
grestore
/DejaVuSans 12.000 selectfont
gsave

301.051562 209.143750 translate
0.000000 rotate
0.000000 0 m /F glyphshow
5.777344 0 m /a glyphshow
13.130859 0 m /s glyphshow
19.382812 0 m /e glyphshow
26.765625 0 m /space glyphshow
30.580078 0 m /E glyphshow
grestore
1.000 setlinewidth
0 setlinecap
0.800 setgray
gsave
200.4175 165.8 m
282.855 165.8 l
284.188333 165.8 284.855 166.466667 284.855 167.8 c
284.855 196.14375 l
284.855 197.477083 284.188333 198.14375 282.855 198.14375 c
200.4175 198.14375 l
199.084167 198.14375 198.4175 197.477083 198.4175 196.14375 c
198.4175 167.8 l
198.4175 166.466667 199.084167 165.8 200.4175 165.8 c
cl
gsave
1.000 setgray
fill
grestore
stroke
grestore
1.500 setlinewidth
1 setlinejoin
2 setlinecap
0.122 0.467 0.706 setrgbcolor
gsave
202.4175 190.05 m
212.4175 190.05 l
222.4175 190.05 l
stroke
grestore
0.000 setgray
/DejaVuSans 10.000 selectfont
gsave

230.417500 186.550000 translate
0.000000 rotate
0.000000 0 m /i glyphshow
2.778320 0 m /n glyphshow
9.116211 0 m /i glyphshow
11.894531 0 m /c glyphshow
17.392578 0 m /i glyphshow
20.170898 0 m /a glyphshow
26.298828 0 m /l glyphshow
grestore
1.000 0.498 0.055 setrgbcolor
gsave
202.4175 175.378125 m
212.4175 175.378125 l
222.4175 175.378125 l
stroke
grestore
0.000 setgray
gsave

230.417500 171.878125 translate
0.000000 rotate
0.000000 0 m /p glyphshow
6.347656 0 m /r glyphshow
10.208984 0 m /o glyphshow
16.327148 0 m /p glyphshow
22.674805 0 m /u glyphshow
29.012695 0 m /e glyphshow
35.165039 0 m /s glyphshow
40.375000 0 m /t glyphshow
44.295898 0 m /a glyphshow
grestore

end
showpage
