2015
2015
2021
2021
2021
2018
2018
2018
2019
2019
2019
2023
2023
2023
2023
2021
2021
2021
2025
2025
2025
2020
2020
2020
2017
2017
2017
2017
2017
2017
2017
2018
2018
2018
2020
2020
2020
2018
2018
2018
2021
2021
2021
2025
2025
2025
2025
2020
2020
2020
2021
2021
2021
2018
2018
2018
2021
2021
2021
2021
2021
2021
2021
2019
2019
2019
2018
2018
2018
2018
2018
2018
2019
2019
2019
2022
2022
2022
2022
2021
2021
2021
2021
2021
2021
2016
2016
2016
2018
2018
2018
2010
2010
2010
2010
2020
2020
2020
2022
2022
2022
2019
2019
2019
2019
2019
2019
2020
2020
2020
2020
2018
2018
2018
2020
2020
2020
2022
2022
2022
2019
2019
2019
2024
2024
2024
2024
2019
2019
2019
2021
2021
2021
2011
2011
2011
2020
2020
2020
2019
2019
2019
2019
2019
2019
2019
2024
2024
2024
2020
2020
2020
2024
2024
2024
2021
2021
2021
2021
2020
2020
2020
2018
2018
2018
2022
2022
2022
2019
2019
2019
2021
2021
2021
2021
2023
2023
2023
2021
2021
2021
2020
2020
2020
2017
2017
2017
2021
2021
2021
2021
2019
2019
2019
2015
2015
2015
2020
2020
2020
2022
2022
2022
2014
2014
2014
2014
2017
2017
2017
2021
2021
2021
2021
2021
2021
2020
2020
2020
2023
2023
2023
2023
2020
2020
2020
2021
2021
2021
2020
2020
2020
2019
2019
2019
2020
2020
2020
2020
2021
2021
2021
2020
2020
2020
2015
2015
2015
2019
2019
2019
2022
2022
2022
2022
2029
2029
2029
2021
2021
2021
2018
2018
2018
2020
2020
2020
2021
2021
2021
2021
2021
2021
2021
2024
2024
2024
2020
2020
2020
2020
2020
2020
2022
2022
2022
2022
2018
2018
2018
2021
2021
2021
2024
2024
2024
2019
2019
2019
2019
2019
2019
2019
2017
2017
2017
2023
2023
2023
2019
2019
2019
2022
2022
2022
2019
2019
2019
2019
2020
2020
2020
2014
2014
2014
2021
2021
2021
2019
2019
2019
2021
2021
2021
2021
2024
2024
2024
2023
2023
2023
2017
2017
2017
2020
2020
2020
2019
2019
2019
2019
2020
2020
2020
2015
2015
2015
2021
2021
2021
2020
2020
2020
2020
2020
2020
2020
2021
2021
2021
2020
2020
2020
2024
2024
2024
2021
2021
2021
2018
2018
2018
2018
2016
2016
2016
2019
2019
2019
2021
2021
2021
2015
2015
2015
2019
2019
2019
2019
2020
2020
2020
2022
2022
2022
2018
2018
2018
2019
2019
2019
2014
2014
2014
2014
2019
2019
2019
2023
2023
2023
2014
2014
2014
2017
2017
2017
2023
2023
2023
2023
2017
2017
2017
2019
2019
2019
2018
2018
2018
2023
2023
2023
2019
2019
2019
2019
2020
2020
2020
2019
2019
2019
2023
2023
2023
2020
2020
2020
2015
2015
2015
2015
2024
2024
2024
2023
2023
2023
2019
2019
2019
2021
2021
2021
2021
2021
2021
2021
2021
2021
2021
2027
2027
2027
2018
2018
2018
2024
2024
2024
2022
2022
2022
2022
2023
2023
2023
2022
2022
2022
2014
2014
2014
2020
2020
2020
2018
2018
2018
2018
2018
2018
2018
2016
2016
2016
2018
2018
2018
2025
2025
2025
2020
2020
2020
2020
2020
2020
2020
2019
2019
2019
2019
2019
2019
2021
2021
2021
2018
2018
2018
2018
2014
2014
2014
2021
2021
2021
2022
2022
2022
2019
2019
2019
2020
2020
2020
2020
2019
2019
2019
2018
2018
2018
2020
2020
2020
2018
2018
2018
2016
2016
2016
2016
2020
2020
2020
2018
2018
2018
2021
2021
2021
2018
2018
2018
2017
2017
2017
2017
2027
2027
2027
2021
2021
2021
2020
2020
2020
2020
2020
2020
2020
2020
2020
2020
2020
2020
2020
2021
2021
2021
2020
2020
2020
2019
2019
2019
2022
2022
2022
2022
2017
2017
2017
2024
2024
2024
2021
2021
2021
2020
2020
2020
2024
2024
2024
2024
2020
2020
2020
2014
2014
2014
2020
2020
2020
2023
2023
2023
2017
2017
2017
2017
2020
2020
2020
2022
2022
2022
2023
2023
2023
2019
2019
2019
2020
2020
2020
2020
2020
2020
2020
2022
2022
2022
2017
2017
2017
2019
2019
2019
2020
2020
2020
2020
2018
2018
2018
2021
2021
2021
2017
2017
2017
2018
2018
2018
2021
2021
2021
2021
2017
2017
2017
2019
2019
2019
2018
2018
2018
2017
2017
2017
2016
2016
2016
2016
2021
2021
2021
2019
2019
2019
2023
2023
2023
2025
2025
2025
2018
2018
2018
2018
2018
2018
2018
2021
2021
2021
2017
2017
2017
2021
2021
2021
2022
2022
2022
2022
2015
2015
2015
2021
2021
2021
2021
2021
2021
2021
2021
2021
2023
2023
2023
2023
2019
2019
2019
2021
2021
2021
2019
2019
2019
2022
2022
2022
2023
2023
2023
2023
2020
2020
2020
2021
2021
2021
2021
2021
2021
2017
2017
2017
2015
2015
2015
2015
2020
2020
2020
2019
2019
2019
2018
2018
2018
2022
2022
2022
2022
2022
2022
2022
2022
2022
2022
2020
2020
2020
2019
2019
2019
2022
2022
2022
2024
2024
2024
2024
2017
2017
2017
2021
2021
2021
2023
2023
2023
2023
2023
2023
2018
2018
2018
2018
2019
2019
2019
2019
2019
2019
2021
2021
2021
2022
2022
2022
2016
2016
2016
2016
2016
2016
2016
2021
2021
2021
2024
2024
2024
2020
2020
2020
2023
2023
2023
2023
2016
2016
2016
2022
2022
2022
2020
2020
2020
2019
2019
2019
2019
2019
2019
2019
2016
2016
2016
2019
2019
2019
2021
2021
2021
2019
2019
2019
2017
2017
2017
2017
2026
2026
2026
2021
2021
2021
2018
2018
2018
2026
2026
2026
2020
2020
2020
2020
2023
2023
2023
2015
2015
2015
2020
2020
2020
2019
2019
2019
2019
2019
2019
2019
2021
2021
2021
2021
2021
2021
2024
2024
2024
2016
2016
2016
2021
2021
2021
2021
2028
2028
2028
2020
2020
2020
2013
2013
2013
2021
2021
2021
2020
2020
2020
2020
2019
2019
2019
2023
2023
2023
2024
2024
2024
2025
2025
2025
2017
2017
2017
2017
2021
2021
2021
2019
2019
2019
2022
2022
2022
2020
2020
2020
2017
2017
2017
2017
2018
2018
2018
2022
2022
2022
2020
2020
2020
2018
2018
2018
2019
2019
2019
2019
2019
2019
2019
2022
2022
2022
2026
2026
2026
2019
2019
2019
2021
2021
2021
2021
2016
2016
2016
2022
2022
2022
2013
2013
2013
2022
2022
2022
2022
2022
2022
2022
2017
2017
2017
2026
2026
2026
2020
2020
2020
2016
2016
2016
2021
2021
2021
2021
2018
2018
2018
2023
2023
2023
2021
2021
2021
2021
2021
2021
2024
2024
2024
2024
2026
2026
2026
2025
2025
2025
2019
2019
2019
2020
2020
2020
2020
2020
2020
2020
2018
2018
2018
2021
2021
2021
2020
2020
2020
2019
2019
2019
2018
2018
2018
2018
2023
2023
2023
2022
2022
2022
2018
2018
2018
2017
2017
2017
2022
2022
2022
2022
2029
2029
2029
2023
2023
2023
2020
2020
2020
2016
2016
2016
2020
2020
2020
2020
2014
2014
2014
2020
2020
2020
2019
2019
2019
2021
2021
2021
2019
2019
2019
2019
2023
2023
2023
2016
2016
2016
2017
2017
2017
2017
2017
2017
2020
2020
2020
2020
2021
2021
2021
2019
2019
2019
2020
2020
2020
2020
2020
2020
2018
2018
2018
2018
2020
2020
2020
2020
2020
2020
2021
2021
2021
2022
2022
2022
2020
2020
2020
2020
2020
2020
2020
2018
2018
2018
2021
2021
2021
2016
2016
2016
2023
2023
2023
2023
2020
2020
2020
2017
2017
2017
2017
2017
2017
2019
2019
2019
2021
2021
2021
2021
2018
2018
2018
2019
2019
2019
2021
2021
2021
2022
2022
2022
2021
2021
2021
2021
2022
2022
2022
2027
2027
2027
2025
2025
2025
2023
2023
2023
2019
2019
2019
2019
2020
2020
2020
2020
2020
2020
2012
2012
2012
2017
2017
2017
2023
2023
2023
2023
2018
2018
2018
2024
2024
2024
2020
2020
2020
2013
2013
2013
2019
2019
2019
2019
2020
2020
2020
2024
2024
2024
2024
2024
2024
2020
2020
2020
2021
2021
2021
2021
2024
2024
2024
2021
2021
2021
2019
2019
2019
2020
2020
2020
2021
2021
2021
2021
2019
2019
2019
2020
2020
2020
2018
2018
2018
2020
2020
2020
2029
2029
2029
2029
2019
2019
2019
2023
2023
2023
2021
2021
2021
2019
2019
2019
2014
2014
2014
2014
2020
2020
2020
2018
2018
2018
2018
2018
2018
2020
2020
2020
2022
2022
2022
2022
2020
2020
2020
2018
2018
2018
2017
2017
2017
2020
2020
2020
2018
2018
2018
2018
2019
2019
2019
2022
2022
2022
2022
2022
2022
2018
2018
2018
2022
2022
2022
2022
2019
2019
2019
2013
2013
2013
2021
2021
2021
2022
2022
2022
2020
2020
2020
2020
2020
2020
2020
2021
2021
2021
2017
2017
2017
2019
2019
2019
2012
2012
2012
2012
2022
2022
2022
2025
2025
2025
2020
2020
2020
2022
2022
2022
2019
2019
2019
2019
2019
2019
2019
2018
2018
2018
2020
2020
2020
2019
2019
2019
2020
2020
2020
2020
2026
2026
2026
2018
2018
2018
2017
2017
2017
2018
2018
2018
2024
2024
2024
2024
2020
2020
2020
2022
2022
2022
2019
2019
2019
2020
2020
2020
2021
2021
2021
2021
2022
2022
2022
2020
2020
2020
2018
2018
2018
2019
2019
2019
2024
2024
2024
2024
2019
2019
2019
2021
2021
2021
2014
2014
2014
2020
2020
2020
2019
2019
2019
2019
2021
2021
2021
2020
2020
2020
2021
2021
2021
2022
2022
2022
2019
2019
2019
2019
2017
2017
2017
2022
2022
2022
2021
2021
2021
2019
2019
2019
2024
2024
2024
2024
2023
2023
2023
2021
2021
2021
2020
2020
2020
2021
2021
2021
2017
2017
2017
2017
2019
2019
2019
2022
2022
2022
2023
2023
2023
2018
2018
2018
2020
2020
2020
2020
2029
2029
2029
2019
2019
2019
2023
2023
2023
2024
2024
2024
2020
2020
2020
2020
2020
2020
2020
2022
2022
2022
2020
2020
2020
2020
2020
2020
2019
2019
2019
2019
2021
2021
2021
2023
2023
2023
2019
2019
2019
2020
2020
2020
2021
2021
2021
2021
2021
2021
2021
2017
2017
2017
2023
2023
2023
2021
2021
2021
2019
2019
2019
2019
2018
2018
2018
2017
2017
2017
2016
2016
2016
2019
2019
2019
2025
2025
2025
2025
2025
2025
2025
2022
2022
2022
2014
2014
2014
2024
2024
2024
2021
2021
2021
2021
2017
2017
2017
2016
2016
2016
2017
2017
2017
2014
2014
2014
2019
2019
2019
2019
2018
2018
2018
2020
2020
2020
2015
2015
2015
2019
2019
2019
2021
2021
2021
2021
2024
2024
2024
2021
2021
2021
2017
2017
2017
2019
2019
2019
2018
2018
2018
2018
2020
2020
2020
2026
2026
2026
2022
2022
2022
2022
2022
2022
2015
2015
2015
2015
2020
2020
2020
2020
2020
2020
2022
2022
2022
2018
2018
2018
2019
2019
2019
2019
2017
2017
2017
2017
2017
2017
2020
2020
2020
2017
2017
2017
2015
2015
2015
2015
2020
2020
2020
2023
2023
2023
2016
2016
2016
2021
2021
2021
2020
2020
2020
2020
2018
2018
2018
2021
2021
2021
2020
2020
2020
2019
2019
2019
2018
2018
2018
2018
2020
2020
2020
2025
2025
2025
2021
2021
2021
2017
2017
2017
2023
2023
2023
2023
2019
2019
2019
2020
2020
2020
2011
2011
2011
2021
2021
2021
2021
2021
2021
2021
2019
2019
2019
2018
2018
2018
2020
2020
2020
2022
2022
2022
2019
2019
2019
2019
2019
2019
2019
2020
2020
2020
2016
2016
2016
2021
2021
2021
2021
2021
2021
2021
2010
2010
2010
2022
2022
2022
2022
2022
2022
2015
2015
2015
2020
2020
2020
2020
2018
2018
2018
2019
2019
2019
2019
2019
2019
2015
2015
2015
2011
2011
2011
2011
2020
2020
2020
2021
2021
2021
2017
2017
2017
2019
2019
2019
2019
2019
2019
2019
2016
2016
2016
2018
2018
2018
2022
2022
2022
2027
2027
2027
2019
2019
2019
2019
2019
2019
2019
2023
2023
2023
2022
2022
2022
2020
2020
2020
2018
2018
2018
2018
2015
2015
2015
2021
2021
2021
2017
2017
2017
2025
2025
2025
2018
2018
2018
2018
2018
2018
2018
2016
2016
2016
2017
2017
2017
2027
2027
2027
2023
2023
2023
2023
2020
2020
2020
2020
2020
2020
2017
2017
2017
2021
2021
2021
2018
2018
2018
2018
2019
2019
2019
2014
2014
2014
2020
2020
2020
2021
2021
2021
2020
2020
2020
2020
2019
2019
2019
2023
2023
2023
2020
2020
2020
2021
2021
2021
2019
2019
2019
2019
2018
2018
2018
2020
2020
2020
2019
2019
2019
2023
2023
2023
2018
2018
2018
2018
2018
2018
2018
2015
2015
2015
2017
2017
2017
2021
2021
2021
2026
2026
2026
2026
2013
2013
2013
2019
2019
2019
2018
2018
2018
2019
2019
2019
2015
2015
2015
2015
2018
2018
2018
2022
2022
2022
2019
2019
2019
2016
2016
2016
2020
2020
2020
2020
2019
2019
2019
2019
2019
2019
2014
2014
2014
2019
2019
2019
2024
2024
2024
2024
2014
2014
2014
2021
2021
2021
2023
2023
2023
2019
2019
2019
2017
2017
2017
2017
2019
2019
2019
2016
2016
2016
2021
2021
2021
2020
2020
2020
2016
2016
2016
2016
2019
2019
2019
2021
2021
2021
2019
2019
2019
2021
2021
2021
2016
2016
2016
2016
2019
2019
2019
2022
2022
2022
2020
2020
2020
2021
2021
2021
2021
2021
2021
2021
2020
2020
2020
2022
2022
2022
2020
2020
2020
2017
2017
2017
2022
2022
2022
2022
2019
2019
2019
2021
2021
2021
2014
2014
2014
2020
2020
2020
2021
2021
2021
2021
2020
2020
2020
2019
2019
2019
2018
2018
2018
2024
2024
2024
2020
2020
2020
2020
2019
2019
2019
2020
2020
2020
2016
2016
2016
2019
2019
2019
2017
2017
2017
2017
2013
2013
2013
2021
2021
2021
2017
2017
2017
2025
2025
2025
2020
2020
2020
2020
2018
2018
2018
2020
2020
2020
2020
2020
2020
2020
2020
2020
2019
2019
2019
2019
2023
2023
2023
2020
2020
2020
2016
2016
2016
2019
2019
2019
2026
2026
2026
2026
2021
2021
2021
2023
2023
2023
2021
2021
2021
2026
2026
2026
2021
2021
2021
2021
2018
2018
2018
2024
2024
2024
2018
2018
2018
2019
2019
2019
2026
2026
2026
2026
2016
2016
2016
2023
2023
2023
2022
2022
2022
2015
2015
2015
2019
2019
2019
2019
2019
2019
2019
2019
2019
2019
2020
2020
2020
2020
2020
2020
2021
2021
2021
2021
2020
2020
2020
2022
2022
2022
2018
2018
2018
2020
2020
2020
2024
2024
2024
2024
2021
2021
2021
2022
2022
2022
2018
2018
2018
2016
2016
2016
2020
2020
2020
2020
2020
2020
2020
2019
2019
2019
2028
2028
2028
2021
2021
2021
2018
2018
2018
2018
2016
2016
2016
2020
2020
2020
2023
2023
2023
2018
2018
2018
2020
2020
2020
2020
2019
2019
2019
2020
2020
2020
2020
2020
2020
2020
2020
2020
2020
2020
2020
2020
2021
2021
2021
2021
2021
2021
2016
2016
2016
2019
2019
2019
2020
2020
2020
2020
2020
2020
2020
2026
2026
2026
2019
2019
2019
2016
2016
2016
2020
2020
2020
2020
2020
2020
2020
2023
2023
2023
2017
2017
2017
2024
2024
2024
2024
2024
2024
2024
2021
2021
2021
2021
2021
2021
2019
2019
2019
2024
2024
2024
2021
2021
2021
2021
2019
2019
2019
2023
2023
2023
2019
2019
2019
2020
2020
2020
2019
2019
2019
2019
2020
2020
2020
2020
2020
2020
2019
2019
2019
2019
2019
2019
2017
2017
2017
2017
2019
2019
2019
2021
2021
2021
2020
2020
2020
2017
2017
2017
2020
2020
2020
2020
2019
2019
2019
2020
2020
2020
2015
2015
2015
2020
2020
2020
2021
2021
2021
2021
2016
2016
2016
2022
2022
2022
2019
2019
2019
2017
2017
2017
2019
2019
2019
2019
2017
2017
2017
2017
2017
2017
2020
2020
2020
2017
2017
2017
2019
2019
2019
2019
2018
2018
2018
2019
2019
2019
2034
2034
2034
2019
2019
2019
2018
2018
2018
2018
2022
2022
2022
2020
2020
2020
2022
2022
2022
2020
2020
2020
2021
2021
2021
2021
2022
2022
2022
2021
2021
2021
2019
2019
2019
2024
2024
2024
2019
2019
2019
2019
2019
2019
2019
2022
2022
2022
2021
2021
2021
2025
2025
2025
2019
2019
2019
2019
2019
2019
2019
2018
2018
2018
2020
2020
2020
2019
2019
2019
2019
2019
2019
2019
2018
2018
2018
2021
2021
2021
2016
2016
2016
2017
2017
2017
2025
2025
2025
2025
2019
2019
2019
2021
2021
2021
2020
2020
2020
2015
2015
2015
2021
2021
2021
2021
2019
2019
2019
2022
2022
2022
2018
2018
2018
2019
2019
2019
2019
2019
2019
2019
2025
2025
2025
2020
2020
2020
2017
2017
2017
2021
2021
2021
2019
2019
2019
2019
2023
2023
2023
2016
2016
2016
2018
2018
2018
2021
2021
2021
2018
2018
2018
2018
2023
2023
2023
2020
2020
2020
2022
2022
2022
2018
2018
2018
2019
2019
2019
2019
2019
2019
2019
2025
2025
2025
2020
2020
2020
2021
2021
2021
2023
2023
2023
2023
2020
2020
2020
2021
2021
2021
2021
2021
2021
2019
2019
2019
2022
2022
2022
2022
2021
2021
2021
2021
2021
2021
2018
2018
2018
2027
2027
2027
2021
2021
2021
2021
2020
2020
2020
2023
2023
2023
2020
2020
2020
2023
2023
2023
2018
2018
2018
2018
2016
2016
2016
2019
2019
2019
2021
2021
2021
2019
2019
2019
2019
2019
2019
2019
2016
2016
2016
2025
2025
2025
2018
2018
2018
2021
2021
2021
2019
2019
2019
2019
2020
2020
2020
2023
2023
2023
2022
2022
2022
2018
2018
2018
2019
2019
2019
2019
2012
2012
2012
2021
2021
2021
2019
2019
2019
2021
2021
2021
2017
2017
2017
2017
2018
2018
2018
2023
2023
2023
2019
2019
2019
2021
2021
2021
2024
2024
2024
2024
2013
2013
2013
2024
2024
2024
2029
2029
2029
2023
2023
2023
2025
2025
2025
2025
2022
2022
2022
2021
2021
2021
2020
2020
2020
2017
2017
2017
2017
2017
2017
2017
2019
2019
2019
2018
2018
2018
2022
2022
2022
2018
2018
2018
2014
2014
2014
2014
2014
2014
2014
2023
2023
2023
2019
2019
2019
2026
2026
2026
2021
2021
2021
2021
2017
2017
2017
2027
2027
2027
2020
2020
2020
2021
2021
2021
2022
2022
2022
2022
2019
2019
2019
2022
2022
2022
2017
2017
2017
2019
2019
2019
2023
2023
2023
2023
2023
2023
2023
2016
2016
2016
2018
2018
2018
2023
2023
2023
2020
2020
2020
2020
2018
2018
2018
2021
2021
2021
2017
2017
2017
2020
2020
2020
2022
2022
2022
2022
2017
2017
2017
2019
2019
2019
2014
2014
2014
2024
2024
2024
2020
2020
2020
2020
2020
2020
2020
2011
2011
2011
2020
2020
2020
2021
2021
2021
2029
2029
2029
2029
2014
2014
2014
2019
2019
2019
2021
2021
2021
2019
2019
2019
2019
2019
2019
2019
2023
2023
2023
2021
2021
2021
2019
2019
2019
2014
2014
2014
2019
2019
2019
2019
2018
2018
2018
2022
2022
2022
2020
2020
2020
2020
2020
2020
2025
2025
2025
2025
2014
2014
2014
2022
2022
2022
2013
2013
2013
2021
2021
2021
2020
2020
2020
2020
2020
2020
2020
2020
2020
2020
2019
2019
2019
2018
2018
2018
2020
2020
2020
2020
2019
2019
2019
2020
2020
2020
2020
2020
2020
2018
2018
2018
2025
2025
2025
2025
2021
2021
2021
2019
2019
2019
2019
2019
2019
2026
2026
2026
2021
2021
2021
2021
2018
2018
2018
2024
2024
2024
2021
2021
2021
2020
2020
2020
2016
2016
2016
2016
2015
2015
2015
2019
2019
2019
2016
2016
2016
2015
2015
2015
2017
2017
2017
2017
2020
2020
2020
2023
2023
2023
2020
2020
2020
2015
2015
2015
2015
2015
2015
2015
2022
2022
2022
2022
2022
2022
2016
2016
2016
2018
2018
2018
2022
2022
2022
2022
2021
2021
2021
2022
2022
2022
2020
2020
2020
2019
2019
2019
2022
2022
2022
2022
2019
2019
2019
2022
2022
2022
2022
2022
2022
2020
2020
2020
2009
2009
2009
2009
2024
2024
2024
2020
2020
2020
2016
2016
2016
2018
2018
2018
2020
2020
2020
2020
2018
2018
2018
2019
2019
2019
2020
2020
2020
2019
2019
2019
2024
2024
2024
2024
2022
2022
2022
2023
2023
2023
2019
2019
2019
2021
2021
2021
2017
2017
2017
2017
2021
2021
2021
2021
2021
2021
2020
2020
2020
2025
2025
2025
2020
2020
2020
2020
2020
2020
2020
2021
2021
2021
2018
2018
2018
2021
2021
2021
2014
2014
2014
2014
2019
2019
2019
2021
2021
2021
2019
2019
2019
2026
2026
2026
2020
2020
2020
2020
2020
2020
2020
2024
2024
2024
2020
2020
2020
2021
2021
2021
2016
2016
2016
2016
2020
2020
2020
2020
2020
2020
2021
2021
2021
2020
2020
2020
2021
2021
2021
2021
2019
2019
2019
2020
2020
2020
2019
2019
2019
2020
2020
2020
2021
2021
2021
2021
2020
2020
2020
2020
2020
2020
2017
2017
2017
2019
2019
2019
2014
2014
2014
2014
2018
2018
2018
2020
2020
2020
2017
2017
2017
2019
2019
2019
2021
2021
2021
2021
2019
2019
2019
2021
2021
2021
2022
2022
2022
2020
2020
2020
2020
2020
2020
2020
2024
2024
2024
2021
2021
2021
2021
2021
2021
2019
2019
2019
2019
2019
2019
2019
2022
2022
2022
2018
2018
2018
2019
2019
2019
2021
2021
2021
2018
2018
2018
2018
2019
2019
2019
2021
2021
2021
2017
2017
2017
2021
2021
2021
2022
2022
2022
2022
2019
2019
2019
2020
2020
2020
2019
2019
2019
2017
2017
2017
2020
2020
2020
2020
2020
2020
2020
2024
2024
2024
2019
2019
2019
2017
2017
2017
2016
2016
2016
2016
2024
2024
2024
2020
2020
2020
2019
2019
2019
2021
2021
2021
2019
2019
2019
2019
2021
2021
2021
2021
2021
2021
2019
2019
2019
2021
2021
2021
2021
2021
2021
2021
2021
2021
2021
2020
2020
2020
2023
2023
2023
2019
2019
2019
2022
2022
2022
2022
2015
2015
2015
2023
2023
2023
2023
2023
2023
2020
2020
2020
2021
2021
2021
2021
2021
2021
2021
2017
2017
2017
2019
2019
2019
2022
2022
2022
2019
2019
2019
2019
2021
2021
2021
2021
2021
2021
2023
2023
2023
2020
2020
2020
2023
2023
2023
2023
2021
2021
2021
2023
2023
2023
2019
2019
2019
2028
2028
2028
2021
2021
2021
2021
2017
2017
2017
2021
2021
2021
2018
2018
2018
2020
2020
2020
2015
2015
2015
2015
2017
2017
2017
2021
2021
2021
2020
2020
2020
2012
2012
2012
2017
2017
2017
2017
2021
2021
2021
2026
2026
2026
2019
2019
2019
2021
2021
2021
2020
2020
2020
2020
2023
2023
2023
2021
2021
2021
2020
2020
2020
2022
2022
2022
2019
2019
2019
2019
2021
2021
2021
2023
2023
2023
2022
2022
2022
2017
2017
2017
2019
2019
2019
2019
2017
2017
2017
2020
2020
2020
2015
2015
2015
2021
2021
2021
2021
2021
2021
2021
2023
2023
2023
2019
2019
2019
2019
2019
2019
2014
2014
2014
2018
2018
2018
2018
2020
2020
2020
2021
2021
2021
2020
2020
2020
2021
2021
2021
2017
2017
2017
2017
2008
2008
2008
2022
2022
2022
2017
2017
2017
2019
2019
2019
2018
2018
2018
2018
2018
2018
2018
2026
2026
2026
2019
2019
2019
2016
2016
2016
2022
2022
2022
2022
2016
2016
2016
2021
2021
2021
2017
2017
2017
2021
2021
2021
2019
2019
2019
2019
2016
2016
2016
2020
2020
2020
2020
2020
2020
2019
2019
2019
2021
2021
2021
2021
2019
2019
2019
2026
2026
2026
2016
2016
2016
2020
2020
2020
2020
2020
2020
2020
2021
2021
2021
2019
2019
2019
2023
2023
2023
2021
2021
2021
2019
2019
2019
2019
2018
2018
2018
2021
2021
2021
2020
2020
2020
2016
2016
2016
2020
2020
2020
2020
2012
2012
2012
2022
2022
2022
2013
2013
2013
2017
2017
2017
2026
2026
2026
2026
2016
2016
2016
2022
2022
2022
2021
2021
2021
2027
2027
2027
2020
2020
2020
2020
2020
2020
2020
2017
2017
2017
2013
2013
2013
2020
2020
2020
2027
2027
2027
2027
2018
2018
2018
2020
2020
2020
2015
2015
2015
2020
2020
2020
2018
2018
2018
2018
2019
2019
2019
2023
2023
2023
2021
2021
2021
2020
2020
2020
2018
2018
2018
2018
2020
2020
2020
2020
2020
2020
2026
2026
2026
2019
2019
2019
2018
2018
2018
2018
2016
2016
2016
2020
2020
2020
2019
2019
2019
2020
2020
2020
2021
2021
2021
2021
2019
2019
2019
2022
2022
2022
2017
2017
2017
2021
2021
2021
2022
2022
2022
2022
2020
2020
2020
2022
2022
2022
2022
2022
2022
2016
2016
2016
2020
2020
2020
2020
2019
2019
2019
2018
2018
2018
2019
2019
2019
2018
2018
2018
2025
2025
2025
2025
2019
2019
2019
2020
2020
2020
2017
2017
2017
2021
2021
2021
2021
2021
2021
2021
2021
2021
2021
2025
2025
2025
2019
2019
2019
2024
2024
2024
2021
2021
2021
2021
2021
2021
2021
2023
2023
2023
2019
2019
2019
2021
2021
2021
2022
2022
2022
2022
2018
2018
2018
2022
2022
2022
2019
2019
2019
2025
2025
2025
2025
2025
2025
2025
2018
2018
2018
2026
2026
2026
2021
2021
2021
2014
2014
2014
2019
2019
2019
2019
2019
2019
2019
2020
2020
2020
2024
2024
2024
2020
2020
2020
2019
2019
2019
2019
2015
2015
2015
2021
2021
2021
2018
2018
2018
2023
2023
2023
2020
2020
2020
2020
2013
2013
2013
2019
2019
2019
2021
2021
2021
2021
2021
2021
2020
2020
2020
2020
2021
2021
2021
2021
2021
2021
2020
2020
2020
2019
2019
2019
2020
2020
2020
2020
2019
2019
2019
2029
2029
2029
2020
2020
2020
2020
2020
2020
2018
2018
2018
2018
2019
2019
2019
2021
2021
2021
2022
2022
2022
2023
2023
2023
2020
2020
2020
2020
2023
2023
2023
2022
2022
2022
2020
2020
2020
2021
2021
2021
2018
2018
2018
2018
2015
2015
2015
2020
2020
2020
2021
2021
2021
2021
2021
2021
2020
2020
2020
2020
2021
2021
2021
2024
2024
2024
2019
2019
2019
2020
2020
2020
2021
2021
2021
2021
2017
2017
2017
2021
2021
2021
2014
2014
2014
2022
2022
2022
2020
2020
2020
2020
2020
2020
2020
2018
2018
2018
2023
2023
2023
2017
2017
2017
2019
2019
2019
2019
2022
2022
2022
2024
2024
2024
2018
2018
2018
2023
2023
2023
2020
2020
2020
2020
2013
2013
2013
2024
2024
2024
2021
2021
2021
2020
2020
2020
2015
2015
2015
2015
2015
2015
2015
2024
2024
2024
2018
2018
2018
2022
2022
2022
2021
2021
2021
2021
2021
2021
2021
2017
2017
2017
2022
2022
2022
2020
2020
2020
2019
2019
2019
2019
2021
2021
2021
2022
2022
2022
2020
2020
2020
2026
2026
2026
2019
2019
2019
2019
2017
2017
2017
2022
2022
2022
2018
2018
2018
2014
2014
2014
2020
2020
2020
2020
2024
2024
2024
2022
2022
2022
2020
2020
2020
2017
2017
2017
2021
2021
2021
2021
2021
2021
2021
2020
2020
2020
2022
2022
2022
2021
2021
2021
2019
2019
2019
2019
2025
2025
2025
2024
2024
2024
2018
2018
2018
2021
2021
2021
2014
2014
2014
2014
2015
2015
2015
2029
2029
2029
2019
2019
2019
2020
2020
2020
2020
2020
2020
2020
2021
2021
2021
2026
2026
2026
2014
2014
2014
2021
2021
2021
2021
2021
2021
2021
2020
2020
2020
2021
2021
2021
2019
2019
2019
2021
2021
2021
2022
2022
2022
2022
2016
2016
2016
2018
2018
2018
2018
2018
2018
2021
2021
2021
2023
2023
2023
2023
2023
2023
2023
2021
2021
2021
2023
2023
2023
2021
2021
2021
2023
2023
2023
2023
2023
2023
2023
2020
2020
2020
2020
2020
2020
2018
2018
2018
2021
2021
2021
2021
2019
2019
2019
2023
2023
2023
2017
2017
2017
2019
2019
2019
2019
2019
2019
2019
2023
2023
2023
2020
2020
2020
2021
2021
2021
2020
2020
2020
2020
2020
2020
2020
2020
2020
2020
2020
2020
2020
2020
2020
2020
2017
2017
2017
2021
2021
2021
2021
2014
2014
2014
2023
2023
2023
2020
2020
2020
2019
2019
2019
2029
2029
2029
2029
2022
2022
2022
2021
2021
2021
2020
2020
2020
2019
2019
2019
2022
2022
2022
2022
2017
2017
2017
2024
2024
2024
2014
2014
2014
2019
2019
2019
2027
2027
2027
2027
2020
2020
2020
2024
2024
2024
2021
2021
2021
2026
2026
2026
2019
2019
2019
2019
2019
2019
2019
2024
2024
2024
2022
2022
2022
2015
2015
2015
2014
2014
2014
2014
2022
2022
2022
2019
2019
2019
2014
2014
2014
2020
2020
2020
2020
2020
2020
2020
2019
2019
2019
2021
2021
2021
2018
2018
2018
2023
2023
2023
2024
2024
2024
2024
2019
2019
2019
2022
2022
2022
2021
2021
2021
2021
2021
2021
2017
2017
2017
2017
2021
2021
2021
2019
2019
2019
2017
2017
2017
2023
2023
2023
2018
2018
2018
2018
2017
2017
2017
2028
2028
2028
2020
2020
2020
2017
2017
2017
2020
2020
2020
2020
2018
2018
2018
2019
2019
2019
2022
2022
2022
2020
2020
2020
2022
2022
2022
2022
2020
2020
2020
2026
2026
2026
2020
2020
2020
2019
2019
2019
2014
2014
2014
2014
2021
2021
2021
2021
2021
2021
2022
2022
2022
2018
2018
2018
2023
2023
2023
2023
2024
2024
2024
2025
2025
2025
2021
2021
2021
2022
2022
2022
2018
2018
2018
2018
2019
2019
2019
2025
2025
2025
2019
2019
2019
2017
2017
2017
2011
2011
2011
2011
2019
2019
2019
2021
2021
2021
2026
2026
2026
2018
2018
2018
2021
2021
2021
2021
2019
2019
2019
2015
2015
2015
2020
2020
2020
2020
2020
2020
2021
2021
2021
2021
2018
2018
2018
2020
2020
2020
2016
2016
2016
2022
2022
2022
2019
2019
2019
2019
2017
2017
2017
2017
2017
2017
2020
2020
2020
2024
2024
2024
2018
2018
2018
2018
2018
2018
2018
2027
2027
2027
2020
2020
2020
2023
2023
2023
2020
2020
2020
2020
2017
2017
2017
2020
2020
2020
2021
2021
2021
2018
2018
2018
2021
2021
2021
2021
2017
2017
2017
2023
2023
2023
2020
2020
2020
2023
2023
2023
2017
2017
2017
2017
2018
2018
2018
2023
2023
2023
2016
2016
2016
2021
2021
2021
2019
2019
2019
2019
2017
2017
2017
2018
2018
2018
2018
2018
2018
2013
2013
2013
2020
2020
2020
2020
2019
2019
2019
2021
2021
2021
2022
2022
2022
2019
2019
2019
2021
2021
2021
2021
2021
2021
2021
2020
2020
2020
2021
2021
2021
2018
2018
2018
2020
2020
2020
2020
2022
2022
2022
2018
2018
2018
2019
2019
2019
2024
2024
2024
2020
2020
2020
2020
2018
2018
2018
2019
2019
2019
2015
2015
2015
2020
2020
2020
2017
2017
2017
2017
2021
2021
2021
2018
2018
2018
2020
2020
2020
2015
2015
2015
2023
2023
2023
2023
2024
2024
2024
2021
2021
2021
2026
2026
2026
2019
2019
2019
2022
2022
2022
2022
2023
2023
2023
2021
2021
2021
2022
2022
2022
2012
2012
2012
2021
2021
2021
2021
2019
2019
2019
2020
2020
2020
2018
2018
2018
2019
2019
2019
2020
2020
2020
2020
2023
2023
2023
2023
2023
2023
2020
2020
2020
2020
2020
2020
2021
2021
2021
2021
2018
2018
2018
2028
2028
2028
2020
2020
2020
2022
2022
2022
2023
2023
2023
2023
2018
2018
2018
2020
2020
2020
2019
2019
2019
2019
2019
2019
2019
2019
2019
2019
2019
2019
2019
2019
2019
2019
2016
2016
2016
2028
2028
2028
2021
2021
2021
2021
2021
2021
2021
2022
2022
2022
2019
2019
2019
2019
2019
2019
2021
2021
2021
2021
2012
2012
2012
2019
2019
2019
2018
2018
2018
2018
2018
2018
2021
2021
2021
2021
2021
2021
2021
2025
2025
2025
2020
2020
2020
2019
2019
2019
2022
2022
2022
2022
2024
2024
2024
2020
2020
2020
2010
2010
2010
2019
2019
2019
2018
2018
2018
2018
2019
2019
2019
2014
2014
2014
2020
2020
2020
2023
2023
2023
2025
2025
2025
2025
2021
2021
2021
2021
2021
2021
2025
2025
2025
2018
2018
2018
2017
2017
2017
2017
2018
2018
2018
2025
2025
2025
2021
2021
2021
2016
2016
2016
2021
2021
2021
2021
2018
2018
2018
2022
2022
2022
2023
2023
2023
2017
2017
2017
2021
2021
2021
2021
2016
2016
2016
2021
2021
2021
2020
2020
2020
2013
2013
2013
2018
2018
2018
2018
2021
2021
2021
2022
2022
2022
2023
2023
2023
2019
2019
2019
2018
2018
2018
2018
2020
2020
2020
2025
2025
2025
2019
2019
2019
2022
2022
2022
2020
2020
2020
2020
2020
2020
2020
2020
2020
2020
2016
2016
2016
2020
2020
2020
2019
2019
2019
2019
2019
2019
2019
2023
2023
2023
2020
2020
2020
2024
2024
2024
2021
2021
2021
2021
2017
2017
2017
2019
2019
2019
2020
2020
2020
2021
2021
2021
2022
2022
2022
2022
2015
2015
2015
2022
2022
2022
2020
2020
2020
2015
2015
2015
2017
2017
2017
2017
2019
2019
2019
2023
2023
2023
2020
2020
2020
2020
2020
2020
2023
2023
2023
2023
2019
2019
2019
2019
2019
2019
2018
2018
2018
2021
2021
2021
2022
2022
2022
2022
2021
2021
2021
2021
2021
2021
2023
2023
2023
2019
2019
2019
2020
2020
2020
2020
2018
2018
2018
2024
2024
2024
2018
2018
2018
2017
2017
2017
2020
2020
2020
2020
2021
2021
2021
2020
2020
2020
2017
2017
2017
2019
2019
2019
2010
2010
2010
2010
2021
2021
2021
2020
2020
2020
2020
2020
2020
2016
2016
2016
2019
2019
2019
2019
2018
2018
2018
2023
2023
2023
2017
2017
2017
2019
2019
2019
2019
2019
2019
2019
2017
2017
2017
2021
2021
2021
2019
2019
2019
2021
2021
2021
2019
2019
2019
2019
2019
2019
2019
2020
2020
2020
2015
2015
2015
2019
2019
2019
2024
2024
2024
2024
2024
2024
2024
2021
2021
2021
2020
2020
2020
2024
2024
2024
2018
2018
2018
2018
2020
2020
2020
2024
2024
2024
2015
2015
2015
2020
2020
2020
2023
2023
2023
2023
2020
2020
2020
2022
2022
2022
2021
2021
2021
2027
2027
2027
2019
2019
2019
2019
2018
2018
2018
2021
2021
2021
2022
2022
2022
2020
2020
2020
2020
2020
2020
2020
2018
2018
2018
2018
2018
2018
2020
2020
2020
2023
2023
2023
2019
2019
2019
2019
2018
2018
2018
2025
2025
2025
2019
2019
2019
2018
2018
2018
2020
2020
2020
2020
2020
2020
2020
2022
2022
2022
2020
2020
2020
2018
2018
2018
2017
2017
2017
2017
2019
2019
2019
2019
2019
2019
2018
2018
2018
2020
2020
2020
2017
2017
2017
2017
2017
2017
2017
2021
2021
2021
2017
2017
2017
2021
2021
2021
2020
2020
2020
2020
2019
2019
2019
2014
2014
2014
2020
2020
2020
2020
2020
2020
2020
2020
2020
2020
2017
2017
2017
2021
2021
2021
2022
2022
2022
2014
2014
2014
2022
2022
2022
2022
2019
2019
2019
2020
2020
2020
2018
2018
2018
2020
2020
2020
2020
2020
2020
2020
2013
2013
2013
2020
2020
2020
2020
2020
2020
2020
2020
2020
2021
2021
2021
2021
2019
2019
2019
2019
2019
2019
2021
2021
2021
2022
2022
2022
2019
2019
2019
2019
2017
2017
2017
2020
2020
2020
2021
2021
2021
2017
2017
2017
2020
2020
2020
2020
2019
2019
2019
2022
2022
2022
2016
2016
2016
2017
2017
2017
2019
2019
2019
2019
2018
2018
2018
2021
2021
2021
2019
2019
2019
2021
2021
2021
2018
2018
2018
2018
2019
2019
2019
2012
2012
2012
2019
2019
2019
2020
2020
2020
2022
2022
2022
2022
2021
2021
2021
2020
2020
2020
2019
2019
2019
2022
2022
2022
2019
2019
2019
2019
2020
2020
2020
2019
2019
2019
2019
2019
2019
2019
2019
2019
2018
2018
2018
2018
2019
2019
2019
2020
2020
2020
2020
2020
2020
2016
2016
2016
2020
2020
2020
2020
2025
2025
2025
2021
2021
2021
2021
2021
2021
2018
2018
2018
2019
2019
2019
2019
2022
2022
2022
2021
2021
2021
2020
2020
2020
2015
2015
2015
2018
2018
2018
2018
2019
2019
2019
2022
2022
2022
2019
2019
2019
2021
2021
2021
2022
2022
2022
2022
2023
2023
2023
2020
2020
2020
2018
2018
2018
2023
2023
2023
2019
2019
2019
2019
2020
2020
2020
2026
2026
2026
2024
2024
2024
2019
2019
2019
2019
2019
2019
2019
2020
2020
2020
2020
2020
2020
2021
2021
2021
2015
2015
2015
2018
2018
2018
2018
2020
2020
2020
2020
2020
2020
2020
2020
2020
2019
2019
2019
2018
2018
2018
2018
2016
2016
2016
2021
2021
2021
2016
2016
2016
2024
2024
2024
2020
2020
2020
2020
2018
2018
2018
2021
2021
2021
2019
2019
2019
2022
2022
2022
2017
2017
2017
2017
2021
2021
2021
2021
2021
2021
2021
2021
2021
2023
2023
2023
2020
2020
2020
2020
2019
2019
2019
2021
2021
2021
2021
2021
2021
2019
2019
2019
2017
2017
2017
2017
2019
2019
2019
2020
2020
2020
2016
2016
2016
2022
2022
2022
2021
2021
2021
2021
2019
2019
2019
2020
2020
2020
2021
2021
2021
2021
2021
2021
2016
2016
2016
2016
2021
2021
2021
2021
2021
2021
2015
2015
2015
2015
2015
2015
2023
2023
2023
2023
2017
2017
2017
2019
2019
2019
2021
2021
2021
2016
2016
2016
2017
2017
2017
2017
2023
2023
2023
2022
2022
2022
2023
2023
2023
2017
2017
2017
2021
2021
2021
2021
2020
2020
2020
2026
2026
2026
2021
2021
2021
2021
2021
2021
2020
2020
2020
2020
2023
2023
2023
2018
2018
2018
2023
2023
2023
2020
2020
2020
2020
2020
2020
2020
2022
2022
2022
2022
2022
2022
2015
2015
2015
2017
2017
2017
2024
2024
2024
2024
2020
2020
2020
2019
2019
2019
2020
2020
2020
2022
2022
2022
2020
2020
2020
2020
2018
2018
2018
2016
2016
2016
2021
2021
2021
2019
2019
2019
2022
2022
2022
2022
2023
2023
2023
2016
2016
2016
2014
2014
2014
2020
2020
2020
2020
2020
2020
2020
2018
2018
2018
2029
2029
2029
2025
2025
2025
2018
2018
2018
2021
2021
2021
2021
2018
2018
2018
2020
2020
2020
2026
2026
2026
2014
2014
2014
2020
2020
2020
2020
2031
2031
2031
2016
2016
2016
2021
2021
2021
2019
2019
2019
2023
2023
2023
2023
2024
2024
2024
2021
2021
2021
2019
2019
2019
2020
2020
2020
2017
2017
2017
2017
2015
2015
2015
2017
2017
2017
2020
2020
2020
2016
2016
2016
2019
2019
2019
2019
2013
2013
2013
2022
2022
2022
2018
2018
2018
2019
2019
2019
2020
2020
2020
2020
2021
2021
2021
2024
2024
2024
2018
2018
2018
2020
2020
2020
2021
2021
2021
2021
2016
2016
2016
2023
2023
2023
2021
2021
2021
2019
2019
2019
2021
2021
2021
2021
2017
2017
2017
2020
2020
2020
2019
2019
2019
2017
2017
2017
2021
2021
2021
2021
2023
2023
2023
2023
2023
2023
2025
2025
2025
2021
2021
2021
2019
2019
2019
2019
2020
2020
2020
2021
2021
2021
2017
2017
2017
2018
2018
2018
2017
2017
2017
2017
2016
2016
2016
2020
2020
2020
2023
2023
2023
2014
2014
2014
2020
2020
2020
2020
2019
2019
2019
2018
2018
2018
2018
2018
2018
2024
2024
2024
2019
2019
2019
2019
2020
2020
2020
2019
2019
2019
2017
2017
2017
2020
2020
2020
2022
2022
2022
2022
2019
2019
2019
2020
2020
2020
2019
2019
2019
2021
2021
2021
2016
2016
2016
2016
2018
2018
2018
2016
2016
2016
2020
2020
2020
2013
2013
2013
2020
2020
2020
2020
2020
2020
2020
2018
2018
2018
2017
2017
2017
2016
2016
2016
2021
2021
2021
2021
2029
2029
2029
2018
2018
2018
2018
2018
2018
2020
2020
2020
2021
2021
2021
2021
2018
2018
2018
2019
2019
2019
2021
2021
2021
2020
2020
2020
2020
2020
2020
2020
2019
2019
2019
2020
2020
2020
2018
2018
2018
2022
2022
2022
2018
2018
2018
2018
2022
2022
2022
2014
2014
2014
2022
2022
2022
2017
2017
2017
2033
2033
2033
2033
2020
2020
2020
2019
2019
2019
2018
2018
2018
2021
2021
2021
2013
2013
2013
2013
2020
2020
2020
2021
2021
2021
2013
2013
2013
2021
2021
2021
2019
2019
2019
2019
2021
2021
2021
2020
2020
2020
2018
2018
2018
2020
2020
2020
2020
2020
2020
2020
2020
2020
2020
2024
2024
2024
2017
2017
2017
2018
2018
2018
2019
2019
2019
2019
2018
2018
2018
2020
2020
2020
2021
2021
2021
2018
2018
2018
2016
2016
2016
2016
2019
2019
2019
2021
2021
2021
2017
2017
2017
2017
2017
2017
2020
2020
2020
2020
2023
2023
2023
2019
2019
2019
2020
2020
2020
2017
2017
2017
2018
2018
2018
2018
2017
2017
2017
2024
2024
2024
2017
2017
2017
2018
2018
2018
2019
2019
2019
2019
2016
2016
2016
2018
2018
2018
2021
2021
2021
2018
2018
2018
2024
2024
2024
2024
2021
2021
2021
2016
2016
2016
2019
2019
2019
2021
2021
2021
2016
2016
2016
2016
2019
2019
2019
2022
2022
2022
2019
2019
2019
2019
2019
2019
2024
2024
2024
2024
2021
2021
2021
2021
2021
2021
2023
2023
2023
2018
2018
2018
2017
2017
2017
2017
2018
2018
2018
2019
2019
2019
2027
2027
2027
2020
2020
2020
2021
2021
2021
2021
2015
2015
2015
2023
2023
2023
2019
2019
2019
2022
2022
2022
2017
2017
2017
2017
2016
2016
2016
2029
2029
2029
2017
2017
2017
2019
2019
2019
2018
2018
2018
2018
2019
2019
2019
2016
2016
2016
2021
2021
2021
2022
2022
2022
2018
2018
2018
2018
2021
2021
2021
2021
2021
2021
2017
2017
2017
2019
2019
2019
2023
2023
2023
2023
2018
2018
2018
2023
2023
2023
2016
2016
2016
2022
2022
2022
2019
2019
2019
2019
2019
2019
2019
2021
2021
2021
2018
2018
2018
2019
2019
2019
2019
2019
2019
2019
2019
2019
2019
2021
2021
2021
2018
2018
2018
2016
2016
2016
2021
2021
2021
2021
2023
2023
2023
2018
2018
2018
2019
2019
2019
2017
2017
2017
2023
2023
2023
2023
2016
2016
2016
2022
2022
2022
2020
2020
2020
2025
2025
2025
2019
2019
2019
2019
2017
2017
2017
2024
2024
2024
2021
2021
2021
2019
2019
2019
2025
2025
2025
2025
2018
2018
2018
2020
2020
2020
2019
2019
2019
2022
2022
2022
2018
2018
2018
2018
2017
2017
2017
2021
2021
2021
2018
2018
2018
2022
2022
2022
2017
2017
2017
2017
2018
2018
2018
2017
2017
2017
2018
2018
2018
2017
2017
2017
2024
2024
2024
2024
2019
2019
2019
2019
2019
2019
2018
2018
2018
2021
2021
2021
2024
2024
2024
2024
2019
2019
2019
2021
2021
2021
2017
2017
2017
2024
2024
2024
2016
2016
2016
2016
2017
2017
2017
2021
2021
2021
2019
2019
2019
2024
2024
2024
2020
2020
2020
2020
2019
2019
2019
2021
2021
2021
2019
2019
2019
2023
2023
2023
2024
2024
2024
2024
2019
2019
2019
2019
2019
2019
2022
2022
2022
2020
2020
2020
2019
2019
2019
2019
2016
2016
2016
2020
2020
2020
2019
2019
2019
2020
2020
2020
2024
2024
2024
2024
2019
2019
2019
2022
2022
2022
2022
2022
2022
2028
2028
2028
2022
2022
2022
2022
2025
2025
2025
2022
2022
2022
2019
2019
2019
2021
2021
2021
2017
2017
2017
2017
2018
2018
2018
2021
2021
2021
2021
2021
2021
2018
2018
2018
2021
2021
2021
2021
2018
2018
2018
2020
2020
2020
2021
2021
2021
2023
2023
2023
2023
2023
2023
2023
2016
2016
2016
2019
2019
2019
2027
2027
2027
2019
2019
2019
2019
2019
2019
2019
2016
2016
2016
2021
2021
2021
2020
2020
2020
2021
2021
2021
2014
2014
2014
2014
2018
2018
2018
2020
2020
2020
2021
2021
2021
2027
2027
2027
2020
2020
2020
2020
2017
2017
2017
2022
2022
2022
2016
2016
2016
2025
2025
2025
2020
2020
2020
2020
2017
2017
2017
2018
2018
2018
2023
2023
2023
2021
2021
2021
2021
2021
2021
2021
2022
2022
2022
2021
2021
2021
2014
2014
2014
2019
2019
2019
2027
2027
2027
2027
2020
2020
2020
2019
2019
2019
2018
2018
2018
2022
2022
2022
2019
2019
2019
2019
2019
2019
2019
2019
2019
2019
2015
2015
2015
2015
2015
2015
2018
2018
2018
2018
2020
2020
2020
2024
2024
2024
2019
2019
2019
2021
2021
2021
2021
2021
2021
2021
2021
2021
2021
2023
2023
2023
2022
2022
2022
2020
2020
2020
2023
2023
2023
2023
2020
2020
2020
2018
2018
2018
2021
2021
2021
2022
2022
2022
2020
2020
2020
2020
2021
2021
2021
2019
2019
2019
2020
2020
2020
2020
2020
2020
2018
2018
2018
2018
2018
2018
2018
2023
2023
2023
2017
2017
2017
2020
2020
2020
2020
2020
2020
2020
2019
2019
2019
2021
2021
2021
2013
2013
2013
2024
2024
2024
2021
2021
2021
2021
2016
2016
2016
2018
2018
2018
2021
2021
2021
2025
2025
2025
2021
2021
2021
2021
2018
2018
2018
2024
2024
2024
2016
2016
2016
2025
2025
2025
2020
2020
2020
2020
2021
2021
2021
2022
2022
2022
2024
2024
2024
2020
2020
2020
2019
2019
2019
2019
2018
2018
2018
2026
2026
2026
2017
2017
2017
2019
2019
2019
2020
2020
2020
2020
2020
2020
2020
2024
2024
2024
2020
2020
2020
2014
2014
2014
2020
2020
2020
2020
2017
2017
2017
2022
2022
2022
2017
2017
2017
2019
2019
2019
2019
2019
2019
2019
2021
2021
2021
2020
2020
2020
2021
2021
2021
2021
2021
2021
2020
2020
2020
2020
2021
2021
2021
2022
2022
2022
2019
2019
2019
2021
2021
2021
2020
2020
2020
2020
2018
2018
2018
2023
2023
2023
2020
2020
2020
2018
2018
2018
2018
2018
2018
2018
2017
2017
2017
2018
2018
2018
2020
2020
2020
2019
2019
2019
2020
2020
2020
2020
2014
2014
2014
2025
2025
2025
2013
2013
2013
2020
2020
2020
2022
2022
2022
2022
2024
2024
2024
2019
2019
2019
2021
2021
2021
2020
2020
2020
2015
2015
2015
2015
2021
2021
2021
2021
2021
2021
2023
2023
2023
2021
2021
2021
2017
2017
2017
2017
2021
2021
2021
2023
2023
2023
2017
2017
2017
2019
2019
2019
2026
2026
2026
2026
2024
2024
2024
2020
2020
2020
2021
2021
2021
2018
2018
2018
2021
2021
2021
2021
2010
2010
2010
2021
2021
2021
2019
2019
2019
2018
2018
2018
2015
2015
2015
2015
2019
2019
2019
2019
2019
2019
2020
2020
2020
2022
2022
2022
2022
2022
2022
2022
2020
2020
2020
2019
2019
2019
2019
2019
2019
2022
2022
2022
2020
2020
2020
2020
2015
2015
2015
2018
2018
2018
2019
2019
2019
2019
2019
2019
2019
2019
2019
2019
2019
2019
2019
2021
2021
2021
2016
2016
2016
2021
2021
2021
2019
2019
2019
2019
2021
2021
2021
2020
2020
2020
2019
2019
2019
2022
2022
2022
2026
2026
2026
2026
2017
2017
2017
2022
2022
2022
2020
2020
2020
2022
2022
2022
2018
2018
2018
2018
2015
2015
2015
2019
2019
2019
2018
2018
2018
2018
2018
2018
2025
2025
2025
2025
2021
2021
2021
2019
2019
2019
2020
2020
2020
2019
2019
2019
2021
2021
2021
2021
2018
2018
2018
2020
2020
2020
2019
2019
2019
2019
2019
2019
2025
2025
2025
2025
2021
2021
2021
2018
2018
2018
2020
2020
2020
2029
2029
2029
2026
2026
2026
2026
2019
2019
2019
2022
2022
2022
2021
2021
2021
2022
2022
2022
2017
2017
2017
2017
2019
2019
2019
2023
2023
2023
2021
2021
2021
2017
2017
2017
2018
2018
2018
2018
2018
2018
2018
2022
2022
2022
2020
2020
2020
2016
2016
2016
2018
2018
2018
2018
2021
2021
2021
2023
2023
2023
2015
2015
2015
2021
2021
2021
2015
2015
2015
2015
2022
2022
2022
2020
2020
2020
2026
2026
2026
2018
2018
2018
2017
2017
2017
2017
2017
2017
2017
2022
2022
2022
2020
2020
2020
2019
2019
2019
2019
2019
2019
2019
2021
2021
2021
2020
2020
2020
2019
2019
2019
2023
2023
2023
2017
2017
2017
2017
2019
2019
2019
2018
2018
2018
2022
2022
2022
2024
2024
2024
2021
2021
2021
2021
2018
2018
2018
2020
2020
2020
2017
2017
2017
2020
2020
2020
2022
2022
2022
2022
2018
2018
2018
2016
2016
2016
2021
2021
2021
2020
2020
2020
2019
2019
2019
2019
2021
2021
2021
2019
2019
2019
2020
2020
2020
2021
2021
2021
2020
2020
2020
2020
2018
2018
2018
2021
2021
2021
2023
2023
2023
2025
2025
2025
2020
2020
2020
2020
2014
2014
2014
2026
2026
2026
2017
2017
2017
2025
2025
2025
2021
2021
2021
2021
2019
2019
2019
2025
2025
2025
2022
2022
2022
2016
2016
2016
2019
2019
2019
2019
2020
2020
2020
2018
2018
2018
2019
2019
2019
2021
2021
2021
2018
2018
2018
2018
2019
2019
2019
2021
2021
2021
2025
2025
2025
2021
2021
2021
2018
2018
2018
2018
2013
2013
2013
2020
2020
2020
2019
2019
2019
2021
2021
2021
2022
2022
2022
2022
2017
2017
2017
2024
2024
2024
2017
2017
2017
2017
2017
2017
2021
2021
2021
2021
2015
2015
2015
2017
2017
2017
2023
2023
2023
2023
2023
2023
2020
2020
2020
2020
2020
2020
2020
2014
2014
2014
2022
2022
2022
2021
2021
2021
2018
2018
2018
2018
2020
2020
2020
2024
2024
2024
2022
2022
2022
2020
2020
2020
2020
2020
2020
2020
2020
2020
2020
2016
2016
2016
2025
2025
2025
2019
2019
2019
2020
2020
2020
2020
2014
2014
2014
2016
2016
2016
2019
2019
2019
2019
2019
2019
2025
2025
2025
2025
2021
2021
2021
2026
2026
2026
2023
2023
2023
2020
2020
2020
2021
2021
2021
2021
2025
2025
2025
2018
2018
2018
2020
2020
2020
2020
2020
2020
2018
2018
2018
2018
2014
2014
2014
2019
2019
2019
2015
2015
2015
2020
2020
2020
2019
2019
2019
2019
2019
2019
2019
2018
2018
2018
2017
2017
2017
2019
2019
2019
2025
2025
2025
2025
2016
2016
2016
2021
2021
2021
2020
2020
2020
2019
2019
2019
2014
2014
2014
2014
2024
2024
2024
2020
2020
2020
2019
2019
2019
2022
2022
2022
2016
2016
2016
2016
2016
2016
2016
2021
2021
2021
2020
2020
2020
2020
2020
2020
2012
2012
2012
2012
2022
2022
2022
2024
2024
2024
2019
2019
2019
2013
2013
2013
2022
2022
2022
2022
2025
2025
2025
2022
2022
2022
2017
2017
2017
2019
2019
2019
2023
2023
2023
2023
2019
2019
2019
2022
2022
2022
2017
2017
2017
2021
2021
2021
2020
2020
2020
2020
2016
2016
2016
2021
2021
2021
2017
2017
2017
2020
2020
2020
2020
2020
2020
2020
2020
2020
2020
2020
2020
2020
2016
2016
2016
2016
2016
2016
2023
2023
2023
2023
2021
2021
2021
2022
2022
2022
2023
2023
2023
2020
2020
2020
2020
2020
2020
2020
2017
2017
2017
2022
2022
2022
2021
2021
2021
2016
2016
2016
2015
2015
2015
2015
2016
2016
2016
2020
2020
2020
2014
2014
2014
2018
2018
2018
2019
2019
2019
2019
2019
2019
2019
2023
2023
2023
2022
2022
2022
2019
2019
2019
2017
2017
2017
2017
2025
2025
2025
2023
2023
2023
2017
2017
2017
2018
2018
2018
2018
2018
2018
2018
2019
2019
2019
2020
2020
2020
2025
2025
2025
2022
2022
2022
2019
2019
2019
2019
2013
2013
2013
2021
2021
2021
2023
2023
2023
2022
2022
2022
2019
2019
2019
2019
2019
2019
2019
2023
2023
2023
2025
2025
2025
2019
2019
2019
2020
2020
2020
2020
2020
2020
2020
2022
2022
2022
2021
2021
2021
2021
2021
2021
2016
2016
2016
2016
2019
2019
2019
2017
2017
2017
2019
2019
2019
2022
2022
2022
2019
2019
2019
2019
2023
2023
2023
2017
2017
2017
2018
2018
2018
2015
2015
2015
2020
2020
2020
2020
2020
2020
2020
2021
2021
2021
2016
2016
2016
2021
2021
2021
2019
2019
2019
2019
2016
2016
2016
2022
2022
2022
2019
2019
2019
2021
2021
2021
2018
2018
2018
2018
2017
2017
2017
2020
2020
2020
2014
2014
2014
2020
2020
2020
2019
2019
2019
2019
2020
2020
2020
2025
2025
2025
2017
2017
2017
2021
2021
2021
2021
2021
2021
2021
2021
2021
2021
2024
2024
2024
2020
2020
2020
2021
2021
2021
2022
2022
2022
2022
2016
2016
2016
2015
2015
2015
2021
2021
2021
2018
2018
2018
2024
2024
2024
2024
2020
2020
2020
2021
2021
2021
2016
2016
2016
2019
2019
2019
2012
2012
2012
2012
2018
2018
2018
2024
2024
2024
2021
2021
2021
2018
2018
2018
2017
2017
2017
2017
2022
2022
2022
2019
2019
2019
2023
2023
2023
2020
2020
2020
2020
2020
2020
2020
2022
2022
2022
2020
2020
2020
2020
2020
2020
2020
2020
2020
2022
2022
2022
2022
2016
2016
2016
2022
2022
2022
2015
2015
2015
2021
2021
2021
2021
2021
2021
2021
2018
2018
2018
2024
2024
2024
2020
2020
2020
2018
2018
2018
2020
2020
2020
2020
2021
2021
2021
2022
2022
2022
2012
2012
2012
2022
2022
2022
2014
2014
2014
2014
2020
2020
2020
2023
2023
2023
2019
2019
2019
2026
2026
2026
2024
2024
2024
2024
2019
2019
2019
2021
2021
2021
2020
2020
2020
2023
2023
2023
2019
2019
2019
2019
2019
2019
2019
2024
2024
2024
2020
2020
2020
2021
2021
2021
2021
2021
2021
2021
2021
2021
2021
2023
2023
2023
2016
2016
2016
2020
2020
2020
2017
2017
2017
2017
2019
2019
2019
2029
2029
2029
2019
2019
2019
2020
2020
2020
2018
2018
2018
2018
2019
2019
2019
2021
2021
2021
2025
2025
2025
2019
2019
2019
2018
2018
2018
2018
2018
2018
2018
2019
2019
2019
2020
2020
2020
2020
2020
2020
2021
2021
2021
2021
2017
2017
2017
2018
2018
2018
2019
2019
2019
2023
2023
2023
2021
2021
2021
2021
2018
2018
2018
2013
2013
2013
2018
2018
2018
2018
2018
2018
2019
2019
2019
2019
2018
2018
2018
2021
2021
2021
2021
2021
2021
2016
2016
2016
2019
2019
2019
2019
2019
2019
2019
2026
2026
2026
2016
2016
2016
2020
2020
2020
2019
2019
2019
2019
2020
2020
2020
2025
2025
2025
2020
2020
2020
2019
2019
2019
2017
2017
2017
2017
2025
2025
2025
2018
2018
2018
2020
2020
2020
2021
2021
2021
2020
2020
2020
2020
2020
2020
2020
2017
2017
2017
2018
2018
2018
2016
2016
2016
2021
2021
2021
2021
2017
2017
2017
2021
2021
2021
2021
2021
2021
2019
2019
2019
2023
2023
2023
2023
2018
2018
2018
2023
2023
2023
2019
2019
2019
2021
2021
2021
2023
2023
2023
2023
2018
2018
2018
2020
2020
2020
2016
2016
2016
2019
2019
2019
2018
2018
2018
2018
2022
2022
2022
2025
2025
2025
2020
2020
2020
2011
2011
2011
2020
2020
2020
2020
2019
2019
2019
2022
2022
2022
2024
2024
2024
2018
2018
2018
2018
2018
2018
2018
2016
2016
2016
2018
2018
2018
2020
2020
2020
2022
2022
2022
2022
2022
2022
2022
2023
2023
2023
2020
2020
2020
2021
2021
2021
2027
2027
2027
2022
2022
2022
2022
2021
2021
2021
2020
2020
2020
2021
2021
2021
2019
2019
2019
2016
2016
2016
2016
2019
2019
2019
2022
2022
2022
2027
2027
2027
2017
2017
2017
2021
2021
2021
2021
2021
2021
2021
2019
2019
2019
2019
2019
2019
2021
2021
2021
2015
2015
2015
2015
2024
2024
2024
2020
2020
2020
2019
2019
2019
2017
2017
2017
2020
2020
2020
2020
2021
2021
2021
2016
2016
2016
2019
2019
2019
2019
2019
2019
2019
2019
2019
2019
2018
2018
2018
2021
2021
2021
2018
2018
2018
2018
2018
2018
2019
2019
2019
2019
2020
2020
2020
2021
2021
2021
2020
2020
2020
2017
2017
2017
2015
2015
2015
2015
2017
2017
2017
2020
2020
2020
2015
2015
2015
2016
2016
2016
2019
2019
2019
2019
2020
2020
2020
2021
2021
2021
2019
2019
2019
2021
2021
2021
2019
2019
2019
2019
2019
2019
2019
2021
2021
2021
2017
2017
2017
2022
2022
2022
2020
2020
2020
2020
2018
2018
2018
2022
2022
2022
2014
2014
2014
2019
2019
2019
2015
2015
2015
2015
2018
2018
2018
2017
2017
2017
2022
2022
2022
2016
2016
2016
2019
2019
2019
2019
2019
2019
2019
2023
2023
2023
2018
2018
2018
2019
2019
2019
2021
2021
2021
2021
2020
2020
2020
2023
2023
2023
2020
2020
2020
2012
2012
2012
2023
2023
2023
2023
2017
2017
2017
2011
2011
2011
2018
2018
2018
2018
2018
2018
2012
2012
2012
2012
2019
2019
2019
2023
2023
2023
2018
2018
2018
2019
2019
2019
2018
2018
2018
2018
2019
2019
2019
2018
2018
2018
2023
2023
2023
2022
2022
2022
2020
2020
2020
2020
2020
2020
2020
2025
2025
2025
2021
2021
2021
2015
2015
2015
2022
2022
2022
2022
2017
2017
2017
2022
2022
2022
2017
2017
2017
2021
2021
2021
2019
2019
2019
2019
2017
2017
2017
2023
2023
2023
2018
2018
2018
2019
2019
2019
2022
2022
2022
2022
2018
2018
2018
2021
2021
2021
2024
2024
2024
2020
2020
2020
2019
2019
2019
2019
2017
2017
2017
2021
2021
2021
2020
2020
2020
2022
2022
2022
2022
2022
2022
2022
2020
2020
2020
2021
2021
2021
2024
2024
2024
2019
2019
2019
2021
2021
2021
2021
2019
2019
2019
2022
2022
2022
2020
2020
2020
2016
2016
2016
2025
2025
2025
2025
2021
2021
2021
2021
2021
2021
2012
2012
2012
2022
2022
2022
2011
2011
2011
2011
2019
2019
2019
2015
2015
2015
2020
2020
2020
2021
2021
2021
2023
2023
2023
2023
2016
2016
2016
2020
2020
2020
2019
2019
2019
2018
2018
2018
2018
2018
2018
2018
2018
2018
2018
2019
2019
2019
2019
2019
2019
2020
2020
2020
2017
2017
2017
2017
2020
2020
2020
2019
2019
2019
2015
2015
2015
2021
2021
2021
2019
2019
2019
2019
2017
2017
2017
2019
2019
2019
2018
2018
2018
2014
2014
2014
2020
2020
2020
2020
2017
2017
2017
2019
2019
2019
2016
2016
2016
2022
2022
2022
2020
2020
2020
2020
2018
2018
2018
2021
2021
2021
2020
2020
2020
2016
2016
2016
2018
2018
2018
2018
2015
2015
2015
2020
2020
2020
2018
2018
2018
2019
2019
2019
2025
2025
2025
2025
2020
2020
2020
2013
2013
2013
2022
2022
2022
2014
2014
2014
2016
2016
2016
2016
2017
2017
2017
2022
2022
2022
2019
2019
2019
2022
2022
2022
2016
2016
2016
2016
2019
2019
2019
2026
2026
2026
2017
2017
2017
2020
2020
2020
2019
2019
2019
2019
2014
2014
2014
2021
2021
2021
2022
2022
2022
2020
2020
2020
2018
2018
2018
2018
2017
2017
2017
2021
2021
2021
2020
2020
2020
2022
2022
2022
2019
2019
2019
2019
2013
2013
2013
2019
2019
2019
2022
2022
2022
2019
2019
2019
2021
2021
2021
2021
2019
2019
2019
2029
2029
2029
2021
2021
2021
2021
2021
2021
2018
2018
2018
2018
2020
2020
2020
2019
2019
2019
2021
2021
2021
2019
2019
2019
2017
2017
2017
2017
2020
2020
2020
2027
2027
2027
2019
2019
2019
2021
2021
2021
2022
2022
2022
2022
2026
2026
2026
2021
2021
2021
2018
2018
2018
2022
2022
2022
2018
2018
2018
2018
2019
2019
2019
2027
2027
2027
2020
2020
2020
2020
2020
2020
2019
2019
2019
2019
2027
2027
2027
2020
2020
2020
2021
2021
2021
2022
2022
2022
2021
2021
2021
2021
2019
2019
2019
2024
2024
2024
2019
2019
2019
2018
2018
2018
2017
2017
2017
2017
2021
2021
2021
2022
2022
2022
2022
2022
2022
2015
2015
2015
2021
2021
2021
2021
2019
2019
2019
2026
2026
2026
2019
2019
2019
2020
2020
2020
2018
2018
2018
2018
2018
2018
2018
2021
2021
2021
2021
2021
2021
2017
2017
2017
2020
2020
2020
2020
2020
2020
2020
2016
2016
2016
2020
2020
2020
2021
2021
2021
2019
2019
2019
2019
2024
2024
2024
2021
2021
2021
2021
2021
2021
2015
2015
2015
2022
2022
2022
2022
2019
2019
2019
2019
2019
2019
2019
2019
2019
2019
2019
2019
2021
2021
2021
2021
2017
2017
2017
2020
2020
2020
2022
2022
2022
2022
2022
2022
2021
2021
2021
2021
2020
2020
2020
2028
2028
2028
2019
2019
2019
2019
2019
2019
2014
2014
2014
2014
2024
2024
2024
2020
2020
2020
2018
2018
2018
2015
2015
2015
2021
2021
2021
2021
2019
