1952
1952
1953
1953
1953
1953
1950
1950
1950
1946
1946
1946
1954
1954
1954
1949
1949
1949
1955
1955
1955
1955
1956
1956
1956
1949
1949
1949
1954
1954
1954
1954
1954
1954
1957
1957
1957
1957
1951
1951
1951
1948
1948
1948
1951
1951
1951
1951
1951
1951
1949
1949
1949
1949
1952
1952
1952
1950
1950
1950
1953
1953
1953
1949
1949
1949
1953
1953
1953
1953
1952
1952
1952
1950
1950
1950
1952
1952
1952
1952
1952
1952
1953
1950
1950
1950
1950
1950
1950
1950
1954
1954
1954
1950
1950
1950
1952
1952
1952
1952
1952
1952
1952
1952
1952
1952
1955
1955
1955
1950
1950
1950
1950
1950
1950
1951
1951
1951
1950
1950
1950
1950
1953
1953
1953
1951
1951
1951
1953
1953
1953
1951
1951
1951
1957
1957
1957
1957
1955
1955
1955
1956
1956
1956
1954
1954
1954
1952
1952
1952
1953
1953
1953
1953
1950
1950
1950
1951
1951
1951
1946
1946
1946
1949
1949
1949
1953
1953
1953
1953
1953
1953
1953
1953
1953
1953
1952
1952
1952
1950
1950
1950
1946
1946
1946
1946
1950
1950
1950
1950
1950
1950
1955
1955
1955
1949
1949
1949
1954
1954
1954
1954
1951
1951
1951
1949
1949
1949
1954
1954
1954
1957
1957
1957
1953
1953
1953
1953
1953
1953
1953
1950
1950
1950
1947
1947
1947
1952
1952
1952
1947
1947
1947
1947
1951
1951
1951
1950
1950
1950
1955
1955
1955
1951
1951
1951
1950
1950
1950
1950
1950
1950
1950
1951
1951
1951
1955
1955
1955
1950
1950
1950
1955
1955
1955
1955
1951
1951
1951
1950
1950
1950
1955
1955
1955
1954
1954
1954
1951
1951
1951
1951
1952
1952
1952
1946
1946
1946
1948
1948
1948
1950
1950
1950
1954
1954
1954
1954
1955
1955
1955
1951
1951
1951
1953
1953
1953
1953
1953
1953
1953
1953
1953
1953
1954
1954
1954
1950
1950
1950
1952
1952
1952
1953
1953
1953
1953
1953
1953
1953
1953
1953
1953
1949
1949
1949
1951
1951
1951
1947
1947
1947
1954
1954
1954
1954
1956
1956
1956
1950
1950
1950
1958
1958
1958
1952
1952
1952
1950
1950
1950
1950
1950
1950
1950
1950
1950
1950
1958
1958
1958
1950
1950
1950
1951
1951
1951
1951
1953
1953
1953
1951
1951
1951
1953
1953
1953
1950
1950
1950
1954
1954
1954
1954
1952
1952
1952
1945
1945
1945
1952
1952
1952
1940
1940
1940
1953
1953
1953
1953
1954
1954
1954
1950
1950
1950
1960
1960
1960
1951
1951
1951
1953
1953
1953
1953
1952
1952
1952
1949
1949
1949
1952
1952
1952
1954
1954
1954
1956
1956
1956
1956
1952
1952
1952
1949
1949
1949
1952
1952
1952
1953
1953
1953
1955
1955
1955
1955
1959
1959
1959
1951
1951
1951
1954
1954
1954
1952
1952
1952
1957
1957
1957
1957
1951
1951
1951
1953
1953
1953
1952
1952
1952
1949
1949
1949
1953
1953
1953
1953
1952
1952
1952
1947
1947
1947
1951
1951
1951
1950
1950
1950
1952
1952
1952
1952
1948
1948
1948
1949
1949
1949
1955
1955
1955
1948
1948
1948
1955
1955
1955
1955
1955
1955
1955
1951
1951
1951
1959
1959
1959
1951
1951
1951
1955
1955
1955
1955
1950
1950
1950
1955
1955
1955
1952
1952
1952
1951
1951
1951
1951
1951
1951
1951
1952
1952
1952
1951
1951
1951
1954
1954
1954
1951
1951
1951
1953
1953
1953
1953
1955
1955
1955
1953
1953
1953
1953
1953
1953
1950
1950
1950
1949
1949
1949
1949
1955
1955
1955
1948
1948
1948
1954
1954
1954
1946
1946
1946
1957
1957
1957
1957
1953
1953
1953
1953
1953
1953
1956
1956
1956
1951
1951
1951
1954
1954
1954
1954
1948
1948
1948
1950
1950
1950
1952
1952
1952
1952
1952
1952
1953
1953
1953
1953
1952
1952
1952
1949
1949
1949
1952
1952
1952
1951
1951
1951
1953
1953
1953
1953
1951
1951
1951
1949
1949
1949
1951
1951
1951
1951
1951
1951
1955
1955
1955
1955
1957
1957
1957
1948
1948
1948
1951
1951
1951
1951
1951
1951
1955
1955
1955
1955
1952
1952
1952
1951
1951
1951
1951
1951
1951
1950
1950
1950
1948
1948
1948
1948
1948
1948
1948
1953
1953
1953
1953
1953
1953
1948
1948
1948
1955
1955
1955
1955
1950
1950
1950
1952
1952
1952
1955
1955
1955
1946
1946
1946
1950
1950
1950
1950
1950
1950
1950
1950
1950
1950
1951
1951
1951
1949
1949
1949
1952
1952
1952
1952
1954
1954
1954
1951
1951
1951
1954
1954
1954
1948
1948
1948
1948
1948
1948
1948
1952
1952
1952
1949
1949
1949
1956
1956
1956
1948
1948
1948
1953
1953
1953
1953
1952
1952
1952
1948
1948
1948
1957
1957
1957
1953
1953
1953
1954
1954
1954
1954
1956
1956
1956
1949
1949
1949
1954
1954
1954
1954
1954
1954
1954
1954
1954
1954
1955
1955
1955
1951
1951
1951
1955
1955
1955
1949
1949
1949
1959
1959
1959
1959
1947
1947
1947
1951
1951
1951
1953
1953
1953
1950
1950
1950
1954
1954
1954
1954
1955
1955
1955
1947
1947
1947
1952
1952
1952
1951
1951
1951
1953
1953
1953
1953
1954
1954
1954
1953
1953
1953
1952
1952
1952
1953
1953
1953
1955
1955
1955
1955
1952
1952
1952
1949
1949
1949
1951
1951
1951
1953
1953
1953
1954
1954
1954
1954
1953
1953
1953
1949
1949
1949
1959
1959
1959
1951
1951
1951
1957
1957
1957
1957
1946
1946
1946
1951
1951
1951
1955
1955
1955
1951
1951
1951
1953
1953
1953
1953
1953
1953
1953
1947
1947
1947
1955
1955
1955
1946
1946
1946
1953
1953
1953
1953
1952
1952
1952
1950
1950
1950
1950
1950
1950
1953
1953
1953
1955
1955
1955
1955
1951
1951
1951
1950
1950
1950
1952
1952
1952
1948
1948
1948
1949
1949
1949
1949
1952
1952
1952
1951
1951
1951
1957
1957
1957
1950
1950
1950
1953
1953
1953
1953
1950
1950
1950
1948
1948
1948
1955
1955
1955
1951
1951
1951
1954
1954
