2041
2041
2039
2039
2039
2044
2044
2044
2039
2039
2039
2041
2041
2041
2036
2036
2036
2036
2038
2038
2038
2047
2047
2047
2044
2044
2044
2042
2042
2042
2039
2039
2039
2039
2038
2038
2038
2041
2041
2041
2038
2038
2038
2043
2043
2043
2040
2040
2040
2040
2040
2040
2040
2041
2041
2041
2042
2042
2042
2044
2044
2044
2042
2042
2042
2042
2041
2041
2041
2041
2041
2041
2039
2039
2039
2044
2044
2044
2040
2040
2040
2040
2040
2043
2043
2043
2039
2039
2039
2036
2036
2036
2040
2040
2040
2043
2043
2043
2040
2040
2040
2040
2040
2040
2040
2039
2039
2039
2041
2041
2041
2041
2041
2041
2039
2039
2039
2039
2042
2042
2042
2041
2041
2041
2039
2039
2039
2043
2043
2043
2041
2041
2041
2041
2040
2040
2040
2042
2042
2042
2036
2036
2036
2041
2041
2041
2039
2039
2039
2039
2039
2039
2039
2042
2042
2042
2042
2042
2042
2042
2042
2042
2042
2042
2042
2042
2039
2039
2039
2038
2038
2038
2038
2038
2038
2040
2040
2040
2044
2044
2044
2044
2039
2039
2039
2042
2042
2042
2039
2039
2039
2043
2043
2043
2041
2041
2041
2041
2045
2045
2045
2043
2043
2043
2040
2040
2040
2041
2041
2041
2041
2041
2041
2041
2040
2040
2040
2042
2042
2042
2039
2039
2039
2039
2039
2039
2037
2037
2037
2037
2043
2043
2043
2038
2038
2038
2042
2042
2042
2049
2049
2049
2038
2038
2038
2038
2041
2041
2041
2041
2041
2041
2046
2046
2046
2043
2043
2043
2041
2041
2041
2041
2036
2036
2036
2036
2036
2036
2040
2040
2040
2041
2041
2041
2043
2043
2043
2043
2045
2045
2045
2039
2039
2039
2037
2037
2037
2038
2038
2038
2047
2047
2047
2047
2040
2040
2040
2041
2041
2041
2041
2041
2041
2043
2043
2043
2038
2038
2038
2038
2039
2039
2039
2045
2045
2045
2043
2043
2043
2040
2040
2040
2038
2038
2038
2038
2038
2038
2038
2041
2041
2041
2040
2040
2040
2042
2042
2042
2041
2041
2041
2041
2039
2039
2039
2041
2041
2041
2040
2040
2040
2039
2039
2039
2042
2042
2042
2042
2045
2045
2045
2041
2041
2041
2042
2042
2042
2043
2043
2043
2039
2039
2039
2039
2045
2045
2045
2039
2039
2039
2037
2037
2037
2038
2038
2038
2042
2042
2042
2042
2040
2040
2040
2041
2041
2041
2040
2040
2040
2044
2044
2044
2042
2042
2042
2042
2040
2040
2040
2041
2041
2041
2043
2043
2043
2045
2045
2045
2042
2042
2042
2042
2045
2045
2045
2043
2043
2043
2045
2045
2045
2041
2041
2041
2045
2045
2045
2045
2040
2040
2040
2042
2042
2042
2042
2042
2042
2040
2040
2040
2041
2041
2041
2041
2040
2040
2040
2044
2044
2044
2041
2041
2041
2042
2042
2042
2040
2040
2040
2040
2043
2043
2043
2039
2039
2039
2041
2041
2041
2042
2042
2042
2039
2039
2039
2039
2038
2038
2038
2040
2040
2040
2042
2042
2042
2041
2041
2041
2048
2048
2048
2048
2041
2041
2041
2042
2042
2042
2040
2040
2040
2042
2042
2042
2042
2042
2042
2042
2036
2036
2036
2039
2039
2039
2046
2046
2046
2043
2043
2043
2040
2040
2040
2040
2039
2039
2039
2045
2045
2045
2045
2045
2045
2043
2043
2043
2043
2043
2043
2043
2042
2042
2042
2041
2041
2041
2040
2040
2040
2043
2043
2043
2040
2040
2040
2040
2039
2039
2039
2041
2041
2041
2042
2042
2042
2041
2041
2041
2040
2040
2040
2040
2037
2037
2037
2041
2041
2041
2041
2041
2041
2042
2042
2042
2042
2042
2042
2042
2040
2040
2040
2048
2048
2048
2042
2042
2042
2040
2040
2040
2042
2042
2042
2042
2044
2044
2044
2042
2042
2042
2042
2042
2042
2045
2045
2045
2041
2041
2041
2041
2038
2038
2038
2042
2042
2042
2041
2041
2041
2043
2043
2043
2041
2041
2041
2041
2041
2041
2041
2039
2039
2039
2040
2040
2040
2043
2043
2043
2042
2042
2042
2042
2042
2042
2042
2043
2043
2043
2040
2040
2040
2040
2040
2040
2043
2043
2043
2043
2041
2041
2041
2041
2041
2041
2040
2040
2040
2041
2041
2041
2039
2039
2039
2039
2040
2040
2040
2043
2043
2043
2041
2041
2041
2038
2038
2038
2041
2041
2041
2041
2040
2040
2040
2042
2042
2042
2040
2040
2040
2043
2043
2043
2040
2040
2040
2040
2041
2041
2041
2041
2041
2041
2040
2040
2040
2035
2035
2035
2042
2042
2042
2042
2036
2036
2036
2043
2043
2043
2039
2039
2039
2044
2044
2044
2042
2042
2042
2042
2040
2040
2040
2035
2035
2035
2041
2041
2041
2043
2043
2043
2043
2043
2043
2043
2041
2041
2041
2042
2042
2042
2043
2043
2043
2038
2038
2038
2040
2040
2040
2040
2041
2041
2041
2043
2043
2043
2042
2042
2042
2039
2039
2039
2038
2038
2038
2038
2039
2039
2039
2043
2043
2043
2040
2040
2040
2043
2043
2043
2040
2040
2040
2040
2041
2041
2041
2041
2041
2041
2042
2042
2042
2042
2042
2042
2041
2041
2041
2041
2043
2043
2043
2040
2040
2040
2041
2041
2041
2039
2039
2039
2039
2039
2039
2039
2038
2038
2038
2041
2041
2041
2039
2039
2039
2045
2045
2045
2040
2040
2040
2040
2041
2041
2041
2041
2041
2041
2040
2040
2040
2043
2043
2043
2039
2039
2039
2039
2040
2040
2040
2042
2042
2042
2039
2039
2039
2044
2044
2044
2043
2043
2043
2043
2042
2042
2042
2041
2041
2041
2040
2040
2040
2041
2041
2041
2044
2044
2044
2044
2040
2040
2040
2039
2039
2039
2041
2041
2041
2042
2042
2042
2042
2042
2042
2042
2043
2043
2043
2040
2040
2040
2039
2039
2039
2039
2039
2039
2041
2041
2041
2041
2043
2043
2043
2042
2042
2042
2042
2042
2042
2044
2044
2044
2040
2040
2040
2040
2040
2040
2040
2045
2045
2045
2041
2041
2041
2044
2044
2044
2041
2041
2041
2041
2041
2041
2041
2045
2045
2045
2043
2043
2043
2039
2039
2039
2041
2041
2041
2041
2044
2044
