2032
2032
2027
2027
2027
2029
2029
2029
2029
2029
2029
2031
2031
2031
2031
2030
2030
2030
2029
2029
2029
2032
2032
2032
2029
2029
2029
2028
2028
2028
2028
2029
2029
2029
2029
2029
2029
2029
2029
2029
2030
2030
2030
2027
2027
2027
2027
2027
2027
2027
2028
2028
2028
2027
2027
2027
2031
2031
2031
2029
2029
2029
2029
2028
2028
2028
2030
2030
2030
2028
2028
2028
2028
2028
2028
2026
2026
2026
2026
2031
2031
2031
2033
2029
2029
2029
2028
2028
2028
2029
2029
2029
2028
2028
2028
2031
2031
2031
2031
2025
2025
2025
2029
2029
2029
2030
2030
2030
2026
2026
2026
2029
2029
2029
2029
2028
2028
2028
2028
2028
2028
2026
2026
2026
2028
2028
2028
2036
2036
2036
2036
2026
2026
2026
2026
2026
2026
2030
2030
2030
2024
2024
2024
2028
2028
2028
2028
2031
2031
2031
2028
2028
2028
2023
2023
2023
2029
2029
2029
2030
2030
2030
2030
2029
2029
2029
2028
2028
2028
2028
2028
2028
2030
2030
2030
2027
2027
2027
2027
2030
2030
2030
2030
2030
2030
2030
2030
2030
2027
2027
2027
2036
2036
2036
2036
2029
2029
2029
2031
2031
2031
2028
2028
2028
2027
2027
2027
2031
2031
2031
2031
2029
2029
2029
2029
2029
2029
2028
2028
2028
2028
2028
2028
2027
2027
2027
2027
2029
2029
2029
2028
2028
2028
2034
2034
2034
2027
2027
2027
2025
2025
2025
2025
2027
2027
2027
2025
2025
2025
2029
2029
2029
2027
2027
2027
2030
2030
2030
2030
2032
2032
2032
2029
2029
2029
2025
2025
2025
2030
2030
2030
2031
2031
2031
2031
2027
2027
2027
2028
2028
2028
2030
2030
2030
2031
2031
2031
2029
2029
2029
2029
2028
2028
2028
2029
2029
2029
2029
2029
2029
2027
2027
2027
2026
2026
2026
2026
2029
2029
2029
2028
2028
2028
2031
2031
2031
2026
2026
2026
2029
2029
2029
2029
2027
2027
2027
2029
2029
2029
2029
2029
2029
2030
2030
2030
2029
2029
2029
2029
2029
2029
2029
2030
2030
2030
2029
2029
2029
2027
2027
2027
2029
2029
2029
2029
2027
2027
2027
2027
2027
2027
2026
2026
2026
2030
2030
2030
2032
2032
2032
2032
2033
2033
2033
2028
2028
2028
2027
2027
2027
2028
2028
2028
2032
2032
2032
2032
2028
2028
2028
2032
2032
2032
2028
2028
2028
2027
2027
2027
2025
2025
2025
2025
2024
2024
2024
2028
2028
2028
2029
2029
2029
2025
2025
2025
2031
2031
2031
2031
2029
2029
2029
2029
2029
2029
2028
2028
2028
2028
2028
2028
2029
2029
2029
2029
2029
2029
2029
2026
2026
2026
2028
2028
2028
2029
2029
2029
2029
2029
2029
2029
2031
2031
2031
2028
2028
2028
2026
2026
2026
2031
2031
2031
2029
2029
2029
2029
2032
2032
2032
2034
2034
2034
2025
2025
2025
2032
2032
2032
2033
2033
2033
2033
2028
2028
2028
2029
2029
2029
2030
2030
2030
2029
2029
2029
2029
2029
2029
2029
2028
2028
2028
2029
2029
2029
2023
2023
2023
2028
2028
2028
2026
2026
2026
2026
2024
2024
2024
2026
2026
2026
2027
2027
2027
2033
2033
2033
2035
2035
2035
2035
2024
2024
2024
2029
2029
2029
2026
2026
2026
2030
2030
2030
2029
2029
2029
2029
2027
2027
2027
2033
2033
2033
2030
2030
2030
2029
2029
2029
2029
2029
2029
2029
2030
2030
2030
2025
2025
2025
2028
2028
2028
2029
2029
2029
2028
2028
2028
2028
2029
2029
2029
2030
2030
2030
2029
2029
2029
2030
2030
2030
2028
2028
2028
2028
2029
2029
2029
2031
2031
2031
2031
2031
2031
2030
2030
2030
2032
2032
2032
2032
2028
2028
2028
2030
2030
2030
2036
2036
2036
2032
2032
2032
2030
2030
2030
2030
2029
2029
2029
2031
2031
2031
2029
2029
2029
2035
2035
2035
2029
2029
2029
2029
2030
2030
2030
2029
2029
2029
2025
2025
2025
2029
2029
2029
2029
2029
2029
2029
2028
2028
2028
2038
2038
2038
2029
2029
2029
2029
2029
2029
2029
2029
2029
2029
2019
2019
2019
2029
2029
2029
2031
2031
2031
2030
2030
2030
2028
2028
2028
2028
2027
2027
2027
2028
2028
2028
2029
2029
2029
2028
2028
2028
2027
2027
2027
2027
2027
2027
2027
2029
2029
2029
2029
2029
2029
2028
2028
2028
2031
2031
2031
2031
2028
2028
2028
2029
2029
2029
2027
2027
2027
2026
2026
2026
2029
2029
2029
2029
2027
2027
2027
2028
2028
2028
2028
2028
2028
2028
2028
2028
2029
2029
2029
2029
2026
2026
2026
2027
2027
2027
2030
2030
2030
2029
2029
2029
2028
2028
2028
2028
2030
2030
2030
2031
2031
2031
2027
2027
2027
2030
2030
2030
2029
2029
2029
2029
2026
2026
2026
2030
2030
2030
2030
2030
2030
2031
2031
2031
2027
2027
2027
2027
2031
2031
2031
2029
2029
2029
2029
2029
2029
2029
2029
2029
2028
2028
2028
2028
2028
2028
2028
2033
2033
2033
2030
2030
2030
2028
2028
2028
2028
2028
2028
2028
2030
2030
2030
2029
2029
2029
2029
2029
2029
2028
2028
2028
2029
2029
2029
2029
2030
2030
2030
2029
2029
2029
2028
2028
2028
2028
2028
2028
2029
2029
2029
2029
2026
2026
2026
2028
2028
2028
2033
2033
2033
2032
2032
2032
2029
2029
2029
2029
2028
2028
2028
2026
2026
2026
2029
2029
2029
2032
2032
2032
2029
2029
2029
2029
2028
2028
2028
2030
2030
2030
2031
2031
2031
2031
2031
2031
2029
2029
2029
2029
2032
2032
2032
2030
2030
2030
2030
2030
2030
2029
2029
2029
2028
2028
2028
2028
2030
2030
2030
2032
2032
2032
2028
2028
2028
2031
2031
2031
2023
2023
2023
2023
2030
2030
2030
2029
2029
2029
2029
2029
2029
2033
2033
2033
2029
2029
2029
2029
2028
2028
2028
2030
2030
2030
2030
2030
2030
2029
2029
2029
2028
2028
2028
2028
2027
2027
2027
2033
2033
2033
2028
2028
2028
2031
2031
2031
2034
2034
2034
2034
2031
2031
2031
2030
2030
