2053
2053
2053
2054
2054
2054
2050
2050
2050
2052
2052
2052
2048
2048
2048
2053
2053
2053
2053
2052
2052
2052
2052
2052
2052
2052
2052
2052
2050
2050
2050
2055
2055
2055
2055
2053
2053
2053
2050
2050
2050
2055
2055
2055
2050
2050
2050
2063
2063
2063
2063
2053
2053
2053
2051
2051
2051
2062
2062
2062
2051
2051
2051
2055
2055
2055
2055
2050
2050
2050
2051
2051
2051
2057
2057
2057
2051
2051
2051
2050
2050
2050
2050
2054
2053
2053
2053
2058
2058
2058
2049
2049
2049
2053
2053
2053
2050
2050
2050
2057
2057
2057
2057
2058
2058
2058
2049
2049
2049
2053
2053
2053
2046
2046
2046
2056
2056
2056
2056
2051
2051
2051
2051
2051
2051
2054
2054
2054
2051
2051
2051
2059
2059
2059
2059
2053
2053
2053
2047
2047
2047
2051
2051
2051
2052
2052
2052
2055
2055
2055
2055
2053
2053
2053
2051
2051
2051
2049
2049
2049
2051
2051
2051
2054
2054
2054
2054
2054
2054
2054
2054
2054
2054
2055
2055
2055
2049
2049
2049
2053
2053
2053
2053
2050
2050
2050
2047
2047
2047
2053
2053
2053
2049
2049
2049
2056
2056
2056
2056
2053
2053
2053
2049
2049
2049
2054
2054
2054
2056
2056
2056
2051
2051
2051
2051
2057
2057
2057
2049
2049
2049
2055
2055
2055
2050
2050
2050
2053
2053
2053
2053
2054
2054
2054
2050
2050
2050
2053
2053
2053
2052
2052
2052
2053
2053
2053
2053
2055
2055
2055
2048
2048
2048
2055
2055
2055
2048
2048
2048
2055
2055
2055
2055
2057
2057
2057
2047
2047
2047
2054
2054
2054
2046
2046
2046
2054
2054
2054
2054
2053
2053
2053
2046
2046
2046
2056
2056
2056
2052
2052
2052
2051
2051
2051
2051
2054
2054
2054
2052
2052
2052
2048
2048
2048
2050
2050
2050
2057
2057
2057
2057
2052
2052
2052
2047
2047
2047
2052
2052
2052
2053
2053
2053
2055
2055
2055
2055
2050
2050
2050
2051
2051
2051
2056
2056
2056
2053
2053
2053
2052
2052
2052
2052
2053
2053
2053
2040
2040
2040
2053
2053
2053
2049
2049
2049
2057
2057
2057
2057
2060
2060
2060
2050
2050
2050
2052
2052
2052
2050
2050
2050
2056
2056
2056
2056
2055
2055
2055
2057
2057
2057
2055
2055
2055
2049
2049
2049
2056
2056
2056
2056
2045
2045
2045
2051
2051
2051
2056
2056
2056
2051
2051
2051
2053
2053
2053
2053
2052
2052
2052
2049
2049
2049
2049
2049
2049
2056
2056
2056
2050
2050
2050
2050
2047
2047
2047
2050
2050
2050
2053
2053
2053
2049
2049
2049
2055
2055
2055
2055
2052
2052
2052
2050
2050
2050
2051
2051
2051
2050
2050
2050
2050
2050
2050
2050
2050
2050
2050
2049
2049
2049
2053
2053
2053
2055
2055
2055
2053
2053
2053
2053
2055
2055
2055
2050
2050
2050
2058
2058
2058
2049
2049
2049
2052
2052
2052
2052
2056
2056
2056
2052
2052
2052
2054
2054
2054
2050
2050
2050
2053
2053
2053
2053
2056
2056
2056
2052
2052
2052
2046
2046
2046
2052
2052
2052
2058
2058
2058
2058
2057
2057
2057
2052
2052
2052
2053
2053
2053
2045
2045
2045
2053
2053
2053
2053
2045
2045
2045
2053
2053
2053
2059
2059
2059
2052
2052
2052
2051
2051
2051
2051
2053
2053
2053
2050
2050
2050
2058
2058
2058
2049
2049
2049
2058
2058
2058
2058
2054
2054
2054
2050
2050
2050
2053
2053
2053
2050
2050
2050
2054
2054
2054
2054
2053
2053
2053
2045
2045
2045
2053
2053
2053
2051
2051
2051
2056
2056
2056
2056
2053
2053
2053
2049
2049
2049
2055
2055
2055
2045
2045
2045
2057
2057
2057
2057
2052
2052
2052
2048
2048
2048
2059
2059
2059
2051
2051
2051
2056
2056
2056
2056
2051
2051
2051
2054
2054
2054
2055
2055
2055
2049
2049
2049
2048
2048
2048
2048
2052
2052
2052
2050
2050
2050
2045
2045
2045
2049
2049
2049
2059
2059
2059
2059
2054
2054
2054
2052
2052
2052
2053
2053
2053
2052
2052
2052
2055
2055
2055
2055
2056
2056
2056
2052
2052
2052
2062
2062
2062
2045
2045
2045
2053
2053
2053
2053
2065
2065
2065
2050
2050
2050
2053
2053
2053
2053
2053
2053
2055
2055
2055
2055
2050
2050
2050
2051
2051
2051
2053
2053
2053
2049
2049
2049
2053
2053
2053
2053
2056
2056
2056
2050
2050
2050
2054
2054
2054
2050
2050
2050
2055
2055
2055
2055
2054
2054
2054
2050
2050
2050
2053
2053
2053
2044
2044
2044
2050
2050
2050
2050
2057
2057
2057
2048
2048
2048
2053
2053
2053
2051
2051
2051
2059
2059
2059
2059
2056
2056
2056
2050
2050
2050
2055
2055
2055
2052
2052
2052
2054
2054
2054
2054
2048
2048
2048
2051
2051
2051
2058
2058
2058
2053
2053
2053
2056
2056
2056
2056
2053
2053
2053
2050
2050
2050
2053
2053
2053
2042
2042
2042
2052
2052
2052
2052
2048
2048
2048
2042
2042
2042
2052
2052
2052
2050
2050
2050
2051
2051
2051
2051
2054
2054
2054
2050
2050
2050
2056
2056
2056
2051
2051
2051
2054
2054
2054
2054
2056
2056
2056
2052
2052
2052
2047
2047
2047
2051
2051
2051
2056
2056
2056
2056
2054
2054
2054
2054
2054
2054
2054
2054
2054
2051
2051
2051
2052
2052
2052
2052
2049
2049
2049
2050
2050
2050
2056
2056
2056
2051
2051
2051
2056
2056
2056
2056
2053
2053
2053
2052
2052
2052
2053
2053
2053
2050
2050
2050
2052
2052
2052
2052
2056
2056
2056
2049
2049
2049
2053
2053
2053
2053
2053
2053
2056
2056
2056
2056
2053
2053
2053
2050
2050
2050
2055
2055
2055
2052
2052
2052
2056
2056
2056
2056
2055
2055
2055
2051
2051
2051
2055
2055
2055
2049
2049
2049
2054
2054
2054
2054
2055
2055
2055
2053
2053
2053
2052
2052
2052
2052
2052
2052
2057
2057
2057
2057
2053
2053
2053
2046
2046
2046
2056
2056
2056
2049
2049
2049
2056
2056
2056
2056
2059
