2112
2112
2112
2114
2114
2114
2109
2109
2109
2109
2114
2114
2114
2115
2115
2115
2116
2116
2116
2116
2116
2116
2118
2118
2118
2118
2113
2113
2113
2114
2114
2114
2115
2115
2115
2114
2114
2114
2116
2116
2116
2116
2116
2116
2116
2115
2115
2115
2114
2114
2114
2114
2114
2114
2114
2114
2114
2114
2117
2117
2117
2114
2114
2114
2116
2116
2116
2115
2115
2115
2114
2114
2114
2114
2115
2115
2115
2115
2115
2115
2114
2114
2114
2113
2116
2116
2116
2115
2115
2115
2113
2113
2113
2113
2112
2112
2112
2110
2110
2110
2114
2114
2114
2113
2113
2113
2112
2112
2112
2112
2117
2117
2117
2114
2114
2114
2115
2115
2115
2113
2113
2113
2111
2111
2111
2111
2115
2115
2115
2112
2112
2112
2115
2115
2115
2107
2107
2107
2115
2115
2115
2115
2113
2113
2113
2110
2110
2110
2118
2118
2118
2115
2115
2115
2114
2114
2114
2114
2113
2113
2113
2113
2113
2113
2115
2115
2115
2111
2111
2111
2109
2109
2109
2109
2115
2115
2115
2113
2113
2113
2116
2116
2116
2113
2113
2113
2109
2109
2109
2109
2117
2117
2117
2115
2115
2115
2113
2113
2113
2117
2117
2117
2114
2114
2114
2114
2112
2112
2112
2115
2115
2115
2115
2115
2115
2115
2115
2115
2116
2116
2116
2116
2115
2115
2115
2115
2115
2115
2116
2116
2116
2114
2114
2114
2115
2115
2115
2115
2115
2115
2115
2117
2117
2117
2117
2117
2117
2113
2113
2113
2114
2114
2114
2114
2113
2113
2113
2114
2114
2114
2114
2114
2114
2115
2115
2115
2115
2115
2115
2115
2116
2116
2116
2113
2113
2113
2117
2117
2117
2116
2116
2116
2114
2114
2114
2114
2113
2113
2113
2123
2123
2123
2115
2115
2115
2114
2114
2114
2115
2115
2115
2115
2114
2114
2114
2120
2120
2120
2114
2114
2114
2112
2112
2112
2112
2112
2112
2112
2114
2114
2114
2115
2115
2115
2115
2115
2115
2119
2119
2119
2121
2121
2121
2121
2110
2110
2110
2114
2114
2114
2110
2110
2110
2113
2113
2113
2112
2112
2112
2112
2117
2117
2117
2116
2116
2116
2114
2114
2114
2115
2115
2115
2115
2115
2115
2115
2115
2115
2115
2111
2111
2111
2116
2116
2116
2117
2117
2117
2114
2114
2114
2114
2114
2114
2114
2112
2112
2112
2111
2111
2111
2113
2113
2113
2116
2116
2116
2116
2118
2118
2118
2114
2114
2114
2116
2116
2116
2116
2116
2116
2114
2114
2114
2114
2116
2116
2116
2114
2114
2114
2115
2115
2115
2117
2117
2117
2114
2114
2114
2114
2115
2115
2115
2111
2111
2111
2117
2117
2117
2115
2115
2115
2116
2116
2116
2116
2120
2120
2120
2113
2113
2113
2117
2117
2117
2115
2115
2115
2118
2118
2118
2118
2111
2111
2111
2115
2115
2115
2115
2115
2115
2123
2123
2123
2115
2115
2115
2115
2114
2114
2114
2121
2121
2121
2111
2111
2111
2112
2112
2112
2115
2115
2115
2115
2115
2115
2115
2116
2116
2116
2120
2120
2120
2116
2116
2116
2113
2113
2113
2113
2115
2115
2115
2113
2113
2113
2113
2113
2113
2113
2113
2113
2114
2114
2114
2114
2114
2114
2114
2115
2115
2115
2114
2114
2114
2114
2114
2114
2117
2117
2117
2117
2119
2119
2119
2113
2113
2113
2114
2114
2114
2116
2116
2116
2114
2114
2114
2114
2114
2114
2114
2112
2112
2112
2114
2114
2114
2115
2115
2115
2113
2113
2113
2113
2113
2113
2113
2116
2116
2116
2111
2111
2111
2114
2114
2114
2113
2113
2113
2113
2114
2114
2114
2121
2121
2121
2114
2114
2114
2118
2118
2118
2115
2115
2115
2115
2113
2113
2113
2116
2116
2116
2112
2112
2112
2114
2114
2114
2120
2120
2120
2120
2113
2113
2113
2117
2117
2117
2123
2123
2123
2111
2111
2111
2115
2115
2115
2115
2122
2122
2122
2114
2114
2114
2112
2112
2112
2115
2115
2115
2108
2108
2108
2108
2113
2113
2113
2115
2115
2115
2114
2114
2114
2109
2109
2109
2116
2116
2116
2116
2112
2112
2112
2117
2117
2117
2113
2113
2113
2114
2114
2114
2115
2115
2115
2115
2113
2113
2113
2116
2116
2116
2115
2115
2115
2114
2114
2114
2115
2115
2115
2115
2112
2112
2112
2111
2111
2111
2114
2114
2114
2118
2118
2118
2119
2119
2119
2119
2109
2109
2109
2116
2116
2116
2111
2111
2111
2115
2115
2115
2116
2116
2116
2116
2112
2112
2112
2115
2115
2115
2115
2115
2115
2113
2113
2113
2117
2117
2117
2117
2113
2113
2113
2113
2113
2113
2115
2115
2115
2115
2115
2115
2115
2115
2115
2115
2112
2112
2112
2112
2112
2112
2113
2113
2113
2113
2113
2113
2111
2111
2111
2111
2112
2112
2112
2115
2115
2115
2115
2115
2115
2114
2114
2114
2111
2111
2111
2111
2115
2115
2115
2116
2116
2116
2115
2115
2115
2112
2112
2112
2119
2119
2119
2119
2115
2115
2115
2113
2113
2113
2117
2117
2117
2114
2114
2114
2117
2117
2117
2117
2104
2104
2104
2112
2112
2112
2113
2113
2113
2114
2114
2114
2113
2113
2113
2113
2114
2114
2114
2114
2114
2114
2117
2117
2117
2114
2114
2114
2118
2118
2118
2118
2114
2114
2114
2112
2112
2112
2112
2112
2112
2114
2114
2114
2114
2114
2114
2114
2111
2111
2111
2113
2113
2113
2115
2115
2115
2115
2115
2115
2112
2112
2112
2112
2119
2119
2119
2114
2114
2114
2115
2115
2115
2117
2117
2117
2119
2119
2119
2119
2112
2112
2112
2113
2113
2113
2109
2109
2109
2117
2117
2117
2119
2119
2119
2119
2120
2120
2120
2117
2117
2117
2114
2114
2114
2115
2115
2115
2112
2112
2112
2112
2112
2112
2112
2118
2118
2118
2115
2115
2115
2116
2116
2116
2116
2116
2116
2116
2114
2114
2114
2115
2115
2115
2121
2121
2121
2115
2115
2115
2115
2115
2115
2115
2117
2117
2117
2114
2114
2114
2114
2114
2114
2112
2112
2112
2116
2116
2116
2116
2114
2114
2114
2114
2114
2114
2115
2115
2115
2115
