1968
1968
1976
1976
1976
1973
1973
1973
1979
1979
1979
1971
1971
1971
1971
1975
1975
1975
1978
1978
1978
1964
1964
1964
1977
1977
1977
1979
1979
1979
1979
1977
1977
1977
1977
1977
1977
1975
1975
1975
1979
1979
1979
1974
1974
1974
1974
1977
1977
1977
1978
1978
1978
1975
1975
1975
1978
1978
1978
1978
1978
1978
1978
1974
1974
1974
1975
1975
1975
1970
1970
1970
1977
1977
1977
1978
1978
1978
1978
1974
1974
1974
1978
1978
1973
1973
1976
1976
1976
1978
1978
1978
1982
1982
1982
1978
1978
1978
1978
1974
1974
1974
1979
1979
1979
1971
1971
1971
1981
1981
1981
1976
1976
1976
1976
1975
1975
1975
1977
1977
1977
1981
1981
1981
1979
1979
1979
1975
1975
1975
1975
1974
1974
1974
1976
1976
1976
1974
1974
1974
1978
1978
1978
1976
1976
1976
1976
1979
1979
1979
1976
1976
1976
1977
1977
1977
1979
1979
1979
1978
1978
1978
1978
1976
1976
1976
1976
1976
1976
1976
1976
1976
1976
1976
1976
1979
1979
1979
1979
1976
1976
1976
1983
1983
1983
1975
1975
1975
1978
1978
1978
1966
1966
1966
1966
1976
1976
1976
1979
1979
1979
1978
1978
1978
1979
1979
1979
1973
1973
1973
1973
1977
1977
1977
1982
1982
1982
1977
1977
1977
1976
1976
1976
1981
1981
1981
1981
1975
1975
1975
1976
1976
1976
1977
1977
1977
1974
1974
1974
1977
1977
1977
1977
1977
1977
1977
1976
1976
1976
1975
1975
1975
1977
1977
1977
1982
1982
1982
1982
1972
1972
1972
1976
1976
1976
1973
1973
1973
1978
1978
1978
1976
1976
1976
1976
1979
1979
1979
1977
1977
1977
1975
1975
1975
1966
1966
1966
1977
1977
1977
1977
1971
1971
1971
1978
1978
1978
1976
1976
1976
1973
1973
1973
1977
1977
1977
1977
1976
1976
1976
1979
1979
1979
1973
1973
1973
1975
1975
1975
1977
1977
1977
1977
1977
1977
1977
1976
1976
1976
1978
1978
1978
1978
1978
1978
1976
1976
1976
1976
1975
1975
1975
1978
1978
1978
1979
1979
1979
1977
1977
1977
1979
1979
1979
1979
1979
1979
1979
1977
1977
1977
1979
1979
1979
1977
1977
1977
1978
1978
1978
1978
1976
1976
1976
1979
1979
1979
1975
1975
1975
1977
1977
1977
1975
1975
1975
1975
1977
1977
1977
1979
1979
1979
1982
1982
1982
1980
1980
1980
1986
1986
1986
1986
1976
1976
1976
1978
1978
1978
1976
1976
1976
1975
1975
1975
1975
1975
1975
1975
1974
1974
1974
1975
1975
1975
1975
1975
1975
1986
1986
1986
1974
1974
1974
1974
1978
1978
1978
1974
1974
1974
1975
1975
1975
1977
1977
1977
1983
1983
1983
1983
1978
1978
1978
1978
1978
1978
1976
1976
1976
1977
1977
1977
1975
1975
1975
1975
1969
1969
1969
1977
1977
1977
1978
1978
1978
1977
1977
1977
1975
1975
1975
1975
1978
1978
1978
1975
1975
1975
1975
1975
1975
1981
1981
1981
1980
1980
1980
1980
1972
1972
1972
1980
1980
1980
1973
1973
1973
1979
1979
1979
1978
1978
1978
1978
1979
1979
1979
1975
1975
1975
1974
1974
1974
1974
1974
1974
1976
1976
1976
1976
1975
1975
1975
1978
1978
1978
1978
1978
1978
1972
1972
1972
1976
1976
1976
1976
1976
1976
1976
1978
1978
1978
1973
1973
1973
1982
1982
1982
1978
1978
1978
1978
1975
1975
1975
1977
1977
1977
1978
1978
1978
1979
1979
1979
1975
1975
1975
1975
1978
1978
1978
1977
1977
1977
1975
1975
1975
1978
1978
1978
1973
1973
1973
1973
1976
1976
1976
1977
1977
1977
1984
1984
1984
1979
1979
1979
1975
1975
1975
1975
1977
1977
1977
1976
1976
1976
1977
1977
1977
1977
1977
1977
1974
1974
1974
1974
1976
1976
1976
1976
1976
1976
1977
1977
1977
1976
1976
1976
1977
1977
1977
1977
1974
1974
1974
1976
1976
1976
1976
1976
1976
1971
1971
1971
1975
1975
1975
1975
1978
1978
1978
1976
1976
1976
1977
1977
1977
1975
1975
1975
1981
1981
1981
1981
1974
1974
1974
1980
1980
1980
1976
1976
1976
1980
1980
1980
1978
1978
1978
1978
1981
1981
1981
1978
1978
1978
1976
1976
1976
1978
1978
1978
1976
1976
1976
1976
1972
1972
1972
1978
1978
1978
1978
1978
1978
1976
1976
1976
1976
1976
1976
1976
1983
1983
1983
1976
1976
1976
1975
1975
1975
1975
1975
1975
1978
1978
1978
1978
1977
1977
1977
1985
1985
1985
1976
1976
1976
1974
1974
1974
1975
1975
1975
1975
1978
1978
1978
1975
1975
1975
1968
1968
1968
1974
1974
1974
1976
1976
1976
1976
1976
1976
1976
1976
1976
1976
1977
1977
1977
1980
1980
1980
1978
1978
1978
1978
1976
1976
1976
1977
1977
1977
1972
1972
1972
1978
1978
1978
1975
1975
1975
1975
1972
1972
1972
1978
1978
1978
1977
1977
1977
1979
1979
1979
1984
1984
1984
1984
1966
1966
1966
1979
1979
1979
1968
1968
1968
1974
1974
1974
1974
1974
1974
1974
1974
1974
1974
1978
1978
1978
1976
1976
1976
1980
1980
1980
1976
1976
1976
1976
1973
1973
1973
1989
1989
1989
1977
1977
1977
1976
1976
1976
1980
1980
1980
1980
1975
1975
1975
1974
1974
1974
1976
1976
1976
1970
1970
1970
1977
1977
1977
1977
1972
1972
1972
1977
1977
1977
1978
1978
1978
1976
1976
1976
1976
1976
1976
1976
1971
1971
1971
1979
1979
1979
1981
1981
1981
1980
1980
1980
1977
1977
1977
1977
1973
1973
1973
1976
1976
1976
1979
1979
1979
1977
1977
1977
1972
1972
1972
1972
1976
1976
1976
1976
1976
1976
1976
1976
1976
1980
1980
1980
1981
1981
1981
1981
1976
1976
1976
1976
1976
1976
1978
1978
1978
1976
1976
1976
1978
1978
1978
1978
1976
1976
1976
1980
1980
1980
1966
1966
1966
1972
1972
1972
1976
1976
1976
1976
1974
1974
1974
1984
1984
1984
1977
1977
1977
1987
1987
1987
1978
1978
1978
1978
1974
1974
1974
1977
1977
