2233
2233
2233
2233
2231
2231
2231
2229
2229
2229
2235
2235
2235
2228
2228
2228
2233
2233
2233
2233
2232
2232
2232
2228
2228
2228
2230
2230
2230
2230
2230
2230
2231
2231
2231
2231
2233
2233
2233
2227
2227
2227
2234
2234
2234
2227
2227
2227
2232
2232
2232
2232
2235
2235
2235
2228
2228
2228
2235
2235
2235
2226
2226
2226
2235
2235
2235
2235
2230
2230
2230
2230
2230
2230
2232
2232
2232
2232
2232
2232
2234
2234
2234
2234
2234
2234
2234
2226
2226
2226
2231
2231
2231
2228
2228
2228
2232
2232
2232
2232
2234
2234
2234
2228
2228
2228
2230
2230
2230
2226
2226
2226
2230
2230
2230
2230
2233
2233
2233
2228
2228
2228
2228
2228
2228
2228
2228
2228
2231
2231
2231
2231
2234
2234
2234
2225
2225
2225
2232
2232
2232
2228
2228
2228
2234
2234
2234
2234
2231
2231
2231
2227
2227
2227
2233
2233
2233
2227
2227
2227
2232
2232
2232
2232
2233
2233
2233
2227
2227
2227
2231
2231
2231
2228
2228
2228
2229
2229
2229
2229
2232
2232
2232
2227
2227
2227
2231
2231
2231
2228
2228
2228
2232
2232
2232
2232
2231
2231
2231
2228
2228
2228
2232
2232
2232
2226
2226
2226
2233
2233
2233
2233
2232
2232
2232
2229
2229
2229
2233
2233
2233
2231
2231
2231
2232
2232
2232
2232
2234
2234
2234
2227
2227
2227
2235
2235
2235
2223
2223
2223
2237
2237
2237
2237
2232
2232
2232
2229
2229
2229
2232
2232
2232
2230
2230
2230
2233
2233
2233
2233
2232
2232
2232
2230
2230
2230
2232
2232
2232
2224
2224
2224
2233
2233
2233
2233
2231
2231
2231
2233
2233
2233
2235
2235
2235
2230
2230
2230
2237
2237
2237
2237
2233
2233
2233
2227
2227
2227
2234
2234
2234
2228
2228
2228
2235
2235
2235
2235
2231
2231
2231
2229
2229
2229
2230
2230
2230
2227
2227
2227
2232
2232
2232
2232
2237
2237
2237
2227
2227
2227
2231
2231
2231
2225
2225
2225
2237
2237
2237
2237
2234
2234
2234
2229
2229
2229
2232
2232
2232
2227
2227
2227
2234
2234
2234
2234
2232
2232
2232
2226
2226
2226
2232
2232
2232
2225
2225
2225
2234
2234
2234
2234
2233
2233
2233
2226
2226
2226
2232
2232
2232
2227
2227
2227
2234
2234
2234
2234
2229
2229
2229
2227
2227
2227
2235
2235
2235
2225
2225
2225
2231
2231
2231
2231
2231
2231
2231
2227
2227
2227
2232
2232
2232
2229
2229
2229
2234
2234
2234
2234
2231
2231
2231
2228
2228
2228
2234
2234
2234
2226
2226
2226
2233
2233
2233
2233
2233
2233
2233
2225
2225
2225
2232
2232
2232
2226
2226
2226
2229
2229
2229
2229
2231
2231
2231
2228
2228
2228
2232
2232
2232
2227
2227
2227
2232
2232
2232
2232
2231
2231
2231
2229
2229
2229
2231
2231
2231
2228
2228
2228
2235
2235
2235
2235
2232
2232
2232
2222
2222
2222
2230
2230
2230
2229
2229
2229
2239
2239
2239
2239
2230
2230
2230
2229
2229
2229
2232
2232
2232
2228
2228
2228
2234
2234
2234
2234
2228
2228
2228
2226
2226
2226
2230
2230
2230
2226
2226
2226
2231
2231
2231
2231
2233
2233
2233
2225
2225
2225
2232
2232
2232
2226
2226
2226
2231
2231
2231
2231
2231
2231
2231
2227
2227
2227
2231
2231
2231
2225
2225
2225
2235
2235
2235
2235
2233
2233
2233
2227
2227
2227
2233
2233
2233
2227
2227
2227
2231
2231
2231
2231
2231
2231
2231
2226
2226
2226
2234
2234
2234
2229
2229
2229
2233
2233
2233
2233
2231
2231
2231
2226
2226
2226
2234
2234
2234
2226
2226
2226
2230
2230
2230
2230
2231
2231
2231
2226
2226
2226
2231
2231
2231
2225
2225
2225
2231
2231
2231
2231
2231
2231
2231
2231
2231
2231
2232
2232
2232
2227
2227
2227
2232
2232
2232
2232
2230
2230
2230
2226
2226
2226
2232
2232
2232
2234
2234
2234
2233
2233
2233
2233
2233
2233
2233
2228
2228
2228
2233
2233
2233
2229
2229
2229
2233
2233
2233
2233
2232
2232
2232
2226
2226
2226
2230
2230
2230
2226
2226
2226
2232
2232
2232
2232
2230
2230
2230
2225
2225
2225
2238
2238
2238
2227
2227
2227
2233
2233
2233
2233
2233
2233
2233
2227
2227
2227
2232
2232
2232
2228
2228
2228
2232
2232
2232
2232
2232
2232
2232
2229
2229
2229
2232
2232
2232
2226
2226
2226
2232
2232
2232
2232
2232
2232
2232
2229
2229
2229
2238
2238
2238
2230
2230
2230
2227
2227
2227
2227
2233
2233
2233
2227
2227
2227
2232
2232
2232
2226
2226
2226
2234
2234
2234
2234
2233
2233
2233
2228
2228
2228
2233
2233
2233
2227
2227
2227
2234
2234
2234
2234
2231
2231
2231
2227
2227
2227
2228
2228
2228
2229
2229
2229
2226
2226
2226
2226
2230
2230
2230
2227
2227
2227
2232
2232
2232
2226
2226
2226
2232
2232
2232
2232
2232
2232
2232
2227
2227
2227
2234
2234
2234
2225
2225
2225
2237
2237
2237
2237
2230
2230
2230
2228
2228
2228
2233
2233
2233
2226
2226
2226
2233
2233
2233
2233
2234
2234
2234
2228
2228
2228
2232
2232
2232
2228
2228
2228
2227
2227
2227
2227
2233
2233
2233
2232
2232
2232
2225
2225
2225
2229
2229
2229
2233
2233
2233
2233
2231
2231
2231
2228
2228
2228
2233
2233
2233
2228
2228
2228
2233
2233
2233
2233
2231
2231
2231
2230
2230
2230
2236
2236
2236
2226
2226
2226
2234
2234
2234
2234
2232
2232
2232
2228
2228
2228
2232
2232
2232
2227
2227
2227
2231
2231
2231
2231
2229
2229
2229
2228
2228
2228
2232
2232
2232
2224
2224
2224
2232
2232
2232
2232
2231
2231
2231
2227
2227
2227
2232
2232
2232
2230
2230
2230
2235
2235
2235
2235
2233
2233
2233
2229
2229
2229
2232
2232
2232
2228
2228
2228
2234
2234
2234
2234
2232
2232
2232
2226
2226
2226
2233
2233
2233
2227
2227
2227
2232
2232
2232
2232
2238
2238
2238
2227
2227
2227
2232
2232
2232
2228
2228
2228
2232
2232
2232
2232
2231
2231
2231
2229
2229
2229
2230
2230
2230
2229
2229
2229
2232
2232
2232
2232
2230
2230
2230
2229
2229
2229
2231
2231
2231
2228
2228
2228
2233
2233
2233
2233
2232
2232
2232
2225
2225
2225
2232
2232
2232
2227
2227
2227
2232
2232
2232
2232
2235
2235
2235
2221
2221
2221
2235
2235
2235
2220
2220
2220
2230
2230
2230
2230
2233
2233
2233
2227
2227
2227
2233
2233
2233
2227
2227
2227
2233
2233
2233
2233
2229
2229
2229
2227
2227
2227
2231
2231
2231
2226
2226
2226
2233
2233
2233
2233
2237
2237
2237
2227
2227
2227
2234
2234
2234
2226
2226
2226
2229
2229
2229
2229
2230
2230
2230
2227
2227
2227
2232
2232
2232
2228
2228
2228
2233
2233
2233
2233
2237
2237
2237
2228
2228
2228
2232
2232
2232
2226
2226
2226
2231
2231
2231
2231
2232
2232
2232
2227
2227
2227
2233
2233
2233
2227
2227
2227
2232
2232
2232
2232
2234
2234
2234
2230
2230
2230
2236
2236
2236
2231
2231
2231
2237
2237
2237
2237
2230
2230
2230
2227
2227
2227
2231
2231
2231
2227
2227
2227
2232
2232
2232
2232
2232
2232
2232
2227
2227
2227
2233
2233
2233
2225
2225
2225
2232
2232
2232
2232
2230
2230
2230
2224
2224
2224
2233
2233
2233
2231
2231
2231
2236
2236
2236
2236
2233
2233
2233
2226
2226
2226
2233
2233
2233
2228
2228
2228
2231
2231
2231
2231
2233
2233
2233
2229
2229
2229
2232
2232
2232
2226
2226
2226
2232
2232
2232
2232
2233
2233
2233
2227
2227
2227
2233
2233
2233
2229
2229
2229
2234
2234
2234
2234
2233
2233
2233
2226
2226
2226
2233
2233
2233
2230
2230
2230
2234
2234
2234
2234
2234
2234
2234
2228
2228
2228
2231
2231
2231
2225
2225
2225
2232
2232
2232
2232
2232
2232
2232
2233
2233
2233
2233
2233
2233
2230
2230
2230
2232
2232
2232
2232
2230
2230
2230
2232
2232
2232
2231
2231
2231
2229
2229
2229
2232
2232
2232
2232
2231
2231
2231
2225
2225
2225
2232
2232
2232
2225
2225
2225
2233
2233
2233
2233
2232
2232
2232
2228
2228
2228
2231
2231
2231
2228
2228
2228
2231
2231
2231
2231
2228
2228
2228
2226
2226
2226
2230
2230
2230
2224
2224
2224
2230
2230
2230
2230
2233
2233
2233
2225
2225
2225
2235
2235
2235
2227
2227
2227
2230
2230
2230
2230
2230
2230
2230
2227
2227
2227
2233
2233
2233
2226
2226
2226
2233
2233
2233
2233
2231
2231
2231
2229
2229
2229
2235
2235
2235
2226
2226
2226
2231
2231
2231
2231
2232
2232
2232
2226
2226
2226
2227
2227
2227
2227
2227
2227
2232
2232
2232
2232
2231
2231
2231
2229
2229
2229
2230
2230
2230
2227
2227
2227
2234
2234
2234
2234
2232
2232
2232
2226
2226
2226
2235
2235
2235
2228
2228
2228
2230
2230
2230
2230
2237
2237
2237
2220
2220
2220
2237
2237
2237
2223
2223
2223
2232
2232
2232
2232
2230
2230
2230
2228
2228
2228
2231
2231
2231
2227
2227
2227
2232
2232
2232
2232
2233
2233
2233
2227
2227
2227
2233
2233
2233
2227
2227
2227
2234
2234
2234
2234
2231
2231
2231
2227
2227
2227
2229
2229
2229
2226
2226
2226
2231
2231
2231
2231
2235
2235
2235
2227
2227
2227
2232
2232
2232
2228
2228
2228
2234
2234
2234
2234
2230
2230
2230
2227
2227
2227
2232
2232
2232
2227
2227
2227
2233
2233
2233
2233
2229
2229
2229
2229
2229
2229
2232
2232
2232
2226
2226
2226
2232
2232
2232
2232
2233
2233
2233
2227
2227
2227
2230
2230
2230
2224
2224
2224
2229
2229
2229
2229
2231
2231
2231
2226
2226
2226
2232
2232
2232
2228
2228
2228
2231
2231
2231
2231
2229
2229
2229
2228
2228
2228
2232
2232
2232
2229
2229
2229
2230
2230
2230
2230
2234
2234
2234
2228
2228
2228
2231
2231
2231
2228
2228
2228
2232
2232
2232
2232
2232
2232
2232
2230
2230
2230
2234
2234
2234
2230
2230
2230
2232
2232
2232
2232
2233
2233
2233
2227
2227
2227
2234
2234
2234
2231
2231
2231
2232
2232
2232
2232
2233
2233
2233
2227
2227
2227
2233
2233
2233
2224
2224
2224
2234
2234
2234
2234
2232
2232
2232
2229
2229
2229
2232
2232
2232
2229
2229
2229
2231
2231
2231
2231
2230
2230
2230
2229
2229
2229
2232
2232
2232
2230
2230
2230
2235
2235
2235
2235
2232
2232
2232
2228
2228
2228
2232
2232
2232
2227
2227
2227
2231
2231
2231
2231
2233
2233
2233
2230
2230
2230
2232
2232
2232
2227
2227
2227
2232
2232
2232
2232
2235
2235
2235
2228
2228
2228
2235
2235
2235
2226
2226
2226
2235
2235
2235
2235
2231
2231
2231
2229
2229
2229
2230
2230
2230
2223
2223
2223
2233
2233
2233
2233
2232
2232
2232
2227
2227
2227
2231
2231
2231
2226
2226
2226
2234
2234
2234
2234
2232
2232
2232
2228
2228
2228
2232
2232
2232
2227
2227
2227
2232
2232
2232
2232
2232
2232
2232
2232
2232
2232
2224
2224
2224
2229
2229
2229
2233
2233
2233
2233
2231
2231
2231
2231
2231
2231
2231
2231
2231
2228
2228
2228
2232
2232
2232
2232
2230
2230
2230
2230
2230
2230
2235
2235
2235
2228
2228
2228
2231
2231
2231
2231
2233
2233
2233
2228
2228
2228
2230
2230
2230
2236
2236
2236
2232
2232
2232
2232
2233
2233
2233
2225
2225
2225
2231
2231
2231
2229
2229
2229
2233
2233
2233
2233
2232
2232
2232
2229
2229
2229
2233
2233
2233
2227
2227
2227
2235
2235
2235
2235
2231
2231
2231
2227
2227
2227
2241
2241
2241
2227
2227
2227
2233
2233
2233
2233
2233
2233
2233
2228
2228
2228
2233
2233
2233
2227
2227
2227
2232
2232
2232
2232
2231
2231
2231
2226
2226
2226
2233
2233
2233
2227
2227
2227
2234
2234
2234
2234
2231
2231
2231
2227
2227
2227
2231
2231
2231
2228
2228
2228
2231
2231
2231
2231
2233
2233
2233
2227
2227
2227
2232
2232
2232
2226
2226
2226
2231
2231
2231
2231
2228
2228
2228
2228
2228
2228
2233
2233
2233
2230
2230
2230
2225
2225
2225
2225
2233
2233
2233
2227
2227
2227
2231
2231
2231
2226
2226
2226
2229
2229
2229
2229
2231
2231
2231
2227
2227
2227
2230
2230
2230
2227
2227
2227
2232
2232
2232
2232
2232
2232
2232
2228
2228
2228
2231
2231
2231
2229
2229
2229
2231
2231
2231
2231
2235
2235
2235
2227
2227
2227
2235
2235
2235
2226
2226
2226
2234
2234
2234
2234
2232
2232
2232
2230
2230
2230
2231
2231
2231
2226
2226
2226
2235
2235
2235
2235
2230
2230
2230
2229
2229
2229
2236
2236
2236
2228
2228
2228
2233
2233
2233
2233
2236
2236
2236
2231
2231
2231
2228
2228
2228
2228
2228
2228
2231
2231
2231
2231
2235
2235
2235
2228
2228
2228
2233
2233
2233
2226
2226
2226
2229
2229
2229
2229
2230
2230
2230
2228
2228
2228
2231
2231
2231
2227
2227
2227
2233
2233
2233
2233
2232
2232
2232
2227
2227
2227
2233
2233
2233
2227
2227
2227
2234
2234
2234
2234
2233
2233
2233
2226
2226
2226
2237
2237
2237
2223
2223
2223
2232
2232
2232
2232
2235
2235
2235
2225
2225
2225
2232
2232
2232
2227
2227
2227
2231
2231
2231
2231
2237
2237
2237
2228
2228
2228
2232
2232
2232
2227
2227
2227
2233
2233
2233
2233
2232
2232
2232
2228
2228
2228
2234
2234
2234
2224
2224
2224
2230
2230
2230
2230
2221
2221
2221
2227
2227
2227
2232
2232
2232
2225
2225
2225
2232
2232
2232
2232
2232
2232
2232
2226
2226
2226
2234
2234
2234
2228
2228
2228
2232
2232
2232
2232
2230
2230
2230
2227
2227
2227
2234
2234
2234
2228
2228
2228
2232
2232
2232
2232
2234
2234
2234
2223
2223
2223
2232
2232
2232
2231
2231
2231
2229
2229
2229
2229
2233
2233
2233
2227
2227
2227
2234
2234
2234
2227
2227
2227
2231
2231
2231
2231
2231
2231
2231
2230
2230
2230
2231
2231
2231
2227
2227
2227
2234
2234
2234
2234
2234
2234
2234
2229
2229
2229
2233
2233
2233
2227
2227
2227
2236
2236
2236
2236
2232
2232
2232
2229
2229
2229
2233
2233
2233
2226
2226
2226
2231
2231
2231
2231
2229
2229
2229
2229
2229
2229
2232
2232
2232
2227
2227
2227
2232
2232
2232
2232
2230
2230
2230
2226
2226
2226
2232
2232
2232
2227
2227
2227
2232
2232
2232
2232
2235
2235
2235
2231
2231
2231
2231
2231
2231
2222
2222
2222
2229
2229
2229
2229
2230
2230
2230
2227
2227
2227
2232
2232
2232
2224
2224
2224
2230
2230
2230
2230
2234
2234
2234
2230
2230
2230
2232
2232
2232
2229
2229
2229
2233
2233
2233
2233
2230
2230
2230
2230
2230
2230
2231
2231
2231
2231
2231
2231
2234
2234
2234
2234
2231
2231
2231
2230
2230
2230
2232
2232
2232
2226
2226
2226
2231
2231
2231
2231
2231
2231
2231
2230
2230
2230
2233
2233
2233
2228
2228
2228
2233
2233
2233
2233
2232
2232
2232
2225
2225
2225
2235
2235
2235
2228
2228
2228
2231
2231
2231
2231
2237
2237
2237
2229
2229
2229
2232
2232
2232
2227
2227
2227
2234
2234
2234
2234
2235
2235
2235
2227
2227
2227
2232
2232
2232
2227
2227
2227
2233
2233
2233
2233
2233
2233
2233
2233
2233
2233
2232
2232
2232
2228
2228
2228
2233
2233
2233
2233
2232
2232
2232
2228
2228
2228
2232
2232
2232
2227
2227
2227
2230
2230
2230
2230
2233
2233
2233
2225
2225
2225
2235
2235
2235
2226
2226
2226
2230
2230
2230
2230
2233
2233
2233
2227
2227
2227
2231
2231
2231
2228
2228
2228
2233
2233
2233
2233
2233
2233
2233
2228
2228
2228
2234
2234
2234
2229
2229
2229
2232
2232
2232
2232
2231
2231
2231
2228
2228
2228
2232
2232
2232
2226
2226
2226
2232
2232
2232
2232
2232
2232
2232
2225
2225
2225
2230
2230
2230
2231
2231
2231
2232
2232
2232
2232
2232
2232
2232
2227
2227
2227
2231
2231
2231
2228
2228
2228
2233
2233
2233
2233
2232
2232
2232
2228
2228
2228
2232
2232
2232
2229
2229
2229
2233
2233
2233
2233
2233
2233
2233
2227
2227
2227
2231
2231
2231
2229
2229
2229
2230
2230
2230
2230
2229
2229
2229
2228
2228
2228
2233
2233
2233
2227
2227
2227
2227
2227
2227
2227
2233
2233
2233
2229
2229
2229
2233
2233
2233
2228
2228
2228
2231
2231
2231
2231
2232
2232
2232
2226
2226
2226
2233
2233
2233
2228
2228
2228
2233
2233
2233
2233
2233
2233
2233
2231
2231
2231
2235
2235
2235
2235
2235
2235
2233
2233
2233
2233
2231
2231
2231
2227
2227
2227
2233
2233
2233
2228
2228
2228
2231
2231
2231
2231
2232
2232
2232
2227
2227
2227
2233
2233
2233
2228
2228
2228
2235
2235
2235
2235
2232
2232
2232
2227
2227
2227
2232
2232
2232
2229
2229
2229
2232
2232
2232
2232
2233
2233
2233
2227
2227
2227
2238
2238
2238
2229
2231
2231
2227
2227
2227
2233
2233
2233
2233
2230
2230
2230
2229
2229
2229
2231
2231
2231
2226
2226
2226
2233
2233
2233
2233
2234
2234
2234
2227
2227
2227
2234
2234
2234
2226
2226
2226
2233
2233
2233
2233
2234
2234
2234
2229
2229
2229
2229
2229
2229
2231
2231
2231
2232
2232
2232
2232
2230
2230
2230
2228
2228
2228
2234
2234
2234
2230
2230
2230
2233
2233
2233
2233
2231
2231
2231
2226
2226
2226
2231
2231
2231
2231
2231
2231
2232
2232
2232
2232
2232
2232
2232
2228
2228
2228
2233
2233
2233
2230
2230
2230
2247
2247
2247
2247
2235
2235
2235
2227
2227
2233
2229
2229
2229
2232
2232
2232
2227
2227
2227
2232
2232
2232
2232
2233
2233
2233
2226
2226
2226
2233
2233
2233
2225
2225
2225
2232
2232
2232
2232
2231
2231
2231
2229
2229
2229
2228
2228
2228
2231
2231
2231
2237
2237
2237
2237
2231
2231
2231
2229
2229
2229
2232
2232
2232
2228
2228
2228
2233
2233
2233
2233
2233
2233
2233
2229
2229
2229
2232
2232
2232
2229
2229
2229
2230
2230
2230
2230
2233
2233
2233
2229
2229
2229
2233
2233
2233
2225
2225
2225
2235
2235
2235
2235
2230
2230
2230
2227
2227
2227
2234
2234
2234
2229
2229
2229
2230
2230
2230
2230
2235
2235
2235
2231
2231
2231
2227
2227
2227
2233
2233
2233
2228
2228
2228
2230
2230
2230
2230
2231
2231
2231
2227
2227
2227
2233
2233
2233
2226
2226
2226
2228
2228
2228
2228
2234
2234
2234
2225
2225
2225
2232
2232
2232
2229
2229
2229
2229
2229
2229
2229
2235
2235
2235
2228
2228
2228
2235
2235
2235
2227
2227
2227
2234
2234
2234
2234
2229
2229
2229
2230
2230
2230
2231
2231
2231
2230
2230
2230
2232
2232
2232
2232
2235
2235
2235
2228
2228
2228
2229
2229
2229
2229
2229
2229
2233
2233
2233
2233
2230
2230
2230
2227
2227
2227
2230
2230
2230
2228
2233
2233
2231
2231
2231
2233
2233
2233
2233
2235
2235
2235
2230
2230
2230
2231
2231
2231
2230
2230
2230
2234
2234
2234
2234
2234
2234
2234
2229
2229
2229
2232
2232
2232
2229
2229
2229
2227
2227
2227
2227
2231
2231
2231
2238
2238
2238
2233
2233
2233
2228
2228
2228
2231
2231
2231
2231
2232
2232
2232
2229
2229
2229
2232
2232
2232
2230
2230
2230
2230
2230
2230
2230
2232
2232
2232
2227
2227
2227
2233
2233
2233
2227
2227
2227
2232
2232
2232
2232
2231
2231
2231
2225
2225
2225
2232
2232
2232
2228
2228
2228
2233
2233
2233
2233
2232
2232
2232
2226
2226
2233
2233
2228
2228
2228
2231
2231
2231
2230
2230
2230
2232
2232
2232
2232
2233
2233
2233
2221
2221
2221
2235
2235
2235
2230
2230
2230
2232
2232
2232
2232
2233
2233
2233
2228
2228
2228
2229
2229
2229
2231
2231
2231
2233
2233
2233
2233
2232
2232
2232
2228
2228
2228
2229
2229
2229
2229
2229
2229
2233
2233
2233
2233
2235
2235
2235
2230
2230
2230
2234
2234
2234
2226
2226
2226
2238
2238
2238
2238
2232
2232
2232
2227
2227
2227
2232
2232
2232
2228
2228
2228
2236
2236
2236
2236
2231
2231
2231
2226
2226
2226
2234
2234
2234
2229
2229
2229
2227
2227
2227
2236
2236
2236
2236
2231
2231
2231
2227
2227
2227
2229
2229
2229
2231
2231
2231
2230
2230
2230
2230
2230
2230
2230
2229
2229
2229
2234
2234
2234
2229
2229
2229
2232
2232
2232
2232
2230
2230
2230
2229
2229
2229
2231
2231
2231
2229
2229
2229
2234
2234
2234
2234
2232
2232
2232
2226
2226
2226
2232
2232
2232
2225
2225
2225
2233
2233
2233
2233
2233
2233
2233
2227
2227
2227
2236
2236
2236
2224
2224
2224
2234
2234
2234
2234
2232
2232
2232
2229
2229
2229
2235
2235
2235
2230
2230
2230
2230
2230
2230
2230
2233
2233
2233
2227
2227
2227
2233
2233
2233
2225
2232
2232
2228
2228
2228
2233
2233
2233
2233
2236
2236
2236
2225
2225
2225
2233
2233
2233
2229
2229
2229
2232
2232
2232
2232
2232
2232
2232
2226
2226
2226
2232
2232
2232
2231
2231
2231
2232
2232
2232
2232
2233
2233
2233
2226
2226
2226
2232
2232
2232
2229
2229
2229
2232
2232
2232
2232
2229
2229
2229
2228
2228
2228
2232
2232
2232
2231
2231
2231
2231
2231
2231
2231
2234
2234
2234
2226
2226
2226
2232
2232
2232
2231
2231
2231
2230
2230
2230
2230
2230
2230
2230
2227
2227
2227
2233
2233
2233
2230
2230
2230
2232
2232
2232
2232
2232
2232
2232
2228
2228
2227
2226
2226
2226
2227
2227
2227
2228
2228
2228
2228
2228
2228
2228
2232
2232
2232
2227
2227
2227
2232
2232
2232
2226
2226
2226
2234
2234
2234
2234
2231
2231
2231
2227
2227
2227
2233
2233
2233
2228
2228
2228
2230
2230
2230
2230
2235
2235
2235
2226
2226
2226
2232
2232
2232
2229
2229
2229
2231
2231
2231
2231
2227
2227
2227
2231
2231
2231
2237
2237
2237
2228
2228
2228
2231
2231
2231
2231
2232
2232
2232
2228
2228
2228
2234
2234
2234
2227
2227
2227
2232
2232
2232
2232
2233
2233
2233
2231
2231
2231
2232
2232
2232
2229
2229
2229
2235
2235
2235
2230
2230
2230
2230
2232
2232
2232
2230
2230
2230
2230
2230
2230
2231
2231
2231
2227
2227
2227
2227
2231
2231
2231
2227
2227
2227
2233
2233
2233
2235
2235
2235
2232
2232
2232
2232
2232
2232
2232
2228
2228
2228
2232
2232
2232
2226
2226
2226
2235
2235
2235
2235
2228
2228
2228
2227
2227
2227
2233
2233
2233
2230
2230
2230
2236
2236
2236
2236
2233
2233
2233
2225
2225
2225
2231
2231
2231
2227
2227
2227
2231
2231
2231
2231
2231
2231
2231
2227
2227
2227
2233
2233
2233
2227
2227
2227
2230
2230
2230
2230
2231
2231
2231
2227
2227
2227
2233
2233
2233
2227
2233
2233
2233
2221
2221
2221
2236
2236
2236
2236
2233
2233
2233
2227
2227
2227
2234
2234
2234
2227
2227
2227
2231
2231
2231
2231
2230
2230
2230
2228
2228
2228
2231
2231
2231
2229
2229
2229
2233
2233
2233
2233
2232
2232
2232
2228
2228
2228
2233
2233
2233
2227
2227
2227
2232
2232
2232
2232
2235
2235
2235
2226
2226
2226
2235
2235
2235
2232
2232
2232
2232
2232
2232
2232
2231
2231
2231
2228
2228
2228
2229
2229
2229
2228
2228
2228
2232
2232
2232
2232
2232
2232
2232
2229
2229
2229
2233
2233
2233
2228
2228
2228
2234
2234
2234
2234
2234
2234
2234
2229
2229
2229
2231
2231
2231
2225
2225
2225
2233
2233
2233
2233
2232
2232
2232
2232
2232
2232
2233
2233
2233
2227
2227
2227
2233
2233
2233
2233
2233
2233
2233
2228
2228
2228
2231
2231
2231
2228
2228
2228
2231
2231
2231
2231
2232
2232
2232
2228
2228
2228
2233
2233
2233
2229
2229
2229
2232
2232
2232
2232
2230
2230
2230
2238
2238
2238
2232
2232
2232
2227
2227
2227
2233
2233
2233
2233
2230
2230
2230
2226
2226
2226
2233
2233
2233
2230
2230
2230
2231
2231
2231
2231
2231
2231
2231
2226
2226
2226
2231
2231
2231
2227
2227
2227
2232
2232
2232
2232
2231
2231
2231
2227
2227
2227
2231
2231
2231
2225
2225
2225
2233
2233
2233
2233
2233
2233
2233
2225
2225
2225
2232
2232
2232
2228
2228
2228
2236
2236
2236
2236
2228
2228
2228
2226
2226
2226
2234
2234
2234
2229
2229
2229
2235
2235
2235
2235
2232
2232
2232
2227
2227
2227
2233
2233
2233
2227
2227
2227
2232
2232
2232
2232
2232
2232
2232
2228
2228
2228
2230
2230
2230
2226
2226
2226
2233
2233
2233
2233
2233
2233
2233
2222
2222
2222
2231
2231
2231
2234
2234
2234
2233
2233
2233
2233
2234
2234
2234
2228
2228
2228
2232
2232
2232
2227
2227
2227
2233
2233
2233
2233
2230
2230
2230
2226
2226
2226
2230
2230
2230
2227
2227
2227
2232
2232
2232
2232
2231
2231
2231
2228
2228
2228
2231
2231
2231
2228
2228
2228
2231
2231
2231
2231
2232
2232
2232
2230
2230
2230
2237
2237
2237
2226
2226
2226
2233
2233
2233
2233
2233
2233
2233
2229
2229
2229
2232
2232
2232
2227
2227
2227
2231
2231
2231
2231
2234
2234
2234
2228
2228
2228
2233
2233
2233
2226
2226
2226
2231
2231
2231
2231
2232
2232
2232
2229
2229
2229
2234
2234
2234
2229
2229
2229
2232
2232
2232
2232
2230
2230
2230
2230
2230
2230
2235
2235
2235
2223
2223
2223
2230
2230
2230
2230
2232
2232
2232
2227
2227
2227
2230
2230
2230
2228
2228
2228
2234
2234
2234
2234
2229
2229
2229
2227
2227
2227
2232
2232
2232
2228
2228
2228
2233
2233
2233
2233
2229
2229
2229
2226
2226
2226
2232
2232
2232
2227
2227
2227
2234
2234
2234
2234
2233
2233
2233
2228
2228
2228
2233
2233
2233
2230
2230
2230
2237
2237
2237
2237
2231
2231
2231
2228
2228
2228
2231
2231
2231
2227
2227
2227
2232
2232
2232
2232
2231
2231
2231
2227
2227
2227
2230
2230
2230
2228
2228
2228
2233
2233
2233
2233
2229
2229
2229
2228
2228
2228
2232
2232
2232
2225
2225
2225
2231
2231
2231
2231
2235
2235
2235
2225
2225
2225
2236
2236
2236
2226
2226
2226
2231
2231
2231
2231
2232
2232
2232
2227
2227
2227
2233
2233
2233
2227
2227
2227
2230
2230
2230
2230
2233
2233
2233
2226
2226
2226
2235
2235
2235
2228
2228
2228
2232
2232
2232
2232
2231
2231
2231
2230
2230
2230
2231
2231
2231
2226
2226
2226
2235
2235
2235
2235
2229
2229
2229
2227
2227
2227
2229
2229
2229
2226
2226
2226
2229
2229
2229
2229
2232
2232
2232
2227
2227
2227
2233
2233
2233
2226
2226
2226
2235
2235
2235
2235
2231
2231
2231
2228
2228
2228
2233
2233
2233
2226
2226
2226
2233
2233
2233
2233
2229
2229
2229
2227
2227
2227
2237
2237
2237
2227
2227
2227
2234
2234
2234
2234
2231
2231
2231
2227
2227
2227
2234
2234
2234
2226
2226
2226
2240
2240
2240
2240
2228
2228
2228
2228
2228
2228
2232
2232
2232
2227
2227
2227
2230
2230
2230
2230
2229
2229
2229
2227
2227
2227
2234
2234
2234
2227
2227
2227
2233
2233
2233
2233
2229
2229
2229
2230
2230
2230
2232
2232
2232
2227
2227
2227
2225
2225
2225
2225
2233
2233
2233
2230
2230
2230
2230
2230
2230
2222
2222
2222
2233
2233
2233
2233
2234
2234
2234
2229
2229
2229
2230
2230
2230
2226
2226
2226
2231
2231
2231
2231
2231
2231
2231
2229
2229
2229
2233
2233
2233
2229
2229
2229
2233
2233
2233
2233
2235
2235
2235
2228
2228
2228
2238
2238
2238
2228
2228
2228
2231
2231
2231
2231
2230
2230
2230
2227
2227
2227
2229
2229
2229
2226
2226
2226
2229
2229
2229
2229
2233
2233
2233
2227
2227
2227
2232
2232
2232
2227
2227
2227
2234
2234
2234
2234
2235
2235
2235
2226
2226
2226
2231
2231
2231
2226
2226
2226
2234
2234
2234
2234
2232
2232
2232
2228
2228
2228
2231
2231
2231
2228
2228
2228
2231
2231
2231
2231
2235
2235
2235
2228
2228
2228
2232
2232
2232
2225
2225
2225
2230
2230
2230
2230
2235
2235
2235
2231
2231
2231
2234
2234
2234
2231
2231
2231
2230
2230
2230
2230
2235
2235
2235
2226
2226
2226
2232
2232
2232
2228
2228
2228
2234
2234
2234
2234
2237
2237
2237
2227
2227
2227
2231
2231
2231
2230
2230
2230
2232
2232
2232
2232
2229
2229
2229
2226
2226
2226
2232
2232
2232
2225
2225
2225
2236
2236
2236
2236
2231
2231
2231
2225
2225
2225
2231
2231
2231
2226
2226
2226
2233
2233
2233
2233
2228
2228
2228
2226
2226
2226
2233
2233
2233
2227
2227
2227
2234
2234
2234
2234
2232
2232
2232
2231
2231
2231
2232
2232
2232
2224
2224
2224
2235
2235
2235
2235
2232
2232
2232
2227
2227
2227
2233
2233
2233
2228
2228
2228
2235
2235
2235
2235
2233
2233
2233
2228
2228
2228
2232
2232
2232
2228
2228
2228
2230
2230
2230
2230
2233
2233
2233
2228
2228
2228
2233
2233
2233
2227
2227
2227
2231
2231
2231
2231
2232
2232
2232
2228
2228
2228
2233
2233
2233
2229
2229
2229
2232
2232
2232
2232
2231
2231
2231
2227
2227
2227
2233
2233
2233
2227
2227
2227
2229
2229
2229
2229
2235
2235
2235
2229
2229
2229
2230
2230
2230
2229
2229
2229
2230
2230
2230
2230
2232
2232
2232
2228
2228
2228
2232
2232
2232
2228
2228
2228
2230
2230
2230
2230
2231
2231
2231
2220
2220
2220
2234
2234
2234
2223
2223
2223
2232
2232
2232
2232
2231
2231
2231
2226
2226
2226
2233
2233
2233
2227
2227
2227
2233
2233
2233
2233
2231
2231
2231
2227
2227
2227
2233
2233
2233
2228
2228
2228
2231
2231
2231
2231
2236
2236
2236
2228
2228
2228
2231
2231
2231
2228
2228
2228
2232
2232
2232
2232
2228
2228
2228
2225
2225
2225
2223
2223
2223
2232
2232
2232
2228
2228
2228
2228
2233
2233
2233
2225
2225
2225
2233
2233
2233
2228
2228
2228
2235
2235
2235
2235
2231
2231
2231
2226
2226
2226
2232
2232
2232
2227
2227
2227
2231
2231
2231
2231
2232
2232
2232
2227
2227
2227
2233
2233
2233
2228
2228
2228
2232
2232
2232
2232
2231
2231
2231
2223
2223
2223
2231
2231
2231
2225
2225
2225
2233
2233
2233
2233
2231
2231
2231
2229
2229
2229
2234
2234
2234
2226
2226
2226
2232
2232
2232
2232
2231
2231
2231
2228
2228
2228
2231
2231
2231
2225
2225
2225
2233
2233
2233
2233
2232
2232
2232
2229
2229
2229
2232
2232
2232
2227
2227
2227
2231
2231
2231
2231
2228
2228
2228
2228
2228
2228
2229
2229
2229
2228
2228
2228
2234
2234
2234
2234
2233
2233
2233
2225
2225
2225
2232
2232
2232
2226
2226
2226
2230
2230
2230
2230
2230
2230
2230
2226
2226
2226
2233
2233
2233
2226
2226
2226
2234
2234
2234
2234
2233
2233
2233
2225
2225
2225
2233
2233
2233
2227
2227
2227
2232
2232
2232
2232
2227
2227
2227
2228
2228
2228
2227
2227
2227
2230
2230
2230
2235
2235
2235
2235
2233
2233
2233
2225
2225
2225
2230
2230
2230
2226
2226
2226
2231
2231
2231
2231
2232
2232
2232
2228
2228
2228
2232
2232
2232
2231
2231
2231
2232
2232
2232
2232
2233
2233
2233
2229
2229
2229
2232
2232
2232
2227
2227
2227
2232
2232
2232
2232
2233
2233
2233
2226
2226
2226
2236
2236
2236
2223
2223
2223
2231
2231
2231
2231
2231
2231
2231
2228
2228
2228
2232
2232
2232
2226
2226
2226
2235
2235
2235
2235
2232
2232
2232
2226
2226
2226
2231
2231
2231
2224
2224
2224
2234
2234
2234
2234
2230
2230
2230
2225
2225
2225
2233
2233
2233
2227
2227
2227
2233
2233
2233
2233
2228
2228
2228
2228
2228
2228
2232
2232
2232
2225
2225
2225
2233
2233
2233
2233
2229
2229
2229
2228
2228
2228
2233
2233
2233
2227
2227
2227
2232
2232
2232
2232
2232
2232
2232
2226
2226
2226
2237
2237
2237
2231
2231
2231
2233
2233
2233
2233
2230
2230
2230
2223
2223
2223
2233
2233
2233
2230
2230
2230
2232
2232
2232
2232
2232
2232
2232
2227
2227
2227
2232
2232
2232
2229
2229
2229
2231
2231
2231
2231
2232
2232
2232
2228
2228
2228
2234
2234
2234
2227
2227
2227
2231
2231
2231
2231
2230
2230
2230
2228
2228
2228
2231
2231
2231
2227
2227
2227
2230
2230
2230
2230
2229
2229
2229
2226
2226
2226
2232
2232
2232
2227
2227
2227
2233
2233
2233
2233
2232
2232
2232
2226
2226
2226
2236
2236
2236
2226
2226
2226
2231
2231
2231
2231
2233
2233
2233
2228
2228
2228
2231
2231
2231
2225
2225
2225
2233
2233
2233
2233
2232
2232
2232
2227
2227
2227
2232
2232
2232
2227
2227
2227
2233
2233
2233
2233
2230
2230
2230
2229
2229
2229
2231
2231
2231
2226
2226
2226
2230
2230
2230
2230
2231
2231
2231
2231
2231
2231
2230
2230
2230
2228
2228
2228
2229
2229
2229
2229
2231
2231
2231
2227
2227
2227
2234
2234
2234
2229
2229
2229
2231
2231
2231
2231
2231
2231
2231
2227
2227
2227
2232
2232
2232
2229
2229
2229
2231
2231
2231
2231
2227
2227
2227
2227
2227
2227
2233
2233
2233
2227
2227
2227
2232
2232
2232
2232
2237
2237
2237
2228
2228
2228
2225
2225
2225
2223
2223
2223
2229
2229
2229
2229
2232
2232
2232
2228
2228
2228
2231
2231
2231
2229
2229
2229
2232
2232
2232
2232
2232
2232
2232
2227
2227
2227
2233
2233
2233
2229
2229
2229
2230
2230
2230
2230
2232
2232
2232
2233
2233
2233
2234
2234
2234
2227
2227
2227
2233
2233
2233
2233
2234
2234
2234
2222
2222
2222
2232
2232
2232
2226
2226
2226
2232
2232
2232
2232
2234
2234
2234
2228
2228
2228
2233
2233
2233
2225
2225
2225
2232
2232
2232
2232
2234
2234
2234
2227
2227
2227
2233
2233
2233
2227
2227
2227
2231
2231
2231
2231
2236
2236
2236
2227
2227
2227
2230
2230
2230
2228
2228
2228
2229
2229
2229
2229
2231
2231
2231
2228
2228
2228
2235
2235
2235
2229
2229
2229
2236
2236
2236
2236
2230
2230
2230
2227
2227
2227
2233
2233
2233
2227
2227
2227
2233
2233
2233
2233
2233
2233
2233
2229
2229
2229
2232
2232
2232
2227
2227
2227
2232
2232
2232
2232
2231
2231
2231
2230
2230
2230
2232
2232
2232
2220
2220
2220
2231
2231
2231
2231
2235
2235
2235
2226
2226
2226
2233
2233
2233
2224
2224
2224
2231
2231
2231
2231
2230
2230
2230
2228
2228
2228
2231
2231
2231
2226
2226
2226
2231
2231
2231
2231
2232
2232
2232
2226
2226
2226
2233
2233
2233
2225
2225
2225
2234
2234
2234
2234
2235
2235
2235
2227
2227
2227
2234
2234
2234
2223
2223
2223
2234
2234
2234
2234
2232
2232
2232
2226
2226
2226
2232
2232
2232
2226
2226
2226
2233
2233
2233
2233
2232
2232
2232
2227
2227
2227
2234
2234
2234
2227
2227
2227
2232
2232
2232
2232
2233
2233
2233
2227
2227
2227
2232
2232
2232
2228
2228
2228
2233
2233
2233
2233
2233
2233
2233
2225
2225
2225
2234
2234
2234
2227
2227
2227
2233
2233
2233
2233
2233
2233
2233
2227
2227
2227
2233
2233
2233
2226
2226
2226
2233
2233
2233
2233
2231
2231
2231
2226
2226
2226
2232
2232
2232
2226
2226
2226
2232
2232
2232
2232
2236
2236
2236
2228
2228
2228
2234
2234
2234
2225
2225
2225
2233
2233
2233
2233
2233
2233
2233
2230
2230
2230
2233
2233
2233
2228
2228
2228
2231
2231
2231
2231
2234
2234
2234
2227
2227
2227
2232
2232
2232
2229
2229
2229
2234
2234
2234
2234
2231
2231
2231
2227
2227
2227
2233
2233
2233
2227
2227
2227
2233
2233
2233
2233
2240
2240
2240
2229
2229
2229
2227
2227
2227
2225
2225
2225
2232
2232
2232
2232
2234
2234
2234
2228
2228
2228
2233
2233
2233
2228
2228
2228
2231
2231
2231
2231
2233
2233
2233
2230
2230
2230
2232
2232
2232
2225
2225
2225
2232
2232
2232
2232
2232
2232
2232
2228
2228
2228
2232
2232
2232
2226
2226
2226
2234
2234
2234
2234
2232
2232
2232
2230
2230
2230
2229
2229
2229
2231
2231
2231
2233
2233
2233
2233
2230
2230
2230
2228
2228
2228
2231
2231
2231
2229
2229
2229
2233
2233
2233
2233
2233
2233
2233
2227
2227
2227
2233
2233
2233
2229
2229
2229
2232
2232
2232
2232
2230
2230
2230
2226
2226
2226
2232
2232
2232
2226
2226
2226
2232
2232
2232
2232
2228
2228
2228
2225
2225
2225
2231
2231
2231
2230
2230
2230
2232
2232
2232
2232
2232
2232
2232
2228
2228
2228
2232
2232
2232
2227
2227
2227
2233
2233
2233
2233
2232
2232
2232
2228
2228
2228
2232
2232
2232
2227
2227
2227
2234
2234
2234
2234
2229
2229
2229
2228
2228
2228
2232
2232
2232
2228
2228
2228
2230
2230
2230
2230
2234
2234
2234
2227
2227
2227
2234
2234
2234
2227
2227
2227
2231
2231
2231
2231
2232
2232
2232
2228
2228
2228
2232
2232
2232
2228
2228
2228
2231
2231
2231
2231
2235
2235
2235
2227
2227
2227
2232
2232
2232
2227
2227
2227
2233
2233
2233
2233
2232
2232
2232
2233
2233
2233
2231
2231
2231
2230
2230
2230
2231
2231
2231
2231
2232
2232
2232
2226
2226
2226
2235
2235
2235
2227
2227
2227
2232
2232
2232
2232
2235
2235
2235
2228
2228
2228
2233
2233
2233
2229
2229
2229
2232
2232
2232
2232
2231
2231
2231
2228
2228
2228
2232
2232
2232
2224
2224
2224
2233
2233
2233
2233
2231
2231
2231
2226
2226
2226
2235
2235
2235
2230
2230
2230
2231
2231
2231
2231
2232
2232
2232
2229
2229
2229
2231
2231
2231
2223
2223
2223
2233
2233
2233
2233
2233
2233
2233
2228
2228
2228
2230
2230
2230
2225
2225
2225
2231
2231
2231
2231
2231
2231
2231
2229
2229
2229
2232
2232
2232
2228
2228
2228
2235
2235
2235
2235
2230
2230
2230
2228
2228
2228
2232
2232
2232
2227
2227
2227
2233
2233
2233
2233
2233
2233
2233
2229
2229
2229
2233
2233
2233
2226
2226
2226
2233
2233
2233
2233
2231
2231
2231
2227
2227
2227
2233
2233
2233
2227
2227
2227
2233
2233
2233
2233
2234
2234
2234
2220
2220
2220
2231
2231
2231
2226
2226
2226
2229
2229
2229
2229
2232
2232
2232
2229
2229
2229
2231
2231
2231
2228
2228
2228
2227
2227
2227
2227
2232
2232
2232
2228
2228
2228
2227
2227
2227
2228
2228
2228
2231
2231
2231
2231
2232
2232
2232
2228
2228
2228
2233
2233
2233
2226
2226
2226
2235
2235
2235
2235
2231
2231
2231
2229
2229
2229
2234
2234
2234
2224
2224
2224
2234
2234
2234
2234
2232
2232
2232
2228
2228
2228
2234
2234
2234
2228
2228
2228
2231
2231
2231
2231
2228
2228
2228
2229
2229
2229
2232
2232
2232
2228
2228
2228
2233
2233
2233
2233
2233
2233
2233
2227
2227
2227
2232
2232
2232
2227
2227
2227
2233
2233
2233
2233
2229
2229
2229
2229
2229
2229
2237
2237
2237
2225
2225
2225
2236
2236
2236
2236
2233
2233
2233
2227
2227
2227
2232
2232
2232
2229
2229
2229
2231
2231
2231
2231
2233
2233
2233
2226
2226
2226
2230
2230
2230
2225
2225
2225
2235
2235
2235
2235
2231
2231
2231
2226
2226
2226
2231
2231
2231
2227
2227
2227
2233
2233
2233
2233
2233
2233
2233
2229
2229
2229
2234
2234
2234
2230
2230
2230
2235
2235
2235
2235
2233
2233
2233
2228
2228
2228
2234
2234
2234
2227
2227
2227
2233
2233
2233
2233
2233
2233
2233
2227
2227
2227
2229
2229
2229
2227
2227
2227
2234
2234
2234
2234
2231
2231
2231
2228
2228
2228
2233
2233
2233
2229
2229
2229
2233
2233
2233
2233
2230
2230
2230
2224
2224
2224
2234
2234
2234
2225
2225
2225
2233
2233
2233
2233
2233
2233
2233
2228
2228
2228
2234
2234
2234
2228
2228
2228
2233
2233
2233
2233
2230
2230
2230
2228
2228
2228
2234
2234
2234
2227
2227
2227
2234
2234
2234
2234
2232
2232
2232
2226
2226
2226
2230
2230
2230
2226
2226
2226
2232
2232
2232
2232
2232
2232
2232
2231
2231
2231
2227
2227
2227
2227
2227
2227
2234
2234
2234
2234
2230
2230
2230
2225
2225
2225
2231
2231
2231
2226
2226
2226
2233
2233
2233
2233
2233
2233
2233
2228
2228
2228
2232
2232
2232
2226
2226
2226
2233
2233
2233
2233
2233
2233
2233
2228
2228
2228
2232
2232
2232
2229
2229
2229
2234
2234
2234
2234
2231
2231
2231
2221
2221
2221
2229
2229
2229
2231
2231
2231
2235
2235
2235
2235
2234
2234
2234
2228
2228
2228
2232
2232
2232
2227
2227
2227
2233
2233
2233
2233
2231
2231
2231
2228
2228
2228
2231
2231
2231
2227
2227
2227
2231
2231
2231
2231
2231
2231
2231
2228
2228
2228
2229
2229
2229
2228
2228
2228
2232
2232
2232
2232
2231
2231
2231
2233
2233
2233
2225
2225
2225
2222
2222
2222
2228
2228
2228
2228
2233
2233
2233
2228
2228
2228
2232
2232
2232
2226
2226
2226
2234
2234
2234
2234
2233
2233
2233
2225
2225
2225
2232
2232
2232
2227
2227
2227
2232
2232
2232
2232
2232
2232
2232
2224
2224
2224
2231
2231
2231
2227
2227
2227
2233
2233
2233
2233
2231
2231
2231
2222
2222
2222
2235
2235
2235
2228
2228
2228
2228
2228
2228
2228
2231
2231
2231
2229
2229
2229
2229
2229
2229
2224
2224
2224
2231
2231
2231
2231
2229
2229
2229
2226
2226
2226
2231
2231
2231
2227
2227
2227
2233
2233
2233
2233
2232
2232
2232
2228
2228
2228
2232
2232
2232
2228
2228
2228
2233
2233
2233
2233
2236
2236
2236
2231
2231
2231
2226
2226
2226
2229
2229
2229
2230
2230
2230
2230
2233
2233
2233
2228
2228
2228
2234
2234
2234
2226
2226
2226
2233
2233
2233
2233
2235
2235
2235
2227
2227
2227
2233
2233
2233
2228
2228
2228
2230
2230
2230
2230
2233
2233
2233
2229
2229
2229
2230
2230
2230
2227
2227
2227
2232
2232
2232
2232
2231
2231
2231
2229
2229
2229
2231
2231
2231
2228
2228
2228
2233
2233
2233
2233
2231
2231
2231
2225
2225
2225
2232
2232
2232
2231
2231
2231
2233
2233
2233
2233
2233
2233
2233
2229
2229
2229
2234
2234
2234
2225
2225
2225
2227
2227
2227
2227
2231
2231
2231
2227
2227
2227
2232
2232
2232
2227
2227
2227
2229
2229
2229
2229
2239
2239
2239
2227
2227
2227
2231
2231
2231
2229
2229
2229
2234
2234
2234
2234
2228
2228
2228
2226
2226
2226
2228
2228
2228
2228
2228
2228
2234
2234
2234
2234
2229
2229
2229
2225
2225
2225
2233
2233
2233
2228
2228
2228
2233
2233
2233
2233
2232
2232
2232
2225
2225
2225
2231
2231
2231
2227
2227
2227
2231
2231
2231
2231
2232
2232
2232
2227
2227
2227
2232
2232
2232
2227
2227
2227
2233
2233
2233
2233
2233
2233
2233
2225
2225
2225
2233
2233
2233
2226
2226
2226
2234
2234
2234
2234
2230
2230
2230
2228
2228
2228
2234
2234
2234
2229
2229
2229
2234
2234
2234
2234
2231
2231
2231
2227
2227
2227
2231
2231
2231
2227
2227
2227
2231
2231
2231
2231
2231
2231
2231
2227
2227
2227
2235
2235
2235
2225
2225
2225
2234
2234
2234
2234
2231
2231
2231
2230
2230
2230
2233
2233
2233
2234
2234
2234
2232
2232
2232
2232
2232
2232
2232
2226
2226
2226
2241
2241
2241
2228
2228
2228
2233
2233
2233
2233
2234
2234
2234
2226
2226
2226
2232
2232
2232
2227
2227
2227
2233
2233
2233
2233
2232
2232
2232
2228
2228
2228
2231
2231
2231
2227
2227
2227
2233
2233
2233
2233
2227
2227
2227
2226
2226
2226
2232
2232
2232
2226
2226
2226
2227
2227
2227
2227
2233
2233
2233
2228
2228
2228
2231
2231
2231
2227
2227
2227
2234
2234
2234
2234
2230
2230
2230
2227
2227
2227
2232
2232
2232
2229
2229
2229
2233
2233
2233
2233
2231
2231
2231
2227
2227
2227
2232
2232
2232
2223
2223
2223
2234
2234
2234
2234
2230
2230
2230
2232
2232
2232
2234
2234
2234
2224
2224
2224
2234
2234
2234
2234
2234
2234
2234
2226
2226
2226
2232
2232
2232
2229
2229
2229
2231
2231
2231
2231
2234
2234
2234
2226
2226
2226
2234
2234
2234
2227
2227
2227
2232
2232
2232
2232
2232
2232
2232
2226
2226
2226
2230
2230
2230
2227
2227
2227
2233
2233
2233
2233
2232
2232
2232
2228
2228
2228
2235
2235
2235
2228
2228
2228
2232
2232
2232
2232
2226
2226
2226
2228
2228
2228
2235
2235
2235
2224
2224
2224
2232
2232
2232
2232
2235
2235
2235
2227
2227
2227
2232
2232
2232
2227
2227
2227
2230
2230
2230
2230
2233
2233
2233
2228
2228
2228
2232
2232
2232
2229
2229
2229
2229
2229
2229
2229
2229
2229
2229
2230
2230
2230
2233
2233
2233
2227
2227
2227
2232
2232
2232
2232
2233
2233
2233
2225
2225
2225
2233
2233
2233
2225
2225
2225
2235
2235
2235
2235
2232
2232
2232
2229
2229
2229
2229
2229
2229
2227
2227
2227
2231
2231
2231
2231
2231
2231
2231
2228
2228
2228
2229
2229
2229
2229
2229
2229
2230
2230
2230
2230
2231
2231
2231
2226
2226
2226
2231
2231
2231
2228
2228
2228
2232
2232
2232
2232
2232
2232
2232
2227
2227
2227
2235
2235
2235
2226
2226
2226
2233
2233
2233
2233
2231
2231
2231
2227
2227
2227
2233
2233
2233
2227
2227
2227
2231
2231
2231
2231
2235
2235
2235
2227
2227
2227
2230
2230
2230
2228
2228
2228
2235
2235
2235
2235
2232
2232
2232
2229
2229
2229
2231
2231
2231
2226
2226
2226
2233
2233
2233
2233
2232
2232
2232
2227
2227
2227
2229
2229
2229
2224
2224
2224
2228
2228
2228
2228
2230
2230
2230
2228
2228
2228
2232
2232
2232
2230
2230
2230
2232
2232
2232
2232
2232
2232
2232
2226
2226
2226
2233
2233
2233
2228
2228
2228
2231
2231
2231
2231
2230
2230
2230
2228
2228
2228
2235
2235
2235
2225
2225
2225
2231
2231
2231
2231
2232
2232
2232
2230
2230
2230
2233
2233
2233
2221
2221
2221
2234
2234
2234
2234
2231
2231
2231
2231
2231
2231
2231
2231
2231
2230
2230
2230
2231
2231
2231
2231
2232
2232
2232
2226
2226
2226
2232
2232
2232
2228
2228
2228
2234
2234
2234
2234
2234
2234
2234
2230
2230
2230
2231
2231
2231
2226
2226
2226
2234
2234
2234
2234
2232
2232
2232
2231
2231
2231
2233
2233
2233
2229
2229
2229
2228
2228
2228
2228
2229
2229
2229
2231
2231
2231
2228
2228
2228
2228
2228
2228
2232
2232
2232
2232
2232
2232
2232
2228
2228
2228
2232
2232
2232
2229
2229
2229
2231
2231
2231
2231
2233
2233
2233
2227
2227
2227
2233
2233
2233
2228
2228
2228
2232
2232
2232
2232
2232
2232
2232
2226
2226
2226
2231
2231
2231
2225
2225
2225
2233
2233
2233
2233
2228
2228
2228
2225
2225
2225
2233
2233
2233
2227
2227
2227
2237
2237
2237
2237
2232
2232
2232
2224
2224
2224
2230
2230
2230
2227
2227
2227
2231
2231
2231
2231
2234
2234
2234
2225
2225
2225
2230
2230
2230
2227
2227
2227
2235
2235
2235
2235
2232
2232
2232
2228
2228
2228
2234
2234
2234
2227
2227
2227
2231
2231
2231
2231
2233
2233
2233
2224
2224
2224
2229
2229
2229
2227
2227
2227
2230
2230
2230
2230
2231
2231
2231
2230
2230
2230
2230
2230
2230
2230
2230
2230
2231
2231
2231
2231
2230
2230
2230
2227
2227
2227
2233
2233
2233
2227
2227
2227
2232
2232
2232
2232
2230
2230
2230
2227
2227
2227
2233
2233
2233
2227
2227
2227
2235
2235
2235
2235
2230
2230
2230
2226
2226
2226
2231
2231
2231
2228
2228
2228
2234
2234
2234
2234
2232
2232
2232
2228
2228
2228
2230
2230
2230
2226
2226
2226
2230
2230
2230
2230
2232
2232
2232
2229
2229
2229
2232
2232
2232
2229
2229
2229
2234
2234
2234
2234
2218
2218
2218
2227
2227
2227
2232
2232
2232
2228
2228
2228
2232
2232
2232
2232
2233
2233
2233
2228
2228
2228
2234
2234
2234
2228
2228
2228
2230
2230
2230
2230
2233
2233
2233
2229
2229
2229
2225
2225
2225
2229
2229
2229
2231
2231
2231
2231
2233
2233
2233
2225
2225
2225
2234
2234
2234
2227
2227
2227
2231
2231
2231
2231
2232
2232
2232
2225
2225
2225
2231
2231
2231
2228
2228
2228
2234
2234
2234
2234
2233
2233
2233
2230
2230
2230
2232
2232
2232
2224
2224
2224
2234
2234
2234
2234
2231
2231
2231
2225
2225
2225
2233
2233
2233
2227
2227
2227
2230
2230
2230
2230
2232
2232
2232
2224
2224
2224
2232
2232
2232
2228
2228
2228
2232
2232
2232
2232
2232
2232
2232
2227
2227
2227
2234
2234
2234
2226
2226
2226
2232
2232
2232
2232
2231
2231
2231
2226
2226
2226
2232
2232
2232
2229
2229
2229
2231
2231
2231
2231
2230
2230
2230
2227
2227
2227
2231
2231
2231
2230
2230
2230
2231
2231
2231
2231
2230
2230
2230
2229
2229
2229
2233
2233
2233
2226
2226
2226
2231
2231
2231
2231
2232
2232
2232
2226
2226
2226
2234
2234
2234
2228
2228
2228
2230
2230
2230
2230
2230
2230
2230
2228
2228
2228
2233
2233
2233
2224
2224
2224
2234
2234
2234
2234
2232
2232
2232
2228
2228
2228
2232
2232
2232
2223
2223
2223
2233
2233
2233
2233
2234
2234
2234
2226
2226
2226
2231
2231
2231
2229
2229
2229
2233
2233
2233
2233
2228
2228
2228
2226
2226
2226
2232
2232
2232
2227
2227
2227
2234
2234
2234
2234
2228
2228
2228
2230
2230
2230
2235
2235
2235
2228
2228
2228
2233
2233
2233
2233
2231
2231
2231
2240
2240
2240
2234
2234
2234
2228
2228
2228
2231
2231
2231
2231
2233
2233
2233
2227
2227
2227
2230
2230
2230
2229
2229
2229
2230
2230
2230
2230
2229
2229
2229
2227
2227
2227
2234
2234
2234
2229
2229
2229
2236
2236
2236
2236
2231
2231
2231
2227
2227
2227
2229
2229
2229
2228
2228
2228
2232
2232
2232
2232
2232
2232
2232
2229
2229
2229
2229
2229
2229
2227
2227
2227
2231
2231
2231
2231
2232
2232
2232
2227
2227
2227
2230
2230
2230
2229
2229
2229
2233
2233
2233
2233
2234
2234
2234
2227
2227
2227
2234
2234
2234
2229
2229
2229
2228
2228
2228
2228
2231
2231
2231
2226
2226
2226
2231
2231
2231
2228
2228
2228
2233
2233
2233
2233
2230
2230
2230
2229
2229
2229
2234
2234
2234
2228
2228
2228
2229
2229
2229
2229
2234
2234
2234
2230
2230
2230
2232
2232
2232
2228
2228
2228
2230
2230
2230
2230
2233
2233
2233
2228
2228
2228
2232
2232
2232
2226
2226
2226
2236
2236
2236
2236
2230
2230
2230
2229
2229
2229
2229
2229
2229
2227
2227
2227
2234
2234
2234
2234
2230
2230
2230
2228
2228
2228
2233
2233
2233
2227
2227
2227
2232
2232
2232
2232
2231
2231
2231
2225
2225
2225
2232
2232
2232
2226
2226
2226
2244
2244
2244
2244
2231
2231
2231
2224
2224
2224
2233
2233
2233
2228
2228
2228
2231
2231
2231
2231
2232
2232
2232
2225
2225
2225
2237
2237
2237
2227
2227
2227
2229
2229
2229
2229
2231
2231
2231
2225
2225
2225
2233
2233
2233
2225
2225
2225
2233
2233
2233
2233
2233
2233
2233
2229
2229
2229
2233
2233
2233
2227
2227
2227
2232
2232
2232
2232
2232
2232
2232
2227
2227
2227
2230
2230
2230
2225
2225
2225
2232
2232
2232
2232
2232
2232
2232
2230
2230
2230
2233
2233
2233
2227
2227
2227
2235
2235
2235
2235
2232
2232
2232
2229
2229
2229
2231
2231
2231
2228
2228
2228
2233
2233
2233
2233
2232
2232
2232
2228
2228
2228
2229
2229
2229
2229
2229
2229
2232
2232
2232
2232
2231
2231
2231
2225
2225
2225
2232
2232
2232
2226
2226
2226
2233
2233
2233
2233
2231
2231
2231
2225
2225
2225
2231
2231
2231
2229
2229
2229
2234
2234
2234
2234
2231
2231
2231
2221
2221
2221
2234
2234
2234
2228
2228
2228
2234
2234
2234
2234
2233
2233
2233
2226
2226
2226
2227
2227
2227
2229
2229
2229
2232
2232
2232
2232
2232
2232
2232
2228
2228
2228
2231
2231
2231
2225
2225
2225
2230
2230
2230
2230
2232
2232
2232
2229
2229
2229
2235
2235
2235
2229
2229
2229
2234
2234
2234
2234
2227
2227
2227
2231
2231
2231
2233
2233
2233
2226
2226
2226
2233
2233
2233
2233
2228
2228
2228
2232
2232
2232
2232
2232
2232
2222
2222
2222
2227
2227
2227
2227
2236
2236
2236
2227
2227
2227
2230
2230
2230
2228
2228
2228
2232
2232
2232
2232
2232
2232
2232
2227
2227
2227
2232
2232
2232
2228
2228
2228
2233
2233
2233
2233
2231
2231
2231
2227
2227
2227
2230
2230
2230
2227
2227
2227
2230
2230
2230
2230
2230
2230
2230
2229
2229
2229
2230
2230
2230
2228
2228
2228
2233
2233
2233
2233
2235
2235
2235
2226
2226
2226
2230
2230
2230
2228
2228
2228
2234
2234
2234
2234
2232
2232
2232
2227
2227
2227
2232
2232
2232
2227
2227
2227
2235
2235
2235
2235
2230
2230
2230
2228
2228
2228
2233
2233
2233
2231
2231
2231
2233
2233
2233
2233
2233
2233
2233
2229
2229
2229
2231
2231
2231
2229
2229
2229
2231
2231
2231
2231
2230
2230
2230
2224
2224
2224
2231
2231
2231
2230
2230
2230
2238
2238
2238
2238
2233
2233
2233
2229
2229
2229
2233
2233
2233
2227
2227
2227
2231
2231
2231
2231
2231
2231
2231
2228
2228
2228
2234
2234
2234
2230
2230
2230
2234
2234
2234
2234
2233
2233
2233
2229
2229
2229
2232
2232
2232
2230
2230
2230
2231
2231
2231
2231
2232
2232
2232
2228
2228
2228
2233
2233
2233
2232
2232
2232
2232
2232
2232
2232
2230
2230
2230
2234
2234
2234
2232
2232
2232
2230
2230
2230
2232
2232
2232
2232
2231
2231
2231
2228
2228
2228
2233
2233
2233
2228
2228
2228
2233
2233
2233
2233
2234
2234
2234
2224
2224
2224
2234
2234
2234
2228
2228
2228
2231
2231
2231
2231
2231
2231
2231
2229
2229
2229
2233
2233
2233
2225
2225
2225
2232
2232
2232
2232
2232
2232
2232
2227
2227
2227
2233
2233
2233
2228
2228
2228
2232
2232
2232
2232
2231
2231
2231
2229
2229
2229
2232
2232
2232
2228
2228
2228
2232
2232
2232
2232
2233
2233
2233
2227
2227
2227
2232
2232
2232
2228
2228
2228
2232
2232
2232
2232
2230
2230
2230
2229
2229
2229
2233
2233
2233
2229
2229
2229
2231
2231
2231
2231
2232
2232
2232
2228
2228
2228
2232
2232
2232
2228
2228
2228
2233
2233
2233
2233
2235
2235
2235
2230
2230
2230
2230
2230
2230
2225
2225
2225
2228
2228
2228
2228
2233
2233
2233
2227
2227
2227
2233
2233
2233
2228
2228
2228
2232
2232
2232
2232
2230
2230
2230
2227
2227
2227
2231
2231
2231
2229
2229
2229
2233
2233
2233
2233
2232
2232
2232
2229
2229
2229
2235
2235
2235
2229
2229
2229
2234
2234
2234
2234
2236
2236
2236
2227
2227
2227
2234
2234
2234
2228
2228
2228
2233
2233
2233
2233
2234
2234
2234
2226
2226
2226
2232
2232
2232
2231
2231
2231
2230
2230
2230
2230
2233
2233
2233
2226
2226
2226
2234
2234
2234
2227
2227
2227
2235
2235
2235
2235
2230
2230
2230
2227
2227
2227
2229
2229
2229
2228
2228
2228
2237
2237
2237
2237
2232
2232
2232
2228
2228
2228
2229
2229
2229
2228
2228
2228
2232
2232
2232
2232
2231
2231
2231
2227
2227
2227
2233
2233
2233
2227
2227
2227
2235
2235
2235
2235
2229
2229
2229
2230
2230
2230
2234
2234
2234
2227
2227
2227
2237
2237
2237
2237
2232
2232
2232
2227
2227
2227
2231
2231
2231
2228
2228
2228
2231
2231
2231
2231
2232
2232
2232
2228
2228
2228
2231
2231
2231
2229
2229
2229
2233
2233
2233
2233
2231
2231
2231
2226
2226
2226
2234
2234
2234
2227
2227
2227
2233
2233
2233
2233
2230
2230
2230
2225
2225
2225
2232
2232
2232
2225
2225
2225
2233
2233
2233
2233
2231
2231
2231
2229
2229
2229
2233
2233
2233
2230
2230
2230
2232
2232
2232
2232
2232
2232
2232
2228
2228
2228
2232
2232
2232
2226
2226
2226
2233
2233
2233
2233
2233
2233
2233
2224
2224
2224
2234
2234
2234
2229
2229
2229
2227
2227
2227
2227
2231
2231
2231
2229
2229
2229
2232
2232
2232
2227
2227
2227
2233
2233
2233
2233
2226
2226
2226
2229
2229
2229
2238
2238
2238
2224
2224
2224
2230
2230
2230
2230
2232
2232
2232
2227
2227
2227
2231
2231
2231
2227
2227
2227
2232
2232
2232
2232
2231
2231
2231
2228
2228
2228
2233
2233
2233
2229
2229
2229
2231
2231
2231
2231
2233
2233
2233
2228
2228
2228
2233
2233
2233
2227
2227
2227
2232
2232
2232
2232
2231
2231
2231
2228
2228
2228
2233
2233
2233
2229
2229
2229
2233
2233
2233
2233
2231
2231
2231
2227
2227
2227
2231
2231
2231
2225
2225
2225
2232
2232
2232
2232
2231
2231
2231
2227
2227
2227
2232
2232
2232
2229
2229
2229
2231
2231
2231
2231
2232
2232
2232
2229
2229
2229
2229
2229
2229
2230
2230
2230
2233
2233
2233
2233
2230
2230
2230
2228
2228
2228
2231
2231
2231
2230
2230
2230
2233
2233
2233
2233
2232
2232
2232
2223
2223
2223
2230
2230
2230
2225
2225
2225
2234
2234
2234
2234
2234
2234
2234
2227
2227
2227
2234
2234
2234
2227
2227
2227
2230
2230
2230
2230
2233
2233
2233
2225
2225
2225
2234
2234
2234
2227
2227
2227
2234
2234
2234
2234
2230
2230
2230
2229
2229
2229
2233
2233
2233
2229
2229
2229
2233
2233
2233
2233
2233
2233
2233
2229
2229
2229
2232
2232
2232
2227
2227
2227
2234
2234
2234
2234
2232
2232
2232
2228
2228
2228
2231
2231
2231
2231
2231
2231
2237
2237
2237
2237
2230
2230
2230
2225
2225
2225
2233
2233
2233
2226
2226
2226
2232
2232
2232
2232
2231
2231
2231
2228
2228
2228
2232
2232
2232
2226
2226
2226
2229
2229
2229
2229
2232
2232
2232
2228
2228
2228
2233
2233
2233
2228
2228
2228
2233
2233
2233
2233
2230
2230
2230
2226
2226
2226
2222
2222
2222
2227
2227
2227
2232
2232
2232
2232
2225
2225
2225
2230
2230
2230
2235
2235
2235
2231
2231
2231
2234
2234
2234
2234
2231
2231
2231
2226
2226
2226
2232
2232
2232
2227
2227
2227
2233
2233
2233
2233
2232
2232
2232
2226
2226
2226
2234
2234
2234
2228
2228
2228
2233
2233
2233
2233
2233
2233
2233
2229
2229
2229
2230
2230
2230
2228
2228
2228
2232
2232
2232
2232
2229
2229
2229
2227
2227
2227
2232
2232
2232
2228
2228
2228
2233
2233
2233
2233
2232
2232
2232
2230
2230
2230
2230
2230
2230
2226
2226
2226
2231
2231
2231
2231
2231
2231
2231
2225
2225
2225
2232
2232
2232
2229
2229
2229
2234
2234
2234
2234
2232
2232
2232
2227
2227
2227
2231
2231
2231
2225
2225
2225
2238
2238
2238
2238
2233
2233
2233
2227
2227
2227
2233
2233
2233
2227
2227
2227
2233
2233
2233
2233
2232
2232
2232
2227
2227
2227
2237
2237
2237
2228
2228
2228
2224
2224
2224
2224
2232
2232
2232
2228
2228
2228
2232
2232
2232
2228
2228
2228
2232
2232
2232
2232
2232
2232
2232
2226
2226
2226
2232
2232
2232
2227
2227
2227
2233
2233
2233
2233
2233
2233
2233
2227
2227
2227
2234
2234
2234
2228
2228
2228
2227
2227
2227
2227
2233
2233
2233
2227
2227
2227
2231
2231
2231
2227
2227
2227
