2116
2111
2111
2111
2111
2113
2113
2113
2118
2118
2118
2110
2110
2110
2108
2108
2108
2113
2113
2113
2113
2107
2107
2107
2117
2117
2117
2112
2112
2112
2115
2115
2115
2112
2112
2112
2112
2113
2113
2113
2113
2113
2113
2116
2116
2116
2113
2113
2113
2113
2113
2113
2113
2112
2112
2112
2113
2113
2113
2112
2112
2112
2116
2116
2116
2113
2113
2113
2113
2116
2116
2116
2114
2114
2114
2113
2113
2113
2112
2112
2112
2116
2116
2116
2116
2115
2115
2115
2113
2113
2113
2113
2113
2113
2112
2112
2112
2118
2118
2118
2118
2113
2113
2113
2113
2113
2113
2111
2111
2111
2115
2115
2115
2111
2111
2111
2111
2112
2112
2112
2115
2115
2115
2113
2113
2113
2119
2119
2119
2111
2111
2111
2111
2115
2115
2115
2114
2114
2114
2115
2115
2115
2116
2116
2116
2113
2113
2113
2113
2113
2113
2113
2119
2119
2119
2117
2117
2117
2114
2114
2114
2114
2114
2114
2114
2113
2113
2113
2114
2114
2114
2112
2112
2112
2114
2114
2114
2113
2113
2113
2113
2115
2115
2115
2113
2113
2113
2113
2113
2113
2111
2111
2111
2106
2106
2106
2106
2112
2112
2112
2116
2116
2116
2116
2116
2116
2115
2115
2115
2112
2112
2112
2112
2113
2113
2113
2113
2113
2113
2115
2115
2115
2112
2112
2112
2112
2112
2112
2112
2112
2112
2112
2117
2117
2117
2114
2114
2114
2112
2112
2112
2114
2114
2114
2114
2111
2111
2111
2120
2120
2120
2116
2116
2116
2115
2115
2115
2113
2113
2113
2113
2113
2113
2113
2113
2113
2113
2116
2116
2116
2115
2115
2115
2112
2112
2112
2112
2111
2111
2111
2113
2113
2113
2112
2112
2112
2109
2109
2109
2113
2113
2113
2113
2110
2110
2110
2112
2112
2112
2115
2115
2115
2114
2114
2114
2111
2111
2111
2111
2113
2113
2113
2114
2114
2114
2115
2115
2115
2113
2113
2113
2112
2112
2112
2112
2112
2112
2112
2117
2117
2117
2112
2112
2112
2111
2111
2111
2111
2111
2111
2111
2113
2113
2113
2113
2113
2113
2108
2108
2108
2116
2116
2116
2115
2115
2115
2115
2111
2111
2111
2114
2114
2114
2115
2115
2115
2111
2111
2111
2113
2113
2113
2113
2112
2112
2112
2114
2114
2114
2116
2116
2116
2118
2118
2118
2115
2115
2115
2115
2113
2113
2113
2116
2116
2116
2114
2114
2114
2116
2116
2116
2118
2118
2118
2118
2110
2110
2110
2122
2122
2122
2112
2112
2112
2114
2114
2114
2114
2114
2114
2114
2114
2114
2114
2115
2115
2115
2112
2112
2112
2105
2105
2105
2110
2110
2110
2110
2118
2118
2118
2114
2114
2114
2112
2112
2112
2115
2115
2115
2110
2110
2110
2110
2113
2113
2113
2114
2114
2114
2111
2111
2111
2114
2114
2114
2112
2112
2112
2112
2115
2115
2115
2114
2114
2114
2115
2115
2115
2114
2114
2114
2114
2114
2114
2114
2109
2109
2109
2112
2112
2112
2115
2115
2115
2109
2109
2109
2112
2112
2112
2112
2114
2114
2114
2112
2112
2112
2114
2114
2114
2113
2113
2113
2110
2110
2110
2110
2114
2114
2114
2112
2112
2112
2107
2107
2107
2111
2111
2111
2111
2111
2111
2111
2113
2113
2113
2112
2112
2112
2111
2111
2111
2109
2109
2109
2114
2114
2114
2114
2116
2116
2116
2111
2111
2111
2114
2114
2114
2114
2114
2114
2109
2109
2109
2109
2114
2114
2114
2116
2116
2116
2112
2112
2112
2115
2115
2115
2113
2113
2113
2113
2113
2113
2113
2114
2114
2114
2127
2127
2127
2111
2111
2111
2112
2112
2112
2112
2113
2113
2113
2112
2112
2112
2114
2114
2114
2112
2112
2112
2112
2112
2112
2112
2107
2107
2107
2109
2109
2109
2114
2114
2114
2111
2111
2111
2106
2106
2106
2106
2112
2112
2112
2116
2116
2116
2105
2105
2105
2118
2118
2118
2114
2114
2114
2114
2112
2112
2112
2114
2114
2114
2113
2113
2113
2112
2112
2112
2110
2110
2110
2110
2113
2113
2113
2113
2113
2113
2112
2112
2112
2115
2115
2115
2104
2104
2104
2104
2112
2112
2112
2109
2109
2109
2118
2118
2118
2112
2112
2112
2113
2113
2113
2113
2119
2119
2119
2112
2112
2112
2113
2113
2113
2106
2106
2106
2111
2111
2111
2111
2116
2116
2116
2113
2113
2113
2114
2114
2114
2116
2116
2116
2112
2112
2112
2112
2111
2111
2111
2111
2111
2111
2116
2116
2116
2113
2113
2113
2111
2111
2111
2111
2115
2115
2115
2114
2114
2114
2111
2111
2111
2113
2113
2113
2113
2113
2113
2113
2112
2112
2112
2113
2113
2113
2117
2117
2117
2120
2120
2120
2114
2114
2114
2114
2105
2105
2105
2116
2116
2116
2109
2109
2109
2118
2118
2118
2110
2110
2110
2110
2113
2113
2113
2113
2113
2113
2106
2106
2106
2116
2116
2116
2112
2112
2112
2112
2113
2113
2113
2116
2116
2116
2115
2115
2115
2117
2117
2117
2115
2115
2115
2115
2112
2112
2112
2113
2113
2113
2116
2116
2116
2113
2113
2113
2115
2115
2115
2115
2117
2117
2117
2112
2112
2112
2113
2113
2113
2115
2115
2115
2109
2109
2109
2109
2112
2112
2112
2115
2115
2115
2111
2111
2111
2115
2115
2115
2117
2117
2117
2117
2111
2111
2111
2115
2115
2115
2115
2115
2115
2116
2116
2116
2109
2109
2109
2109
2111
2111
2111
2108
2108
2108
2112
2112
2112
2115
2115
2115
2114
2114
2114
2114
2112
2112
2112
2114
2114
2114
2110
2110
2110
2115
2115
2115
2114
2114
2114
2114
2113
2113
2113
2115
2115
2115
2113
2113
2113
2115
2115
2115
2109
2109
2109
2109
2109
2109
2109
2115
2115
2115
2116
2116
2116
2115
2115
2115
2106
2106
2106
2106
2113
2113
2113
2116
2116
2116
2115
2115
2115
2112
2112
2112
2113
2113
2113
2113
2114
2114
2114
2116
2116
2116
2112
2112
2112
2116
2116
2116
2115
2115
2115
2115
2106
2106
2106
2114
2114
2114
2114
2114
2114
2111
2111
2111
2108
2108
2108
2108
2114
2114
2114
2112
2112
2112
2115
2115
2115
2113
2113
2113
2110
2110
2110
2110
2113
2113
2113
2113
2113
2113
2114
2114
2114
2115
2115
2115
2115
2115
2115
2115
2113
2113
2113
2112
2112
2112
2112
2112
2112
2113
2113
2113
2111
2111
2111
2111
2112
2112
2112
2113
2113
2113
2113
2113
2113
2113
2113
2113
2110
2110
2110
2110
2113
2113
2113
2113
2113
2113
2118
2118
2118
2116
2116
2116
2109
2109
2109
2109
2116
2116
2116
2113
2113
2113
2115
2115
2115
2109
2109
2109
2113
2113
2113
2113
2113
2113
2113
2114
2114
2114
2114
2114
2114
2113
2113
2113
2115
2115
2115
2115
2112
2112
2112
2116
2116
2116
2111
2111
2111
2115
2115
2115
2111
2111
2111
2111
2114
2114
2114
2117
2117
2117
2110
2110
2110
2111
2111
2111
2113
2113
2113
2113
2113
2113
2113
2114
2114
2114
2114
2114
2114
2114
2114
2114
2108
2108
2108
2108
2113
2113
2113
2108
2108
2108
2113
2113
2113
2118
2118
2118
2117
2117
2117
2117
2109
2109
2109
2115
2115
2115
2114
2114
2114
2113
2113
2113
2113
2113
2113
2113
2117
2117
2117
2114
2114
2114
2114
2114
2114
2115
2115
2115
2117
2117
2117
2117
2113
2113
2113
2118
2118
2118
2111
2111
2111
2114
2114
2114
2111
2111
2111
2111
2116
2116
2116
2117
2117
2117
2109
2109
2109
2115
2115
2115
2112
2112
2112
2112
2113
2113
2113
2114
2114
2114
2114
2114
2114
2112
2112
2112
2108
2108
2108
2108
2122
2122
2122
2113
2113
2113
2115
2115
2115
2115
2115
2115
2108
2108
2108
2108
2110
2110
2110
2111
2111
2111
2111
2111
2111
2112
2112
2112
2114
2114
2114
2114
2111
2111
2111
2114
2114
2114
2116
2116
2116
2111
2111
2111
2107
2107
2107
2107
2115
2115
2115
2115
2115
2115
2112
2112
2112
2108
2108
2108
2108
2108
2108
2108
2113
2113
2113
2109
2109
2109
2115
2115
2115
2112
2112
2112
2111
2111
2111
2111
2112
2112
2112
2113
2113
2113
2108
2108
2108
2115
2115
2115
2110
2110
2110
2110
2114
2114
2114
2116
2116
2116
2114
2114
2114
2113
2113
2113
2112
2112
2112
2112
2113
2113
2113
2113
2113
2113
2111
2111
2111
2114
2114
2114
2113
2113
2113
2113
2112
2112
2112
2113
2113
2113
2109
2109
2109
2115
2115
2115
2112
2112
2112
2112
2112
2112
2112
2115
2115
2115
2109
2109
2109
2123
2123
2123
2109
2109
2109
2109
2109
2109
2109
2115
2115
2115
2113
2113
2113
2116
2116
2116
2113
2113
2113
2113
2112
2112
2112
2115
2115
2115
2108
2108
2108
2117
2117
2117
2118
2118
2118
2118
2114
2114
2114
2114
2114
2114
2114
2114
2114
2112
2112
2112
2111
2111
2111
2111
2114
2114
2114
2114
2114
2114
2114
2114
2114
2114
2114
2114
2113
2113
2113
2113
2112
2112
2112
2117
2117
2117
2110
2110
2110
2117
2117
2117
2114
2114
2114
2114
2112
2112
2112
2117
2117
2117
2111
2111
2111
2117
2117
2117
2113
2113
2113
2113
2113
2113
2113
2115
2115
2115
2113
2113
2113
2113
2113
2113
2118
2118
2118
2118
2112
2112
2112
2113
2113
2113
2112
2112
2112
2110
2110
2110
2110
2110
2110
2110
2118
2118
2118
2119
2119
2119
2107
2107
2107
2117
2117
2117
2111
2111
2111
2111
2109
2109
2109
2115
2115
2115
2113
2113
2113
2114
2114
2114
2114
2114
2114
2114
2115
2115
2115
2115
2115
2115
2113
2113
2113
2113
2113
2113
2109
2109
2109
2109
2114
2114
2114
2112
2112
2112
2107
2107
2107
2115
2115
2115
2112
2112
2112
2112
2112
2112
2112
2113
2113
2113
2112
2112
2112
2116
2116
2116
2112
2112
2112
2112
2110
2110
2110
2120
2120
2120
2113
2113
2113
2112
2112
2112
2103
2103
2103
2103
2109
2109
2109
2109
2109
2109
2116
2116
2116
2115
2115
2115
2112
2112
2112
2112
2113
2113
2113
2113
2113
2113
2113
2113
2113
2116
2116
2116
2112
2112
2112
2112
2112
2112
2112
2116
2116
2116
2113
2113
2113
2110
2110
2110
2111
2111
2111
2111
2112
2112
2112
2118
2118
2118
2115
2115
2115
2113
2113
2113
2111
2111
2111
2111
2111
2111
2111
2114
2114
2114
2120
2120
2120
2113
2113
2113
2110
2110
2110
2110
2116
2116
2116
2113
2113
2113
2112
2112
2112
2111
2111
2111
2115
2115
2115
2115
2109
2109
2109
2120
2120
2120
2119
2119
2119
2115
2115
2115
2115
2115
2115
2115
2114
2114
2114
2112
2112
2112
2112
2112
2112
2115
2115
2115
2112
2112
2112
2112
2116
2116
2116
2116
2116
2116
2113
2113
2113
2113
2113
2113
2109
2109
2109
2109
2109
2109
2109
2112
2112
2112
2114
2114
2114
2116
2116
2116
2114
2114
2114
2114
2111
2111
2111
2113
2113
2113
2112
2112
2112
2114
2114
2114
2112
2112
2112
2112
2114
2114
2114
2116
2116
2116
2114
2114
2114
2118
2118
2118
2115
2115
2115
2115
2112
2112
2112
2116
2116
2116
2110
2110
2110
2114
2114
2114
2114
2114
2114
2114
2113
2113
2113
2114
2114
2114
2116
2116
2116
2113
2113
2113
2113
2113
2113
2113
2112
2112
2112
2113
2113
2113
2115
2115
2115
2118
2118
2118
2115
2115
2115
2115
2114
2114
2114
2117
2117
2117
2116
2116
2116
2113
2113
2113
2111
2111
2111
2111
2114
2114
2114
2115
2115
2115
2115
2115
2115
2113
2113
2113
2116
2116
2116
2116
2112
2112
2112
2114
2114
2114
2113
2113
2113
2111
2111
2111
2107
2107
2107
2107
2115
2115
2115
2114
2114
2114
2115
2115
2115
2108
2108
2108
2114
2114
2114
2114
2111
2111
2111
2115
2115
2115
2114
2114
2114
2115
2115
2115
2107
2107
2107
2107
2111
2111
2111
2116
2116
2116
2113
2113
2113
2109
2109
2109
2110
2110
2110
2110
2111
2111
2111
2111
2111
2111
2112
2112
2112
2116
2116
2116
2112
2112
2112
2112
2111
2111
2111
2114
2114
2114
2114
2114
2114
2108
2108
2108
2114
2114
2114
2114
2117
2117
2117
2114
2114
2114
2114
2114
2114
2116
2116
2116
2111
2111
2111
2111
2112
2112
2112
2117
2117
2117
2114
2114
2114
2115
2115
2115
2113
2113
2113
2113
2113
2113
2113
2114
2114
2114
2116
2116
2116
2116
2116
2116
2112
2112
2112
2112
2112
2112
2112
2119
2119
2119
2119
2119
2119
2115
2115
2115
2114
2114
2114
2114
2112
2112
2112
2113
2113
2113
2112
2112
2112
2112
2112
2112
2112
2112
2112
2112
2113
2113
2113
2114
2114
2114
2109
2109
2109
2112
2112
2112
2114
2114
2114
2114
2112
2112
2112
2117
2117
2117
2113
2113
2113
2116
2116
2116
2113
2113
2113
2113
2118
2118
2118
2106
2106
2106
2114
2114
2114
2114
2114
2114
2110
2110
2110
2110
2113
2113
2113
2114
2114
2114
2109
2109
2109
2114
2114
2114
2112
2112
2112
2112
2112
2112
2112
2115
2115
2115
2114
2114
2114
2110
2110
2110
2114
2114
2114
2114
2109
2109
2109
2114
2114
2114
2112
2112
2112
2115
2115
2115
2110
2110
2110
2110
2115
2115
2115
2118
2118
2118
2113
2113
2113
2115
2115
2115
2111
2111
2111
2111
2112
2112
2112
2113
2113
2113
2110
2110
2110
2113
2113
2113
2115
2115
2115
2115
2112
2112
2112
2113
2113
2113
2113
2113
2113
2115
2115
2115
2114
2114
2114
2114
2112
2112
2112
2112
2112
2112
2115
2115
2115
2114
2114
2114
2112
2112
2112
2112
2112
2112
2112
2117
2117
2117
2115
2115
2115
2111
2111
2111
2113
2113
2113
2113
2113
2113
2113
2114
2114
2114
2114
2114
2114
2108
2108
2108
2111
2111
2111
2111
2114
2114
2114
2113
2113
2113
2114
2114
2114
2114
2114
2114
2113
2113
2113
2113
2113
2113
2113
2117
2117
2117
2110
2110
2110
2114
2114
2114
2113
2113
2113
2113
2113
2113
2113
2115
2115
2115
2113
2113
2113
2118
2118
2118
2112
2112
2112
2112
2110
2110
2110
2116
2116
2116
2116
2116
2116
2111
2111
2111
2110
2110
2110
2110
2109
2109
2109
2111
2111
2111
2111
2111
2111
2115
2115
2115
2112
2112
2112
2112
2114
2114
2114
2116
2116
2116
2115
2115
2115
2114
2114
2114
2112
2112
2112
2112
2113
2113
2113
2117
2117
2117
2117
2117
2117
2112
2112
2112
2105
2105
2105
2105
2112
2112
2112
2117
2117
2117
2112
2112
2112
2112
2112
2112
2112
2112
2112
2112
2112
2112
2112
2116
2116
2116
2114
2114
2114
2115
2115
2115
2113
2113
2113
2113
2112
2112
2112
2115
2115
2115
2112
2112
2112
2111
2111
2111
2115
2115
2115
2115
2117
2117
2117
2117
2117
2117
2113
2113
2113
2116
2116
2116
2115
2115
2115
2115
2113
2113
2113
2116
2116
2116
2113
2113
2113
2116
2116
2116
2113
2113
2113
2113
2113
2113
2113
2113
2113
2113
2115
2115
2115
2117
2117
2117
2115
2115
2115
2115
2111
2111
2111
2116
2116
2116
2114
2114
2114
2113
2113
2113
2113
2113
2113
2113
2115
2115
2115
2113
2113
2113
2113
2113
2113
2119
2119
2119
2109
2109
2109
2109
2112
2112
2112
2113
2113
2113
2111
2111
2111
2114
2114
2114
2114
2114
2114
2114
2111
2111
2111
2112
2112
2112
2115
2115
2115
2113
2113
2113
2113
2113
2113
2113
2113
2113
2113
2113
2113
2113
2113
2113
2113
2113
2113
2113
2108
2108
2108
2108
2111
2111
2111
2114
2114
2114
2113
2113
2113
2112
2112
2112
2112
2112
2112
2112
2114
2114
2114
2114
2114
2114
2116
2116
2116
2115
2115
2115
2113
2113
2113
2113
2115
2115
2115
2113
2113
2113
2115
2115
2115
2119
2119
2119
2112
2112
2112
2112
2122
2122
2122
2110
2110
2110
2116
2116
2116
2118
2118
2118
2111
2111
2111
2111
2113
2113
2113
2120
2120
2120
2113
2113
2113
2113
2113
2113
2114
2114
2114
2114
2111
2111
2111
2115
2115
2115
2115
2115
2115
2114
2114
2114
2110
2110
2110
2110
2118
2118
2118
2117
2117
2117
2109
2109
2109
2119
2119
2119
2113
2113
2113
2113
2112
2112
2112
2113
2113
2113
2115
2115
2115
2114
2114
2114
2113
2113
2113
2113
2114
2114
2114
2114
2114
2114
2109
2109
2109
2116
2116
2116
2113
2113
2113
2113
2113
2113
2113
2112
2112
2112
2117
2117
2117
2106
2106
2106
2112
2112
2112
2112
2120
2120
2120
2110
2110
2110
2114
2114
2114
2115
2115
2115
2112
2112
2112
2112
2110
2110
2110
2115
2115
2115
2114
2114
2114
2116
2116
2116
2111
2111
2111
2111
2112
2112
2112
2118
2118
2118
2111
2111
2111
2109
2109
2109
2111
2111
2111
2111
2114
2114
2114
2114
2114
2114
2115
2115
2115
2111
2111
2111
2112
2112
2112
2112
2111
2111
2111
2114
2114
2114
2114
2114
2114
2116
2116
2116
2109
2109
2109
2109
2112
2112
2112
2114
2114
2114
2115
2115
2115
2115
2115
2115
2111
2111
2111
2111
2111
2111
2111
2114
2114
2114
2113
2113
2113
2112
2112
2112
2115
2115
2115
2115
2115
2115
2115
2115
2115
2115
2111
2111
2111
2111
2111
2111
2117
2117
2117
2117
2113
2113
2113
2106
2106
2106
2115
2115
2115
2113
2113
2113
2112
2112
2112
2112
2111
2111
2111
2115
2115
2115
2114
2114
2114
2118
2118
2118
2113
2113
2113
2113
2113
2113
2113
2116
2116
2116
2113
2113
2113
2108
2108
2108
2109
2109
2109
2109
2111
2111
2111
2117
2117
2117
2113
2113
2113
2115
2115
2115
2109
2109
2109
2109
2113
2113
2113
2113
2113
2113
2113
2113
2113
2115
2115
2115
2113
2113
2113
2113
2113
2113
2113
2115
2115
2115
2111
2111
2111
2112
2112
2112
2109
2109
2109
2109
2113
2113
2113
2107
2107
2107
2116
2116
2116
2114
2114
2114
2113
2113
2113
2113
2110
2110
2110
2115
2115
2115
2114
2114
2114
2114
2114
2114
2113
2113
2113
2113
2113
2113
2113
2113
2113
2113
2112
2112
2112
2110
2110
2110
2111
2111
2111
2111
2111
2111
2111
2118
2118
2118
2115
2115
2115
2112
2112
2112
2113
2113
2113
2113
2113
2113
2113
2113
2113
2113
2114
2114
2114
2113
2113
2113
2107
2107
2107
2107
2112
2112
2112
2117
2117
2117
2115
2115
2115
2116
2116
2116
2117
2117
2117
2117
2113
2113
2113
2115
2115
2115
2112
2112
2112
2113
2113
2113
2114
2114
2114
2114
2113
2113
2113
2115
2115
2115
2114
2114
2114
2121
2121
2121
2112
2112
2112
2112
2107
2107
2107
2117
2117
2117
2113
2113
2113
2114
2114
2114
2116
2116
2116
2116
2114
2114
2114
2116
2116
2116
2108
2108
2108
2115
2115
2115
2114
2114
2114
2114
2113
2113
2113
2116
2116
2116
2112
2112
2112
2113
2113
2113
2112
2112
2112
2112
2115
2115
2115
2115
2115
2115
2115
2115
2115
2114
2114
2114
2110
2110
2110
2110
2114
2114
2114
2116
2116
2116
2109
2109
2109
2115
2115
2115
2112
2112
2112
2112
2112
2112
2112
2113
2113
2113
2114
2114
2114
2114
2114
2114
2112
2112
2112
2112
2114
2114
2114
2113
2113
2113
2115
2115
2115
2120
2120
2120
2112
2112
2112
2112
2117
2117
2117
2114
2114
2114
2115
2115
2115
2115
2115
2115
2110
2110
2110
2110
2116
2116
2116
2114
2114
2114
2115
2115
2115
2115
2115
2115
2112
2112
2112
2112
2113
2113
2113
2114
2114
2114
2112
2112
2112
2111
2111
2111
2113
2113
2113
2113
2111
2111
2111
2113
2113
2113
2113
2113
2113
2113
2113
2113
2112
2112
2112
2112
2110
2110
2110
2117
2117
2117
2110
2110
2110
2114
2114
2114
2112
2112
2112
2112
2113
2113
2113
2108
2108
2108
2116
2116
2116
2116
2116
2116
2111
2111
2111
2111
2111
2111
2111
2119
2119
2119
2111
2111
2111
2118
2118
2118
2114
2114
2114
2114
2110
2110
2110
2115
2115
2115
2115
2115
2115
2114
2114
2114
2117
2117
2117
2117
2111
2111
2111
2109
2109
2109
2112
2112
2112
2111
2111
2111
2110
2110
2110
2110
2113
2113
2113
2117
2117
2117
2124
2124
2124
2116
2116
2116
2113
2113
2113
2113
2112
2112
2112
2113
2113
2113
2113
2113
2113
2113
2113
2113
2112
2112
2112
2112
2114
2114
2114
2116
2116
2116
2112
2112
2112
2116
2116
2116
2110
2110
2110
2110
2112
2112
2112
2106
2106
2106
2115
2115
2115
2117
2117
2117
2112
2112
2112
2112
2111
2111
2111
2116
2116
2116
2112
2112
2112
2120
2120
2120
2113
2113
2113
2113
2111
2111
2111
2115
2115
2115
2108
2108
2108
2112
2112
2112
2115
2115
2115
2115
2113
2113
2113
2105
2105
2105
2115
2115
2115
2113
2113
2113
2114
2114
2114
2114
2113
2113
2113
2114
2114
2114
2114
2114
2114
2114
2114
2114
2113
2113
2113
2113
2113
2113
2113
2114
2114
2114
2108
2108
2108
2110
2110
2110
2116
2116
2116
2116
2110
2110
2110
2114
2114
2114
2112
2112
2112
2116
2116
2116
2113
2113
2113
2113
2112
2112
2112
2112
2112
2112
2113
2113
2113
2115
2115
2115
2113
2113
2113
2113
2114
2114
2114
2114
2114
2114
2121
2121
2121
2109
2109
2109
2114
2114
2114
2114
2112
2112
2112
2116
2116
2116
2113
2113
2113
2114
2114
2114
2112
2112
2112
2112
2111
2111
2111
2116
2116
2116
2112
2112
2112
2115
2115
2115
2106
2106
2106
2106
2113
2113
2113
2110
2110
2110
2112
2112
2112
2112
2112
2112
2111
2111
2111
2111
2107
2107
2107
2113
2113
2113
2115
2115
2115
2114
2114
2114
2113
2113
2113
2113
2112
2112
2112
2113
2113
2113
2113
2113
2113
2116
2116
2116
2114
2114
2114
2114
2112
2112
2112
2117
2117
2117
2117
2117
2117
2120
2120
2120
2112
2112
2112
2112
2115
2115
2115
2116
2116
2116
2118
2118
2118
2115
2115
2115
2111
2111
2111
2111
2115
2115
2115
2115
2115
2115
2112
2112
2112
2118
2118
2118
2113
2113
2113
2113
2115
2115
2115
2117
2117
2117
2116
2116
2116
2116
2116
2116
2118
2118
2118
2118
2113
2113
2113
2122
2122
2122
2109
2109
2109
2112
2112
2112
2112
2112
2112
2112
2110
2110
2110
2116
2116
2116
2114
2114
2114
2113
2113
2113
2113
2113
2113
2113
2114
2114
2114
2115
2115
2115
2113
2113
2113
2112
2112
2112
2112
2112
2112
2112
2107
2107
2107
2110
2110
2110
2114
2114
2114
2113
2113
2113
2111
2111
2111
2111
2109
2109
2109
2124
2124
2124
2114
2114
2114
2113
2113
2113
2114
2114
2114
2114
2112
2112
2112
2116
2116
2116
2113
2113
2113
2118
2118
2118
2114
2114
2114
2114
2112
2112
2112
2113
2113
2113
2112
2112
2112
2121
2121
2121
2112
2112
2112
2112
2114
2114
2114
2116
2116
2116
2114
2114
2114
2115
2115
2115
2109
2109
2109
2109
2113
2113
2113
2118
2118
2118
2116
2116
2116
2113
2113
2113
2112
2112
2112
2112
2114
2114
2114
2112
2112
2112
2113
2113
2113
2112
2112
2112
2110
2110
2110
2110
2113
2113
2113
2112
2112
2112
2115
2115
2115
2119
2119
2119
2110
2110
2110
2110
2114
2114
2114
2104
2104
2104
2112
2112
2112
2116
2116
2116
2112
2112
2112
2112
2108
2108
2108
2114
2114
2114
2112
2112
2112
2116
2116
2116
2115
2115
2115
2115
2111
2111
2111
2115
2115
2115
2114
2114
2114
2115
2115
2115
2112
2112
2112
2112
2108
2108
2108
2111
2111
2111
2109
2109
2109
2113
2113
2113
2110
2110
2110
2110
2116
2116
2116
2117
2117
2117
2113
2113
2113
2113
2113
2113
2113
2113
2113
2113
2113
2113
2113
2114
2114
2114
2112
2112
2112
2112
2112
2112
2111
2111
2111
2111
2112
2112
2112
2112
2112
2112
2112
2112
2112
2118
2118
2118
2110
2110
2110
2110
2115
2115
2115
2113
2113
2113
2115
2115
2115
2116
2116
2116
2116
2116
2116
2116
2111
2111
2111
2111
2111
2111
2113
2113
2113
2113
2113
2113
2111
2111
2111
2111
2112
2112
2112
2112
2112
2112
2104
2104
2104
2114
2114
2114
2112
2112
2112
2112
2109
2109
2109
2115
2115
2115
2114
2114
2114
2115
2115
2115
2113
2113
2113
2113
2116
2116
2116
2113
2113
2113
2114
2114
2114
2112
2112
2112
2119
2119
2119
2119
2112
2112
2112
2117
2117
2117
2111
2111
2111
2116
2116
2116
2113
2113
2113
2113
2109
2109
2109
2116
2116
2116
2121
2121
2121
2112
2112
2112
2113
2113
2113
2113
2111
2111
2111
2114
2114
2114
2113
2113
2113
2117
2117
2117
2111
2111
2111
2111
2114
2114
2114
2120
2120
2120
2115
2115
2115
2114
2114
2114
2107
2107
2107
2107
2116
2116
2116
2112
2112
2112
2115
2115
2115
2116
2116
2116
2112
2112
2112
2112
2113
2113
2113
2114
2114
2114
2117
2117
2117
2113
2113
2113
2110
2110
2110
2110
2113
2113
2113
2113
2113
2113
2114
2114
2114
2111
2111
2111
2112
2112
2112
2112
2113
2113
2113
2109
2109
2109
2114
2114
2114
2113
2113
2113
2113
2113
2113
2113
2115
2115
2115
2117
2117
2117
2110
2110
2110
2115
2115
2115
2114
2114
2114
2114
2111
2111
2111
2116
2116
2116
2114
2114
2114
2118
2118
2118
2114
2114
2114
2114
2117
2117
2117
2112
2112
2112
2113
2113
2113
2114
2114
2114
2112
2112
2112
2112
2113
2113
2113
2115
2115
2115
2114
2114
2114
2113
2113
2113
2110
2110
2110
2110
2112
2112
2112
2110
2110
2110
2112
2112
2112
2115
2115
2115
2110
2110
2110
2110
2108
2108
2108
2116
2116
2116
2113
2113
2113
2114
2114
2114
2115
2115
2115
2115
2110
2110
2110
2116
2116
2116
2112
2112
2112
2113
2113
2113
2119
2119
2119
2119
2115
2115
2115
2118
2118
2118
2109
2109
2109
2113
2113
2113
2114
2114
2114
2114
2110
2110
2110
2115
2115
2115
2111
2111
2111
2114
2114
2114
2108
2108
2108
2108
2114
2114
2114
2115
2115
2115
2113
2113
2113
2109
2109
2109
2116
2116
2116
2116
2115
2115
2115
2119
2119
2119
2119
2119
2119
2113
2113
2113
2114
2114
2114
2114
2114
2114
2114
2113
2113
2113
2114
2114
2114
2115
2115
2115
2113
2113
2113
2113
2114
2114
2114
2115
2115
2115
2112
2112
2112
2111
2111
2111
2113
2113
2113
2113
2115
2115
2115
2114
2114
2114
2111
2111
2111
2113
2113
2113
2113
2113
2113
2113
2117
2117
2117
2112
2112
2112
2111
2111
2111
2117
2117
2117
2111
2111
2111
2111
2112
2112
2112
2116
2116
2116
2115
2115
2115
2114
2114
2114
2108
2108
2108
2108
2114
2114
2114
2120
2120
2120
2120
2120
2120
2114
2114
2114
2113
2113
2113
2113
2111
2111
2111
2114
2114
2114
2114
2114
2114
2113
2113
2113
2109
2109
2109
2109
2114
2114
2114
2115
2115
2115
2113
2113
2113
2112
2112
2112
2116
2116
2116
2116
2111
2111
2111
2115
2115
2115
2114
2114
2114
2113
2113
2113
2110
2110
2110
2110
2109
2109
2109
2116
2116
2116
2117
2117
2117
2114
2114
2114
2112
2112
2112
2112
2113
2113
2113
2116
2116
2116
2114
2114
2114
2112
2112
2112
2111
2111
2111
2111
2115
2115
2115
2114
2114
2114
2117
2117
2117
2114
2114
2114
2111
2111
2111
2111
2112
2112
2112
2117
2117
2117
2114
2114
2114
2114
2114
2114
2112
2112
2112
2112
2113
2113
2113
2113
2113
2113
2112
2112
2112
2111
2111
2111
2113
2113
2113
2113
2113
2113
2113
2114
2114
2114
2112
2112
2112
2113
2113
2113
2111
2111
2111
2111
2112
2112
2112
2118
2118
2118
2113
2113
2113
2116
2116
2116
2114
2114
2114
2114
2113
2113
2113
2115
2115
2115
2113
2113
2113
2114
2114
2114
2114
2114
2114
2114
2113
2113
2113
2116
2116
2116
2120
2120
2120
2112
2112
2112
2113
2113
2113
2113
2112
2112
2112
2114
2114
2114
2113
2113
2113
2119
2119
2119
2114
2114
2114
2114
2120
2120
2120
2116
2116
2116
2112
2112
2112
2116
2116
2116
2112
2112
2112
2112
2111
2111
2111
2114
2114
2114
2116
2116
2116
2113
2113
2113
2115
2115
2115
2115
2111
2111
2111
2116
2116
2116
2114
2114
2114
2116
2116
2116
2113
2113
2113
2113
2112
2112
2112
2115
2115
2115
2112
2112
2112
2117
2117
2117
2109
2109
2109
2109
2113
2113
2113
2128
2128
2128
2119
2119
2119
2114
2114
2114
2112
2112
2112
2112
2115
2115
2115
2113
2113
2113
2111
2111
2111
2115
2115
2115
2102
2102
2102
2102
2112
2112
2112
2116
2116
2116
2107
2107
2107
2115
2115
2115
2114
2114
2114
2114
2113
2113
2113
2119
2119
2119
2117
2117
2117
2116
2116
2116
2113
2113
2113
2113
2108
2108
2108
2116
2116
2116
2114
2114
2114
2115
2115
2115
2113
2113
2113
2113
2112
2112
2112
2120
2120
2120
2113
2113
2113
2113
2113
2113
2112
2112
2112
2112
2113
2113
2113
2115
2115
2115
2111
2111
2111
2113
2113
2113
2111
2111
2111
2111
2116
2116
2116
2115
2115
2115
2114
2114
2114
2115
2115
2115
2111
2111
2111
2111
2111
2111
2111
2113
2113
2113
2112
2112
2112
2113
2113
2113
2111
2111
2111
2111
2111
2111
2111
2110
2110
2110
2111
2111
2111
2115
2115
2115
2114
2114
2114
2114
2111
2111
2111
2116
2116
2116
2116
2116
2116
2114
2114
2114
2109
2109
2109
2109
2116
2116
2116
2112
2112
2112
2112
2112
2112
2113
2113
2113
2117
2117
2117
2117
2115
2115
2115
2114
2114
2114
2112
2112
2112
2109
2109
2109
2109
2109
2109
2109
2110
2110
2110
2116
2116
2116
2111
2111
2111
2115
2115
2115
2113
2113
2113
2113
2113
2113
2113
2112
2112
2112
2113
2113
2113
2114
2114
2114
2108
2108
2108
2108
2113
2113
2113
2113
2113
2113
2114
2114
2114
2117
2117
2117
2112
2112
2112
2112
2114
2114
2114
2111
2111
2111
2113
2113
2113
2113
2113
2113
2112
2112
2112
2112
2113
2113
2113
2117
2117
2117
2112
2112
2112
2117
2117
2117
2113
2113
2113
2113
2113
2113
2113
2110
2110
2110
2112
2112
2112
2116
2116
2116
2113
2113
2113
2113
2112
2112
2112
2124
2124
2124
2113
2113
2113
2114
2114
2114
2118
2118
2118
2118
2110
2110
2110
2116
2116
2116
2113
2113
2113
2116
2116
2116
2103
2103
2103
2103
2112
2112
2112
2115
2115
2115
2108
2108
2108
2110
2110
2110
2111
2111
2111
2111
2110
2110
2110
2112
2112
2112
2114
2114
2114
2114
2114
2114
2113
2113
2113
2113
2111
2111
2111
2115
2115
2115
2114
2114
2114
2120
2120
2120
2112
2112
2112
2112
2110
2110
2110
2117
2117
2117
2119
2119
2119
2114
2114
2114
2113
2113
2113
2113
2114
2114
2114
2114
2114
2114
2113
2113
2113
2114
2114
2114
2111
2111
2111
2111
2113
2113
2113
2113
2113
2113
2114
2114
2114
2114
2114
2114
2113
2113
2113
2113
2112
2112
2112
2118
2118
2118
2117
2117
2117
2122
2122
2122
2114
2114
2114
2114
2117
2117
2117
2116
2116
2116
2115
2115
2115
2115
2115
2115
2110
2110
2110
2110
2114
2114
2114
2109
2109
2109
2114
2114
2114
2113
2113
2113
2114
2114
2114
2114
2113
2113
2113
2117
2117
2117
2111
2111
2111
2116
2116
2116
2111
2111
2111
2111
2112
2112
2112
2111
2111
2111
2112
2112
2112
2114
2114
2114
2111
2111
2111
2111
2110
2110
2110
2114
2114
2114
2111
2111
2111
2114
2114
2114
2111
2111
2111
2111
2113
2113
2113
2117
2117
2117
2114
2114
2114
2116
2116
2116
2110
2110
2110
2110
2113
2113
2113
2114
2114
2114
2115
2115
2115
2116
2116
2116
2113
2113
2113
2113
2112
2112
2112
2113
2113
2113
2115
2115
2115
2115
2115
2115
2111
2111
2111
2111
2113
2113
2113
2114
2114
2114
2116
2116
2116
2116
2116
2116
2117
2117
2117
2117
2108
2108
2108
2109
2109
2109
2110
2110
2110
2116
2116
2116
2115
2115
2115
2115
2109
2109
2109
2124
2124
2124
2112
2112
2112
2115
2115
2115
2113
2113
2113
2113
2112
2112
2112
2116
2116
2116
2113
2113
2113
2116
2116
2116
2113
2113
2113
2113
2112
2112
2112
2115
2115
2115
2114
2114
2114
2115
2115
2115
2114
2114
2114
2114
2112
2112
2112
2112
2112
2112
2116
2116
2116
2112
2112
2112
2112
2112
2112
2112
2115
2115
2115
2116
2116
2116
2115
2115
2115
2116
2116
2116
2111
2111
2111
2111
2116
2116
2116
2114
2114
2114
2111
2111
2111
2113
2113
2113
2117
2117
2117
2117
2111
2111
2111
2114
2114
2114
2112
2112
2112
2115
2115
2115
2113
2113
2113
2113
2112
2112
2112
2116
2116
2116
2117
2117
2117
2117
2117
2117
2113
2113
2113
2113
2113
2113
2113
2113
2113
2113
2117
2117
2117
2114
2114
2114
2113
2113
2113
2113
2113
2113
2113
2115
2115
2115
2113
2113
2113
2116
2116
2116
2112
2112
2112
2112
2113
2113
2113
2115
2115
2115
2110
2110
2110
2111
2111
2111
2113
2113
2113
2113
2111
2111
2111
2117
2117
2117
2117
2117
2117
2119
2119
2119
2110
2110
2110
2110
2110
2110
2110
2112
2112
2112
2115
2115
2115
2116
2116
2116
2112
2112
2112
2112
2112
2112
2112
2116
2116
2116
2113
2113
2113
2115
2115
2115
2112
2112
2112
2112
2110
2110
2110
2111
2111
2111
2109
2109
2109
2116
2116
2116
2116
2116
2116
2116
2112
2112
2112
2112
2112
2112
2108
2108
2108
2108
2108
2108
2116
2116
2116
2116
2112
2112
2112
2120
2120
2120
2113
2113
2113
2117
2117
2117
2111
2111
2111
2111
2112
2112
2112
2118
2118
2118
2112
2112
2112
2113
2113
2113
2110
2110
2110
2110
2115
2115
2115
2114
2114
2114
2113
2113
2113
2115
2115
2115
2115
2115
2115
2115
2110
2110
2110
2112
2112
2112
2115
2115
2115
2115
2115
2115
2113
2113
2113
2113
2115
2115
2115
2116
2116
2116
2115
2115
2115
2119
2119
2119
2110
2110
2110
2110
2109
2109
2109
2115
2115
2115
2113
2113
2113
2111
2111
2111
2112
2112
2112
2112
2109
2109
2109
2114
2114
2114
2115
2115
2115
2117
2117
2117
2110
2110
2110
2110
2113
2113
2113
2117
2117
2117
2113
2113
2113
2116
2116
2116
2115
2115
2115
2115
2112
2112
2112
2109
2109
2109
2113
2113
2113
2114
2114
2114
2113
2113
2113
2113
2115
2115
2115
2115
2115
2115
2117
2117
2117
2116
2116
2116
2111
2111
2111
2111
2113
2113
2113
2115
2115
2115
2112
2112
2112
2113
2113
2113
2115
2115
2115
2115
2113
2113
2113
2115
2115
2115
2115
2115
2115
2120
2120
2120
2112
2112
2112
2112
2112
2112
2112
2119
2119
2119
2111
2111
2111
2114
2114
2114
2112
2112
2112
2112
2114
2114
2114
2116
2116
2116
2116
2116
2116
2114
2114
2114
2113
2113
2113
2113
2112
2112
2112
2111
2111
2111
2114
2114
2114
2114
2114
2114
2115
2115
2115
2115
2111
2111
2111
2113
2113
2113
2115
2115
2115
2113
2113
2113
2115
2115
2115
2115
2114
2114
2114
2116
2116
2116
2112
2112
2112
2117
2117
2117
2113
2113
2113
2113
2116
2116
2116
2117
2117
2117
2113
2113
2113
2115
2115
2115
2115
2115
2115
2115
2116
2116
2116
2115
2115
2115
2113
2113
2113
2115
2115
2115
2115
2115
2115
2115
2112
2112
2112
2115
2115
2115
2118
2118
2118
2111
2111
2111
2113
2113
2113
2113
2114
2114
2114
2110
2110
2110
2116
2116
2116
2114
2114
2114
2112
2112
2112
2112
2110
2110
2110
2115
2115
2115
2114
2114
2114
2113
2113
2113
2111
2111
2111
2111
2112
2112
2112
2114
2114
2114
2114
2114
2114
2114
2114
2114
2115
2115
2115
2115
2112
2112
2112
2111
2111
2111
2117
2117
2117
2118
2118
2118
2111
2111
2111
2111
2111
2111
2111
2112
2112
2112
2113
2113
2113
2112
2112
2112
2110
2110
2110
2110
2111
2111
2111
2114
2114
2114
2114
2114
2114
2114
2114
2114
2113
2113
2113
2113
2112
2112
2112
2115
2115
2115
2112
2112
2112
2115
2115
2115
2109
2109
2109
2109
2112
2112
2112
2121
2121
2121
2111
2111
2111
2113
2113
2113
2110
2110
2110
2110
2114
2114
2114
2114
2114
2114
2112
2112
2112
2115
2115
2115
2112
2112
2112
2112
2114
2114
2114
2115
2115
2115
2113
2113
2113
2117
2117
2117
2113
2113
2113
2113
2101
2101
2101
2114
2114
2114
2116
2116
2116
2114
2114
2114
2113
2113
2113
2113
2110
2110
2110
2115
2115
2115
2117
2117
2117
2116
2116
2116
2112
2112
2112
2112
2103
2103
2103
2115
2115
2115
2111
2111
2111
2113
2113
2113
2111
2111
2111
2111
2109
2109
2109
2115
2115
2115
2111
2111
2111
2115
2115
2115
2112
2112
2112
2112
2115
2115
2115
2114
2114
2114
2113
2113
2113
2113
2113
2113
2113
2113
2113
2113
2112
2112
2112
2114
2114
2114
2111
2111
2111
2112
2112
2112
2113
2113
2113
2113
2116
2116
2116
2116
2116
2116
2115
2115
2115
2116
2116
2116
2113
2113
2113
2113
2111
2111
2111
2114
2114
2114
2110
2110
2110
2115
2115
2115
2110
2110
2110
2110
2110
2110
2110
2117
2117
2117
2112
2112
2112
2113
2113
2113
2111
2111
2111
2111
2112
2112
2112
2117
2117
2117
2112
2112
2112
2114
2114
2114
2115
2115
2115
2115
2111
2111
2111
2115
2115
2115
2110
2110
2110
2114
2114
2114
2111
2111
2111
2111
2109
2109
2109
2116
2116
2116
2111
2111
2111
2115
2115
2115
2111
2111
2111
2111
2113
2113
2113
2113
2113
2113
2111
2111
2111
2116
2116
2116
2113
2113
2113
2113
2109
2109
2109
2117
2117
2117
2116
2116
2116
2116
2116
2116
2110
2110
2110
2110
2112
2112
2112
2115
2115
2115
2109
2109
2109
2108
2108
2108
2113
2113
2113
2113
2108
2108
2108
2111
2111
2111
2113
2113
2113
2115
2115
2115
2109
2109
2109
2109
2112
2112
2112
2114
2114
2114
2111
2111
2111
2113
2113
2113
2114
2114
2114
2114
2114
2114
2114
2115
2115
2115
2119
2119
2119
2113
2113
2113
2111
2111
2111
2111
2117
2117
2117
2116
2116
2116
2109
2109
2109
2116
2116
2116
2111
2111
2111
2111
2112
2112
2112
2110
2110
2110
2109
2109
2109
2113
2113
2113
2113
2113
2113
2113
2116
2116
2116
2112
2112
2112
2113
2113
2113
2115
2115
2115
2113
2113
2113
2113
2111
2111
2111
2115
2115
2115
2112
2112
2112
2111
2111
2111
2103
2103
2103
2103
2110
2110
2110
2114
2114
2114
2110
2110
2110
2113
2113
2113
2121
2121
2121
2121
2112
2112
2112
2121
2121
2121
2114
2114
2114
2113
2113
2113
2112
2112
2112
2112
2112
2112
2112
2116
2116
2116
2113
2113
2113
2115
2115
2115
2111
2111
2111
2111
2112
2112
2112
2113
2113
2113
2110
2110
2110
2113
2113
2113
2112
2112
2112
2112
2110
2110
2110
2113
2113
2113
2113
2113
2113
2117
2117
2117
2113
2113
2113
2113
2112
2112
2112
2112
2112
2112
2116
2116
2116
2115
2115
2115
2110
2110
2110
2110
2111
2111
2111
2114
2114
2114
2113
2113
2113
2114
2114
2114
2109
2109
2109
2109
2111
2111
2111
2114
2114
2114
2112
2112
2112
2115
2115
2115
2104
2104
2104
2104
2115
2115
2115
2107
2107
2107
2111
2111
2111
2113
2113
2113
2115
2115
2115
2115
2117
2117
2117
2116
2116
2116
2111
2111
2111
2113
2113
2113
2112
2112
2112
2112
2112
2112
2112
2115
2115
2115
2110
2110
2110
2115
2115
2115
2113
2113
2113
2113
2112
2112
2112
2113
2113
2113
2111
2111
2111
2113
2113
2113
2116
2116
2116
2116
2113
2113
2113
2115
2115
2115
2116
2116
2116
2106
2106
2106
2113
2113
2113
2113
2107
2107
2107
2112
2112
2112
2109
2109
2109
2112
2112
2112
2117
2117
2117
2117
2114
2114
2114
2109
2109
2109
2112
2112
2112
2112
2112
2112
2109
2109
2109
2109
2113
2113
2113
2113
2113
2113
2114
2114
2114
2116
2116
2116
2111
2111
2111
2111
2111
2111
2111
2114
2114
2114
2104
2104
2104
2113
2113
2113
2116
2116
2116
2116
2112
2112
2112
2115
2115
2115
2109
2109
2109
2115
2115
2115
2111
2111
2111
2111
2114
2114
2114
2115
2115
2115
2112
2112
2112
2111
2111
2111
2114
2114
2114
2114
2113
2113
2113
2112
2112
2112
2113
2113
2113
2116
2116
2116
2109
2109
2109
2109
2113
2113
2113
2115
2115
2115
2107
2107
2107
2116
2116
2116
2117
2117
2117
2117
2113
2113
2113
2113
2113
2113
2116
2116
2116
2116
2116
2116
2108
2108
2108
2108
2113
2113
2113
2108
2108
2108
2113
2113
2113
2115
2115
2115
2113
2113
2113
2113
2112
2112
2112
2111
2111
2111
2115
2115
2115
2111
2111
2111
2114
2114
2114
2114
2114
2114
2114
2115
2115
2115
2123
2123
2123
2116
2116
2116
2114
2114
2114
2114
2117
2117
2117
2119
2119
2119
2109
2109
2109
2114
2114
2114
2114
2114
2114
2114
2107
2107
2107
2110
2110
2110
2112
2112
2112
2109
2109
2109
2112
2112
2112
2112
2112
2112
2112
2112
2112
2112
2114
2114
2114
2113
2113
2113
2115
2115
2115
2115
2114
2114
2114
2113
2113
2113
2112
2112
2112
2112
2112
2112
2107
2107
2107
2107
2114
2114
2114
2110
2110
2110
2112
2112
2112
2115
2115
2115
2113
2113
2113
2113
2112
2112
2112
2115
2115
2115
2109
2109
2109
2114
2114
2114
2115
2115
2115
2115
2111
2111
2111
2127
2127
2127
2112
2112
2112
2113
2113
2113
2111
2111
2111
2111
2112
2112
2112
2112
2112
2112
2113
2113
2113
2120
2120
2120
2108
2108
2108
2108
2111
2111
2111
2114
2114
2114
2116
2116
2116
2113
2113
2113
2109
2109
2109
2109
2110
2110
2110
2114
2114
2114
2114
2114
2114
2116
2116
2116
2114
2114
2114
2114
2114
2114
2114
2112
2112
2112
2111
2111
2111
2115
2115
2115
2109
2109
2109
2109
2112
2112
2112
2111
2111
2111
2112
2112
2112
2113
2113
2113
2112
2112
2112
2112
2114
2114
2114
2114
2114
2114
2118
2118
2118
2116
2116
2116
2113
2113
2113
2113
2111
2111
2111
2110
2110
2110
2103
2103
2103
2127
2127
2127
2112
2112
2112
2112
2112
2112
2112
2114
2114
2114
2112
2112
2112
2118
2118
2118
2110
2110
2110
2110
2108
2108
2108
2114
2114
2114
2113
2113
2113
2113
2113
2113
2111
2111
2111
2111
2109
2109
2109
2114
2114
2114
2115
2115
2115
2120
2120
2120
2113
2113
2113
2113
2113
2113
2113
2115
2115
2115
2107
2107
2107
2112
2112
2112
2116
2116
2116
2116
2108
2108
2108
2119
2119
2119
2112
2112
2112
2115
2115
2115
2112
2112
2112
2112
2114
2114
2114
2113
2113
2113
2112
2112
2112
2115
2115
2115
2112
2112
2112
2112
2113
2113
2113
2115
2115
2115
2114
2114
2114
2113
2113
2113
2113
2113
2113
2113
2112
2112
2112
2114
2114
2114
2112
2112
2112
2107
2107
2107
2113
2113
2113
2113
2111
2111
2111
2115
2115
2115
2110
2110
2110
2108
2108
2108
2114
2114
2114
2114
2110
2110
2110
2113
2113
2113
2113
2113
2113
2114
2114
2114
2113
2113
2113
2113
2109
2109
2109
2118
2118
2118
2111
2111
2111
2113
2113
2113
2109
2109
2109
2109
2111
2111
2111
2107
2107
2107
2114
2114
2114
2113
2113
2113
2111
2111
2111
2111
2114
2114
2114
2112
2112
2112
2107
2107
2107
2115
2115
2115
2111
2111
2111
2111
2109
2109
2109
2114
2114
2114
2110
2110
2110
2114
2114
2114
2114
2114
2114
2114
2112
2112
2112
2112
2112
2112
2113
2113
2113
2113
2113
2113
2111
2111
2111
2111
2109
2109
2109
2112
2112
2112
2114
2114
2114
2108
2108
2108
2111
2111
2111
2111
2115
2115
2115
2117
2117
2117
2118
2118
2118
2114
2114
2114
2106
2106
2106
2106
2109
2109
2109
2117
2117
2117
2110
2110
2110
2113
2113
2113
2120
2120
2120
2120
2112
2112
2112
2109
2109
2109
2114
2114
2114
2117
2117
2117
2112
2112
2112
2112
2112
2112
2112
2116
2116
2116
2111
2111
2111
2111
2111
2111
2115
2115
2115
2115
2112
2112
2112
2114
2114
2114
2112
2112
2112
2115
2115
2115
2111
2111
2111
2111
2108
2108
2108
2109
2109
2109
2111
2111
2111
2114
2114
2114
2114
2114
2114
2114
2116
2116
2116
2116
2116
2116
2112
2112
2112
2112
2112
2112
2113
2113
2113
2113
2113
2113
2113
2112
2112
2112
2115
2115
2115
2112
2112
2112
2116
2116
2116
2116
2112
2112
2112
2113
2113
2113
2113
2113
2113
2109
2109
2109
2113
2113
2113
2113
2113
2113
2113
2115
2115
2115
2114
2114
2114
2113
2113
2113
2110
2110
2110
2110
2110
2110
2110
2114
2114
2114
2115
2115
2115
2115
2115
2115
2114
2114
2114
2114
2112
2112
2112
2115
2115
2115
2116
2116
2116
2113
2113
2113
2113
2113
2113
2113
2112
2112
2112
2115
2115
2115
2110
2110
2110
2117
2117
2117
2110
2110
2110
2110
2114
2114
2114
2118
2118
2118
2114
2114
2114
2113
2113
2113
2112
2112
2112
2112
2114
2114
2114
2116
2116
2116
2112
2112
2112
2113
2113
2113
2111
2111
2111
2111
2112
2112
2112
2113
2113
2113
2114
2114
2114
2114
2114
2114
2110
2110
2110
2110
2113
2113
2113
2114
2114
2114
2115
2115
2115
2115
2115
2115
2115
2115
2115
2115
2112
2112
2112
2109
2109
2109
2110
2110
2110
2114
2114
2114
2112
2112
2112
2112
2115
2115
2115
2120
2120
2120
2114
2114
2114
2115
2115
2115
2112
2112
2112
2112
2114
2114
2114
2114
2114
2114
2112
2112
2112
2113
2113
2113
2111
2111
2111
2111
2114
2114
2114
2116
2116
2116
2111
2111
2111
2115
2115
2115
2113
2113
2113
2113
2113
2113
2113
2112
2112
2112
2114
2114
2114
2112
2112
2112
2112
2112
2112
2112
2109
2109
2109
2115
2115
2115
2110
2110
2110
2114
2114
2114
2112
2112
2112
2112
2112
2112
2112
2121
2121
2121
2111
2111
2111
2115
2115
2115
2113
2113
2113
2113
2112
2112
2112
2114
2114
2114
2112
2112
2112
2115
2115
2115
2113
2113
2113
2113
2115
2115
2115
2111
2111
2111
2110
2110
2110
2112
2112
2112
2112
2112
2112
2112
2114
2114
2114
2109
2109
2109
2110
2110
2110
2109
2109
2109
2112
2112
2112
2112
2112
2112
2112
2115
2115
2115
2113
2113
2113
2114
2114
2114
2113
2113
2113
2113
2114
2114
2114
2113
2113
2113
2114
2114
2114
2118
2118
2118
2110
2110
2110
2110
2113
2113
2113
2117
2117
2117
2116
2116
2116
2114
2114
2114
2108
2108
2108
2108
2110
2110
2110
2115
2115
2115
2114
2114
2114
2115
2115
2115
2111
2111
2111
2111
2112
2112
2112
2115
2115
2115
2113
2113
2113
2115
2115
2115
2117
2117
2117
2117
2111
2111
2111
2114
2114
2114
2116
2116
2116
2114
2114
2114
2111
2111
2111
2111
2113
2113
2113
2114
2114
2114
2111
2111
2111
2111
2111
2111
2111
2111
2111
2111
2112
2112
2112
2111
2111
2111
2114
2114
2114
2117
2117
2117
2113
2113
2113
2113
2112
2112
2112
2117
2117
2117
2114
2114
2114
2121
2121
2121
2113
2113
2113
2113
2111
2111
2111
2114
2114
2114
2116
2116
2116
2103
2103
2103
2112
2112
2112
2112
2113
2113
2113
2115
2115
2115
2114
2114
2114
2116
2116
2116
2110
2110
2110
2110
2113
2113
2113
2114
2114
2114
2112
2112
2112
2111
2111
2111
2111
2111
2111
2111
2110
2110
2110
2114
2114
2114
2111
2111
2111
2113
2113
2113
2111
2111
2111
2111
2113
2113
2113
2113
2113
2113
2107
2107
2107
2113
2113
2113
2112
2112
2112
2112
2112
2112
2112
2115
2115
2115
2114
2114
2114
2113
2113
2113
2114
2114
2114
2114
2113
2113
2113
2114
2114
2114
2109
2109
2109
2113
2113
2113
2110
2110
2110
2110
2115
2115
2115
2114
2114
2114
2110
2110
2110
2114
2114
2114
2111
2111
2111
2111
2108
2108
2108
2117
2117
2117
2113
2113
2113
2111
2111
2111
2107
2107
2107
2107
2111
2111
2111
2117
2117
2117
2112
2112
2112
2112
2112
2112
2110
2110
2110
2110
2114
2114
2114
2116
2116
2116
2112
2112
2112
2112
2112
2112
2116
2116
2116
2116
2114
2114
2114
2111
2111
2111
2112
2112
2112
2105
2105
2105
2114
2114
2114
2114
2117
2117
2117
2116
2116
2116
2125
2125
2125
2112
2112
2112
2111
2111
2111
2111
2109
2109
2109
2115
2115
2115
2111
2111
2111
2118
2118
2118
2115
2115
2115
2115
2113
2113
2113
2116
2116
2116
2114
2114
2114
2113
2113
2113
2113
2113
2113
2113
2113
2113
2113
2113
2113
2113
2114
2114
2114
2114
2114
2114
2118
2118
2118
2118
2114
2114
2114
2119
2119
2119
2115
2115
2115
2112
2112
2112
2110
2110
2110
2110
2108
2108
2108
2116
2116
2116
2111
2111
2111
2113
2113
2113
2111
2111
2111
2111
2113
2113
2113
2115
2115
2115
2116
2116
2116
2116
2116
2116
2117
2117
2117
2117
2113
2113
2113
2115
2115
2115
2108
2108
2108
2116
2116
2116
2112
2112
2112
2112
2112
2112
2112
2116
2116
2116
2110
2110
2110
2111
2111
2111
2109
2109
2109
2109
2113
2113
2113
2112
2112
2112
2111
2111
2111
2111
2111
2111
2112
2112
2112
2112
2113
2113
2113
2116
2116
2116
2113
2113
2113
2111
2111
2111
2115
2115
2115
2115
2114
2114
2114
2119
2119
2119
2113
2113
2113
2116
2116
2116
2112
2112
2112
2112
2112
2112
2112
2113
2113
2113
2114
2114
2114
2118
2118
2118
2113
2113
2113
2113
2108
2108
2108
2112
2112
2112
2113
2113
2113
2115
2115
2115
2111
2111
2111
2111
2115
2115
2115
2116
2116
2116
2110
2110
2110
2113
2113
2113
2112
2112
2112
2112
2112
2112
2112
2114
2114
2114
2116
2116
2116
2115
2115
2115
2112
2112
2112
2112
2112
2112
2112
2114
2114
2114
2115
2115
2115
2118
2118
2118
2119
2119
2119
2119
2115
2115
2115
2115
2115
2115
2111
2111
2111
2116
2116
2116
2113
2113
2113
2113
2109
2109
2109
2115
2115
2115
2112
2112
2112
2115
2115
2115
2113
2113
2113
2113
2111
2111
2111
2113
2113
2113
2116
2116
2116
2114
2114
2114
2111
2111
2111
2111
2114
2114
2114
2113
2113
2113
2113
2113
2113
2110
2110
2110
2111
2111
2111
2111
2113
2113
2113
2118
2118
2118
2118
2118
2118
2117
2117
2117
2109
2109
2109
2109
2113
2113
2113
2115
2115
2115
2119
2119
2119
2113
2113
2113
2112
2112
2112
2112
2113
2113
2113
2116
2116
2116
2112
2112
2112
2113
2113
2113
2112
2112
2112
2112
2112
2112
2112
2115
2115
2115
2114
2114
2114
2116
2116
2116
2113
2113
2113
2113
2117
2117
2117
2115
2115
2115
2114
2114
2114
2119
2119
2119
2113
2113
2113
2113
2110
2110
2110
2115
2115
2115
2112
2112
2112
2113
2113
2113
2113
2113
2113
2113
2112
2112
2112
2119
2119
2119
2113
2113
2113
2113
2113
2113
2115
2115
2115
2115
2111
2111
2111
2116
2116
2116
2116
2116
2116
2113
2113
2113
2115
2115
2115
2115
2113
2113
2113
2113
2113
2113
2115
2115
2115
2109
2109
2109
2112
2112
2112
2112
2113
2113
2113
2113
2113
2113
2114
2114
2114
2114
2114
2114
2113
2113
2113
2113
2114
2114
2114
2120
2120
2120
2112
2112
2112
2109
2109
2109
2114
2114
2114
2114
2106
2106
2106
2114
2114
2114
2114
2114
2114
2124
2124
2124
2113
2113
2113
2113
2119
2119
2119
2115
2115
2115
2115
2115
2115
2113
2113
2113
2112
2112
2112
2112
2110
2110
2110
2106
2106
2106
2109
2109
2109
2111
2111
2111
2109
2109
2109
2109
2110
2110
2110
2112
2112
2112
2112
2112
2112
2115
2115
2115
2114
2114
2114
2114
2119
2119
2119
2114
2114
2114
2107
2107
2107
2114
2114
2114
2113
2113
2113
2113
2111
2111
2111
2114
2114
2114
2110
2110
2110
2114
2114
2114
2112
2112
2112
2112
2109
2109
2109
2114
2114
2114
2112
2112
2112
2113
2113
2113
2115
2115
2115
2115
2117
2117
2117
2114
2114
2114
2112
2112
2112
2119
2119
2119
2111
2111
2111
2111
2103
2103
2103
2115
2115
2115
2116
2116
2116
2113
2113
2113
2114
2114
2114
2114
2115
2115
2115
2113
2113
2113
2115
2115
2115
2116
2116
2116
2113
2113
2113
2113
2112
2112
2112
2114
2114
2114
2113
2113
2113
2115
2115
2115
2112
2112
2112
2112
2112
2112
2112
2113
2113
2113
2113
2113
2113
2121
2121
2121
2109
2109
2109
2109
2108
2108
2108
2114
2114
2114
2117
2117
2117
2113
2113
2113
2111
2111
2111
2111
2114
2114
2114
2113
2113
2113
2118
2118
2118
2115
2115
2115
2114
2114
2114
2114
2114
2114
2114
2112
2112
2112
2115
2115
2115
2115
2115
2115
2111
2111
2111
2111
2113
2113
2113
2113
2113
2113
2115
2115
2115
2115
2115
2115
2112
2112
2112
2112
2110
2110
2110
2117
2117
2117
2115
2115
2115
2116
2116
2116
2111
2111
2111
2111
2114
2114
2114
2111
2111
2111
2114
2114
2114
2113
2113
2113
2116
2116
2116
2116
2115
2115
2115
2110
2110
2110
2113
2113
2113
2111
2111
2111
2106
2106
2106
2106
2113
2113
2113
2109
2109
2109
2113
2113
2113
2111
2111
2111
2115
2115
2115
2115
2116
2116
2116
2112
2112
2112
2112
2112
2112
2113
2113
2113
2114
2114
2114
2114
2111
2111
2111
2111
2111
2111
2110
2110
2110
2115
2115
2115
2111
2111
2111
2111
2111
2111
2111
2116
2116
2116
2111
2111
2111
2118
2118
2118
2112
2112
2112
2112
2110
2110
2110
2114
2114
2114
2113
2113
2113
2116
2116
2116
2113
2113
2113
2113
2111
2111
2111
2113
2113
2113
2112
2112
2112
2110
2110
2110
2116
2116
2116
2116
2113
2113
2113
2112
2112
2112
2111
2111
2111
2113
2113
2113
2112
2112
2112
2112
2115
2115
2115
2116
2116
2116
2110
2110
2110
2117
2117
2117
2110
2110
2110
2110
2114
2114
2114
2118
2118
2118
2109
2109
2109
2114
2114
2114
2112
2112
2112
2112
2112
2112
2112
2112
2112
2112
2113
2113
2113
2115
2115
2115
2114
2114
2114
2114
2112
2112
2112
2112
2112
2112
2118
2118
2118
2113
2113
2113
2109
2109
2109
2109
2114
2114
2114
2113
2113
2113
2116
2116
2116
2117
2117
2117
2111
2111
2111
2111
2114
2114
2114
2116
2116
2116
2113
2113
2113
2110
2110
2110
2111
2111
2111
2111
2103
2103
2103
2115
2115
2115
2113
2113
2113
2110
2110
2110
2113
2113
2113
2113
2110
2110
2110
2113
2113
2113
2116
2116
2116
2117
2117
2117
2120
2120
2120
2120
2113
2113
2113
2106
2106
2106
2114
2114
2114
2109
2109
2109
2107
2107
2107
2107
2112
2112
2112
2114
2114
2114
2113
2113
2113
2113
2113
2113
2114
2114
2114
2114
2109
2109
2109
2113
2113
2113
2116
2116
2116
2115
2115
2115
2113
2113
2113
2113
2115
2115
2115
2114
2114
2114
2110
2110
2110
2117
2117
2117
2115
2115
2115
2115
2110
2110
2110
2116
2116
2116
2110
2110
2110
2112
2112
2112
2112
2112
2112
2112
2111
2111
2111
2114
2114
2114
2113
2113
2113
2110
2110
2110
2114
2114
2114
2114
2109
2109
2109
2114
2114
2114
2113
2113
2113
2113
2113
2113
2115
2115
2115
2115
2115
2115
2115
2114
2114
2114
2112
2112
2112
2114
2114
2114
2119
2119
2119
2119
2110
2110
2110
2113
2113
2113
2111
2111
2111
2114
2114
2114
2109
2109
2109
2109
2112
2112
2112
2108
2108
2108
2110
2110
2110
2110
2110
2110
2114
2114
2114
2114
2116
2116
2116
2116
2116
2116
2111
2111
2111
2112
2112
2112
2111
2111
2111
2111
2112
2112
2112
2116
2116
2116
2108
2108
2108
2113
2113
2113
2112
2112
2112
2112
2114
2114
2114
2115
2115
2115
2113
2113
2113
2114
2114
2114
2109
2109
2109
2109
2114
2114
2114
2114
2114
2114
2112
2112
2112
2109
2109
2109
2117
2117
2117
2117
2110
2110
2110
2113
2113
2113
2114
2114
2114
2122
2122
2122
2113
2113
2113
2113
2114
2114
2114
2115
2115
2115
2114
2114
2114
2114
2114
2114
2115
2115
2115
2115
2112
2112
2112
2118
2118
2118
2113
2113
2113
2114
2114
2114
2108
2108
2108
2108
2112
2112
2112
2115
2115
2115
2113
2113
2113
2114
2114
2114
2110
2110
2110
2110
2112
2112
2112
2115
2115
2115
2115
2115
2115
2114
2114
2114
2112
2112
2112
2112
2110
2110
2110
2109
2109
2109
2112
2112
2112
2112
2112
2112
2114
2114
2114
2114
2112
2112
2112
2114
2114
2114
2116
2116
2116
2110
2110
2110
2112
2112
2112
2112
2111
2111
2111
2115
2115
2115
2118
2118
2118
2116
2116
2116
2111
2111
2111
2111
2112
2112
2112
2114
2114
2114
2119
2119
2119
2110
2110
2110
2110
2110
2110
2110
2116
2116
2116
2111
2111
2111
2108
2108
2108
2106
2106
2106
2115
2115
2115
2115
2110
2110
2110
2116
2116
2116
2112
2112
2112
2114
2114
2114
2113
2113
2113
2113
2111
2111
2111
2114
2114
2114
2114
2114
2114
2113
2113
2113
2109
2109
2109
2109
2114
2114
2114
2115
2115
2115
2115
2115
2115
2117
2117
2117
2114
2114
2114
2114
2110
2110
2110
2114
2114
2114
2107
2107
2107
2115
2115
2115
2113
2113
2113
2113
2114
2114
2114
2115
2115
2115
2113
2113
2113
2114
2114
2114
2108
2108
2108
2108
2113
2113
2113
2114
2114
2114
2113
2113
2113
2116
2116
2116
2113
2113
2113
2113
2112
2112
2112
2115
2115
2115
2116
2116
2116
2118
2118
2118
2111
2111
2111
2111
2112
2112
2112
2114
2114
2114
2115
2115
2115
2112
2112
2112
2114
2114
2114
2114
2110
2110
2110
2114
2114
2114
2114
2114
2114
2117
2117
2117
2111
2111
2111
2111
2113
2113
2113
2114
2114
2114
2117
2117
2117
2117
2117
2117
2112
2112
2112
2112
2113
2113
2113
2116
2116
2116
2113
2113
2113
2114
2114
2114
2111
2111
2111
2111
2115
2115
2115
2116
2116
2116
2113
2113
2113
2114
2114
2114
2110
2110
2110
2110
2109
2109
2109
2115
2115
2115
2116
2116
2116
2114
2114
2114
2115
2115
2115
2115
2116
2116
2116
2114
2114
2114
2114
2114
2114
2116
2116
2116
2110
2110
2110
2110
2109
2109
2109
2112
2112
2112
2113
2113
2113
2118
2118
2118
2118
2118
2118
2118
2113
2113
2113
2114
2114
2114
2114
2114
2114
2112
2112
2112
2108
2108
2108
2108
2115
2115
2115
2105
2105
2105
2113
2113
2113
2115
2115
2115
2111
2111
2111
2111
2116
2116
2116
2115
2115
2115
2109
2109
2109
2115
2115
2115
2111
2111
2111
2111
2113
2113
2113
2115
2115
2115
2107
2107
2107
2116
2116
2116
2114
2114
2114
2114
2113
2113
2113
2113
2113
2113
2116
2116
2116
2117
2117
2117
2115
2115
2115
2115
2110
2110
2110
2110
2110
2110
2111
2111
2111
2112
2112
2112
2111
2111
2111
2111
2114
2114
2114
2115
2115
2115
2112
2112
2112
2114
2114
2114
2110
2110
2110
2110
2111
2111
2111
2112
2112
2112
2112
2112
2112
2113
2113
2113
2124
2124
2124
2124
2113
2113
2113
2119
2119
2119
2114
2114
2114
2110
2110
2110
2115
2115
2115
2115
2113
2113
2113
2116
2116
2116
2117
2117
2117
2116
2116
2116
2114
2114
2114
2114
2114
2114
2114
2117
2117
2117
2119
2119
2119
2114
2114
2114
2113
2113
2113
2113
2114
2114
2114
2115
2115
2115
2112
2112
2112
2117
2117
2117
2113
2113
2113
2113
2110
2110
2110
2114
2114
2114
2116
2116
2116
2112
2112
2112
2106
2106
2106
2106
2115
2115
2115
2112
2112
2112
2113
2113
2113
2116
2116
2116
2119
2119
2119
2119
2113
2113
2113
2117
2117
2117
2117
2117
2117
2114
2114
2114
2107
2107
2107
2107
2114
2114
2114
2113
2113
2113
2115
2115
2115
2113
2113
2113
2112
2112
2112
2112
2113
2113
2113
2119
2119
2119
2111
2111
2111
2115
2115
